Health Facility Name,District_Name,Number_Of_Beds,Rating
PHSC Moirang Khunou,BISHNUPUR,160,5
PHSC Ithing Kholla,BISHNUPUR,73,2
PHSC Ithing Kholla,BISHNUPUR,55,10
PHSC L.phungchongjang,CHURACHANDPUR,189,4
PHSC Kullian,CHURACHANDPUR,104,8
PHSC G.Bualjang,CHURACHANDPUR,114,4
PHSC Kamong,IMPHAL WEST,61,4
PHSC Patbung,UKHRUL,178,4
PHC Sagang,CHURACHANDPUR,161,8
Heirok CHC,THOUBAL,53,8
Charangpat PHC,THOUBAL,198,1
PHSC Nganukon,BISHNUPUR,116,4
PHSC Thingra,TAMENGLONG ,124,4
PHC Chingai,UKHRUL,185,6
PHSC Naoriya Pakhanglakpa,IMPHAL WEST,156,6
PHSC Lamdeng,IMPHAL WEST,63,7
PHSC Sumchinvum,CHURACHANDPUR,186,3
PHC Noney,TAMENGLONG ,195,9
PHSC Nongchupkameng,IMPHAL WEST,157,10
PHSC Maram Khullen,SENAPATI,90,2
PHSC Kadangban,IMPHAL WEST,152,3
PHSC Uchiwa Turel Wangma,THOUBAL,155,1
PHSC Makhan Centre,SENAPATI,171,9
PHC-SC Henglep,CHURACHANDPUR,88,10
PHSC Paraolon,CHANDEL,123,4
PHSC Siden,CHURACHANDPUR,159,8
PHSC Atengba,TAMENGLONG ,122,9
PHSC Chahong Khullen,UKHRUL,106,5
PHSC Haoreibi Mayai Leikai,THOUBAL,155,6
PHSC Songphen Khullen,TAMENGLONG ,51,9
CHC Nungba,TAMENGLONG ,133,6
Yaingangpokpi PHC,IMPHAL EAST,184,3
Wangjing PHC,THOUBAL,87,8
PHC Phungyar,UKHRUL,113,2
PHSC Utlou,BISHNUPUR,86,6
PHSC Kangkum,UKHRUL,189,2
PHSC Pani Kheti,SENAPATI,129,1
PHSC Yurembam,IMPHAL WEST,82,8
PHSC Vaisiiichu,SENAPATI,149,9
PHSC Leimakhong,SENAPATI,94,4
PHSC Irengband Thoibi Bazar,THOUBAL,92,9
PHSC Khordak Ichin,BISHNUPUR,172,10
PHSC Langol,IMPHAL WEST,124,8
CHC Haoreibi Makha Leikai,THOUBAL,122,10
Singngat PHC,CHURACHANDPUR,166,7
PHSC Irom Meijrao,IMPHAL WEST,59,3
PHSC Uchiwa,IMPHAL WEST,184,7
Paomata PHC,SENAPATI,50,1
PHC Kwakta,BISHNUPUR,62,3
PHSC Thokchom Bengi,THOUBAL,88,6
PHSC Phoudel Keirambi,THOUBAL,68,2
PHSC Thinungei,BISHNUPUR,157,1
PHSC L. Khengjang,CHURACHANDPUR,175,5
PHSC Kabonram,TAMENGLONG ,133,6
Phaibung PHC,SENAPATI,96,9
PHSC Sanakeithel,UKHRUL,175,4
PHSC Durgapur,IMPHAL EAST,123,8
PHSC Milongmun,CHURACHANDPUR,106,7
PHSC Tungjoy,SENAPATI,198,4
PHSC Khangabok,THOUBAL,147,8
PHSC Awang Kumbi,BISHNUPUR,129,2
PHSC  Haoreibi Turel Ahanbi,THOUBAL,66,9
Oinam Hills PHC,SENAPATI,78,1
PHSC Waiton,IMPHAL EAST,145,10
PHSC Chothemunpi,CHURACHANDPUR,181,6
PHSC Leisen,CHURACHANDPUR,153,2
PHSC Mullam,UKHRUL,192,2
PHSC Saiton,BISHNUPUR,105,5
PHSC Mayang Langjing,IMPHAL WEST,129,5
PHSC Urup Salangpham,IMPHAL EAST,72,7
PHSC Khulsaibung,CHANDEL,181,5
Patpuihmun PHC,CHURACHANDPUR,181,7
PHSC Tentha,THOUBAL,62,8
PHSC Pushing,UKHRUL,75,4
PHSC Thoubal Khunou,THOUBAL,136,6
PHSC Waikhong,THOUBAL,83,4
PHSC Govindagram,IMPHAL WEST,58,5
PHSC New Lamka,CHURACHANDPUR,57,1
PHSC Tekcham,THOUBAL,131,3
PHC Sinzawl,CHURACHANDPUR,153,3
PHSC Khoijuman,BISHNUPUR,196,4
PHSC Laii Shirafii,SENAPATI,113,3
PHSC Sumtuh,CHURACHANDPUR,185,1
PHSC Thangal,TAMENGLONG ,113,3
PHSC Suangdoh Chehpu,CHURACHANDPUR,101,9
PHSC Maiba,SENAPATI,197,5
PHSC Chaobok Kabui,THOUBAL,75,8
PHC Leimapokpam,BISHNUPUR,195,1
PHSC Taobungkhok,IMPHAL WEST,170,1
PHSC Kachai,UKHRUL,136,1
PHSC Longpi,TAMENGLONG ,172,4
PHSC Bhutangkhal,IMPHAL EAST,92,10
PHSC Yumnam Khunou,IMPHAL EAST,50,8
PHSC Akhui,TAMENGLONG ,131,9
Tadubi PHC,SENAPATI,117,2
PHSC Awangkasom,UKHRUL,178,10
Khurkhul PHC,IMPHAL WEST,169,5
PHSC Tuolbung,CHURACHANDPUR,56,4
PHSC Lenglong,TAMENGLONG ,79,5
PHSC Khongshang,TAMENGLONG ,102,8
PHSC Arong Tera,THOUBAL,189,4
PHSC Hengbung,SENAPATI,111,10
PHC Tousem,TAMENGLONG ,135,6
PHSC Purul,SENAPATI,53,2
Wangoi CHC,IMPHAL WEST,130,5
PHSC Kolhen,CHURACHANDPUR,155,2
PHSC Moirangkampu,IMPHAL EAST,172,9
UHC Ningomthongjao,IMPHAL EAST,176,4
PHSC Saibol Joupi,CHANDEL,191,3
PHC Kumbi,BISHNUPUR,108,8
PHSC Nachou,BISHNUPUR,68,5
PHSC Wainem,SENAPATI,135,7
PHSC Maibam Konjin,THOUBAL,195,8
PHSC Heigrujam,IMPHAL WEST,115,6
PHSC Purum Tampak,CHANDEL,95,6
PHSC Tengdongyan,IMPHAL WEST,72,10
PHSC Keibul,BISHNUPUR,117,5
PHSC Mayeng Lamjao,THOUBAL,113,6
PHC Khonghampat,IMPHAL WEST,72,7
PHSC Sorbung,UKHRUL,199,10
PHSC Longkaiphun,TAMENGLONG ,183,6
PHSC Nungkao,TAMENGLONG ,61,9
PHSC Phaogakchao Ithai,BISHNUPUR,171,1
PHSC Tellou Chana,IMPHAL EAST,60,7
PHSC Elangkhangpokpi,THOUBAL,191,10
PHSC Bukpi,CHURACHANDPUR,131,6
PHSC Lisamlok,THOUBAL,168,9
PHSC Solitokho,SENAPATI,115,5
PHC Karang,BISHNUPUR,136,7
PHSC Waisel Mapal,IMPHAL WEST,146,2
PHSC Chirai,IMPHAL WEST,166,10
PHSC Iram Siphai,IMPHAL WEST,63,5
PHSC New Keiphundai,TAMENGLONG ,154,4
PHSC Langol Tarung,IMPHAL WEST,64,7
PHSC Phaibuong,CHURACHANDPUR,112,5
PHSC Songtal,CHURACHANDPUR,196,7
PHSC Takyel Khongbal,IMPHAL WEST,81,2
PHSC Chairen Leingangtabi,BISHNUPUR,140,3
PHSC Wairangba,TAMENGLONG ,177,8
Sawombung PHC,IMPHAL EAST,136,9
Sagolmang CHC,IMPHAL EAST,87,6
PHSC Khurai Heinoumakhong,IMPHAL EAST,101,6
Mekola PHC,IMPHAL WEST,79,4
PHSC Khonomphai,CHURACHANDPUR,109,5
PHSC Pukhrambam,BISHNUPUR,93,2
PHSC Kabowakching,BISHNUPUR,136,6
Akampat PHC,IMPHAL EAST,95,6
PHSC Ramlung,SENAPATI,51,9
UHC Kshetrigao,IMPHAL EAST,176,4
PHSC Mata,CHURACHANDPUR,155,2
PHSC Shingcha,UKHRUL,108,10
Khoirom PHC,THOUBAL,130,10
Henglep PHC,CHURACHANDPUR,142,5
PHSC Chandrakhong,THOUBAL,97,2
PHSC Kongba,IMPHAL EAST,101,7
PHSC Lamlang Gate,UKHRUL,141,8
PHSC Lungthulien,CHURACHANDPUR,111,10
PHSC Kwakeithel Heinou Khongnembi,IMPHAL WEST,97,2
PHSC Ukhongsang,THOUBAL,69,1
PHSC Kashimpur,IMPHAL EAST,164,8
PHC Behiang,CHURACHANDPUR,166,10
Dispensory Konjeng Leikai(Homeo),IMPHAL WEST,106,3
PHSC Moijing,THOUBAL,156,6
PHSC Oksu,IMPHAL EAST,174,2
PHSC Seijang,IMPHAL EAST,167,4
PHSC Khekman,THOUBAL,160,8
PHSC Teinem,UKHRUL,84,8
PHSC Bungpilon,CHURACHANDPUR,165,2
PHSC Dailong,TAMENGLONG ,135,8
PHSC Nongren,IMPHAL EAST,69,5
Thoubal District Hospital,THOUBAL,136,5
PHSC Pombikhok,BISHNUPUR,108,6
PHSC Uchekon,IMPHAL EAST,54,10
Bishnupur District Hospital,BISHNUPUR,134,1
PHSC Ningthi,UKHRUL,82,3
PHC Jessami,UKHRUL,108,8
PHC Oinamlong,TAMENGLONG ,109,3
Nongpok Sekmai PHC,THOUBAL,88,9
PHC Lambui,UKHRUL,115,9
PHSC Rajaimei,SENAPATI,99,8
PHSC Senpangjar,CHURACHANDPUR,161,2
PHSC Awangkhul,TAMENGLONG ,99,6
PHSC Keirao Wangkhem,IMPHAL EAST,70,9
PHC Borobekra,IMPHAL EAST,177,5
PHSC Pearsonmun,CHURACHANDPUR,150,6
Senvon PHC,CHURACHANDPUR,94,5
PHSC Achanbigei,IMPHAL EAST,76,4
PHSC Langthabal Phuramakhong,IMPHAL WEST,198,8
PHSC Sainoujang,CHURACHANDPUR,135,5
PHSC Makeng Chenglou,IMPHAL EAST,169,9
PHSC Lilong Chajing,IMPHAL WEST,193,1
Kakching Khunou PHC,THOUBAL,122,1
PHSC Thingba Khunou,SENAPATI,96,5
PHSC Maklang,IMPHAL WEST,68,3
PHSC Khoirentak,CHURACHANDPUR,111,10
PHSC Maram Khunou,SENAPATI,164,4
PHSC Makui,SENAPATI,168,6
PHSC Keinou,BISHNUPUR,133,7
PHSC Songjang,CHANDEL,184,1
PHSC Athokpam,THOUBAL,101,2
UHCThoubal,THOUBAL,66,1
Maram PHC,SENAPATI,52,2
Kalapahar PHC,SENAPATI,154,4
PHSC Sehlon,CHANDEL,77,4
PHSC Hiangmual,CHURACHANDPUR,146,3
PHSC Awang Wabagai,IMPHAL WEST,180,1
PHSC Leirongthel Malom,THOUBAL,77,8
PHSC Tonakangjeibung,BISHNUPUR,116,3
PHSC Sangaipat,IMPHAL EAST,171,6
PHSC Kumbipukhri,CHURACHANDPUR,87,4
PHSC Khurai Sajor Leikai,IMPHAL EAST,76,1
Wangoo Laipham PHC,THOUBAL,136,3
Khumbong PHC,IMPHAL WEST,189,6
PHSC Mongkot Chepu,UKHRUL,100,9
CHC Moirang,BISHNUPUR,88,7
PHSC Samusang,IMPHAL WEST,186,8
PHSC Tuilaphai,CHURACHANDPUR,75,4
PHSC Thiwa,SENAPATI,80,6
PHSC Khudei Khunou,CHANDEL,199,7
PHSC Keikol,IMPHAL EAST,88,2
PHC Khongdei,SENAPATI,57,10
PHSC Wangoo Ahallup,BISHNUPUR,51,3
PHSC Kha Thinungei,BISHNUPUR,183,8
Heingang PHC,IMPHAL EAST,136,10
PHSC Ngampabung,CHURACHANDPUR,120,3
PHSC Nambisha,UKHRUL,109,8
PHSC Tronglaobi,BISHNUPUR,115,10
Yairipok CHC,THOUBAL,168,9
PHSC Poi,UKHRUL,73,6
PHSC Willong,SENAPATI,127,8
PHSC Irilbung,IMPHAL EAST,83,9
PHSC Tokpa Khunou,CHURACHANDPUR,133,7
Laii PHC,SENAPATI,168,2
PHSC Gallon,TAMENGLONG ,134,10
Keirao Makting PHC,IMPHAL EAST,160,4
PHSC Parvachom,CHURACHANDPUR,174,8
PHSC Tuikuimuallum,CHURACHANDPUR,176,9
PHSC Manedara,SENAPATI,164,6
PHSC Bamdiar,IMPHAL WEST,156,1
PHSC Naharup Makhapat,IMPHAL EAST,82,1
PHC Sibapurikhal,CHURACHANDPUR,56,9
PHSC Ngaikhong Khullen,BISHNUPUR,93,3
PHSC Khurai Heikrumakhong,IMPHAL EAST,70,3
PHC Oinam,BISHNUPUR,125,2
PHSC Phumlou,IMPHAL WEST,197,6
PHSC Kairang Meitei,IMPHAL EAST,134,5
PHC Ningthoukhong,BISHNUPUR,156,2
PHSC Bunglon,CHURACHANDPUR,80,5
PHSC Ngaikhong Khunou,BISHNUPUR,122,2
Sekmai CHC,IMPHAL WEST,99,8
PHSC Koide,SENAPATI,180,7
PHSC Ningombam,IMPHAL WEST,199,8
PHSC Laphupat Tera,IMPHAL WEST,173,8
Sekmaijin PHC,IMPHAL WEST,103,10
Tengnoupal PHC,CHANDEL,72,1
PHSC Keithelmanbi,SENAPATI,147,3
PHSC Khamson,SENAPATI,121,9
PHSC Wabagai,THOUBAL,75,6
PHSC Chingkhu Sambei,IMPHAL EAST,79,3
PHSC Allusingtam,CHURACHANDPUR,197,5
PHSC Khongnangpokpi,SENAPATI,66,5
PHSC Naorem Chaprou,IMPHAL WEST,177,9
PHSC Wangoo Sandangkhong,BISHNUPUR,194,1
PHC Khangkhui Khullen,UKHRUL,60,8
PHSC Sahamphung,UKHRUL,85,5
PHSC Phuballa,BISHNUPUR,68,7
PHSC New Tusom,UKHRUL,91,5
PHSC Sagolband Lamkhai,IMPHAL WEST,99,4
PHSC Aibulon,CHURACHANDPUR,111,6
PHSC Aben,TAMENGLONG ,150,7
Samurou PHC,IMPHAL WEST,93,6
PHSC Sangaiprou,IMPHAL WEST,99,5
PHC Motbung,SENAPATI,179,9
PHSC Salam,IMPHAL WEST,118,3
PHSC Tinsuong,CHURACHANDPUR,145,8
PHSC Kiyamgei Muslim,IMPHAL EAST,147,4
PHSC Lungthul (E),CHURACHANDPUR,82,5
PHSC Mantak,THOUBAL,115,3
PHSC Ishok,BISHNUPUR,59,7
PHSC Karam Haoreibi,IMPHAL WEST,159,6
PHSC Gularthol,IMPHAL EAST,59,4
PHSC Minuthong,IMPHAL EAST,160,2
PHSC Kairang Muslim,IMPHAL EAST,86,3
PHSC Nungnang,TAMENGLONG ,175,7
PHSC Thonglan Akutpa,SENAPATI,92,10
Andro PHC,IMPHAL EAST,179,1
PHSC Laipham Khunou,IMPHAL EAST,85,4
PHSC Luwangsangbam,IMPHAL EAST,136,8
PHSC Angtha,IMPHAL EAST,134,7
PHSC Chingmun,CHURACHANDPUR,110,2
PHSC Khabeisoi,IMPHAL EAST,120,6
PHSC Nungleiband,TAMENGLONG ,144,9
PHSC Shangshak,UKHRUL,195,10
PHSC L. Alpha,CHURACHANDPUR,191,8
PHSC Yumnam Huidrom,IMPHAL WEST,111,1
PHSC Uchekon Laikon,IMPHAL EAST,101,7
PHSC Suangdoh,CHURACHANDPUR,63,6
PHSC Sajik Tampak,CHANDEL,58,8
PHSC Lamlai Khunou,UKHRUL,78,5
PHSC Irong Chesaba,THOUBAL,175,4
PHSC Wangkhem,THOUBAL,164,9
PHSC Iroisemba,IMPHAL WEST,140,4
Bashikhong PHC,IMPHAL EAST,108,8
Hiyanglam PHC,THOUBAL,55,6
PHSC Namtiram,TAMENGLONG ,106,1
PHSC Buangmun,CHURACHANDPUR,191,8
PHSC Irengbam,BISHNUPUR,124,10
PHSC Kshetri Leikai Moirangpurel,THOUBAL,195,10
PHC Gamphazol,SENAPATI,101,4
PHSC Ngarian,CHURACHANDPUR,82,4
Ukhrul District Hospital,UKHRUL,132,5
PHSC Naranseina,BISHNUPUR,58,1
PHSC Santhel Lital Makhong,THOUBAL,193,1
PHSC Toubul,BISHNUPUR,189,3
PHSC Thambalkhong,IMPHAL EAST,118,2
PHSC Dailon,CHURACHANDPUR,118,10
PHSC Kiyam Litanpok,THOUBAL,167,5
PHC Somdal,UKHRUL,80,3
Kangpokpi CHC,SENAPATI,80,3
PHSC Langmeidong,THOUBAL,108,1
PHSC Lamzang,CHURACHANDPUR,115,3
PHSC Ngari,SENAPATI,102,2
PHSC Pherzawl,CHURACHANDPUR,54,9
PHSC Malom Tuliyaima,IMPHAL WEST,156,4
PHSC Irong Khunou,THOUBAL,105,8
PHSC Kiyamgei Khagi Bazar,IMPHAL EAST,133,8
PHSC Punanamai,SENAPATI,169,4
CHC Kamjong,UKHRUL,84,4
PHSC Khaukual,CHURACHANDPUR,149,6
Nongpok Keithelmanbi PHC,IMPHAL EAST,96,4
PHSC Tarao Laimanai,CHANDEL,168,8
PHSC Heibong Makhong,THOUBAL,115,6
PHSC Khamnam Bazar,IMPHAL WEST,140,6
PHSC Lakhamai,SENAPATI,76,2
PHSC Kanglatombi,IMPHAL WEST,91,6
PHSC Nongchup Keithelmanbi,IMPHAL WEST,75,1
PHSC Top Chingtha,IMPHAL EAST,172,2
PHSC Konthoujam,IMPHAL WEST,103,1
PHSC T. Khullen,SENAPATI,60,7
PHSC Kangchup Chiru,SENAPATI,60,9
PHSC Mongsangei,IMPHAL WEST,177,9
PHSC Nrianglong,TAMENGLONG ,137,7
PHSC Keibi,IMPHAL EAST,157,4
PHSC Saipum,CHURACHANDPUR,184,5
PHSC Sanjenbam,BISHNUPUR,167,2
PHSC Molvailup,UKHRUL,136,9
Pallel PHC,THOUBAL,85,3
PHSC Waithou Chiroo,IMPHAL EAST,51,10
PHSC Thoubal Wangmataba,THOUBAL,144,5
PHC Thanga,BISHNUPUR,132,5
Sugnu CHC,THOUBAL,195,6
PHC Khoupum,TAMENGLONG ,74,3
PHSC Chongdan,UKHRUL,158,6
PHSC Dolang,TAMENGLONG ,155,8
PHSC Phailienthangpunji,CHURACHANDPUR,133,7
PHSC Nungshai,CHURACHANDPUR,162,3
Yambem PHC,IMPHAL EAST,92,2
T Waichong PHC,SENAPATI,131,3
PHSC Makhan,SENAPATI,51,3
PHSC Leimaram,BISHNUPUR,59,2
Thanlon PHC,CHURACHANDPUR,103,9
PHSC Oklong,SENAPATI,190,7
PHSC Parsain,SENAPATI,50,4
PHSC Langathel,THOUBAL,69,9
PHSC Nungei,THOUBAL,183,8
PHSC Mawai,UKHRUL,171,2
PHSC Khabeisoi,IMPHAL EAST,96,3
PHSC Dolangkhunou,SENAPATI,196,3
PHSC Waithou,THOUBAL,78,10
Khongjom PHC,THOUBAL,151,10
Lamlai PHC,IMPHAL EAST,154,5
PHSC Phundrei,THOUBAL,140,8
PHC Kasom Khullen,UKHRUL,153,9
PHC Tolloi,UKHRUL,125,5
PHSC Tangkhul Hundung,UKHRUL,90,2
PHSC Grihang,UKHRUL,125,2
UPHC Phouden,THOUBAL,181,5
PHSC Khunbi,CHANDEL,85,4
Kiyam Litanpok,THOUBAL,163,3
PHSC T. Khuangkhai,CHURACHANDPUR,158,9
PHSC Pudunamai,SENAPATI,122,6
PHSC Shajouba,SENAPATI,116,3
PHSC Chaton,TAMENGLONG ,97,6
PHSC Pangaltabi,THOUBAL,87,1
PHSC Rengkai,CHURACHANDPUR,115,7
PHSC Kharasom,UKHRUL,159,9
PHSC Haorang Sabal,IMPHAL WEST,54,7
PHSC Sorde,UKHRUL,134,2
PHSC Sekta,IMPHAL EAST,154,5
PHC Tamei,TAMENGLONG ,128,3
PHSC Changangei,IMPHAL WEST,139,9
PHSC Charoipandongba,SENAPATI,142,2
PHSC Maku,UKHRUL,75,8
Saikot PHC,CHURACHANDPUR,76,1
PHSC Tuining,CHURACHANDPUR,139,5
PHSC Ukha Loikhai,CHURACHANDPUR,129,4
PHC Haochong,TAMENGLONG ,199,6
PHSC Karong,SENAPATI,148,2
PHSC Jakuradhor,IMPHAL EAST,87,8
PHSC Tobumai,SENAPATI,156,3
PHSC Salungpham,THOUBAL,187,9
PHSC Tongou,UKHRUL,156,6
Churachandpur District Hospital,CHURACHANDPUR,113,5
PHSC Chanam Sandrok,IMPHAL EAST,85,7
PHSC Naibet,SENAPATI,160,6
PHSC Phungcham,UKHRUL,88,9
PHSC Luwanglong Khunou,TAMENGLONG ,50,3
PHSC Kaihlam,CHURACHANDPUR,77,7
PHSC Tingsong,SENAPATI,87,4
PHSC Geljang,CHURACHANDPUR,81,2
CHC Nambol,BISHNUPUR,67,6
PHSC Sangaiyumpham,THOUBAL,108,4
Jiribam CHC,IMPHAL EAST,95,1
PHSC Mission Compound,CHURACHANDPUR,178,5
PHSC Siroy,UKHRUL,116,9
PHSC Liyai,SENAPATI,51,4
PHSC Nungbi Khullen,UKHRUL,94,10
PHSC Tuaitengphai,CHURACHANDPUR,90,4
PHSC Lairouching,SENAPATI,139,4
PHSC Moirangpurel,IMPHAL EAST,187,4
Kakching CHC,THOUBAL,197,8
PHSC Sirarakhong,UKHRUL,170,6
PHSC Nungoo Chairel,THOUBAL,87,3
PHSC Thokchom Bengi,THOUBAL,81,7
PHSC Awang Jiri,IMPHAL WEST,57,7
PHSC Muktikhullen,TAMENGLONG ,131,3
PHSC Thoubal Ningombam,THOUBAL,146,6
PHSC Khoirom Kekru,THOUBAL,59,4
Mao CHC,SENAPATI,137,7
Leisangthem PHC,THOUBAL,89,10
UPHC Mantripukhri,IMPHAL EAST,93,1
PHSC Shingkap,UKHRUL,185,7
PHSC Sanjenbam,IMPHAL EAST,140,10
PHSC Leisang,CHURACHANDPUR,120,10
Mayang Imphal PHC,IMPHAL WEST,50,9
PHSC Thongam,THOUBAL,175,7
PHSC Bengoon,IMPHAL WEST,185,6
PHSC Keirak Kangjeibung,THOUBAL,142,3
PHSC Taobam,TAMENGLONG ,158,8
Serou PHC,THOUBAL,195,5
PHSC Khurai Laiwangma,IMPHAL EAST,134,5
PHSC Khabi Thangtek,IMPHAL WEST,158,3
Machi PHC,CHANDEL,169,4
PHSC Kangkap,CHURACHANDPUR,93,3
PHSC Langthabal Kunja,IMPHAL WEST,103,7
PHSC Kokchai,IMPHAL WEST,94,8
PHSC Chandranathpur,IMPHAL EAST,67,7
PHSC Hanship,CHURACHANDPUR,89,1
PHSC Oinam Sawombung,THOUBAL,98,4
PHSC Sipuikon,CHURACHANDPUR,143,8
PHSC Takhel,IMPHAL EAST,170,7
PHSC Kotlen,SENAPATI,112,1
PHSC Sora,THOUBAL,178,3
PHSC Phuba,SENAPATI,142,2
CHC Parbung,CHURACHANDPUR,58,10
PHSC Komlakhong,IMPHAL WEST,141,3
PHSC Kangla Siphai,IMPHAL EAST,168,2
PHSC Sonpram,TAMENGLONG ,93,3
PHSC Charoikhullen,CHURACHANDPUR,150,7
PHSC Hiyangthang,IMPHAL WEST,171,6
PHSC Hiangtam K,CHURACHANDPUR,170,3
PHSC Naorem,BISHNUPUR,171,7
"District Hospital, Tamenglong",TAMENGLONG ,112,3
PHC Zezaw,CHURACHANDPUR,119,4
PHSC Lairam Khullen,UKHRUL,143,5
PHSC Kharkhuplien,CHURACHANDPUR,135,8
PHSC Kangreng,CHURACHANDPUR,130,10
PHSC Mapum,UKHRUL,60,6
PHSC Mutum Phibou,IMPHAL WEST,198,7
PHSC Kom Keirap,CHURACHANDPUR,197,8
Kakwa PHC,IMPHAL WEST,113,5
PHSC Leiting,UKHRUL,107,10
PHSC Thingkangphai,CHURACHANDPUR,171,10
PHSC Taningjam,TAMENGLONG ,141,2
Lilong PHC,THOUBAL,159,4
PHSC Lhungphou,SENAPATI,197,8
PHSC Leisan,UKHRUL,109,5
PHSC Huikap,IMPHAL EAST,99,9
Phayeng PHC,IMPHAL WEST,55,2
PHSC Mualnuam,CHURACHANDPUR,188,3
PHSC Thingkeu,CHURACHANDPUR,151,2
PHSC Santing,CHURACHANDPUR,134,2
PHSC Leirongthel Pitra,THOUBAL,175,6
PHSC Ithai,BISHNUPUR,195,10
PHSC Moirang Khunou,BISHNUPUR,183,4
PHSC Ithing Kholla,BISHNUPUR,190,6
PHSC Ithing Kholla,BISHNUPUR,138,9
PHSC L.phungchongjang,CHURACHANDPUR,132,3
PHSC Kullian,CHURACHANDPUR,131,10
PHSC G.Bualjang,CHURACHANDPUR,186,4
PHSC Kamong,IMPHAL WEST,54,1
PHSC Patbung,UKHRUL,100,6
PHC Sagang,CHURACHANDPUR,59,2
Heirok CHC,THOUBAL,54,5
Charangpat PHC,THOUBAL,147,8
PHSC Nganukon,BISHNUPUR,113,3
PHSC Thingra,TAMENGLONG ,185,7
PHC Chingai,UKHRUL,179,3
PHSC Naoriya Pakhanglakpa,IMPHAL WEST,176,10
PHSC Lamdeng,IMPHAL WEST,91,4
PHSC Sumchinvum,CHURACHANDPUR,101,6
PHC Noney,TAMENGLONG ,82,2
PHSC Nongchupkameng,IMPHAL WEST,61,4
PHSC Maram Khullen,SENAPATI,132,7
PHSC Kadangban,IMPHAL WEST,175,1
PHSC Uchiwa Turel Wangma,THOUBAL,137,7
PHSC Makhan Centre,SENAPATI,135,3
PHC-SC Henglep,CHURACHANDPUR,175,4
PHSC Paraolon,CHANDEL,186,10
PHSC Siden,CHURACHANDPUR,170,7
PHSC Atengba,TAMENGLONG ,161,6
PHSC Chahong Khullen,UKHRUL,144,2
PHSC Haoreibi Mayai Leikai,THOUBAL,169,4
PHSC Songphen Khullen,TAMENGLONG ,75,1
CHC Nungba,TAMENGLONG ,90,5
Yaingangpokpi PHC,IMPHAL EAST,164,6
Wangjing PHC,THOUBAL,64,3
PHC Phungyar,UKHRUL,190,1
PHSC Utlou,BISHNUPUR,195,6
PHSC Kangkum,UKHRUL,136,6
PHSC Pani Kheti,SENAPATI,78,6
PHSC Yurembam,IMPHAL WEST,50,1
PHSC Vaisiiichu,SENAPATI,134,9
PHSC Leimakhong,SENAPATI,179,7
PHSC Irengband Thoibi Bazar,THOUBAL,184,5
PHSC Khordak Ichin,BISHNUPUR,51,6
PHSC Langol,IMPHAL WEST,135,8
CHC Haoreibi Makha Leikai,THOUBAL,105,9
Singngat PHC,CHURACHANDPUR,157,10
PHSC Irom Meijrao,IMPHAL WEST,133,6
PHSC Uchiwa,IMPHAL WEST,132,9
Paomata PHC,SENAPATI,95,5
PHC Kwakta,BISHNUPUR,184,10
PHSC Thokchom Bengi,THOUBAL,194,8
PHSC Phoudel Keirambi,THOUBAL,68,8
PHSC Thinungei,BISHNUPUR,182,9
PHSC L. Khengjang,CHURACHANDPUR,158,4
PHSC Kabonram,TAMENGLONG ,150,10
Phaibung PHC,SENAPATI,94,7
PHSC Sanakeithel,UKHRUL,106,2
PHSC Durgapur,IMPHAL EAST,141,10
PHSC Milongmun,CHURACHANDPUR,171,6
PHSC Tungjoy,SENAPATI,54,2
PHSC Khangabok,THOUBAL,62,4
PHSC Awang Kumbi,BISHNUPUR,77,2
PHSC  Haoreibi Turel Ahanbi,THOUBAL,87,5
Oinam Hills PHC,SENAPATI,186,5
PHSC Waiton,IMPHAL EAST,141,9
PHSC Chothemunpi,CHURACHANDPUR,199,3
PHSC Leisen,CHURACHANDPUR,158,6
PHSC Mullam,UKHRUL,94,8
PHSC Saiton,BISHNUPUR,95,9
PHSC Mayang Langjing,IMPHAL WEST,69,6
PHSC Urup Salangpham,IMPHAL EAST,120,1
PHSC Khulsaibung,CHANDEL,94,1
Patpuihmun PHC,CHURACHANDPUR,144,4
PHSC Tentha,THOUBAL,174,10
PHSC Pushing,UKHRUL,61,9
PHSC Thoubal Khunou,THOUBAL,124,3
PHSC Waikhong,THOUBAL,175,1
PHSC Govindagram,IMPHAL WEST,130,4
PHSC New Lamka,CHURACHANDPUR,122,6
PHSC Tekcham,THOUBAL,121,10
PHC Sinzawl,CHURACHANDPUR,99,1
PHSC Khoijuman,BISHNUPUR,59,6
PHSC Laii Shirafii,SENAPATI,180,1
PHSC Sumtuh,CHURACHANDPUR,87,4
PHSC Thangal,TAMENGLONG ,188,3
PHSC Suangdoh Chehpu,CHURACHANDPUR,198,8
PHSC Maiba,SENAPATI,171,7
PHSC Chaobok Kabui,THOUBAL,128,2
PHC Leimapokpam,BISHNUPUR,146,3
PHSC Taobungkhok,IMPHAL WEST,63,2
PHSC Kachai,UKHRUL,151,3
PHSC Longpi,TAMENGLONG ,115,3
PHSC Bhutangkhal,IMPHAL EAST,79,2
PHSC Yumnam Khunou,IMPHAL EAST,159,6
PHSC Akhui,TAMENGLONG ,140,1
Tadubi PHC,SENAPATI,58,1
PHSC Awangkasom,UKHRUL,86,9
Khurkhul PHC,IMPHAL WEST,169,2
PHSC Tuolbung,CHURACHANDPUR,98,2
PHSC Lenglong,TAMENGLONG ,184,8
PHSC Khongshang,TAMENGLONG ,196,9
PHSC Arong Tera,THOUBAL,81,4
PHSC Hengbung,SENAPATI,152,3
PHC Tousem,TAMENGLONG ,185,10
PHSC Purul,SENAPATI,130,6
Wangoi CHC,IMPHAL WEST,116,10
PHSC Kolhen,CHURACHANDPUR,142,5
PHSC Moirangkampu,IMPHAL EAST,138,5
UHC Ningomthongjao,IMPHAL EAST,176,7
PHSC Saibol Joupi,CHANDEL,193,2
PHC Kumbi,BISHNUPUR,191,1
PHSC Nachou,BISHNUPUR,142,10
PHSC Wainem,SENAPATI,119,5
PHSC Maibam Konjin,THOUBAL,111,1
PHSC Heigrujam,IMPHAL WEST,150,5
PHSC Purum Tampak,CHANDEL,197,10
PHSC Tengdongyan,IMPHAL WEST,151,9
PHSC Keibul,BISHNUPUR,57,9
PHSC Mayeng Lamjao,THOUBAL,96,9
PHC Khonghampat,IMPHAL WEST,131,7
PHSC Sorbung,UKHRUL,183,10
PHSC Longkaiphun,TAMENGLONG ,82,2
PHSC Nungkao,TAMENGLONG ,62,7
PHSC Phaogakchao Ithai,BISHNUPUR,77,7
PHSC Tellou Chana,IMPHAL EAST,136,3
PHSC Elangkhangpokpi,THOUBAL,92,4
PHSC Bukpi,CHURACHANDPUR,57,4
PHSC Lisamlok,THOUBAL,93,6
PHSC Solitokho,SENAPATI,84,2
PHC Karang,BISHNUPUR,123,8
PHSC Waisel Mapal,IMPHAL WEST,79,3
PHSC Chirai,IMPHAL WEST,80,10
PHSC Iram Siphai,IMPHAL WEST,162,4
PHSC New Keiphundai,TAMENGLONG ,150,10
PHSC Langol Tarung,IMPHAL WEST,87,7
PHSC Phaibuong,CHURACHANDPUR,82,2
PHSC Songtal,CHURACHANDPUR,160,5
PHSC Takyel Khongbal,IMPHAL WEST,121,8
PHSC Chairen Leingangtabi,BISHNUPUR,147,8
PHSC Wairangba,TAMENGLONG ,73,10
Sawombung PHC,IMPHAL EAST,141,6
Sagolmang CHC,IMPHAL EAST,68,2
PHSC Khurai Heinoumakhong,IMPHAL EAST,102,6
Mekola PHC,IMPHAL WEST,159,5
PHSC Khonomphai,CHURACHANDPUR,53,3
PHSC Pukhrambam,BISHNUPUR,123,3
PHSC Kabowakching,BISHNUPUR,183,9
Akampat PHC,IMPHAL EAST,172,1
PHSC Ramlung,SENAPATI,136,1
UHC Kshetrigao,IMPHAL EAST,182,1
PHSC Mata,CHURACHANDPUR,119,5
PHSC Shingcha,UKHRUL,121,9
Khoirom PHC,THOUBAL,187,10
Henglep PHC,CHURACHANDPUR,78,5
PHSC Chandrakhong,THOUBAL,59,7
PHSC Kongba,IMPHAL EAST,134,10
PHSC Lamlang Gate,UKHRUL,193,4
PHSC Lungthulien,CHURACHANDPUR,81,10
PHSC Kwakeithel Heinou Khongnembi,IMPHAL WEST,147,1
PHSC Ukhongsang,THOUBAL,87,7
PHSC Kashimpur,IMPHAL EAST,146,7
PHC Behiang,CHURACHANDPUR,164,2
Dispensory Konjeng Leikai(Homeo),IMPHAL WEST,144,7
PHSC Moijing,THOUBAL,99,7
PHSC Oksu,IMPHAL EAST,155,2
PHSC Seijang,IMPHAL EAST,170,2
PHSC Khekman,THOUBAL,198,5
PHSC Teinem,UKHRUL,83,10
PHSC Bungpilon,CHURACHANDPUR,121,9
PHSC Dailong,TAMENGLONG ,143,3
PHSC Nongren,IMPHAL EAST,129,9
Thoubal District Hospital,THOUBAL,150,8
PHSC Pombikhok,BISHNUPUR,141,6
PHSC Uchekon,IMPHAL EAST,167,6
Bishnupur District Hospital,BISHNUPUR,117,2
PHSC Ningthi,UKHRUL,128,8
PHC Jessami,UKHRUL,90,2
PHC Oinamlong,TAMENGLONG ,145,3
Nongpok Sekmai PHC,THOUBAL,178,5
PHC Lambui,UKHRUL,159,9
PHSC Rajaimei,SENAPATI,86,9
PHSC Senpangjar,CHURACHANDPUR,127,2
PHSC Awangkhul,TAMENGLONG ,155,1
PHSC Keirao Wangkhem,IMPHAL EAST,148,5
PHC Borobekra,IMPHAL EAST,172,6
PHSC Pearsonmun,CHURACHANDPUR,75,8
Senvon PHC,CHURACHANDPUR,125,2
PHSC Achanbigei,IMPHAL EAST,92,10
PHSC Langthabal Phuramakhong,IMPHAL WEST,133,7
PHSC Sainoujang,CHURACHANDPUR,50,9
PHSC Makeng Chenglou,IMPHAL EAST,183,9
PHSC Lilong Chajing,IMPHAL WEST,119,5
Kakching Khunou PHC,THOUBAL,132,10
PHSC Thingba Khunou,SENAPATI,87,8
PHSC Maklang,IMPHAL WEST,112,3
PHSC Khoirentak,CHURACHANDPUR,96,10
PHSC Maram Khunou,SENAPATI,70,8
PHSC Makui,SENAPATI,199,4
PHSC Keinou,BISHNUPUR,143,1
PHSC Songjang,CHANDEL,183,8
PHSC Athokpam,THOUBAL,96,3
UHCThoubal,THOUBAL,98,5
Maram PHC,SENAPATI,180,3
Kalapahar PHC,SENAPATI,173,9
PHSC Sehlon,CHANDEL,57,3
PHSC Hiangmual,CHURACHANDPUR,123,8
PHSC Awang Wabagai,IMPHAL WEST,133,6
PHSC Leirongthel Malom,THOUBAL,116,4
PHSC Tonakangjeibung,BISHNUPUR,131,5
PHSC Sangaipat,IMPHAL EAST,55,10
PHSC Kumbipukhri,CHURACHANDPUR,180,4
PHSC Khurai Sajor Leikai,IMPHAL EAST,90,7
Wangoo Laipham PHC,THOUBAL,67,4
Khumbong PHC,IMPHAL WEST,91,2
PHSC Mongkot Chepu,UKHRUL,68,8
CHC Moirang,BISHNUPUR,182,1
PHSC Samusang,IMPHAL WEST,181,9
PHSC Tuilaphai,CHURACHANDPUR,75,6
PHSC Thiwa,SENAPATI,198,3
PHSC Khudei Khunou,CHANDEL,77,9
PHSC Keikol,IMPHAL EAST,178,4
PHC Khongdei,SENAPATI,117,6
PHSC Wangoo Ahallup,BISHNUPUR,74,6
PHSC Kha Thinungei,BISHNUPUR,132,4
Heingang PHC,IMPHAL EAST,154,9
PHSC Ngampabung,CHURACHANDPUR,127,9
PHSC Nambisha,UKHRUL,141,8
PHSC Tronglaobi,BISHNUPUR,136,10
Yairipok CHC,THOUBAL,153,8
PHSC Poi,UKHRUL,189,8
PHSC Willong,SENAPATI,133,7
PHSC Irilbung,IMPHAL EAST,185,10
PHSC Tokpa Khunou,CHURACHANDPUR,124,1
Laii PHC,SENAPATI,107,8
PHSC Gallon,TAMENGLONG ,89,10
Keirao Makting PHC,IMPHAL EAST,140,7
PHSC Parvachom,CHURACHANDPUR,166,1
PHSC Tuikuimuallum,CHURACHANDPUR,78,1
PHSC Manedara,SENAPATI,139,7
PHSC Bamdiar,IMPHAL WEST,181,8
PHSC Naharup Makhapat,IMPHAL EAST,144,4
PHC Sibapurikhal,CHURACHANDPUR,83,6
PHSC Ngaikhong Khullen,BISHNUPUR,61,2
PHSC Khurai Heikrumakhong,IMPHAL EAST,135,8
PHC Oinam,BISHNUPUR,59,7
PHSC Phumlou,IMPHAL WEST,73,9
PHSC Kairang Meitei,IMPHAL EAST,155,1
PHC Ningthoukhong,BISHNUPUR,173,2
PHSC Bunglon,CHURACHANDPUR,79,9
PHSC Ngaikhong Khunou,BISHNUPUR,61,9
Sekmai CHC,IMPHAL WEST,178,3
PHSC Koide,SENAPATI,199,3
PHSC Ningombam,IMPHAL WEST,96,10
PHSC Laphupat Tera,IMPHAL WEST,114,9
Sekmaijin PHC,IMPHAL WEST,107,10
Tengnoupal PHC,CHANDEL,131,5
PHSC Keithelmanbi,SENAPATI,153,5
PHSC Khamson,SENAPATI,162,3
PHSC Wabagai,THOUBAL,88,9
PHSC Chingkhu Sambei,IMPHAL EAST,84,10
PHSC Allusingtam,CHURACHANDPUR,128,5
PHSC Khongnangpokpi,SENAPATI,72,5
PHSC Naorem Chaprou,IMPHAL WEST,107,7
PHSC Wangoo Sandangkhong,BISHNUPUR,100,7
PHC Khangkhui Khullen,UKHRUL,74,4
PHSC Sahamphung,UKHRUL,88,1
PHSC Phuballa,BISHNUPUR,148,9
PHSC New Tusom,UKHRUL,151,10
PHSC Sagolband Lamkhai,IMPHAL WEST,196,4
PHSC Aibulon,CHURACHANDPUR,72,2
PHSC Aben,TAMENGLONG ,150,4
Samurou PHC,IMPHAL WEST,120,10
PHSC Sangaiprou,IMPHAL WEST,77,6
PHC Motbung,SENAPATI,74,5
PHSC Salam,IMPHAL WEST,86,10
PHSC Tinsuong,CHURACHANDPUR,147,3
PHSC Kiyamgei Muslim,IMPHAL EAST,132,7
PHSC Lungthul (E),CHURACHANDPUR,148,4
PHSC Mantak,THOUBAL,127,7
PHSC Ishok,BISHNUPUR,76,5
PHSC Karam Haoreibi,IMPHAL WEST,80,10
PHSC Gularthol,IMPHAL EAST,164,5
PHSC Minuthong,IMPHAL EAST,66,3
PHSC Kairang Muslim,IMPHAL EAST,119,6
PHSC Nungnang,TAMENGLONG ,121,5
PHSC Thonglan Akutpa,SENAPATI,146,1
Andro PHC,IMPHAL EAST,96,4
PHSC Laipham Khunou,IMPHAL EAST,135,4
PHSC Luwangsangbam,IMPHAL EAST,62,7
PHSC Angtha,IMPHAL EAST,132,10
PHSC Chingmun,CHURACHANDPUR,150,2
PHSC Khabeisoi,IMPHAL EAST,194,7
PHSC Nungleiband,TAMENGLONG ,177,8
PHSC Shangshak,UKHRUL,100,8
PHSC L. Alpha,CHURACHANDPUR,179,8
PHSC Yumnam Huidrom,IMPHAL WEST,120,4
PHSC Uchekon Laikon,IMPHAL EAST,150,10
PHSC Suangdoh,CHURACHANDPUR,113,10
PHSC Sajik Tampak,CHANDEL,154,5
PHSC Lamlai Khunou,UKHRUL,152,5
PHSC Irong Chesaba,THOUBAL,168,4
PHSC Wangkhem,THOUBAL,51,10
PHSC Iroisemba,IMPHAL WEST,53,3
Bashikhong PHC,IMPHAL EAST,72,7
Hiyanglam PHC,THOUBAL,161,3
PHSC Namtiram,TAMENGLONG ,85,10
PHSC Buangmun,CHURACHANDPUR,59,8
PHSC Irengbam,BISHNUPUR,137,2
PHSC Kshetri Leikai Moirangpurel,THOUBAL,199,7
PHC Gamphazol,SENAPATI,51,5
PHSC Ngarian,CHURACHANDPUR,89,8
Ukhrul District Hospital,UKHRUL,58,4
PHSC Naranseina,BISHNUPUR,128,1
PHSC Santhel Lital Makhong,THOUBAL,112,8
PHSC Toubul,BISHNUPUR,137,5
PHSC Thambalkhong,IMPHAL EAST,177,7
PHSC Dailon,CHURACHANDPUR,138,3
PHSC Kiyam Litanpok,THOUBAL,120,8
PHC Somdal,UKHRUL,105,9
Kangpokpi CHC,SENAPATI,179,3
PHSC Langmeidong,THOUBAL,120,7
PHSC Lamzang,CHURACHANDPUR,143,10
PHSC Ngari,SENAPATI,189,7
PHSC Pherzawl,CHURACHANDPUR,151,4
PHSC Malom Tuliyaima,IMPHAL WEST,113,6
PHSC Irong Khunou,THOUBAL,126,4
PHSC Kiyamgei Khagi Bazar,IMPHAL EAST,77,10
PHSC Punanamai,SENAPATI,179,3
CHC Kamjong,UKHRUL,193,9
PHSC Khaukual,CHURACHANDPUR,127,10
Nongpok Keithelmanbi PHC,IMPHAL EAST,125,3
PHSC Tarao Laimanai,CHANDEL,154,3
PHSC Heibong Makhong,THOUBAL,111,8
PHSC Khamnam Bazar,IMPHAL WEST,173,6
PHSC Lakhamai,SENAPATI,113,5
PHSC Kanglatombi,IMPHAL WEST,66,5
PHSC Nongchup Keithelmanbi,IMPHAL WEST,86,7
PHSC Top Chingtha,IMPHAL EAST,97,1
PHSC Konthoujam,IMPHAL WEST,155,6
PHSC T. Khullen,SENAPATI,130,9
PHSC Kangchup Chiru,SENAPATI,86,7
PHSC Mongsangei,IMPHAL WEST,164,2
PHSC Nrianglong,TAMENGLONG ,186,7
PHSC Keibi,IMPHAL EAST,98,8
PHSC Saipum,CHURACHANDPUR,186,7
PHSC Sanjenbam,BISHNUPUR,195,6
PHSC Molvailup,UKHRUL,87,5
Pallel PHC,THOUBAL,138,8
PHSC Waithou Chiroo,IMPHAL EAST,124,9
PHSC Thoubal Wangmataba,THOUBAL,74,3
PHC Thanga,BISHNUPUR,99,10
Sugnu CHC,THOUBAL,95,4
PHC Khoupum,TAMENGLONG ,54,6
PHSC Chongdan,UKHRUL,110,4
PHSC Dolang,TAMENGLONG ,130,10
PHSC Phailienthangpunji,CHURACHANDPUR,158,8
PHSC Nungshai,CHURACHANDPUR,112,3
Yambem PHC,IMPHAL EAST,66,1
T Waichong PHC,SENAPATI,197,3
PHSC Makhan,SENAPATI,156,1
PHSC Leimaram,BISHNUPUR,192,1
Thanlon PHC,CHURACHANDPUR,124,10
PHSC Oklong,SENAPATI,181,10
PHSC Parsain,SENAPATI,148,1
PHSC Langathel,THOUBAL,96,4
PHSC Nungei,THOUBAL,135,7
PHSC Mawai,UKHRUL,114,5
PHSC Khabeisoi,IMPHAL EAST,143,4
PHSC Dolangkhunou,SENAPATI,95,6
PHSC Waithou,THOUBAL,172,5
Khongjom PHC,THOUBAL,143,8
Lamlai PHC,IMPHAL EAST,169,2
PHSC Phundrei,THOUBAL,57,3
PHC Kasom Khullen,UKHRUL,121,10
PHC Tolloi,UKHRUL,109,6
PHSC Tangkhul Hundung,UKHRUL,61,1
PHSC Grihang,UKHRUL,125,4
UPHC Phouden,THOUBAL,166,9
PHSC Khunbi,CHANDEL,69,9
Kiyam Litanpok,THOUBAL,96,7
PHSC T. Khuangkhai,CHURACHANDPUR,91,8
PHSC Pudunamai,SENAPATI,94,2
PHSC Shajouba,SENAPATI,158,8
PHSC Chaton,TAMENGLONG ,182,1
PHSC Pangaltabi,THOUBAL,171,6
PHSC Rengkai,CHURACHANDPUR,129,4
PHSC Kharasom,UKHRUL,98,10
PHSC Haorang Sabal,IMPHAL WEST,156,6
PHSC Sorde,UKHRUL,164,6
PHSC Sekta,IMPHAL EAST,133,3
PHC Tamei,TAMENGLONG ,191,5
PHSC Changangei,IMPHAL WEST,176,5
PHSC Charoipandongba,SENAPATI,61,5
PHSC Maku,UKHRUL,94,7
Saikot PHC,CHURACHANDPUR,59,3
PHSC Tuining,CHURACHANDPUR,62,2
PHSC Ukha Loikhai,CHURACHANDPUR,178,8
PHC Haochong,TAMENGLONG ,181,5
PHSC Karong,SENAPATI,50,2
PHSC Jakuradhor,IMPHAL EAST,62,10
PHSC Tobumai,SENAPATI,150,4
PHSC Salungpham,THOUBAL,81,5
PHSC Tongou,UKHRUL,181,8
Churachandpur District Hospital,CHURACHANDPUR,152,3
PHSC Chanam Sandrok,IMPHAL EAST,199,7
PHSC Naibet,SENAPATI,73,4
PHSC Phungcham,UKHRUL,138,9
PHSC Luwanglong Khunou,TAMENGLONG ,65,10
PHSC Kaihlam,CHURACHANDPUR,71,2
PHSC Tingsong,SENAPATI,84,5
PHSC Geljang,CHURACHANDPUR,175,10
CHC Nambol,BISHNUPUR,146,3
PHSC Sangaiyumpham,THOUBAL,60,6
Jiribam CHC,IMPHAL EAST,145,7
PHSC Mission Compound,CHURACHANDPUR,74,10
PHSC Siroy,UKHRUL,195,6
PHSC Liyai,SENAPATI,50,6
PHSC Nungbi Khullen,UKHRUL,154,5
PHSC Tuaitengphai,CHURACHANDPUR,167,8
PHSC Lairouching,SENAPATI,118,4
PHSC Moirangpurel,IMPHAL EAST,170,6
Kakching CHC,THOUBAL,87,4
PHSC Sirarakhong,UKHRUL,169,6
PHSC Nungoo Chairel,THOUBAL,79,7
PHSC Thokchom Bengi,THOUBAL,91,6
PHSC Awang Jiri,IMPHAL WEST,67,3
PHSC Muktikhullen,TAMENGLONG ,137,4
PHSC Thoubal Ningombam,THOUBAL,150,5
PHSC Khoirom Kekru,THOUBAL,89,7
Mao CHC,SENAPATI,107,1
Leisangthem PHC,THOUBAL,98,7
UPHC Mantripukhri,IMPHAL EAST,181,9
PHSC Shingkap,UKHRUL,66,6
PHSC Sanjenbam,IMPHAL EAST,111,3
PHSC Leisang,CHURACHANDPUR,154,9
Mayang Imphal PHC,IMPHAL WEST,53,3
PHSC Thongam,THOUBAL,192,1
PHSC Bengoon,IMPHAL WEST,106,9
PHSC Keirak Kangjeibung,THOUBAL,90,10
PHSC Taobam,TAMENGLONG ,174,3
Serou PHC,THOUBAL,175,10
PHSC Khurai Laiwangma,IMPHAL EAST,58,7
PHSC Khabi Thangtek,IMPHAL WEST,124,4
Machi PHC,CHANDEL,156,10
PHSC Kangkap,CHURACHANDPUR,102,3
PHSC Langthabal Kunja,IMPHAL WEST,189,8
PHSC Kokchai,IMPHAL WEST,192,2
PHSC Chandranathpur,IMPHAL EAST,111,1
PHSC Hanship,CHURACHANDPUR,191,3
PHSC Oinam Sawombung,THOUBAL,99,1
PHSC Sipuikon,CHURACHANDPUR,133,7
PHSC Takhel,IMPHAL EAST,196,10
PHSC Kotlen,SENAPATI,129,5
PHSC Sora,THOUBAL,80,5
PHSC Phuba,SENAPATI,181,6
CHC Parbung,CHURACHANDPUR,193,4
PHSC Komlakhong,IMPHAL WEST,175,3
PHSC Kangla Siphai,IMPHAL EAST,147,5
PHSC Sonpram,TAMENGLONG ,153,7
PHSC Charoikhullen,CHURACHANDPUR,113,4
PHSC Hiyangthang,IMPHAL WEST,52,7
PHSC Hiangtam K,CHURACHANDPUR,110,4
PHSC Naorem,BISHNUPUR,102,10
"District Hospital, Tamenglong",TAMENGLONG ,191,3
PHC Zezaw,CHURACHANDPUR,64,6
PHSC Lairam Khullen,UKHRUL,149,3
PHSC Kharkhuplien,CHURACHANDPUR,141,1
PHSC Kangreng,CHURACHANDPUR,106,1
PHSC Mapum,UKHRUL,94,6
PHSC Mutum Phibou,IMPHAL WEST,181,8
PHSC Kom Keirap,CHURACHANDPUR,107,1
Kakwa PHC,IMPHAL WEST,131,8
PHSC Leiting,UKHRUL,73,1
PHSC Thingkangphai,CHURACHANDPUR,142,5
PHSC Taningjam,TAMENGLONG ,118,8
Lilong PHC,THOUBAL,151,3
PHSC Lhungphou,SENAPATI,66,3
PHSC Leisan,UKHRUL,199,8
PHSC Huikap,IMPHAL EAST,140,1
Phayeng PHC,IMPHAL WEST,170,9
PHSC Mualnuam,CHURACHANDPUR,182,7
PHSC Thingkeu,CHURACHANDPUR,106,6
PHSC Santing,CHURACHANDPUR,65,2
PHSC Leirongthel Pitra,THOUBAL,63,1
PHSC Ithai,BISHNUPUR,145,10
