Health Facility Name,Number_Of_Beds,Rating
UPHC KOTDWAR,132,1
DH Pauri,191,7
Cant Hospital Lansdowne,62,9
Salda SC,195,9
Dadwadevi SC,169,4
Takolikhal SC,187,2
Kewarsh,114,1
Satpali SC,198,5
Kunghkhal SC,162,3
Agrora SC,99,1
Nathukhal SC,157,5
Jameli SC,62,9
Bageli SC,86,2
Jaikhal SC,96,2
Boongidhar SC,143,1
Lasera SC,145,5
Simalna SC,167,3
Timalsain SC,103,5
Ghandiyal SC,99,10
Bironkhal SC,199,3
Pauri SC,57,7
Kalwadi SC,145,7
Farsadi SC,70,10
Badiyargaon APHC,102,8
Sankersain SC,81,10
Basantpur SC,50,4
Pokhrikhet SC,63,10
Tilkholi SC,161,3
Sangliya SC,170,3
Nainidanda SC,143,2
Ghunna SC,176,1
Kirkhu SC,112,1
Dudarkhal SC,164,10
Dhaund SC,129,2
Srikot Srinagar SC,58,9
Bhattisera SC,81,4
Kolakhal SC,171,6
Sankarpur SC,149,1
Balli SC,87,1
Kandakhal SC,79,4
Dadda SC,163,8
Chakisain APHC,187,10
Chardhar SC,158,7
Pabou SC,50,3
Sabdharkhal SC,84,2
Dudharkhal APHC,66,5
Reetakhal SC,123,6
Kalyasaud SC,136,2
Sisai SC,52,10
Manjeli SC,83,3
Combined Hospital Srinagar,174,4
Adwani SC,109,1
Bajron APHC,122,9
Satpuli APHC,78,3
Khairasain SC,125,1
Dharsu SC,69,9
Majyani SC,153,7
Patisain PHC,71,1
Diswani SC,137,1
Bisald SC,188,10
Kalalghati SC,167,4
Dugadda PHC,86,2
Ekeshwar SC,116,8
Pokhal APHC,101,2
Chopriyoun SC,194,7
Chailusain SC,97,7
Adwani APHC,176,5
Bandun SC,117,3
Pabau CHC,109,9
Chatkot SC,121,2
Kesunder SC,100,3
Combined Hospital Kotdwara,61,9
Kadhik SC,76,5
Baada SC,110,1
Seeku APHC,143,1
Lalitpur APHC,106,1
Matgal SC,96,3
Parsundakhal PHC,192,1
Kashirampur,192,4
Dehalchauri SC,139,8
Devradi SC,103,9
Basda SC,140,5
Gawani SC,187,2
Agnisain SC,138,6
Sirwada SC,188,2
Lawali SC,76,8
Chipalghat SC,50,9
Silogi SC,151,4
Dunk SC,184,10
Badiyargaon SC,63,9
Kanshkhet SC,118,9
Nautha SC,176,4
Bagheli SC,50,2
Banganikhal SC,124,6
Chiloli SC,50,7
Base Hospital Srinagar,192,3
Khandakhal SC,180,1
Jakh SC,175,5
Joshiyana SC,192,10
Banekh SC,62,7
Rikhnikhal SC,149,7
Golikhal SC,134,6
Maroda  SC,157,8
Pokhari SC,97,8
Dhumakot SC,192,6
Siroli APHC,159,2
Nainidanda  CHC,197,7
Bhagwatitallya SC,78,1
Girgaon SC,140,8
Katghar APHC,194,7
Bironkhal CHC,154,2
Pang SC,77,1
Kandha SC,154,7
Jogimadi SC,124,4
Santudhar SC,170,6
Kotnali  SC,95,7
Nau SC,139,3
Baihadakhal SC,107,10
Devprayag SC,72,4
Khirsu PHC,101,2
Devrajkhal SC,146,10
Kholachauri SC,159,3
Dabri SC,61,3
Chaur SC,182,1
Dwarikhal SC,134,1
Chamethakhal SC,77,4
Mundenswar SC,77,9
Edda SC,143,1
Naugaonkhal APHC,110,7
Panul Gaon SC,99,1
Kot SC,160,10
Jhandichaur APHC,186,5
Pokhra PHC,61,10
Katghar SC,118,10
Nagar SC,145,1
Suradi SC,189,7
Dobh Srikot SC,81,3
Hanumanti SC,81,3
Thalda SC,146,7
Lalpani SC,143,7
Sainji SC,70,10
Siyunsi SC,53,9
Sanglakoti SC,56,5
Nishni SC,55,7
Ghandiyal CHC,191,7
Churani SC,127,8
Jaiharikhal SC,101,6
Naugaonkhal SC,60,7
Dadamandi SC,133,8
Kandai SC,184,10
Saindher SC,183,7
Devikhet SC,173,5
Masaun SC,137,6
Bhainti SC,108,6
Dwari SC,126,10
Kingodikhal SC,104,8
Khulevu SC,75,3
Dairyakhal SC,189,1
Damdewal SC,140,2
Pokhal SC,154,9
Khirarikhal SC,145,10
Dungri SC,189,4
Badgaon SC,65,8
Jaspur SC,130,8
Badhet SC,178,9
Digolikhal SC,53,8
Gwil SC,100,7
Jaigaon SC,192,8
Kulinda SC,100,4
Dadamandi PHC,57,2
Kathuli SC,123,1
Chamada SC,118,6
Choptakhal SC,176,2
Badiyun SC,173,8
Chailusain APHC,186,9
Bharorikhal SC,142,3
Kaljikhal SC,151,4
Badoli SC,152,3
Jhart  SC,178,4
Dugadda SC,190,5
Kalagad SC,182,2
Lekuli SC,147,9
Pokhra SC,138,5
Seenwal SC,99,2
Auni SC,177,10
Dhabkhal  SC,151,3
Lansdowne SC,195,4
Dharkhola SC,194,8
Bungidhar APHC,103,3
Sakhnikhet SC,133,9
Badhet SC,198,7
Banghat SC,148,7
Bilkhet SC,124,4
Seela SC,86,9
Chaplodi SC,64,10
Thapla SC,126,2
DH Female Pauri,139,1
Saidyakhal SC,139,8
Sumadi SC,75,8
Muchiyali SC,191,7
Ketukhal SC,174,4
Pipali SC,75,8
Sigaddi (Jaidevpur) SC,192,8
Bughani SC,150,7
Kandakhal SC,77,5
Devikhal SC,56,3
Khirsu SC,116,6
Jhandichaur Main SC,134,9
Daundal SC,145,5
Kinsur SC,177,8
Sarna SC,112,1
Ghindwara SC,60,4
Kota Talla SC,162,3
Betaldhar SC,181,1
Motadhank SC,176,7
Saundal SC,154,9
Kot PHC,112,1
Gadri Malli SC,139,7
Satpuli SC,188,3
Baijwad SC,85,10
Jaiharikhal PHC,192,6
Pokhal Female SC,105,1
Rikhnikhal PHC,151,9
Andrauli SC,80,2
Uregi SC,191,6
Patotiya SC,147,5
Patisain SC,84,10
Betaldhar APHC,61,3
Lawali APHC,88,10
Srikot SC,175,1
Seeku SC,127,8
Srikot Khal SC,144,6
Piplani SC,70,9
Pundairgaon SC,113,5
Jamlakhal SC,77,3
Gadkhet SC,178,4
Sanhey SC,70,7
Chamkhal SC,139,2
Khadrasi SC,195,6
Haldukhal SC,119,6
Maithanaghat SC,141,2
Bhaun SC,97,6
Dhaudiyal SC,112,3
Adalikhal SC,148,8
Dhoomakot APHC,132,10
Padampur SC,196,2
Baijaro SC,57,4
UPHC KOTDWAR,83,7
DH Pauri,125,2
Cant Hospital Lansdowne,79,1
Salda SC,142,4
Dadwadevi SC,101,3
Takolikhal SC,198,9
Kewarsh,189,2
Satpali SC,158,6
Kunghkhal SC,173,9
Agrora SC,138,10
Nathukhal SC,76,7
Jameli SC,86,6
Bageli SC,130,7
Jaikhal SC,172,2
Boongidhar SC,77,5
Lasera SC,95,1
Simalna SC,105,8
Timalsain SC,199,9
Ghandiyal SC,186,6
Bironkhal SC,169,5
Pauri SC,56,3
Kalwadi SC,100,3
Farsadi SC,137,2
Badiyargaon APHC,182,6
Sankersain SC,139,10
Basantpur SC,109,6
Pokhrikhet SC,179,10
Tilkholi SC,73,7
Sangliya SC,57,8
Nainidanda SC,126,6
Ghunna SC,153,2
Kirkhu SC,99,1
Dudarkhal SC,63,2
Dhaund SC,189,2
Srikot Srinagar SC,181,1
Bhattisera SC,177,10
Kolakhal SC,96,9
Sankarpur SC,92,8
Balli SC,143,7
Kandakhal SC,181,3
Dadda SC,131,6
Chakisain APHC,72,5
Chardhar SC,59,2
Pabou SC,172,6
Sabdharkhal SC,139,9
Dudharkhal APHC,109,5
Reetakhal SC,160,8
Kalyasaud SC,91,9
Sisai SC,181,3
Manjeli SC,51,6
Combined Hospital Srinagar,171,3
Adwani SC,112,9
Bajron APHC,171,2
Satpuli APHC,84,6
Khairasain SC,181,5
Dharsu SC,167,9
Majyani SC,93,7
Patisain PHC,144,7
Diswani SC,183,5
Bisald SC,132,3
Kalalghati SC,88,9
Dugadda PHC,68,7
Ekeshwar SC,151,9
Pokhal APHC,81,3
Chopriyoun SC,53,8
Chailusain SC,80,6
Adwani APHC,153,5
Bandun SC,50,7
Pabau CHC,175,3
Chatkot SC,178,5
Kesunder SC,106,5
Combined Hospital Kotdwara,153,3
Kadhik SC,182,9
Baada SC,55,4
Seeku APHC,124,9
Lalitpur APHC,105,1
Matgal SC,173,5
Parsundakhal PHC,132,6
Kashirampur,80,5
Dehalchauri SC,190,7
Devradi SC,154,5
Basda SC,177,2
Gawani SC,57,6
Agnisain SC,57,10
Sirwada SC,78,6
Lawali SC,113,4
Chipalghat SC,112,2
Silogi SC,194,8
Dunk SC,68,9
Badiyargaon SC,55,5
Kanshkhet SC,172,3
Nautha SC,115,7
Bagheli SC,99,4
Banganikhal SC,173,7
Chiloli SC,98,9
Base Hospital Srinagar,185,10
Khandakhal SC,111,6
Jakh SC,50,10
Joshiyana SC,55,6
Banekh SC,96,3
Rikhnikhal SC,142,4
Golikhal SC,89,4
Maroda  SC,75,2
Pokhari SC,104,7
Dhumakot SC,181,7
Siroli APHC,73,10
Nainidanda  CHC,163,3
Bhagwatitallya SC,184,10
Girgaon SC,168,1
Katghar APHC,180,9
Bironkhal CHC,183,9
Pang SC,86,10
Kandha SC,143,6
Jogimadi SC,125,7
Santudhar SC,65,2
Kotnali  SC,52,6
Nau SC,63,6
Baihadakhal SC,107,3
Devprayag SC,167,2
Khirsu PHC,160,4
Devrajkhal SC,106,8
Kholachauri SC,115,7
Dabri SC,109,7
Chaur SC,159,1
Dwarikhal SC,51,9
Chamethakhal SC,196,9
Mundenswar SC,125,10
Edda SC,54,9
Naugaonkhal APHC,98,4
Panul Gaon SC,119,7
Kot SC,89,2
Jhandichaur APHC,183,7
Pokhra PHC,171,3
Katghar SC,141,4
Nagar SC,51,3
Suradi SC,84,3
Dobh Srikot SC,182,9
Hanumanti SC,52,4
Thalda SC,107,4
Lalpani SC,155,9
Sainji SC,188,4
Siyunsi SC,191,3
Sanglakoti SC,71,10
Nishni SC,150,5
Ghandiyal CHC,190,9
Churani SC,109,8
Jaiharikhal SC,81,10
Naugaonkhal SC,57,3
Dadamandi SC,172,10
Kandai SC,63,7
Saindher SC,88,4
Devikhet SC,98,8
Masaun SC,195,2
Bhainti SC,126,1
Dwari SC,122,8
Kingodikhal SC,195,3
Khulevu SC,109,9
Dairyakhal SC,94,4
Damdewal SC,65,9
Pokhal SC,60,4
Khirarikhal SC,100,10
Dungri SC,174,10
Badgaon SC,138,3
Jaspur SC,191,4
Badhet SC,179,5
Digolikhal SC,151,7
Gwil SC,106,5
Jaigaon SC,188,3
Kulinda SC,182,7
Dadamandi PHC,182,3
Kathuli SC,176,1
Chamada SC,187,10
Choptakhal SC,67,5
Badiyun SC,183,10
Chailusain APHC,78,1
Bharorikhal SC,63,9
Kaljikhal SC,126,5
Badoli SC,98,2
Jhart  SC,185,7
Dugadda SC,141,2
Kalagad SC,51,3
Lekuli SC,147,3
Pokhra SC,123,6
Seenwal SC,88,6
Auni SC,180,6
Dhabkhal  SC,156,9
Lansdowne SC,80,5
Dharkhola SC,115,6
Bungidhar APHC,54,2
Sakhnikhet SC,183,7
Badhet SC,67,10
Banghat SC,76,4
Bilkhet SC,96,8
Seela SC,149,4
Chaplodi SC,145,9
Thapla SC,116,9
DH Female Pauri,90,1
Saidyakhal SC,104,5
Sumadi SC,62,10
Muchiyali SC,51,10
Ketukhal SC,96,3
Pipali SC,92,2
Sigaddi (Jaidevpur) SC,169,4
Bughani SC,93,3
Kandakhal SC,84,10
Devikhal SC,106,9
Khirsu SC,198,5
Jhandichaur Main SC,78,7
Daundal SC,138,7
Kinsur SC,106,7
Sarna SC,150,3
Ghindwara SC,169,2
Kota Talla SC,76,9
Betaldhar SC,102,4
Motadhank SC,89,8
Saundal SC,141,7
Kot PHC,113,10
Gadri Malli SC,98,6
Satpuli SC,127,5
Baijwad SC,180,8
Jaiharikhal PHC,185,4
Pokhal Female SC,61,10
Rikhnikhal PHC,62,10
Andrauli SC,188,8
Uregi SC,144,2
Patotiya SC,120,4
Patisain SC,143,3
Betaldhar APHC,91,8
Lawali APHC,105,2
Srikot SC,139,10
Seeku SC,81,10
Srikot Khal SC,175,10
Piplani SC,137,5
Pundairgaon SC,145,5
Jamlakhal SC,78,9
Gadkhet SC,163,3
Sanhey SC,169,1
Chamkhal SC,187,3
Khadrasi SC,189,7
Haldukhal SC,132,7
Maithanaghat SC,101,4
Bhaun SC,93,3
Dhaudiyal SC,147,6
Adalikhal SC,116,3
Dhoomakot APHC,187,1
Padampur SC,73,4
Baijaro SC,111,6
