Health Facility Name,Number_Of_Beds,Rating
Primary Health Centre Govindaraopet,108,1
"SubCentre, Katriapally",72,7
"Primary Health Centre, Nallabelly",90,7
"SubCentre, Motlapally",137,3
"SubCentre, Rajole",131,5
SubCentre Mandapally,180,4
Urban Health Centre Somidi,134,7
SubCentre Thadellagudem,185,2
"SubCentre, Katrial",65,1
SubCentre Veeraram,84,1
"SubCentre, Pochampalli",129,10
SubCentre Konney,195,3
"SubCentre, Govindapur",96,7
SubCentre Gidde Muttaram,132,1
SubCentre Papaiahpet,81,6
SubCentre Domeravancha,96,10
"SubCentre, Rajula Kothapally",82,10
"SubCentre, Mutharam",100,7
SubCentre  AK Ghanpur 1,143,6
"SubCentre, Chandrugonda",171,1
SubCentre Thogarai,197,3
"Primary Health Centre, Komatlagudem",56,6
"SubCentre, Narsampet-II",153,10
"Primary Health Centre, Nekkonda",112,3
"SubCentre, Medapally",173,8
"SubCentre, Mogilicherla",194,7
"SubCentre, Bairanpally",163,7
SubCentre Damera,194,5
"Primary Health Centre, Raiparthy p",104,2
"SubCentre, Raghunathpally",142,6
"SubCentre, Namchari Madur",111,2
SubCentre Yellapur,63,4
"SubCentre, Rudragudem",55,6
"SubCentre, Danthalapally",67,8
"SubCentre, Annaram",156,6
SubCentre Inugurthy,194,1
"Primary Health Centre, Danthalapally",194,7
"SubCentre, Bhagrithypet",64,7
SubCentre  Inapur,186,2
"SubCentre, thirumalagiri",102,5
SubCentre Bhupalpally - II,73,1
SubCentre Pochannapet,120,8
"SubCentre, Bornarsapur",177,7
"SubCentre, Parkal-I",88,10
"SubCentre, Kothguda",93,6
"SubCentre, Velubelly",53,7
SubCentre Maqdumpuram,142,10
"SubCentre, Ookal",174,7
SubCentre Gudepad,180,3
"SubCentre, Mondrai",94,4
"SubCentre, Kampally",173,5
SubCentre  Komuravelly,129,2
SubCentre Venkatapur,188,9
SubCentre Gogupally,190,4
"SubCentre, Isipeta",61,3
"MGM Hospital,Warangal",68,5
SubCentre Seethanagaram,150,7
"SubCentre, Appalraopet",65,1
SubCentre Shivunipally,125,8
SubCentre Kompally,66,8
SubCentre Peddapahad,75,10
"SubCentre, Nereda 2",112,9
"Primary Health Centre, Regonda",60,5
"SubCentre, Nellikudur - I",186,9
SubCentre Mallikudurla,134,7
SubCentre Royyur,187,2
"Primary Health Centre, Tadvai",84,1
SubCentre Pembarthy,168,6
SubCentre Komatigudem,77,6
SubCentre Moranchapally,64,1
SubCentre Marrigadi,132,3
SubCentre Krishnajigudem,66,9
"SubCentre, Pogullapally",107,3
"SubCentre, Gurrampet",95,1
"SubCentre, Kanchanpalli-ll",130,2
SubCentre Jayagiri,78,4
"SubCentre, Balpal",74,8
SubCentre Kondai,134,7
"SubCentre, Raiparthy",133,4
Primary Health Centre Inugurthy,98,4
Primary Health Centre  Khanapur,191,5
SubCentre Neerukulla,186,5
"SubCentre, Koppula",190,5
SubCentre Thimmaraipad,187,7
"SubCentre, Thorrur",81,9
"SubCentre, Gatlakanparthi",170,8
"SubCentre, Narsimha Sagar",62,8
"SubCentre, Rollakal",74,4
"SubCentre, Gudur",150,6
"SubCentre, Tadvai",150,10
"SubCentre, Thammadapally",108,4
SubCentre Kasimpally,82,3
"SubCentre, Cherlapally",93,7
"SubCentre, Varikol",161,10
"SubCentre, Madipally",97,4
"SubCentre, Redyala",71,3
SubCentre Ayodhyapuram I,150,8
"SubCentre, Banajipet",138,7
"SubCentre, Waddicherla",107,8
"SubCentre, Thimmapet",187,5
SubCentre Khanapur,132,10
"SubCentre, Kamaram",173,9
"SubCentre, Madathapally",169,7
"SubCentre, Ramchandrapur",52,5
"SubCentre, Parkal-III",54,10
Primary Health Centre Royyur,73,10
"SubCentre, Sulthanpur",53,3
"SubCentre, Peddakomatipally",159,10
"SubCentre, Gorukothapalli",173,6
Primary Health Centre Velair,96,6
SubCentre  P. Sankeera,98,2
"SubCentre, Kotancha",108,4
"SubCentre, Veldi",180,7
"SubCentre, Pathipaka",73,2
"SubCentre, Vemulapally",150,4
"Primary Health Centre, Parvathagiri",160,2
SubCentre Macherla,123,3
SubCentre Yerragollapahad,80,9
"SubCentre, Chintha Nekkonda",96,6
"Primary Health Centre, Marripeda",114,7
"Urban Health Centre, Fort Warangal",83,4
"SubCentre, Quilashapur",147,2
"SubCentre, Lohitha",122,1
"Primary Health Centre, Ladnoor",136,3
SubCentre Mamnoor,123,7
"SubCentre, Enugul",119,8
"SubCentre, Gummunoor",153,10
SubCentre Gandhinagar,168,6
SubCentre Yenumamula,195,9
"SubCentre, Gunnepally",146,1
"SubCentre, Jakaram",57,5
"Urban Health Centre, Bodagutta",116,2
"SubCentre, Kamalapur",116,1
"SubCentre, Kummarikuntla",119,7
"Primary Health Centre, Shayampet",189,1
"Urban Health Centre, Chinthal",194,6
"Regional Eye Hospital,Warangal",193,9
"SubCentre, Marripeda",151,6
"SubCentre, Nawabpet",182,4
SubCentre  Vellampaly,70,7
"Community Health Centre, Gudur",139,1
SubCentre Chennaraopet,189,10
SubCentre Abadi Ghanpur,74,1
"SubCentre, Peddakorpolu",107,9
"SubCentre, Rangapur",76,3
"SubCentre, Eravennu",94,8
"SubCentre, Kamalapur - I",158,6
"SubCentre, Chinnapuram",183,1
SubCentre Tekulagudem,177,2
SubCentre Siddankai,73,1
SubCentre Gurvannapet,122,1
Primary Health Centre Chennaraopet,158,10
"SubCentre, Dardepally",78,9
"SubCentre, Ankisahapur",113,6
SubCentre Ladella,97,6
"SubCentre, Nainala",181,4
"SubCentre, Kodishala",100,10
"SubCentre, Elukurthy",103,7
"SubCentre, Chunchupally",182,3
"SubCentre, Rampur",133,6
"SubCentre, Mylaram",157,8
SubCentre  Ayodhyapuram II,190,3
SubCentre  Chunchanakota,135,2
"SubCentre, Kolukonda",64,1
SubCentre Mulkalpally,95,8
"SubCentre, Rajupeta",169,4
SubCentre  Dharmasagar - I,109,6
SubCentre Marrimeta,94,5
"SubCentre, Seetharampuram",67,5
"SubCentre, Kondur",60,8
SubCentre Doothpalli,165,9
"Primary Health Centre, Kodishala",115,2
"SubCentre, Gangaram",196,9
"SubCentre, Jeedical",109,9
"SubCentre, Vemunoor",185,3
"SubCentre, Sarvapur",177,6
"SubCentre, Kunoor",120,2
SubCentre Nagaram,128,1
"SubCentre, Neredupally",82,5
"SubCentre, Parkal-II",199,7
SubCentre Jangedu,176,2
"SubCentre, Laknapally",183,5
SubCentre Kamalapur,110,10
"SubCentre, Padamatigudem",83,3
"SubCentre, Cheetur",182,7
"Area Hospital, Mahabubabad",102,5
"SubCentre, Ramavaram",173,2
"SubCentre, Narlapoor",175,1
SubCentre Muddunur,93,5
"SubCentre, Nadikuda",114,1
"SubCentre, Narmetta",156,8
"Urban Health Centre, Keerthinagar",94,2
"SubCentre, Pandhikunta",147,1
SubCentre Akkampet,159,9
"SubCentre, Jamandlapally",99,9
"Primary Health Centre, Gangaram",130,7
"SubCentre, Venkatapur",78,3
SubCentre Pegadapally,67,5
"SubCentre, Mangapet",173,5
SubCentre Dharma rao pet,194,3
SubCentre S.C. Basthi,186,1
"SubCentre, Rebarthy",75,3
Urban Health Centre Waddepally,154,8
"Urban Health Centre, S.R.R.Thota",143,5
SubCentre Vanamalakanparthy,158,8
"SubCentre, Jangiligonda",77,10
SubCentre Namiligondaa,132,5
SubCentre Peddamcherla,54,7
"SubCentre, Kondapoor",131,8
"SubCentre, Seetharampoor",155,1
SubCentre Ammapalem,172,9
"SubCentre, Uppugallu",113,5
SubCentre Chinnapendyal,138,7
SubCentre Kanthanpally,89,8
SubCentre Rajanpally,79,2
"SubCentre, Indira Nagar",89,9
SubCentre Siddhapur,177,1
"SubCentre, Haripirala",90,8
SubCentre Gollacherla II,74,6
"SubCentre, Dharmaram",137,6
"SubCentre, Solipur",84,3
"SubCentre, Ambedker Nagar",105,6
SubCentre Samudrala,54,4
SubCentre Mathewada,179,2
"SubCentre, Manchuppula",68,10
SubCentre Buddaram,120,8
SubCentre Madikonda,174,8
"SubCentre, Upparapally",185,1
"SubCentre, Pocharam",111,10
SubCentre Jally,101,5
SubCentre Dudekulapally,173,10
Primary Health Centre Duggondi,93,7
"SubCentre, Musmi",163,1
"SubCentre, Kapulakaniparthy",53,2
SubCentre  Marrimustyala,59,10
"Post Partum Unit, Narsampet",63,9
"SubCentre, Gundrathimadugu",118,6
"SubCentre, Nallagunta",156,6
SubCentre Peddapur,137,3
"SubCentre, Kondapur",60,2
"SubCentre, Kothur",145,4
"SubCentre, Thimmapur",66,2
SubCentre Peecherla,137,5
SubCentre  Dharmasagar - II,94,10
SubCentre Intikanne,148,1
"SubCentre, Edunuthulla",80,8
"SubCentre, Malyala",199,2
"Primary Health Centre, Mogullapally",142,10
SubCentre Mylaram,62,2
SubCentre Velishala,131,5
SubCentre Malkapur,135,6
"SubCentre, Kandikonda",74,10
"SubCentre, Bangla",108,10
SubCentre Upparapally,122,8
Primary Health Centre Keshavapur,192,6
"Primary Health Centre, Raghunathpally",101,6
SubCentre Bhupathipet,161,8
"SubCentre, Kalvapur",137,4
"SubCentre, Mogullapally",105,9
"SubCentre, Bhanojipet",71,5
"CKM Hospital,Warangal",189,10
"SubCentre, Gabbeta",74,10
"SubCentre, Kuravi",84,2
"SubCentre, Tanamcherla",199,2
SubCentre Gurijala,180,9
"SubCentre, Kothuru G",142,2
Primary Health Centre Dornakal,167,6
"SubCentre, Cherlapalem",144,5
SubCentre Pasra,109,2
SubCentre Bachannapet-I,145,7
SubCentre  P.R. Pally,160,5
"Primary Health Centre, Maddur",147,2
SubCentre Bollepally,155,9
SubCentre Hasanparthy1,126,3
"SubCentre, Pragathisingaram",198,3
"Primary Health Centre, Kothaguda",106,5
SubCentre Upparapally,54,3
"Urban Health Centre, Deshaipet",110,4
"SubCentre, Bommera",140,3
"SubCentre, Matedu",89,6
SubCentre Thimmampeta,103,4
SubCentre Tekumatla,63,8
SubCentre Anathasagar,130,6
"Community Health Centre, Mulug",130,9
SubCentre Rampur,121,7
"Primary Health Centre, Rainigudem",148,4
SubCentre Peddapendyal,125,3
SubCentre  Dharmapur,131,8
SubCentre Appavajupally,62,4
"SubCentre, Malluru",137,3
"SubCentre, Alankanipet",188,8
"SubCentre, Jayaram",164,2
"SubCentre, Zaffergadh",189,8
Primary Health Centre  Athmakur,146,3
"SubCentre, Parvathagiri",119,4
"SubCentre, Mecharajupally",128,5
SubCentre Gudur II,156,8
SubCentre  Aknoor,129,10
"SubCentre, Nellikudur - II",74,7
"SubCentre, Katapoor",187,1
"SubCentre, Kanchanpalli-I",125,9
"SubCentre, Kambalapally",89,1
"SubCentre, Domeda",58,4
SubCentre Chelpur - II,54,3
"Primary Health Centre, Raiparthy (w)",130,8
SubCentre Komalla,96,7
"SubCentre, Krishna colony",122,2
"SubCentre, Ellanda - I",190,9
"SubCentre, Redlawada",57,6
"SubCentre, Vanaparthi",72,5
"Primary Health Centre, Chunchupally",184,9
"SubCentre, Godepally",127,3
"SubCentre, Authapuram",80,5
"SubCentre, Uggampally",146,4
"SubCentre, Isgudem",70,5
"SubCentre, Abdulnagaram",186,9
"SubCentre, Rajupeta",124,2
"SubCentre, Shyampet",170,1
SubCentre  Mondrai,179,9
"SubCentre, Inavole",150,3
"SubCentre, Nallabelly",107,4
SubCentre Gangupahad,170,7
"SubCentre, Deekshakunta",138,9
"Primary Health Centre, Mangapet",74,9
Primary Health Centre Kannaigudem,74,9
"SubCentre, Narlapur",80,8
"SubCentre, Wardhannapet - I",161,1
"Primary Health Centre, Banojipet",192,2
"SubCentre, Narsampet-I",174,8
"SubCentre, Lingala Ghanpur",154,5
"SubCentre, Vavilala",133,7
SubCentre Dhansari,77,8
SubCentre Chelpur - I,101,4
SubCentre Bhupalpally - I,76,1
"Community Health Centre, Cherial",197,3
SubCentre T.P.Pally,131,4
"SubCentre, Thopanapally",123,6
"SubCentre, Ookal",122,6
SubCentre Duggondi,93,2
"SubCentre, Beerelly",66,3
"SubCentre, Laberthy",61,3
Primary Health Centre Ghanpur(Station),153,4
"SubCentre, Panthini",86,4
SubCentre Mallakpally,183,6
SubCentre Dornakal III,149,9
Primary Health Centre Bachannapet,159,5
SubCentre Azamnagar,145,10
SubCentre Kondaparthi,154,4
"SubCentre, Anepuram",70,10
"SubCentre, Madhavapur",67,8
"SubCentre, Veldonda",136,1
SubCentre Mustyal,124,4
SubCentre Eturnagaram,94,5
SubCentre Katkoor,180,6
SubCentre  Devanoor,137,9
"SubCentre, Waddegudem",163,6
"SubCentre, Rangempet",96,4
SubCentre Penchikalapet,143,3
SubCentre Unikcharla,179,9
Primary Health Centre Gudur,98,6
"Primary Health Centre, Narmetta",199,8
"SubCentre, Nandanam",63,10
"SubCentre, Nidigonda",104,6
SubCentre Karkapally,196,1
SubCentre Seetharampur,130,6
"SubCentre, Munigalaveedu",116,7
"SubCentre, Narsimhulapet",171,5
"SubCentre, Gavicherla",106,8
"SubCentre, Nallabelly",118,7
"SubCentre, Narakkapet",161,8
Primary Health Centre Teegalaveni,114,7
"Primary Health Centre, Geesugonda",160,9
SubCentre Hasanparthy II,74,5
"SubCentre, Muchimpula",97,2
SubCentre Chelpaka,183,8
"SubCentre, Rangareddypeta",180,6
SubCentre Uyyalawada,174,7
SubCentre Rampur,185,6
"SubCentre, Parikedu",169,3
"SubCentre, Nagaram",75,8
"SubCentre, Madagudem",142,5
SubCentre NachinaPally,95,5
"SubCentre, Kalleda",54,7
SubCentre Gollabuddaram,56,10
SubCentre Thatikonda,167,9
"SubCentre, Sangem",174,1
"SubCentre, Kanparthy",158,9
SubCentre  AK Ghanpur 2,70,4
SubCentre  Kadavergu,91,9
SubCentre Arepalli,115,3
"SubCentre, Bollikunta",142,10
"SubCentre, Geesugonda",121,9
Primary Health Centre Kadipikonda,110,2
"Community Health Centre,  Eturnagaram",132,4
SubCentre Gudur I,58,5
SubCentre Thimmampeta,87,2
"SubCentre, Yellampeta",108,5
"SubCentre, Palampet",152,2
SubCentre  Garimillapally,140,3
SubCentre Mucherla,142,9
"SubCentre, Muthojipet",121,1
"SubCentre, Lenkapally",155,2
"SubCentre, Edjerla",51,4
"SubCentre, Kuravi 2",88,7
"SubCentre, Banthanagaram",97,6
"SubCentre, Gantlakuntha",188,1
SubCentre Laximipuram,182,10
SubCentre Pulkurthy,176,3
SubCentre Bachannapet-II,106,3
SubCentre Koyagudem,132,5
SubCentre Chityala,92,8
SubCentre Gorlaveedu,86,9
SubCentre Jookal,160,9
"SubCentre, Chillamcherla",150,6
"SubCentre, Ammapuram",182,10
"SubCentre, Nizampally",189,5
SubCentre Pallavelpula,93,1
"Primary Health Centre, Alankanipet",183,3
"SubCentre, Raghunathpalli S/c",132,1
"SubCentre, Medaram",71,9
"SubCentre, Konkapaka",62,9
Primary Health Centre Kesamudram,78,7
"SubCentre, Theegarajupally",110,10
SubCentre Thatikayala,75,8
SubCentre Athmakur,174,1
"Government Maternity Hospital,Hanmakonda",50,7
"SubCentre, Mulugu",108,4
SubCentre Sarvai,62,3
"Primary Health Centre, Kambalpally",78,6
"SubCentre, Kothur",90,2
SubCentre Dornakal II,164,8
SubCentre Narayagiri,195,2
"SubCentre, Thammadapally (G)",72,1
SubCentre hagal,168,4
"SubCentre, Thimmampet",134,5
SubCentre Penugonda,147,9
SubCentre Chalvai,166,4
"SubCentre, Marrigudem",140,2
SubCentre Konapuram,163,10
"SubCentre, Bethol",57,5
SubCentre Ayyagaripally,127,10
SubCentre Dumpalligudem,192,2
"Primary Health Centre, Medapally",127,10
"SubCentre, Mogilicherla",196,2
SubCentre Mallampally,199,3
"SubCentre, Peddamadur",59,10
SubCentre Kondapur,103,6
SubCentre  Chityal,147,5
SubCentre Mupparam,177,9
"SubCentre, Regonda",67,9
SubCentre Signrajpally,101,7
"SubCentre, Sriramgiri",85,4
"SubCentre, Rangaiahpalli",161,1
"SubCentre, Burhanpuram",185,8
Primary Health Centre Damera,170,10
"SubCentre, Brahmanapally",58,8
"SubCentre, Komatlagudem",97,8
"SubCentre, Devanagar",121,3
"SubCentre, Kallem",54,2
"SubCentre, Mylaram",146,8
SubCentre Ameenabad,152,4
SubCentre  Projectnagar,149,8
"SubCentre, Chinnagudur",109,9
"SubCentre, Mondraigudem",95,2
"Primary Health Centre, Sangam",191,9
SubCentre Rajannapet,62,9
"SubCentre, Bandultepoor",148,7
SubCentre Seetharampur,70,10
"SubCentre, Veeraram",128,1
Primary Health Centre  Malkapur,70,3
"SubCentre, Bixampet",197,6
SubCentre Nagaram,126,7
Primary Health Centre Bhupalpally,194,3
"SubCentre, Chennur",97,8
SubCentre Mallareddypally,145,5
"SubCentre, Peddapur",193,7
SubCentre  Chinnaboinapally,137,5
Primary Health Centre Chelpur,188,7
"SubCentre, Visnoor",112,1
"SubCentre, Nekkonda",185,9
"SubCentre, Bathulapally",163,3
SubCentre Yellaigudem,133,9
"SubCentre, Dwarakapet",160,9
"SubCentre, Bodlada",108,1
"SubCentre, Narsampet-III",129,8
"SubCentre, Otai",130,10
"SubCentre, Kommala",126,3
"SubCentre, Ashwaraopalli",73,5
Urban Health Centre Peddammagadda,59,8
SubCentre Ghanpur (M),69,3
"SubCentre, Kannaraopet",103,6
SubCentre Chilukonda,159,1
SubCentre Kothur,187,6
SubCentre Thammadapally,80,10
"SubCentre, Ellanda - II",103,2
"SubCentre, Nellutla",130,4
"SubCentre, Salakpoor",124,9
SubCentre Oorugonda,86,2
SubCentre Kodavatoor,167,4
"SubCentre, Ponnelu",50,2
"SubCentre, Etikalapally",114,3
"SubCentre, Kantathmakur",171,9
"SubCentre, Venkatapur",90,10
SubCentre Madikonda-Li,176,5
SubCentre Meedikonda,116,2
"SubCentre, Kundaram",108,6
"SubCentre, Doulathnagar",64,10
SubCentre Alimpur,191,5
"SubCentre, Gorrekunta",179,1
SubCentre Vodithala,157,6
"SubCentre, Narsimhulagudem",57,1
Primary Health Centre Kodakandla,175,10
"SubCentre, Palakurthy",67,7
"SubCentre, Anantharam",89,2
Primary Health Centre Devaruppula,116,7
"SubCentre, Cherupally",74,10
SubCentre Sripathipally,191,4
"SubCentre, Siripuram",59,8
"SubCentre, Mallampally",83,2
"SubCentre, Jayapuram",130,1
SubCentre Ashok Nagar-II,80,9
"SubCentre, Besta Bazar",100,1
SubCentre Keshavapur,180,5
"SubCentre, Venkatapur",127,10
SubCentre Vadlakonda,85,6
SubCentre  Gollacherla I,192,2
"SubCentre, Thurputhanda",101,10
SubCentre Nashkal,81,4
"SubCentre, Mekalagartu",55,7
"SubCentre, Seerolu",165,9
SubCentre Kalvala,65,7
SubCentre Rajavaram,185,1
"SubCentre, Dubagudem",124,1
SubCentre AK Ghanpur 3,120,2
"SubCentre, Jangalapally",155,1
"SubCentre, Pidicilla",124,8
"Primary Health Centre, Venkatapur",189,4
SubCentre Govindraopet,142,7
Urban Health Centre Rangshaipet,70,4
"SubCentre, Wardhannapet-II",73,1
"SubCentre, Thigappula",123,8
SubCentre Chilpur,121,6
"Urban Health Centre, Shayampet",94,5
"SubCentre, Rangapur",58,3
"Community Health Centre, Narsampet",88,9
SubCentre Thhegalaveni,142,9
"SubCentre, Munigmadugu",59,5
"SubCentre, Somaram",113,10
SubCentre Velair,131,4
SubCentre  Kannigudem,74,5
"SubCentre, Kuruchapalli",79,6
"SubCentre, Relakunta",120,6
SubCentre Devannapet,174,2
"SubCentre, E.P. Pally",96,9
"Primary Health Centre, Kunur",159,6
"SubCentre, Maddur - I",167,9
UFWC Jangaon,56,1
"Primary Health Centre, Palakurthy",147,5
"SubCentre, Manugonda",64,3
Primary Health Centre  Pasra,169,9
"SubCentre, Qurthur",138,8
"SubCentre, Choutapally",96,3
"SubCentre, Chinthalpally",141,1
"SubCentre, Katrapally",196,6
SubCentre Gajulagattu,79,4
Primary Health Centre Azamnagar,61,9
"SubCentre, Vellampally",198,6
"SubCentre, Vanthadpla",91,6
"SubCentre, Madhanapet",176,3
"Primary Health Centre, Nellikudur",172,6
"SubCentre, Mahaboobnagar",52,9
"Urban Health Centre, Lashkarsingaram",55,3
"SubCentre, Maheshwaram",85,1
SubCentre Battupalli,172,7
"SubCentre, Devaruppula",75,7
"SubCentre, Vaddekothapalli",106,7
"SubCentre, Suraram",171,5
SubCentre Boddugonda,147,8
SubCentre Nagapuri,89,10
SubCentre  Challagariga,166,4
SubCentre Mangala Varipet,147,9
"SubCentre, Abbaipalem",171,2
"SubCentre, Narsapur",182,1
"Community Health Centre, Chityal",180,9
"SubCentre, Fatheshapur",72,7
"SubCentre, lakshmakkapally",121,10
Primary Health Centre Vodithala,100,5
"SubCentre, Ladnoor",167,2
SubCentre Laknavaram,89,10
"SubCentre, Gagillapur",55,9
"SubCentre, Muripirala",153,4
"SubCentre, Keshavapur",96,8
"SubCentre, Komatipally",56,9
"SubCentre, Chinnamupparam",196,7
SubCentre  Chain Paka,98,4
"SubCentre, Vanchanagiri",56,6
SubCentre Dornakal I,101,8
"SubCentre, Kousalyadevipally",126,1
"Primary Health Centre, Zaffergadh",159,5
"SubCentre, Amangal",85,1
"SubCentre, Kodakandla",155,3
SubCentre Thimmapur,76,1
SubCentre Madikonda-lii,56,9
"SubCentre, Modugulagudem",55,7
"SubCentre, Gangaram",95,10
SubCentre Suripally,105,10
"SubCentre, Madanpally",154,1
"SubCentre, Upparigudem",66,7
Primary Health Centre  Dharmasagar,115,7
"Community Health Centre, Wardhannapet",72,4
"SubCentre, Yerrabelligudem",105,6
"SubCentre, Akinapally",185,4
"Primary Health Centre, Inavole",172,4
"SubCentre, Datla",57,1
"SubCentre, Pedda Nagaram",179,10
UFWC GMH Hanmakonda,57,7
Primary Health Centre Ghanpur (Mulug),76,10
"Primary Health Centre, Balpal",91,6
"SubCentre, Garimillapally",173,1
"SubCentre, Peddakodepaka",129,4
"SubCentre, BC  Pally",162,2
SubCentre Paidipalli,189,10
"SubCentre, Pedda Mupparam",64,6
"SubCentre, Pedavangara",134,8
SubCentre Kesamudram(Stn),85,1
"Primary Health Centre, Lingalaghanpur",74,5
SubCentre Padmati Keshwapur,160,10
SubCentre Korkondapally,116,7
"SubCentre, Dhammannapet",181,2
SubCentre Pallagutta,82,4
SubCentre Elukurkurthy,95,7
"SubCentre, Alaiar",165,8
"Post Partum Unit, Parkal",126,2
SubCentre Chinthagattu,69,8
"SubCentre, Arjunpatla",54,2
"SubCentre, Agapet",82,9
SubCentre Bussapur,169,4
"SubCentre, Nereda 1",179,10
"SubCentre, Chinnakodepaka",191,3
SubCentre vangapad,126,9
Primary Health Centre  Komuravelly,185,10
"SubCentre, Bandarupally",159,10
SubCentre Gundenga,120,10
"SubCentre, Cityala",118,9
SubCentre Obulkeshavapur,102,2
"Primary Health Centre, Komalla",184,5
"SubCentre, Incherla",156,8
SubCentre Ashok Nagar-1,188,6
"SubCentre, Narsapoor",68,1
Primay Health Centre Velishala,79,8
SubCentre Mannegudem,191,7
"SubCentre, Raiparthy (W)",95,1
"SubCentre, Laxmidevipeta",198,5
"SubCentre, Sannoor",58,4
"Primary Health Centre, Thorrur",65,8
SubCentre Kadavendi,52,8
"SubCentre, Machipahad",66,10
"SubCentre, NN Thanda",72,7
SubCentre Chinna Madur,183,8
"Community Health Centre, Parkal",80,7
SubCentre Kesamudram(V),183,8
SubCentre Ippagudem,125,8
"SubCentre, Kammapally",69,6
"SubCentre, Dhoolmitta",67,3
SubCentre Ghanpur-I,82,1
SubCentre Jadalpet,51,1
"PPU CKM Hospital,WGL",135,4
"SubCentre, Pathipally",53,8
SubCentre Madapur,184,5
SubCentre Bheemaram,54,2
"SubCentre, Velikatta",59,9
"SubCentre, Parvathagiri",96,2
SubCentre Rangapur,105,1
Primary Health Centre Hasanparthy,105,10
"SubCentre, Nagaram",75,5
"SubCentre, Gandiramaram",131,10
"SubCentre, Vasanthapur",168,6
"SubCentre, Hanmanthapur",185,7
"SubCentre, Thorrur-II",76,5
"SubCentre, Jawaharnagar",196,10
"SubCentre, Sadireddypally",64,4
"SubCentre, Kannaigudem",82,3
Area Hospital Jangaon,144,10
"SubCentre, Edullapally",124,6
SubCentre Vechareni,149,2
"SubCentre, Mudupugal",121,4
SubCentre Kadipikonda,121,7
SubCentre Kogilavai,144,4
SubCentre Budaraopet,109,10
SubCentre Dharmaraopet,168,9
Primary Health Centre Govindaraopet,87,5
"SubCentre, Katriapally",117,10
"Primary Health Centre, Nallabelly",181,3
"SubCentre, Motlapally",174,4
"SubCentre, Rajole",91,1
SubCentre Mandapally,131,5
Urban Health Centre Somidi,115,8
SubCentre Thadellagudem,92,6
"SubCentre, Katrial",67,1
SubCentre Veeraram,136,9
"SubCentre, Pochampalli",94,4
SubCentre Konney,122,7
"SubCentre, Govindapur",177,2
SubCentre Gidde Muttaram,52,6
SubCentre Papaiahpet,161,2
SubCentre Domeravancha,163,10
"SubCentre, Rajula Kothapally",143,9
"SubCentre, Mutharam",131,5
SubCentre  AK Ghanpur 1,183,2
"SubCentre, Chandrugonda",165,7
SubCentre Thogarai,178,3
"Primary Health Centre, Komatlagudem",68,8
"SubCentre, Narsampet-II",128,9
"Primary Health Centre, Nekkonda",84,6
"SubCentre, Medapally",107,3
"SubCentre, Mogilicherla",66,8
"SubCentre, Bairanpally",92,5
SubCentre Damera,112,8
"Primary Health Centre, Raiparthy p",70,2
"SubCentre, Raghunathpally",173,9
"SubCentre, Namchari Madur",177,1
SubCentre Yellapur,161,4
"SubCentre, Rudragudem",71,2
"SubCentre, Danthalapally",67,5
"SubCentre, Annaram",164,4
SubCentre Inugurthy,80,9
"Primary Health Centre, Danthalapally",74,4
"SubCentre, Bhagrithypet",111,3
SubCentre  Inapur,184,10
"SubCentre, thirumalagiri",195,9
SubCentre Bhupalpally - II,74,9
SubCentre Pochannapet,137,9
"SubCentre, Bornarsapur",78,9
"SubCentre, Parkal-I",106,7
"SubCentre, Kothguda",53,9
"SubCentre, Velubelly",112,4
SubCentre Maqdumpuram,145,9
"SubCentre, Ookal",197,6
SubCentre Gudepad,94,8
"SubCentre, Mondrai",82,3
"SubCentre, Kampally",102,7
SubCentre  Komuravelly,111,1
SubCentre Venkatapur,160,1
SubCentre Gogupally,137,5
"SubCentre, Isipeta",75,2
"MGM Hospital,Warangal",90,6
SubCentre Seethanagaram,153,10
"SubCentre, Appalraopet",171,2
SubCentre Shivunipally,64,1
SubCentre Kompally,132,2
SubCentre Peddapahad,192,7
"SubCentre, Nereda 2",134,5
"Primary Health Centre, Regonda",155,2
"SubCentre, Nellikudur - I",146,3
SubCentre Mallikudurla,153,10
SubCentre Royyur,104,1
"Primary Health Centre, Tadvai",188,3
SubCentre Pembarthy,99,8
SubCentre Komatigudem,104,1
SubCentre Moranchapally,111,1
SubCentre Marrigadi,190,2
SubCentre Krishnajigudem,181,3
"SubCentre, Pogullapally",79,1
"SubCentre, Gurrampet",103,4
"SubCentre, Kanchanpalli-ll",86,7
SubCentre Jayagiri,80,10
"SubCentre, Balpal",147,4
SubCentre Kondai,83,5
"SubCentre, Raiparthy",92,1
Primary Health Centre Inugurthy,135,6
Primary Health Centre  Khanapur,150,8
SubCentre Neerukulla,123,5
"SubCentre, Koppula",167,3
SubCentre Thimmaraipad,139,10
"SubCentre, Thorrur",105,6
"SubCentre, Gatlakanparthi",157,7
"SubCentre, Narsimha Sagar",103,6
"SubCentre, Rollakal",156,6
"SubCentre, Gudur",147,9
"SubCentre, Tadvai",158,9
"SubCentre, Thammadapally",63,6
SubCentre Kasimpally,194,3
"SubCentre, Cherlapally",52,2
"SubCentre, Varikol",145,6
"SubCentre, Madipally",133,5
"SubCentre, Redyala",92,4
SubCentre Ayodhyapuram I,83,8
"SubCentre, Banajipet",103,7
"SubCentre, Waddicherla",57,5
"SubCentre, Thimmapet",173,5
SubCentre Khanapur,131,4
"SubCentre, Kamaram",114,1
"SubCentre, Madathapally",151,3
"SubCentre, Ramchandrapur",77,3
"SubCentre, Parkal-III",76,2
Primary Health Centre Royyur,128,4
"SubCentre, Sulthanpur",80,9
"SubCentre, Peddakomatipally",119,5
"SubCentre, Gorukothapalli",188,4
Primary Health Centre Velair,150,1
SubCentre  P. Sankeera,199,6
"SubCentre, Kotancha",86,6
"SubCentre, Veldi",88,4
"SubCentre, Pathipaka",84,5
"SubCentre, Vemulapally",164,2
"Primary Health Centre, Parvathagiri",74,4
SubCentre Macherla,144,10
SubCentre Yerragollapahad,192,9
"SubCentre, Chintha Nekkonda",180,10
"Primary Health Centre, Marripeda",75,1
"Urban Health Centre, Fort Warangal",114,7
"SubCentre, Quilashapur",70,4
"SubCentre, Lohitha",53,5
"Primary Health Centre, Ladnoor",93,1
SubCentre Mamnoor,198,5
"SubCentre, Enugul",122,8
"SubCentre, Gummunoor",170,9
SubCentre Gandhinagar,192,4
SubCentre Yenumamula,123,8
"SubCentre, Gunnepally",184,8
"SubCentre, Jakaram",110,7
"Urban Health Centre, Bodagutta",182,4
"SubCentre, Kamalapur",82,5
"SubCentre, Kummarikuntla",109,3
"Primary Health Centre, Shayampet",196,10
"Urban Health Centre, Chinthal",199,6
"Regional Eye Hospital,Warangal",182,10
"SubCentre, Marripeda",113,9
"SubCentre, Nawabpet",145,3
SubCentre  Vellampaly,114,6
"Community Health Centre, Gudur",89,9
SubCentre Chennaraopet,143,1
SubCentre Abadi Ghanpur,70,6
"SubCentre, Peddakorpolu",85,2
"SubCentre, Rangapur",161,3
"SubCentre, Eravennu",147,8
"SubCentre, Kamalapur - I",99,7
"SubCentre, Chinnapuram",193,3
SubCentre Tekulagudem,61,9
SubCentre Siddankai,68,10
SubCentre Gurvannapet,66,9
Primary Health Centre Chennaraopet,114,7
"SubCentre, Dardepally",144,5
"SubCentre, Ankisahapur",188,8
SubCentre Ladella,161,4
"SubCentre, Nainala",152,8
"SubCentre, Kodishala",83,10
"SubCentre, Elukurthy",166,10
"SubCentre, Chunchupally",114,8
"SubCentre, Rampur",65,2
"SubCentre, Mylaram",60,6
SubCentre  Ayodhyapuram II,59,2
SubCentre  Chunchanakota,61,1
"SubCentre, Kolukonda",166,7
SubCentre Mulkalpally,106,1
"SubCentre, Rajupeta",87,6
SubCentre  Dharmasagar - I,85,7
SubCentre Marrimeta,182,6
"SubCentre, Seetharampuram",62,8
"SubCentre, Kondur",147,3
SubCentre Doothpalli,126,4
"Primary Health Centre, Kodishala",163,2
"SubCentre, Gangaram",63,10
"SubCentre, Jeedical",153,7
"SubCentre, Vemunoor",166,1
"SubCentre, Sarvapur",190,6
"SubCentre, Kunoor",164,10
SubCentre Nagaram,115,7
"SubCentre, Neredupally",121,3
"SubCentre, Parkal-II",52,3
SubCentre Jangedu,123,9
"SubCentre, Laknapally",102,4
SubCentre Kamalapur,50,9
"SubCentre, Padamatigudem",178,10
"SubCentre, Cheetur",93,7
"Area Hospital, Mahabubabad",65,3
"SubCentre, Ramavaram",128,2
"SubCentre, Narlapoor",57,4
SubCentre Muddunur,90,10
"SubCentre, Nadikuda",190,5
"SubCentre, Narmetta",171,6
"Urban Health Centre, Keerthinagar",96,4
"SubCentre, Pandhikunta",152,10
SubCentre Akkampet,101,3
"SubCentre, Jamandlapally",193,8
"Primary Health Centre, Gangaram",114,7
"SubCentre, Venkatapur",164,1
SubCentre Pegadapally,63,3
"SubCentre, Mangapet",185,8
SubCentre Dharma rao pet,74,6
SubCentre S.C. Basthi,192,3
"SubCentre, Rebarthy",198,8
Urban Health Centre Waddepally,165,5
"Urban Health Centre, S.R.R.Thota",133,6
SubCentre Vanamalakanparthy,50,8
"SubCentre, Jangiligonda",179,7
SubCentre Namiligondaa,159,8
SubCentre Peddamcherla,122,10
"SubCentre, Kondapoor",65,2
"SubCentre, Seetharampoor",109,9
SubCentre Ammapalem,117,10
"SubCentre, Uppugallu",131,9
SubCentre Chinnapendyal,57,7
SubCentre Kanthanpally,59,2
SubCentre Rajanpally,71,7
"SubCentre, Indira Nagar",93,9
SubCentre Siddhapur,63,10
"SubCentre, Haripirala",172,3
SubCentre Gollacherla II,162,9
"SubCentre, Dharmaram",154,2
"SubCentre, Solipur",132,10
"SubCentre, Ambedker Nagar",169,1
SubCentre Samudrala,186,8
SubCentre Mathewada,185,1
"SubCentre, Manchuppula",127,4
SubCentre Buddaram,79,5
SubCentre Madikonda,62,10
"SubCentre, Upparapally",110,4
"SubCentre, Pocharam",88,8
SubCentre Jally,114,5
SubCentre Dudekulapally,104,8
Primary Health Centre Duggondi,73,10
"SubCentre, Musmi",153,3
"SubCentre, Kapulakaniparthy",121,5
SubCentre  Marrimustyala,105,9
"Post Partum Unit, Narsampet",169,9
"SubCentre, Gundrathimadugu",113,6
"SubCentre, Nallagunta",158,5
SubCentre Peddapur,144,9
"SubCentre, Kondapur",117,7
"SubCentre, Kothur",127,7
"SubCentre, Thimmapur",59,6
SubCentre Peecherla,151,10
SubCentre  Dharmasagar - II,108,5
SubCentre Intikanne,190,3
"SubCentre, Edunuthulla",66,6
"SubCentre, Malyala",158,7
"Primary Health Centre, Mogullapally",118,4
SubCentre Mylaram,141,3
SubCentre Velishala,82,1
SubCentre Malkapur,155,7
"SubCentre, Kandikonda",155,9
"SubCentre, Bangla",140,9
SubCentre Upparapally,167,1
Primary Health Centre Keshavapur,102,7
"Primary Health Centre, Raghunathpally",131,9
SubCentre Bhupathipet,115,2
"SubCentre, Kalvapur",97,1
"SubCentre, Mogullapally",195,10
"SubCentre, Bhanojipet",162,6
"CKM Hospital,Warangal",147,4
"SubCentre, Gabbeta",184,4
"SubCentre, Kuravi",151,10
"SubCentre, Tanamcherla",120,3
SubCentre Gurijala,75,9
"SubCentre, Kothuru G",133,2
Primary Health Centre Dornakal,106,8
"SubCentre, Cherlapalem",77,1
SubCentre Pasra,88,9
SubCentre Bachannapet-I,143,3
SubCentre  P.R. Pally,178,1
"Primary Health Centre, Maddur",119,8
SubCentre Bollepally,96,1
SubCentre Hasanparthy1,164,6
"SubCentre, Pragathisingaram",91,7
"Primary Health Centre, Kothaguda",175,3
SubCentre Upparapally,88,2
"Urban Health Centre, Deshaipet",164,2
"SubCentre, Bommera",144,8
"SubCentre, Matedu",133,1
SubCentre Thimmampeta,154,6
SubCentre Tekumatla,185,3
SubCentre Anathasagar,193,7
"Community Health Centre, Mulug",155,7
SubCentre Rampur,195,6
"Primary Health Centre, Rainigudem",162,8
SubCentre Peddapendyal,190,4
SubCentre  Dharmapur,160,8
SubCentre Appavajupally,115,1
"SubCentre, Malluru",145,2
"SubCentre, Alankanipet",103,6
"SubCentre, Jayaram",103,5
"SubCentre, Zaffergadh",149,4
Primary Health Centre  Athmakur,154,3
"SubCentre, Parvathagiri",173,4
"SubCentre, Mecharajupally",51,5
SubCentre Gudur II,101,1
SubCentre  Aknoor,83,4
"SubCentre, Nellikudur - II",92,4
"SubCentre, Katapoor",129,2
"SubCentre, Kanchanpalli-I",172,4
"SubCentre, Kambalapally",132,6
"SubCentre, Domeda",129,3
SubCentre Chelpur - II,50,3
"Primary Health Centre, Raiparthy (w)",146,5
SubCentre Komalla,193,3
"SubCentre, Krishna colony",67,7
"SubCentre, Ellanda - I",66,7
"SubCentre, Redlawada",97,4
"SubCentre, Vanaparthi",186,10
"Primary Health Centre, Chunchupally",121,10
"SubCentre, Godepally",148,10
"SubCentre, Authapuram",159,1
"SubCentre, Uggampally",88,3
"SubCentre, Isgudem",131,9
"SubCentre, Abdulnagaram",133,9
"SubCentre, Rajupeta",82,2
"SubCentre, Shyampet",181,4
SubCentre  Mondrai,169,7
"SubCentre, Inavole",147,5
"SubCentre, Nallabelly",109,3
SubCentre Gangupahad,148,1
"SubCentre, Deekshakunta",137,2
"Primary Health Centre, Mangapet",164,2
Primary Health Centre Kannaigudem,130,1
"SubCentre, Narlapur",102,6
"SubCentre, Wardhannapet - I",125,2
"Primary Health Centre, Banojipet",169,2
"SubCentre, Narsampet-I",167,2
"SubCentre, Lingala Ghanpur",161,1
"SubCentre, Vavilala",175,6
SubCentre Dhansari,186,6
SubCentre Chelpur - I,166,8
SubCentre Bhupalpally - I,57,9
"Community Health Centre, Cherial",152,1
SubCentre T.P.Pally,136,2
"SubCentre, Thopanapally",153,6
"SubCentre, Ookal",53,6
SubCentre Duggondi,173,7
"SubCentre, Beerelly",166,4
"SubCentre, Laberthy",116,10
Primary Health Centre Ghanpur(Station),184,1
"SubCentre, Panthini",146,8
SubCentre Mallakpally,167,5
SubCentre Dornakal III,63,4
Primary Health Centre Bachannapet,68,3
SubCentre Azamnagar,59,7
SubCentre Kondaparthi,98,4
"SubCentre, Anepuram",176,6
"SubCentre, Madhavapur",82,4
"SubCentre, Veldonda",99,5
SubCentre Mustyal,159,8
SubCentre Eturnagaram,177,10
SubCentre Katkoor,63,2
SubCentre  Devanoor,129,2
"SubCentre, Waddegudem",56,6
"SubCentre, Rangempet",160,4
SubCentre Penchikalapet,190,2
SubCentre Unikcharla,193,5
Primary Health Centre Gudur,69,2
"Primary Health Centre, Narmetta",183,1
"SubCentre, Nandanam",161,7
"SubCentre, Nidigonda",189,1
SubCentre Karkapally,160,4
SubCentre Seetharampur,63,7
"SubCentre, Munigalaveedu",102,10
"SubCentre, Narsimhulapet",77,5
"SubCentre, Gavicherla",114,3
"SubCentre, Nallabelly",53,1
"SubCentre, Narakkapet",104,8
Primary Health Centre Teegalaveni,199,7
"Primary Health Centre, Geesugonda",108,2
SubCentre Hasanparthy II,196,10
"SubCentre, Muchimpula",131,5
SubCentre Chelpaka,113,1
"SubCentre, Rangareddypeta",166,3
SubCentre Uyyalawada,162,3
SubCentre Rampur,173,8
"SubCentre, Parikedu",183,7
"SubCentre, Nagaram",80,6
"SubCentre, Madagudem",118,7
SubCentre NachinaPally,69,3
"SubCentre, Kalleda",131,2
SubCentre Gollabuddaram,116,5
SubCentre Thatikonda,126,1
"SubCentre, Sangem",166,2
"SubCentre, Kanparthy",113,1
SubCentre  AK Ghanpur 2,107,10
SubCentre  Kadavergu,98,10
SubCentre Arepalli,90,3
"SubCentre, Bollikunta",63,5
"SubCentre, Geesugonda",70,1
Primary Health Centre Kadipikonda,184,9
"Community Health Centre,  Eturnagaram",105,1
SubCentre Gudur I,56,7
SubCentre Thimmampeta,185,6
"SubCentre, Yellampeta",105,3
"SubCentre, Palampet",190,4
SubCentre  Garimillapally,137,10
SubCentre Mucherla,103,6
"SubCentre, Muthojipet",106,8
"SubCentre, Lenkapally",77,3
"SubCentre, Edjerla",90,7
"SubCentre, Kuravi 2",157,5
"SubCentre, Banthanagaram",84,3
"SubCentre, Gantlakuntha",136,7
SubCentre Laximipuram,112,9
SubCentre Pulkurthy,152,4
SubCentre Bachannapet-II,93,6
SubCentre Koyagudem,160,1
SubCentre Chityala,155,8
SubCentre Gorlaveedu,113,1
SubCentre Jookal,62,9
"SubCentre, Chillamcherla",149,2
"SubCentre, Ammapuram",189,1
"SubCentre, Nizampally",103,3
SubCentre Pallavelpula,193,3
"Primary Health Centre, Alankanipet",97,6
"SubCentre, Raghunathpalli S/c",179,8
"SubCentre, Medaram",168,7
"SubCentre, Konkapaka",75,2
Primary Health Centre Kesamudram,162,4
"SubCentre, Theegarajupally",145,2
SubCentre Thatikayala,63,2
SubCentre Athmakur,199,6
"Government Maternity Hospital,Hanmakonda",191,4
"SubCentre, Mulugu",74,5
SubCentre Sarvai,126,4
"Primary Health Centre, Kambalpally",90,8
"SubCentre, Kothur",122,3
SubCentre Dornakal II,68,2
SubCentre Narayagiri,185,8
"SubCentre, Thammadapally (G)",198,6
SubCentre hagal,159,4
"SubCentre, Thimmampet",159,9
SubCentre Penugonda,75,6
SubCentre Chalvai,87,2
"SubCentre, Marrigudem",128,6
SubCentre Konapuram,74,8
"SubCentre, Bethol",161,6
SubCentre Ayyagaripally,79,4
SubCentre Dumpalligudem,190,8
"Primary Health Centre, Medapally",159,6
"SubCentre, Mogilicherla",140,8
SubCentre Mallampally,132,5
"SubCentre, Peddamadur",187,1
SubCentre Kondapur,60,9
SubCentre  Chityal,149,8
SubCentre Mupparam,134,3
"SubCentre, Regonda",145,2
SubCentre Signrajpally,143,7
"SubCentre, Sriramgiri",99,6
"SubCentre, Rangaiahpalli",162,10
"SubCentre, Burhanpuram",147,6
Primary Health Centre Damera,101,9
"SubCentre, Brahmanapally",77,6
"SubCentre, Komatlagudem",70,1
"SubCentre, Devanagar",156,2
"SubCentre, Kallem",141,2
"SubCentre, Mylaram",117,7
SubCentre Ameenabad,97,5
SubCentre  Projectnagar,110,9
"SubCentre, Chinnagudur",68,8
"SubCentre, Mondraigudem",132,8
"Primary Health Centre, Sangam",109,10
SubCentre Rajannapet,72,7
"SubCentre, Bandultepoor",136,6
SubCentre Seetharampur,89,4
"SubCentre, Veeraram",181,5
Primary Health Centre  Malkapur,97,5
"SubCentre, Bixampet",110,6
SubCentre Nagaram,122,7
Primary Health Centre Bhupalpally,95,3
"SubCentre, Chennur",148,10
SubCentre Mallareddypally,116,4
"SubCentre, Peddapur",137,7
SubCentre  Chinnaboinapally,161,8
Primary Health Centre Chelpur,85,1
"SubCentre, Visnoor",61,3
"SubCentre, Nekkonda",171,3
"SubCentre, Bathulapally",184,5
SubCentre Yellaigudem,69,1
"SubCentre, Dwarakapet",84,2
"SubCentre, Bodlada",126,3
"SubCentre, Narsampet-III",138,9
"SubCentre, Otai",169,6
"SubCentre, Kommala",131,2
"SubCentre, Ashwaraopalli",123,1
Urban Health Centre Peddammagadda,161,8
SubCentre Ghanpur (M),165,7
"SubCentre, Kannaraopet",100,1
SubCentre Chilukonda,146,4
SubCentre Kothur,90,6
SubCentre Thammadapally,96,8
"SubCentre, Ellanda - II",187,6
"SubCentre, Nellutla",179,5
"SubCentre, Salakpoor",100,9
SubCentre Oorugonda,195,9
SubCentre Kodavatoor,179,6
"SubCentre, Ponnelu",134,6
"SubCentre, Etikalapally",125,8
"SubCentre, Kantathmakur",141,3
"SubCentre, Venkatapur",63,7
SubCentre Madikonda-Li,186,2
SubCentre Meedikonda,188,9
"SubCentre, Kundaram",193,7
"SubCentre, Doulathnagar",74,9
SubCentre Alimpur,188,9
"SubCentre, Gorrekunta",176,6
SubCentre Vodithala,149,10
"SubCentre, Narsimhulagudem",96,5
Primary Health Centre Kodakandla,172,10
"SubCentre, Palakurthy",133,7
"SubCentre, Anantharam",96,8
Primary Health Centre Devaruppula,135,6
"SubCentre, Cherupally",96,10
SubCentre Sripathipally,184,9
"SubCentre, Siripuram",160,5
"SubCentre, Mallampally",159,10
"SubCentre, Jayapuram",143,6
SubCentre Ashok Nagar-II,190,2
"SubCentre, Besta Bazar",119,7
SubCentre Keshavapur,128,5
"SubCentre, Venkatapur",137,8
SubCentre Vadlakonda,177,1
SubCentre  Gollacherla I,86,5
"SubCentre, Thurputhanda",109,2
SubCentre Nashkal,123,10
"SubCentre, Mekalagartu",197,10
"SubCentre, Seerolu",153,7
SubCentre Kalvala,146,6
SubCentre Rajavaram,122,8
"SubCentre, Dubagudem",102,3
SubCentre AK Ghanpur 3,61,3
"SubCentre, Jangalapally",172,4
"SubCentre, Pidicilla",152,10
"Primary Health Centre, Venkatapur",104,7
SubCentre Govindraopet,178,4
Urban Health Centre Rangshaipet,106,9
"SubCentre, Wardhannapet-II",187,7
"SubCentre, Thigappula",136,4
SubCentre Chilpur,120,9
"Urban Health Centre, Shayampet",176,2
"SubCentre, Rangapur",141,5
"Community Health Centre, Narsampet",62,6
SubCentre Thhegalaveni,78,5
"SubCentre, Munigmadugu",63,9
"SubCentre, Somaram",70,9
SubCentre Velair,184,5
SubCentre  Kannigudem,145,7
"SubCentre, Kuruchapalli",193,10
"SubCentre, Relakunta",152,4
SubCentre Devannapet,116,6
"SubCentre, E.P. Pally",157,1
"Primary Health Centre, Kunur",160,7
"SubCentre, Maddur - I",197,10
UFWC Jangaon,65,6
"Primary Health Centre, Palakurthy",93,9
"SubCentre, Manugonda",53,10
Primary Health Centre  Pasra,197,3
"SubCentre, Qurthur",156,6
"SubCentre, Choutapally",189,4
"SubCentre, Chinthalpally",142,9
"SubCentre, Katrapally",189,9
SubCentre Gajulagattu,140,7
Primary Health Centre Azamnagar,55,6
"SubCentre, Vellampally",190,2
"SubCentre, Vanthadpla",156,3
"SubCentre, Madhanapet",198,9
"Primary Health Centre, Nellikudur",60,3
"SubCentre, Mahaboobnagar",80,7
"Urban Health Centre, Lashkarsingaram",148,10
"SubCentre, Maheshwaram",151,4
SubCentre Battupalli,100,8
"SubCentre, Devaruppula",55,3
"SubCentre, Vaddekothapalli",155,9
"SubCentre, Suraram",112,2
SubCentre Boddugonda,79,8
SubCentre Nagapuri,137,1
SubCentre  Challagariga,82,7
SubCentre Mangala Varipet,173,7
"SubCentre, Abbaipalem",74,5
"SubCentre, Narsapur",61,6
"Community Health Centre, Chityal",98,1
"SubCentre, Fatheshapur",59,6
"SubCentre, lakshmakkapally",193,2
Primary Health Centre Vodithala,175,8
"SubCentre, Ladnoor",50,10
SubCentre Laknavaram,121,4
"SubCentre, Gagillapur",90,3
"SubCentre, Muripirala",151,5
"SubCentre, Keshavapur",128,5
"SubCentre, Komatipally",103,10
"SubCentre, Chinnamupparam",89,7
SubCentre  Chain Paka,54,2
"SubCentre, Vanchanagiri",112,10
SubCentre Dornakal I,173,9
"SubCentre, Kousalyadevipally",99,1
"Primary Health Centre, Zaffergadh",137,7
"SubCentre, Amangal",70,3
"SubCentre, Kodakandla",99,5
SubCentre Thimmapur,106,8
SubCentre Madikonda-lii,79,4
"SubCentre, Modugulagudem",156,6
"SubCentre, Gangaram",107,9
SubCentre Suripally,192,8
"SubCentre, Madanpally",132,8
"SubCentre, Upparigudem",55,4
Primary Health Centre  Dharmasagar,60,1
"Community Health Centre, Wardhannapet",131,4
"SubCentre, Yerrabelligudem",83,6
"SubCentre, Akinapally",75,6
"Primary Health Centre, Inavole",195,3
"SubCentre, Datla",137,8
"SubCentre, Pedda Nagaram",129,4
UFWC GMH Hanmakonda,170,6
Primary Health Centre Ghanpur (Mulug),123,1
"Primary Health Centre, Balpal",94,2
"SubCentre, Garimillapally",109,5
"SubCentre, Peddakodepaka",141,8
"SubCentre, BC  Pally",184,5
SubCentre Paidipalli,174,9
"SubCentre, Pedda Mupparam",196,2
"SubCentre, Pedavangara",193,3
SubCentre Kesamudram(Stn),183,4
"Primary Health Centre, Lingalaghanpur",57,7
SubCentre Padmati Keshwapur,111,7
SubCentre Korkondapally,164,10
"SubCentre, Dhammannapet",82,4
SubCentre Pallagutta,116,10
SubCentre Elukurkurthy,82,10
"SubCentre, Alaiar",114,8
"Post Partum Unit, Parkal",79,5
SubCentre Chinthagattu,177,6
"SubCentre, Arjunpatla",79,7
"SubCentre, Agapet",71,7
SubCentre Bussapur,142,9
"SubCentre, Nereda 1",55,8
"SubCentre, Chinnakodepaka",148,1
SubCentre vangapad,167,1
Primary Health Centre  Komuravelly,95,10
"SubCentre, Bandarupally",96,10
SubCentre Gundenga,118,6
"SubCentre, Cityala",92,2
SubCentre Obulkeshavapur,98,10
"Primary Health Centre, Komalla",61,7
"SubCentre, Incherla",133,1
SubCentre Ashok Nagar-1,154,7
"SubCentre, Narsapoor",104,4
Primay Health Centre Velishala,74,3
SubCentre Mannegudem,184,10
"SubCentre, Raiparthy (W)",57,6
"SubCentre, Laxmidevipeta",115,2
"SubCentre, Sannoor",58,1
"Primary Health Centre, Thorrur",149,3
SubCentre Kadavendi,99,3
"SubCentre, Machipahad",94,9
"SubCentre, NN Thanda",160,9
SubCentre Chinna Madur,68,9
"Community Health Centre, Parkal",156,4
SubCentre Kesamudram(V),117,4
SubCentre Ippagudem,183,1
"SubCentre, Kammapally",175,8
"SubCentre, Dhoolmitta",180,6
SubCentre Ghanpur-I,108,1
SubCentre Jadalpet,199,8
"PPU CKM Hospital,WGL",59,4
"SubCentre, Pathipally",176,10
SubCentre Madapur,55,10
SubCentre Bheemaram,121,7
"SubCentre, Velikatta",182,1
"SubCentre, Parvathagiri",72,5
SubCentre Rangapur,60,3
Primary Health Centre Hasanparthy,115,5
"SubCentre, Nagaram",153,5
"SubCentre, Gandiramaram",150,1
"SubCentre, Vasanthapur",183,9
"SubCentre, Hanmanthapur",67,2
"SubCentre, Thorrur-II",163,8
"SubCentre, Jawaharnagar",187,10
"SubCentre, Sadireddypally",128,1
"SubCentre, Kannaigudem",168,7
Area Hospital Jangaon,123,10
"SubCentre, Edullapally",152,10
SubCentre Vechareni,102,5
"SubCentre, Mudupugal",102,4
SubCentre Kadipikonda,69,3
SubCentre Kogilavai,56,4
SubCentre Budaraopet,73,2
SubCentre Dharmaraopet,127,8
