Health Facility Name,Number_Of_Beds,Rating
Barsana,102,1
Nouch,81,5
PHC Karora,123,1
KAILRAM,84,9
siwan-3,171,10
Sinad,99,2
Gulha,96,7
Rasulpur,198,4
Bank Colony,135,3
Kasan,118,6
Jagdishpura,52,6
Balu-2,193,3
Hazwana,106,6
RAWAN HERA,167,3
Basti back side RSSB,54,10
Pabnawa-2,138,4
PHC Guhla,174,4
Jakholi,96,1
Batta1,158,6
Amargarh Gamri,105,6
Pai -3,195,6
PHC Kalayat,122,6
Rajiv Colony,101,4
Manas,112,8
Balu-1,71,6
PHC Batta,146,6
Basti Out side Dogra Gate,81,1
Shakti Nagar,149,1
Dundwa,77,5
Friend Colony,141,7
PHC TEEK,154,2
Aggarsain Puram,79,4
kakeri,141,9
Shogir Basti,107,3
Pundri-1,194,8
Songri,191,10
Kharodi,54,8
Harsola,80,1
Guhna,85,1
Bir Bangra,159,6
Rasina,150,8
PHC Keorak,133,8
Kukarkanda,155,6
Chuharmajra,117,10
Mehmudpur,171,1
Haripura,137,10
Seth Rajender,74,1
Ksaur,177,6
Titram,76,7
Badsikrikhurd,145,8
Back Side Silver Oak,121,2
Gagarpur,55,9
Sega,65,10
Patti Afgan,111,10
Shakti Nagar,53,3
Mator,174,6
Sajooma,183,2
Kharkan,192,1
Pai -1,172,7
France wala Road,127,4
Dhand,63,10
Arjun Nagar Patti Afgan,90,5
Rohera,87,2
Mandwal,186,1
Ahun,84,10
Serdha -2,129,10
Rishi Nagar,118,10
Bhusla,104,7
Pilni,136,1
Kotra,147,6
Chaba,50,7
PHC Dhand,167,6
PHC Balu,148,10
PHC Siwan,163,9
Taragarh,122,5
Duserpur,80,4
Kalayat2,113,1
Krishan Nager opp. udyog Marg,68,7
Pabnawa-1,114,2
PHC Kharanka,173,9
Simla,131,5
Mundri,136,3
PHC Rajound,146,7
Nanak uri  Basti,56,6
Peedal,123,2
Deban wal Khera,107,7
Kawartan,102,1
R K Puram,143,5
Rewarjagir,157,4
karora-2,181,4
Mahadev Coony,173,6
Kaul-2,182,9
Kolekhan,153,5
Pundri-2,159,1
PHC Deoban,102,6
Pharal-1,199,6
PHC Kangthali,191,2
Ambedkar Nagar,147,4
Budh Kund Colony Khurana Road,172,1
Sisla,125,1
Bandrana,58,5
"PHC Jakholi,Kaithal",157,6
Kheri Gulamali,51,4
Fransmajra,142,9
Near Kirpal Aasram,134,9
Nehru Garden,199,1
Sanghan,198,2
Rajni Colony,88,1
Seomajra,123,9
Teek,152,9
Sair,56,6
Peoda  Road by Pass,107,5
Habri-2,117,7
Batta-2,73,1
Dera Carnal sahab,52,2
Kamheri,182,3
Post office and Raliway Station,135,2
Peoda,97,1
Agondh,186,9
Sakra,118,10
Chandana,179,4
Budakhera,123,6
Dubbal,116,8
Patel Nagar,122,4
Pai-2,58,6
Back Side Area Jila Parishad,86,6
Balraj Nagar,108,4
Deoban,90,3
Arnoli,69,7
Karora-1,61,5
Balraj Nagar Kutepur Road,140,3
Ramthali,68,5
Colony Khurana Road Near DAV Public School,170,4
Kharak Pandwa,166,9
PHC Padla,110,6
Kakot,190,9
Dura Rice Mill,134,2
Saini Basti Outside Chandana Gate,121,4
Rajound-2,155,2
Fatehpur,126,8
Kutubpur,160,2
siwan-2,61,8
Barot,104,7
Pundri-3,65,10
Kaul1,149,8
Sirsal,103,5
Kherisherkhan,169,10
Naina,84,7
PHC Pai,155,7
Subesh  Nagar,108,5
Chandana Road Jaton wali Gamri,74,10
Julani Khera,170,10
Bhuna,53,10
Sangroli,94,4
Deora,119,1
Baba Ladana,107,10
Nandkaran Majra,168,9
Chout,107,6
Munaraheri,62,8
PHC Habri,123,3
Hari Nagar Kutepur Road,183,6
Kamalpur,199,3
Teontha,103,4
Narar,171,9
Kithana,184,1
Old Hospital,93,10
Patel Nagar,188,3
Rajound-1,156,7
Guliana,54,3
Siwan1,125,3
Kalayat1,179,4
Dakot basti near Karnal Road,149,4
Badsui,67,4
"Near Saini School, Sikka Rice Mill",147,6
Habri -1,124,10
Sanch,130,4
Serdha -1,91,3
Bhagal,111,7
Near Little Flower Area,140,7
Keorak-1,66,3
PHC Kithana,56,8
PHC Bhagal,53,6
Paharpur,64,10
Subhash Nagar Devigarh Road,172,2
Theybanera,121,6
Sotha,142,3
Songal,180,5
Bakal,92,3
Khurana,135,2
Bhana,190,3
Ambedkar Basti Out Side Partap Gate,152,3
Ram Nagar,110,2
Choushala,87,8
Padla,111,7
Kultaran,88,8
Jadola,87,3
Cheeka,57,1
Keorak-2,93,10
PHC Mundri,94,7
PHC Pundri,162,10
Kurar,151,10
PHC Rasina,87,7
Kangthali,160,1
Bishangarh Gamri,150,7
Neemwala,109,10
Balbhera,105,5
Tatiana,87,1
Geong,161,8
Ramgarh Pandwan,84,10
PHC Kaul,121,4
Basti Nagar,93,10
Shiv Nagar out side Area,59,6
Deeg,147,10
Mohna,179,5
Khurana Road Near Haritage Pubic School,64,3
Pharal-2,125,8
Jajanpur,80,9
Barsana,152,8
Nouch,191,7
PHC Karora,111,9
KAILRAM,57,8
siwan-3,145,6
Sinad,63,9
Gulha,172,6
Rasulpur,116,9
Bank Colony,170,5
Kasan,69,6
Jagdishpura,194,3
Balu-2,113,9
Hazwana,94,5
RAWAN HERA,160,9
Basti back side RSSB,112,9
Pabnawa-2,94,5
PHC Guhla,198,7
Jakholi,180,1
Batta1,98,7
Amargarh Gamri,193,1
Pai -3,82,5
PHC Kalayat,189,9
Rajiv Colony,194,4
Manas,169,9
Balu-1,61,5
PHC Batta,145,6
Basti Out side Dogra Gate,78,9
Shakti Nagar,99,4
Dundwa,188,3
Friend Colony,183,7
PHC TEEK,93,6
Aggarsain Puram,82,6
kakeri,123,3
Shogir Basti,165,4
Pundri-1,60,8
Songri,81,1
Kharodi,72,7
Harsola,140,10
Guhna,163,6
Bir Bangra,149,1
Rasina,71,6
PHC Keorak,181,7
Kukarkanda,51,3
Chuharmajra,160,2
Mehmudpur,150,6
Haripura,104,9
Seth Rajender,139,7
Ksaur,136,8
Titram,68,8
Badsikrikhurd,182,9
Back Side Silver Oak,102,8
Gagarpur,134,2
Sega,171,3
Patti Afgan,97,5
Shakti Nagar,106,5
Mator,186,5
Sajooma,82,1
Kharkan,172,4
Pai -1,177,5
France wala Road,99,1
Dhand,129,2
Arjun Nagar Patti Afgan,172,6
Rohera,170,2
Mandwal,70,10
Ahun,96,8
Serdha -2,192,2
Rishi Nagar,68,7
Bhusla,102,4
Pilni,163,3
Kotra,91,5
Chaba,130,10
PHC Dhand,53,5
PHC Balu,185,6
PHC Siwan,85,8
Taragarh,90,8
Duserpur,190,5
Kalayat2,96,4
Krishan Nager opp. udyog Marg,131,2
Pabnawa-1,141,7
PHC Kharanka,170,1
Simla,121,4
Mundri,122,6
PHC Rajound,125,5
Nanak uri  Basti,164,3
Peedal,143,5
Deban wal Khera,70,4
Kawartan,84,9
R K Puram,105,6
Rewarjagir,148,9
karora-2,97,9
Mahadev Coony,103,4
Kaul-2,135,9
Kolekhan,54,9
Pundri-2,130,2
PHC Deoban,114,8
Pharal-1,190,6
PHC Kangthali,154,8
Ambedkar Nagar,137,2
Budh Kund Colony Khurana Road,162,9
Sisla,84,1
Bandrana,120,6
"PHC Jakholi,Kaithal",152,4
Kheri Gulamali,98,4
Fransmajra,197,5
Near Kirpal Aasram,98,8
Nehru Garden,60,6
Sanghan,58,3
Rajni Colony,98,8
Seomajra,122,1
Teek,61,9
Sair,177,6
Peoda  Road by Pass,101,9
Habri-2,56,8
Batta-2,150,5
Dera Carnal sahab,71,5
Kamheri,145,1
Post office and Raliway Station,127,5
Peoda,68,8
Agondh,191,4
Sakra,120,3
Chandana,60,10
Budakhera,75,6
Dubbal,103,2
Patel Nagar,91,10
Pai-2,118,3
Back Side Area Jila Parishad,82,5
Balraj Nagar,145,7
Deoban,130,7
Arnoli,153,3
Karora-1,86,10
Balraj Nagar Kutepur Road,193,3
Ramthali,70,5
Colony Khurana Road Near DAV Public School,166,5
Kharak Pandwa,182,9
PHC Padla,178,9
Kakot,90,3
Dura Rice Mill,131,1
Saini Basti Outside Chandana Gate,127,5
Rajound-2,177,5
Fatehpur,73,8
Kutubpur,159,6
siwan-2,171,1
Barot,114,6
Pundri-3,151,4
Kaul1,172,8
Sirsal,183,4
Kherisherkhan,62,8
Naina,181,1
PHC Pai,160,9
Subesh  Nagar,178,10
Chandana Road Jaton wali Gamri,197,3
Julani Khera,107,7
Bhuna,188,3
Sangroli,91,8
Deora,147,8
Baba Ladana,73,8
Nandkaran Majra,87,9
Chout,197,1
Munaraheri,172,10
PHC Habri,140,10
Hari Nagar Kutepur Road,141,5
Kamalpur,140,9
Teontha,85,3
Narar,125,6
Kithana,192,6
Old Hospital,171,5
Patel Nagar,191,2
Rajound-1,197,8
Guliana,144,8
Siwan1,148,8
Kalayat1,126,8
Dakot basti near Karnal Road,109,4
Badsui,61,8
"Near Saini School, Sikka Rice Mill",109,9
Habri -1,181,7
Sanch,127,8
Serdha -1,183,7
Bhagal,108,4
Near Little Flower Area,89,4
Keorak-1,69,9
PHC Kithana,198,9
PHC Bhagal,198,6
Paharpur,122,2
Subhash Nagar Devigarh Road,165,5
Theybanera,148,9
Sotha,169,2
Songal,50,9
Bakal,118,5
Khurana,70,10
Bhana,120,2
Ambedkar Basti Out Side Partap Gate,58,9
Ram Nagar,165,9
Choushala,91,8
Padla,80,4
Kultaran,116,5
Jadola,52,6
Cheeka,58,1
Keorak-2,89,9
PHC Mundri,139,1
PHC Pundri,89,2
Kurar,134,4
PHC Rasina,93,4
Kangthali,164,2
Bishangarh Gamri,167,1
Neemwala,53,4
Balbhera,119,1
Tatiana,90,1
Geong,176,5
Ramgarh Pandwan,83,7
PHC Kaul,69,5
Basti Nagar,93,8
Shiv Nagar out side Area,168,1
Deeg,126,8
Mohna,144,4
Khurana Road Near Haritage Pubic School,145,3
Pharal-2,80,7
Jajanpur,120,6
