Health Facility Name,Number_Of_Beds,Rating
MAL SUB DIVISIONAL HOSPITAL,52,7
Jalpaiguri District Hospial,67,2
Samsing Top Line,140,9
Uttar Matiali,85,2
Takimari SC,87,6
Jorapani,54,5
Mathachulka PHC,104,4
Indong T.G.,151,5
N. Boalmari,51,9
Dicapara SC,115,5
Amguri GP HQ,142,9
Killcott T.G.,177,4
Dhumpara,135,2
Chaulhati,133,4
Dabgram I GP HQ SC,197,10
Paitkakhocha,149,2
Jorpakri sc,125,8
Champaguri,160,2
Sukhani Basti,121,4
Kranti,86,9
South Khalpara,82,2
Sannyasikata,116,2
Niranjanpat,86,6
Ambari SC,55,5
Bodaganj,155,8
Nayarhat,178,6
South Barogila,53,5
Denguajhar,80,10
Chuna Bhuti TG,187,8
Jhajhangi HQ,95,8
Jhar Alta II GP HQ Sc,193,6
Ramsai,70,3
Gourchandi,150,9
Mohitnagar,87,2
Jaldhaka Majhiali,60,6
Debpara TG,79,2
East Magurmari,94,6
Saptibari PHC SC,158,8
Majabari,71,3
Leesh River T.G.,194,7
Baropatia,107,5
Gazaldoba No 10,148,4
Sulkapara RH,68,5
Sahadebvita,58,9
Hindi School,85,6
Thaljhora,74,7
Dhalabari,54,4
Mantadari GP HQ SC,168,2
Lakhipara TG,148,2
Bagribari,73,4
Kalabari Bazar,178,4
Sakoajhora I GP HQ SC,188,5
Jamurivita,152,1
Looksan PHC SC,151,8
Chamurchi GPHQ Sc,122,9
Duramari PHC SC-Salbari I GP HQ Sc,178,4
Charerbari,94,2
T.B. Hospitalpara,126,2
Nazirpara,140,2
South Dangapara,89,1
Gadong I GP HQ SC,115,10
Kasirdanga,179,2
Kumarpara,182,1
Matiali T.G.,75,8
S. Berubari PHC SC,105,10
Jhar Altagram-I GPHQ SC,158,8
Bhurungerbari PHC SC,183,4
Newmal,163,2
Barivasa,100,8
Singimari,71,6
Kawagab,194,5
Kalinagar PHC SC,79,9
Lal Jhamela,118,6
Sylee T.G,131,8
Manabari,124,5
Jhar Magurmari,159,1
Dhoulabari,100,8
Indong PHC  SC,144,9
Majhiali GP,94,7
Kachua,135,2
Bhandiguri,195,10
Sepaipara,155,6
Telepara TG,76,10
Bangkandi,168,6
Sankoajhora,80,3
Domohani,167,8
Jugnidanga SC,135,10
Kalinagar PHC,90,2
Rangalivita,76,2
Gazaldoba No7,67,7
Matiali Hat,180,6
Sukhani GP HQ SC,160,8
Magurmari GP  II,114,4
Rungamuttee T.G.,59,3
Mugalkata TG,112,7
Samarnagar SC,93,6
Patharjhora T.G,177,6
Gedipara,159,10
Jalapara,194,4
Indong PHC,115,10
Khyerbari,76,8
Babupara,119,10
Jhar Matiali,107,5
Hridaypur,136,10
Bramapur,64,1
Dhupguri RH,119,9
Fulbari I GP,188,3
Baruapara,54,2
Binnaguri GP HQ SC,83,8
Paschelguri,69,8
Hatiadanga SC,92,4
Barnesh PHC SC,76,2
Lataguri,199,8
Vemtia,123,3
Kajipara,95,9
Batabari T.G.,110,8
Bhagatpur I,97,1
Sathkhyah,61,5
Madhabdanga  II GP HQ,153,1
Bholapara,91,3
Anandapur T.G.,129,7
Sologhoria,130,8
Jhar Barogila HQ,163,7
Kodalkati,177,7
Chalsa T.G.,79,10
Patkata Colony,139,1
B.S.Co.,196,10
N. Boalmari GP,180,6
West Daukimari,83,5
Dhumpara PHC SC,154,8
Basusuba,100,1
Damdim,91,2
Bamandanga,185,2
Betgara,135,7
Satkura,116,10
Red Bank  TG,137,2
Purba Damdim,114,7
Gadang GP  II,149,9
Anandanagar,177,7
Banarhat PHC,56,2
Oodlabari,141,6
Maynaguri BPHC SC,180,8
Rajganj RH,75,8
Salbari GP  II,102,8
DamDim T.G,89,10
Ellenbari T.G.,176,10
Raninagar,147,7
Sovabari,142,8
Sahudangi,57,3
Dakhin Hanskhali,76,7
Bhagatpur II,82,10
Aibheel T.G.,179,10
N. Boalmari PHC SC,155,5
Kukurjan PHC,157,1
Marichbari,85,1
South Chalk Moulani,83,7
Jamuribari,124,7
North Kalamati,50,8
Bahadur,69,3
Chapgar,153,10
South Kathulia,173,1
East Dawkimari,58,4
Vivekanandapally,155,6
Domohoni II GP HQ,176,10
Konpakri,191,9
Mangalbari,126,5
Godheyer Khutti GPHQ,63,10
Oodlabari T.G.,111,5
Huldibari TG,67,3
New Dooars TG,111,6
Jotiakali,138,6
Gandrapara TG,160,7
Sakoajhora PHC SC,186,10
Shikarpur GP HQ SC,87,1
Neora Nuddy T.G.,143,1
Baroghoria,60,9
Jogesh Ch. T.G.,164,3
Dhobguri,136,6
Johuri,132,5
Ullardabri,83,7
Madhabdanga  I GP HQ,115,1
Saptibari,87,10
Pradhanpara,182,5
Singhimari PHC SC,158,6
Magurmari GP  I,101,2
Batabari,160,6
Karbala TG,152,10
Zurrantee T.G.,157,8
Panditpara SC,60,8
Shikarpur PHC SC,162,9
Matiali,100,8
Palashbari TG,99,9
SNoon Khawadanga,157,3
Madhabdanga,99,5
Chapadanga,183,5
East Salbari,164,7
Uttar Sakoajhora - Pubra Gairkata,174,10
Washabari T.G.,108,3
Bahadur PHC SC,112,3
Santinagar,190,6
Uttar Saripakuri,118,1
Duramari PHC,64,4
Meenglass T.G.,124,10
Ambari TG,116,4
Goalghumti,78,8
South Oodlabari,58,9
Churabhander,186,10
Putimari,155,7
Chalantika Club,121,6
N Berubari Gomira para,160,1
Susthirhat HQ,119,9
Dhingpara,65,5
Baraghoria,128,10
Kumlai,144,7
Fataktari,65,3
Basilardanga,60,2
East Duramari,160,7
Paharpur,94,6
Binnaguri TG,167,4
Sulkapara,144,5
Tariapara,95,10
Kathalbari,169,3
Samsing T.G. Hospital,165,9
Purba Altagram - Kalyan Sangha,133,6
South Alta Gram,146,10
Neora Majhiali,183,9
Jharaltagram,61,8
Dasdarga,189,2
South Hanskhali,159,3
South Khagrabari,100,5
Tekatuli HQ,153,4
Est Dhantala SC,76,9
Oodlabari BPHC,164,3
Koranipara,52,7
Padamati II GP HQ,105,1
Kalitala SC,128,2
Godheyagoch,68,2
Looksan,130,10
Grassmore Basti,145,3
Baradighi,175,7
Kukurjan PHC SC,194,3
Kamrangaguri,87,9
Maynaguri GP HQ,55,4
West Dalaigaon,52,8
Maruim Basti,185,4
Bhutki,97,2
Rangdhamali,189,3
Shikarpur PHC,101,10
North Dhupjhora,193,6
Kharija Berubari,142,8
Uttar Khuttimari,154,8
Padamati I GP HQ,171,10
D.Ektiasal,86,7
Purbadahar,53,3
Belakoba RH,61,1
Soongachi T.G.,108,3
Banarhat-I GPHQ SC,184,2
K.Berubari PHC S,74,9
Karaibari,126,2
Uttar Khalpara,84,5
Bhangamali SC,140,10
Nutanbasti,130,8
South Gosaierhat,66,3
Moraghat TG,109,5
Dakshin Khairbari - Goler Danga,103,2
Shikarpur TG SC,114,1
Baintguri T.G,64,8
Malkani Para SC,66,5
Gayerkata TG,166,4
Banizerhat,182,1
South Berubari,92,5
Kathalguri SC,136,9
Chalsa Mahabari,122,8
Baradighi,148,10
Barnish,173,2
Chengmari Rly Station,154,6
South Dhupjhora,97,1
Mondalghat GP,180,10
TotaparaTG,156,2
Carron,156,10
Gochimari,72,10
Uttar Noon Khawa Danga,60,4
Barogharia GP HQ SC,64,10
Randhamali PHC SC,123,3
Balapara,193,4
Hilla T.G.,194,3
Mohorer Bandh SC,189,3
Sajnapara,165,8
Sakoajhora GP II,61,7
Mallick Sova,195,6
Maynaguri RH,145,4
Dabgram II GP,56,8
Malkani Hat,148,10
Chalk Moulani,125,4
North Padamati,160,3
Moulani,54,2
Jabramali,89,8
Kathalguri TG,110,6
Tuklimari,180,8
Ramsai PHC SC,50,9
Collegepara,99,3
Haihai Pathar,64,10
West Tesimla,94,7
Kheirkata,77,2
Khalai Gram,162,1
Fulbari II GP HQ SC,50,2
Jhar Salbari,177,3
Moringajhora SC,93,10
South Matiali,146,3
Toonbari T.G.,192,5
Belakoba  BPHC SC,119,2
Mathachulka PHC SC,159,9
Pradhan Para SC,84,7
Harmoti,161,9
Sebagram,134,2
Sylee Hat,103,6
Rajganj R.H. SC,99,10
Helapakri,187,4
Binnaguri GP HQ SC,111,1
Kumlai T.G.,124,3
Daikhata,170,2
Bhurungernari,108,6
Uttar Saripakuri,176,9
Maner Danga,79,9
Bhagatpur,149,3
Bagzan,137,4
Bhabaninagar,176,10
Panicouri GP HQ SC,150,7
Chanda Co,149,2
Dharmapur,58,9
Mangalbari R.H.,175,10
Balabari,150,5
Churabhander PHC SC,78,5
Chanadipa SC,192,10
Lalbazarpara,132,8
MAL SUB DIVISIONAL HOSPITAL,156,5
Jalpaiguri District Hospial,60,4
Samsing Top Line,184,10
Uttar Matiali,152,5
Takimari SC,163,7
Jorapani,121,4
Mathachulka PHC,161,9
Indong T.G.,99,1
N. Boalmari,57,4
Dicapara SC,56,6
Amguri GP HQ,194,9
Killcott T.G.,130,8
Dhumpara,151,10
Chaulhati,151,1
Dabgram I GP HQ SC,61,2
Paitkakhocha,54,10
Jorpakri sc,191,7
Champaguri,140,3
Sukhani Basti,54,4
Kranti,134,8
South Khalpara,115,1
Sannyasikata,110,6
Niranjanpat,156,1
Ambari SC,178,5
Bodaganj,92,8
Nayarhat,104,8
South Barogila,53,8
Denguajhar,64,1
Chuna Bhuti TG,194,7
Jhajhangi HQ,97,3
Jhar Alta II GP HQ Sc,56,1
Ramsai,116,2
Gourchandi,167,3
Mohitnagar,115,3
Jaldhaka Majhiali,186,8
Debpara TG,112,7
East Magurmari,52,9
Saptibari PHC SC,118,6
Majabari,100,3
Leesh River T.G.,96,2
Baropatia,68,5
Gazaldoba No 10,130,10
Sulkapara RH,184,4
Sahadebvita,82,3
Hindi School,96,6
Thaljhora,90,10
Dhalabari,126,7
Mantadari GP HQ SC,78,7
Lakhipara TG,115,2
Bagribari,142,9
Kalabari Bazar,194,2
Sakoajhora I GP HQ SC,191,7
Jamurivita,132,4
Looksan PHC SC,103,7
Chamurchi GPHQ Sc,125,6
Duramari PHC SC-Salbari I GP HQ Sc,101,3
Charerbari,110,1
T.B. Hospitalpara,50,10
Nazirpara,106,4
South Dangapara,169,6
Gadong I GP HQ SC,104,7
Kasirdanga,184,3
Kumarpara,172,6
Matiali T.G.,156,1
S. Berubari PHC SC,136,8
Jhar Altagram-I GPHQ SC,73,2
Bhurungerbari PHC SC,96,3
Newmal,198,1
Barivasa,162,6
Singimari,76,6
Kawagab,67,4
Kalinagar PHC SC,143,2
Lal Jhamela,167,5
Sylee T.G,101,5
Manabari,87,9
Jhar Magurmari,187,10
Dhoulabari,72,5
Indong PHC  SC,137,8
Majhiali GP,95,2
Kachua,126,2
Bhandiguri,171,3
Sepaipara,172,8
Telepara TG,128,6
Bangkandi,106,1
Sankoajhora,66,7
Domohani,57,7
Jugnidanga SC,124,1
Kalinagar PHC,153,10
Rangalivita,58,2
Gazaldoba No7,82,10
Matiali Hat,92,7
Sukhani GP HQ SC,115,8
Magurmari GP  II,108,5
Rungamuttee T.G.,146,8
Mugalkata TG,156,3
Samarnagar SC,67,9
Patharjhora T.G,105,10
Gedipara,197,5
Jalapara,161,1
Indong PHC,171,8
Khyerbari,135,3
Babupara,103,2
Jhar Matiali,163,9
Hridaypur,136,4
Bramapur,127,2
Dhupguri RH,195,8
Fulbari I GP,100,10
Baruapara,189,6
Binnaguri GP HQ SC,121,7
Paschelguri,54,5
Hatiadanga SC,90,2
Barnesh PHC SC,108,10
Lataguri,58,1
Vemtia,79,3
Kajipara,74,10
Batabari T.G.,90,6
Bhagatpur I,183,3
Sathkhyah,65,3
Madhabdanga  II GP HQ,53,5
Bholapara,173,7
Anandapur T.G.,155,10
Sologhoria,159,5
Jhar Barogila HQ,62,7
Kodalkati,194,4
Chalsa T.G.,140,7
Patkata Colony,163,6
B.S.Co.,133,9
N. Boalmari GP,96,6
West Daukimari,140,10
Dhumpara PHC SC,72,10
Basusuba,174,4
Damdim,81,9
Bamandanga,156,2
Betgara,60,6
Satkura,121,8
Red Bank  TG,73,9
Purba Damdim,57,8
Gadang GP  II,185,9
Anandanagar,105,5
Banarhat PHC,62,7
Oodlabari,170,2
Maynaguri BPHC SC,119,8
Rajganj RH,180,5
Salbari GP  II,149,2
DamDim T.G,171,9
Ellenbari T.G.,80,3
Raninagar,154,7
Sovabari,100,3
Sahudangi,51,1
Dakhin Hanskhali,153,3
Bhagatpur II,187,2
Aibheel T.G.,184,8
N. Boalmari PHC SC,191,7
Kukurjan PHC,104,6
Marichbari,66,7
South Chalk Moulani,100,4
Jamuribari,151,2
North Kalamati,83,6
Bahadur,152,8
Chapgar,68,7
South Kathulia,126,1
East Dawkimari,182,2
Vivekanandapally,103,10
Domohoni II GP HQ,124,10
Konpakri,177,5
Mangalbari,183,1
Godheyer Khutti GPHQ,59,8
Oodlabari T.G.,118,7
Huldibari TG,164,10
New Dooars TG,112,2
Jotiakali,185,1
Gandrapara TG,80,7
Sakoajhora PHC SC,111,8
Shikarpur GP HQ SC,191,2
Neora Nuddy T.G.,101,4
Baroghoria,150,9
Jogesh Ch. T.G.,188,8
Dhobguri,92,5
Johuri,112,5
Ullardabri,69,10
Madhabdanga  I GP HQ,123,5
Saptibari,127,8
Pradhanpara,53,4
Singhimari PHC SC,145,5
Magurmari GP  I,87,1
Batabari,135,5
Karbala TG,117,7
Zurrantee T.G.,87,7
Panditpara SC,167,4
Shikarpur PHC SC,188,3
Matiali,178,8
Palashbari TG,133,10
SNoon Khawadanga,191,10
Madhabdanga,85,6
Chapadanga,151,6
East Salbari,191,1
Uttar Sakoajhora - Pubra Gairkata,147,5
Washabari T.G.,158,10
Bahadur PHC SC,164,1
Santinagar,196,5
Uttar Saripakuri,138,5
Duramari PHC,132,3
Meenglass T.G.,87,10
Ambari TG,184,2
Goalghumti,72,7
South Oodlabari,174,3
Churabhander,189,8
Putimari,116,1
Chalantika Club,175,10
N Berubari Gomira para,140,2
Susthirhat HQ,103,8
Dhingpara,144,4
Baraghoria,167,5
Kumlai,173,1
Fataktari,92,9
Basilardanga,122,8
East Duramari,69,2
Paharpur,139,8
Binnaguri TG,97,5
Sulkapara,153,3
Tariapara,106,2
Kathalbari,183,3
Samsing T.G. Hospital,62,3
Purba Altagram - Kalyan Sangha,139,3
South Alta Gram,150,9
Neora Majhiali,54,5
Jharaltagram,99,7
Dasdarga,195,5
South Hanskhali,150,3
South Khagrabari,104,6
Tekatuli HQ,67,3
Est Dhantala SC,167,6
Oodlabari BPHC,69,10
Koranipara,122,7
Padamati II GP HQ,55,9
Kalitala SC,147,3
Godheyagoch,195,8
Looksan,54,7
Grassmore Basti,111,1
Baradighi,56,8
Kukurjan PHC SC,139,8
Kamrangaguri,60,9
Maynaguri GP HQ,115,1
West Dalaigaon,137,4
Maruim Basti,71,8
Bhutki,185,4
Rangdhamali,92,7
Shikarpur PHC,57,1
North Dhupjhora,126,4
Kharija Berubari,182,10
Uttar Khuttimari,130,10
Padamati I GP HQ,199,8
D.Ektiasal,179,4
Purbadahar,111,2
Belakoba RH,113,7
Soongachi T.G.,151,10
Banarhat-I GPHQ SC,97,6
K.Berubari PHC S,191,3
Karaibari,148,10
Uttar Khalpara,129,8
Bhangamali SC,162,5
Nutanbasti,151,9
South Gosaierhat,186,5
Moraghat TG,187,4
Dakshin Khairbari - Goler Danga,142,7
Shikarpur TG SC,184,4
Baintguri T.G,123,7
Malkani Para SC,143,9
Gayerkata TG,92,4
Banizerhat,129,1
South Berubari,168,7
Kathalguri SC,103,3
Chalsa Mahabari,199,10
Baradighi,97,8
Barnish,181,5
Chengmari Rly Station,143,7
South Dhupjhora,66,8
Mondalghat GP,121,4
TotaparaTG,121,5
Carron,125,6
Gochimari,185,4
Uttar Noon Khawa Danga,166,10
Barogharia GP HQ SC,95,3
Randhamali PHC SC,118,5
Balapara,173,2
Hilla T.G.,194,4
Mohorer Bandh SC,101,3
Sajnapara,107,8
Sakoajhora GP II,63,3
Mallick Sova,170,10
Maynaguri RH,182,3
Dabgram II GP,146,10
Malkani Hat,71,9
Chalk Moulani,102,9
North Padamati,68,7
Moulani,129,5
Jabramali,142,10
Kathalguri TG,89,10
Tuklimari,119,1
Ramsai PHC SC,153,1
Collegepara,177,2
Haihai Pathar,193,1
West Tesimla,96,2
Kheirkata,181,3
Khalai Gram,53,5
Fulbari II GP HQ SC,177,3
Jhar Salbari,161,6
Moringajhora SC,182,8
South Matiali,114,2
Toonbari T.G.,121,5
Belakoba  BPHC SC,68,5
Mathachulka PHC SC,160,2
Pradhan Para SC,99,6
Harmoti,60,2
Sebagram,129,2
Sylee Hat,159,9
Rajganj R.H. SC,122,1
Helapakri,106,5
Binnaguri GP HQ SC,54,5
Kumlai T.G.,71,5
Daikhata,163,3
Bhurungernari,183,3
Uttar Saripakuri,85,1
Maner Danga,194,6
Bhagatpur,123,10
Bagzan,126,6
Bhabaninagar,155,9
Panicouri GP HQ SC,159,8
Chanda Co,159,5
Dharmapur,64,9
Mangalbari R.H.,180,10
Balabari,137,8
Churabhander PHC SC,178,9
Chanadipa SC,75,1
Lalbazarpara,100,8
