Health Facility Name,Number_Of_Beds,Rating
UHC JHUMRI TELAIYA,141,9
REF. HOSPITAL DOMCHANCH,96,5
Private Facilities koderma,191,1
UPHC Gumo,171,1
UPHC Pharinda,80,8
HSC SATDIHA,51,10
HSC INDERWA,101,7
HSC CHANDRODIH,78,4
HSC KHUTTA,136,2
CHC JAINAGAR,196,5
HSC KARIABAR,82,10
HSC CHATARBAR,190,7
HSC URWAN,145,1
HSC CHECHAI,157,2
HSC KATIYO,182,6
HSC BHELWATAND,62,10
HSC MEGHATARI,140,10
HSC KANKO,70,5
HSC BADDIHA,73,1
HSC SHIVPUR,153,4
HSC NAWALSAHI,90,9
HSC BEKOBAR,120,9
HSC NAITAND,166,5
HSC BARIARDIH,194,6
CHC MARKACHO,146,10
HSC PATHALDIHA,141,10
HSC MASMOHNA,150,3
HSC KHARKOTA,145,2
HSC YOGIDIH,62,3
HSC KANTI,119,4
HSC CHOPNADIH,156,6
HSC PIPARADIH,55,3
HSC DHAB (CHANDWARA),81,4
PHC PATHALDIHA,106,5
CHC SATGAWAN,127,4
HSC BEHRADIH,176,9
HSC SAMAYDIH,173,4
HSC CHADRA PIPRADIH,175,5
PHC TELAIYA DAM,57,9
HSC DARDAHI,193,2
CHC KODARMA,171,10
HSC DEVIPUR,54,8
PHC PHULWARIYA,130,8
HSC JAMU,89,3
PHC CHANDWARA,56,3
PHC ITAI,120,6
HSC HIRODIH,155,7
HSC BARWADIH,140,6
HSC KOTHIYAR,154,4
HSC SELARI,85,9
HSC NAITAND,171,1
HSC BASODIH,168,6
HSC DHAB,122,7
HSC JERUADIH,129,10
HSC RAJAWAR,195,3
HSC AMBADIH,85,3
HSC GAJHANDI,166,10
HSC PHULWARIYA,121,1
HSC JAGDISHPUR,87,8
HSC BISHODIH,125,10
HSC CHEHAL,128,8
HSC BHAKHRA,51,1
HSC DASARO,110,9
HSC GOHAL,143,1
HSC BENDI,133,7
HSC MARCHOI,164,7
HSC BIRSHODIH,113,1
HSC DHUBADIH,181,4
HSC GHURMUNDA,190,8
HSC PARSABAD,142,4
HSC DHODAKOLA,161,10
HSC MAHESHPUR,50,2
HSC DHUBA,197,8
HSC ALAGDIHA,132,3
PHC JHUMRI TELAIYA,102,4
HSC MASNODIH,107,9
HSC MADHOPUR,136,9
HSC BIRJAMU,104,2
HSC KUSHAHAN,137,6
HSC KATAIYA,104,4
SADAR HOSPITAL,94,10
UHC JHUMRI TELAIYA,167,2
REF. HOSPITAL DOMCHANCH,148,10
Private Facilities koderma,103,2
UPHC Gumo,72,4
UPHC Pharinda,125,10
HSC SATDIHA,195,3
HSC INDERWA,89,9
HSC CHANDRODIH,110,4
HSC KHUTTA,190,7
CHC JAINAGAR,198,2
HSC KARIABAR,77,5
HSC CHATARBAR,184,2
HSC URWAN,112,4
HSC CHECHAI,95,4
HSC KATIYO,162,3
HSC BHELWATAND,196,8
HSC MEGHATARI,172,4
HSC KANKO,105,2
HSC BADDIHA,170,7
HSC SHIVPUR,167,10
HSC NAWALSAHI,118,7
HSC BEKOBAR,106,9
HSC NAITAND,181,5
HSC BARIARDIH,95,9
CHC MARKACHO,134,4
HSC PATHALDIHA,144,7
HSC MASMOHNA,179,6
HSC KHARKOTA,184,5
HSC YOGIDIH,123,9
HSC KANTI,172,9
HSC CHOPNADIH,103,3
HSC PIPARADIH,98,1
HSC DHAB (CHANDWARA),67,5
PHC PATHALDIHA,132,2
CHC SATGAWAN,170,4
HSC BEHRADIH,50,10
HSC SAMAYDIH,173,7
HSC CHADRA PIPRADIH,179,4
PHC TELAIYA DAM,173,10
HSC DARDAHI,190,7
CHC KODARMA,188,5
HSC DEVIPUR,99,2
PHC PHULWARIYA,184,1
HSC JAMU,90,9
PHC CHANDWARA,168,5
PHC ITAI,137,1
HSC HIRODIH,102,10
HSC BARWADIH,153,4
HSC KOTHIYAR,109,7
HSC SELARI,88,3
HSC NAITAND,91,2
HSC BASODIH,143,3
HSC DHAB,121,2
HSC JERUADIH,131,10
HSC RAJAWAR,137,1
HSC AMBADIH,119,4
HSC GAJHANDI,90,2
HSC PHULWARIYA,72,7
HSC JAGDISHPUR,108,7
HSC BISHODIH,198,8
HSC CHEHAL,51,4
HSC BHAKHRA,50,9
HSC DASARO,61,10
HSC GOHAL,113,10
HSC BENDI,140,2
HSC MARCHOI,84,4
HSC BIRSHODIH,106,7
HSC DHUBADIH,108,6
HSC GHURMUNDA,94,5
HSC PARSABAD,161,6
HSC DHODAKOLA,164,1
HSC MAHESHPUR,120,3
HSC DHUBA,73,10
HSC ALAGDIHA,118,7
PHC JHUMRI TELAIYA,105,1
HSC MASNODIH,167,9
HSC MADHOPUR,150,10
HSC BIRJAMU,187,7
HSC KUSHAHAN,161,1
HSC KATAIYA,131,5
SADAR HOSPITAL,128,9
