Health Facility Name,Number_Of_Beds,Rating
PHC KALEPAL,75,8
SHC Matnar,105,6
SHC Padmur,105,2
SHC Barchhepal,175,10
SHC Godiyapal,126,10
SHC Kosmi(BASTAR),125,5
SHC Chhindgur,63,3
SHC Palwa,139,8
PHC Kesharpal,62,6
PHC Sautnar,198,7
SHC Tiriya,194,5
SHC Burungpal (B),70,7
SHC Jamawada,188,9
SHC Bhejripadar,194,6
SHC Kelaur,90,9
SHC BAGBAHARA,184,3
SHC Kaundawand,194,1
SSK Dalpat sagar Atal Awas Sindhu nagar,64,5
SHC Sadra Bodenar,176,3
SHC Chandanpur,104,7
PHC Koleng,172,3
SHC Kitepal N. 1,154,9
SHC Kapanar,89,7
PHC Mundagaon,112,4
SHC Burgum(BASTAR),99,7
SHC Ransargipal,103,1
SHC Kurandi,191,10
SHC Mavleebhata,108,1
SHC KUTUMSAR,96,6
SHC Belar(BASTAR),159,4
PHC Alnar,58,10
SHC Neganar,133,5
SHC Chingpal,111,8
PHC Kalepal,74,9
SHC Ichhapur,138,2
SHC Pakhnar,107,5
SSK Kumhar Para Atal Awas  San city,66,6
PHC Malgaon,110,6
SHC Bademurma,87,10
SHC Nandpura,104,6
SHC Keshloor,93,1
PHC Mutanpal,63,2
SHC Pathri(BASTAR),157,6
SHC Burungpal,142,1
SHC Pharsaguda,150,5
PHC Pakhnakongera,187,7
SHC Kodenar(BASTAR),118,5
SHC Kukanar,86,6
SHC Kesharpal,86,2
SHC Tahakwada,169,10
CHC Nangoor,138,3
SHC Kothiyaguda,166,8
SHC Sindhakarmari,135,2
SHC Netanar,164,3
SHC Bhanpuri(BASTAR),195,10
SHC Baghanpal,198,6
SHC Kodenar B (Kumapara),126,7
SHC Kangoli,65,3
SHC Erupa,61,3
SHC Mongrapal,133,8
SHC Khorkhosa,165,5
SHC Tiratha,95,1
SHC Sonpur(BASTAR),93,7
SHC DEURGAON,103,9
SHC Kokawada,168,2
SHC Murkuchi,139,4
SHC Karpawand,159,8
SHC Adhanpur,195,10
"SSK Bhairamdev Ward, Jagdalpur",140,8
SHC Metguda,101,3
PHC Kukanar,98,7
SHC Kurenga,106,4
PHC Kurandi,144,1
SHC Baniyagaon,178,7
SHC Karkapal,63,1
PHC Aasana,100,5
SHC Limaupader,176,10
SHC Mohlai,82,6
PHC Ghotia,87,8
SHC Jaibel,90,8
SHC BAGMUNDI,99,9
CHC BADE KILEPAL,77,7
SHC Dimrdpal(KALEPAL),192,5
SHC Tokapal,124,9
SHC Kakarwada,179,5
SHC Bamhani(BASTAR),176,3
SHC Sonarpal,105,4
PHC Tanhakapal,110,7
SHC Sakargaon,86,2
SHC Kumhali,58,10
SHC Garenga,61,2
SHC Badearapur,120,8
PHC Kolchur,157,7
SHC Babusemra,74,9
SHC Malgaon(BASTAR),136,5
SHC Potanar,144,2
PHC Pakhnar,174,4
SHC Khadka,77,2
SHC Mundagaon(BASTAR),135,9
SHC Kalcha,58,1
SHC Nangur,94,5
SHC Ghotia(BASTAR),137,7
SHC Dubeumergaon,79,2
SHC Chhindgaon,66,2
SHC Nadisagar,176,9
SHC CHIDPAL,116,7
SHC Mangnar(BASTAR),63,1
SSK Atal awas kalipur,109,9
PHC Hitameta,54,4
PHC Edjepal,67,6
SHC Kumharsadra,54,8
SHC Rajur,121,4
SHC Surguda,73,7
SHC Badekadma,51,7
SHC Muli,197,10
SHC Parpa,190,9
SHC Karangi(BASTAR),172,6
CHC Baster (Block PHC Bastar),102,4
SHC Bajawand,114,3
SHC Turangur,97,8
SHC Raikote,168,4
SHC Pandanar,173,1
SHC Kudalgaon,157,4
SHC Chitapur,151,8
SHC Tarapur,69,4
SHC Pahurbel,136,9
SHC Dongam,101,7
SHC Chhindbahar,177,3
SHC Kodripal,114,3
SHC Chandela,135,7
SHC Tirtum,125,10
SHC Belputi,127,1
SHC Kohkapal,83,4
CHC TOKAPAL,168,8
SHC Kungarpal,110,2
PHC Ransargipal,116,7
SHC Bhatpal,98,3
SHC Siwni,158,9
PHC Bastar,133,3
SHC Badegurve,91,8
SHC Chhindbahar,180,7
SHC Devda,158,7
SHC Chhindwada,87,4
SHC Lamker,195,10
SHC Turpura,133,2
SHC Salepal,123,4
PHC Mavleebhata,179,3
PHC Singanpur,81,1
SHC Mangdu kachora,95,5
SHC Koleng,160,3
CHC DARBHA,68,9
SHC Dharaur,105,2
PHC Kolawal,94,7
SHC Bhond,115,8
SHC Ursibeda,115,4
SHC Marikoder,173,7
SHC Nainmur,177,2
PHC Kachnar,132,10
SHC Kilepal no. 2 (Ganjopara),69,3
SHC Dilmili,183,6
SHC Saunra,152,10
SHC Upanpal,116,4
SHC Chhaparbhanpuri,177,5
SHC Nagarnar,187,5
SHC Bodanpal,133,1
PHC Badekaklur,169,5
SHC Kolchur,80,1
SHC CHARGAON,79,6
PHC Adawal,81,8
SHC Bademoratpal,111,10
SHC Sirisgura,166,5
SHC Niyanar,123,6
SHC Chapka,115,5
SHC Tikralohanga,76,3
PHC Tiriya,113,9
SHC Aasana,191,5
SHC Bispur,82,9
PHC Jaibel,157,10
SHC Phaphni,180,5
SHC Nalpawand,76,4
SHC Jamgaon(BASTAR),76,7
SHC KANKAPAL,71,7
SHC Chiurgaon,56,3
SHC Bakel,83,10
PHC Chhaparbhanpuri,173,9
SHC Singanpur(BASTAR),78,6
UPHC Shahari prathmik  Evam jachacha-bachcha kendr,131,10
SHC Anjar,117,7
SHC Sataspur,94,10
SHC Alnar,118,9
SHC Irikpal,75,6
SHC Kaklur B,51,7
SHC Gumalwada,172,1
SHC Bodli,188,6
SHC Kitepal N. 3,165,4
SHC Chitaloor,156,7
PHC Mardum,95,10
SHC Toyar,54,9
SHC Mandhota,153,3
SHC Tekameta,193,8
SHC Bedebodenar,118,10
SHC Khotlapal,130,8
SHC Retawand,157,8
SHC Kaknar,153,5
SHC Aadawal,71,2
PHC Binta,142,7
SHC Sargipal,177,7
SHC Chokar,98,1
SHC CHERAKUR,117,6
SHC Ghatpadmoor,55,4
SHC Bade Umargaon,162,5
SHC Mutanpal,153,7
SHC Pandripani(BASTAR),140,8
SHC Udiyapal,50,7
PHC Karpawand,127,9
SHC Badechakwa,69,7
SHC Dhanpunji,188,2
SHC Udiyapan,116,1
SHC Piplawand,194,5
SHC Michnar,93,7
SSK mother Teresa ward,65,2
UPHC bakawand,134,5
SHC Sadgud,182,10
SHC Darbha,55,2
SHC Chhote Deoda,96,7
SHC Balenga,93,5
SHC Rajursadakpara,80,5
SHC Dhaniyaloor,90,10
SHC Nainnar,50,2
SHC Rajpur(MUDAGAON),70,9
SHC Tirathgarh,125,4
PHC Tirtha,117,5
SHC Kulgaon,84,2
SHC Satosa,102,7
SHC Barupata,168,2
SHC Parapur,55,9
SHC LENDRA,133,7
SHC Mardum,190,4
SHC Mandlapal,179,5
SHC Kalipur(BASTAR),187,9
SHC Badeamabal,152,2
SHC Bakawand,166,1
SHC Hatkachora,50,6
SHC Badrenga,106,9
SHC Madpal,195,5
SHC Jaitgiri,60,1
SHC KARKA,176,5
SHC Telimarenga,186,5
SHC Dimrapal,90,5
SHC Gadhiya,133,3
PHC Kapanar,70,3
PHC Bakawand,166,7
SHC Kachnar,180,10
SHC Ulnar,88,1
SHC Rajnagar,59,9
SHC Kinjoli,115,7
SHC Bade Kaklur,103,5
SHC Toynar,114,6
SHC Alwa,171,4
SHC Markel,95,1
CHC LOHANDIGUDA,66,5
SHC Kumharras,81,7
SHC Harrakoder,77,4
SHC Binta,104,6
PHC Bhanpuri,165,9
PHC Nagarnar,50,3
SHC Baghmohlai,116,4
SHC Dhanpur(BASTAR),187,6
PHC Titirgaon,97,5
SHC Markapal,88,5
SHC Edjepal,79,9
SHC Sautnar,108,2
SHC Khandsara,75,8
SHC Mangnar(DARBHA),187,9
SHC Bastar,156,2
SHC Badanji,185,10
SHC SORGOAN,199,8
Udiyapan,148,7
SHC Chitrakot,134,2
SHC Mavlipadar,195,4
PHC BELAR,163,6
PHC Neganar,132,4
SHC Arracote,58,1
CHC BAKAWAND,195,3
PHC Mangnar,77,7
SHC Kolawal,188,9
SHC Kudkanar,51,3
SHC Bhaisgaon(MUDAGAON),101,2
SHC Puspal(BASTAR),152,7
SHC Adawal,185,10
SHC Gidawarli,78,9
PHC Rotma,81,6
SHC Chandragiri,199,4
SHC Ulnar,94,8
SHC Badekwali,62,7
SHC Pathri(MUDAGAON),135,10
SHC Bastanar,115,8
SHC Talnar(BASTAR),87,5
SHC Taragaon,94,4
SHC Rotma,90,1
PHC Kumharawand,89,5
SHC Borigaon,61,4
PHC KALEPAL,111,8
SHC Matnar,137,8
SHC Padmur,164,6
SHC Barchhepal,155,1
SHC Godiyapal,191,2
SHC Kosmi(BASTAR),109,10
SHC Chhindgur,95,4
SHC Palwa,106,10
PHC Kesharpal,184,10
PHC Sautnar,126,3
SHC Tiriya,183,4
SHC Burungpal (B),114,4
SHC Jamawada,67,2
SHC Bhejripadar,66,4
SHC Kelaur,69,7
SHC BAGBAHARA,70,1
SHC Kaundawand,92,2
SSK Dalpat sagar Atal Awas Sindhu nagar,162,2
SHC Sadra Bodenar,143,7
SHC Chandanpur,85,3
PHC Koleng,127,3
SHC Kitepal N. 1,111,9
SHC Kapanar,112,4
PHC Mundagaon,157,9
SHC Burgum(BASTAR),158,7
SHC Ransargipal,152,6
SHC Kurandi,82,5
SHC Mavleebhata,164,6
SHC KUTUMSAR,134,7
SHC Belar(BASTAR),174,3
PHC Alnar,98,1
SHC Neganar,162,1
SHC Chingpal,119,2
PHC Kalepal,108,5
SHC Ichhapur,196,3
SHC Pakhnar,67,10
SSK Kumhar Para Atal Awas  San city,52,7
PHC Malgaon,84,6
SHC Bademurma,137,7
SHC Nandpura,103,8
SHC Keshloor,76,8
PHC Mutanpal,168,3
SHC Pathri(BASTAR),148,8
SHC Burungpal,131,1
SHC Pharsaguda,115,2
PHC Pakhnakongera,131,4
SHC Kodenar(BASTAR),185,10
SHC Kukanar,148,10
SHC Kesharpal,115,9
SHC Tahakwada,133,1
CHC Nangoor,132,2
SHC Kothiyaguda,116,5
SHC Sindhakarmari,57,4
SHC Netanar,64,7
SHC Bhanpuri(BASTAR),106,6
SHC Baghanpal,178,7
SHC Kodenar B (Kumapara),71,8
SHC Kangoli,71,2
SHC Erupa,95,1
SHC Mongrapal,193,5
SHC Khorkhosa,78,10
SHC Tiratha,131,1
SHC Sonpur(BASTAR),77,1
SHC DEURGAON,145,10
SHC Kokawada,195,8
SHC Murkuchi,86,8
SHC Karpawand,142,7
SHC Adhanpur,150,4
"SSK Bhairamdev Ward, Jagdalpur",187,6
SHC Metguda,75,4
PHC Kukanar,139,1
SHC Kurenga,196,6
PHC Kurandi,74,4
SHC Baniyagaon,157,7
SHC Karkapal,95,6
PHC Aasana,73,4
SHC Limaupader,103,2
SHC Mohlai,116,6
PHC Ghotia,78,9
SHC Jaibel,180,10
SHC BAGMUNDI,196,8
CHC BADE KILEPAL,131,5
SHC Dimrdpal(KALEPAL),168,8
SHC Tokapal,61,5
SHC Kakarwada,157,6
SHC Bamhani(BASTAR),188,8
SHC Sonarpal,143,9
PHC Tanhakapal,142,6
SHC Sakargaon,81,2
SHC Kumhali,90,1
SHC Garenga,179,8
SHC Badearapur,161,6
PHC Kolchur,130,5
SHC Babusemra,130,10
SHC Malgaon(BASTAR),140,9
SHC Potanar,168,3
PHC Pakhnar,117,4
SHC Khadka,71,2
SHC Mundagaon(BASTAR),72,5
SHC Kalcha,130,10
SHC Nangur,199,3
SHC Ghotia(BASTAR),53,1
SHC Dubeumergaon,190,8
SHC Chhindgaon,108,10
SHC Nadisagar,101,1
SHC CHIDPAL,189,5
SHC Mangnar(BASTAR),152,1
SSK Atal awas kalipur,86,1
PHC Hitameta,151,8
PHC Edjepal,111,9
SHC Kumharsadra,106,9
SHC Rajur,91,1
SHC Surguda,84,8
SHC Badekadma,182,4
SHC Muli,95,3
SHC Parpa,81,4
SHC Karangi(BASTAR),182,2
CHC Baster (Block PHC Bastar),177,6
SHC Bajawand,120,2
SHC Turangur,103,1
SHC Raikote,80,8
SHC Pandanar,179,5
SHC Kudalgaon,69,9
SHC Chitapur,101,1
SHC Tarapur,55,1
SHC Pahurbel,194,3
SHC Dongam,137,1
SHC Chhindbahar,84,10
SHC Kodripal,176,3
SHC Chandela,176,3
SHC Tirtum,146,6
SHC Belputi,124,4
SHC Kohkapal,79,5
CHC TOKAPAL,134,9
SHC Kungarpal,61,9
PHC Ransargipal,132,3
SHC Bhatpal,105,2
SHC Siwni,130,10
PHC Bastar,92,3
SHC Badegurve,126,3
SHC Chhindbahar,178,10
SHC Devda,145,3
SHC Chhindwada,70,4
SHC Lamker,183,9
SHC Turpura,57,2
SHC Salepal,51,4
PHC Mavleebhata,164,8
PHC Singanpur,186,6
SHC Mangdu kachora,198,5
SHC Koleng,95,5
CHC DARBHA,172,10
SHC Dharaur,83,1
PHC Kolawal,72,3
SHC Bhond,102,5
SHC Ursibeda,62,10
SHC Marikoder,160,1
SHC Nainmur,107,1
PHC Kachnar,63,6
SHC Kilepal no. 2 (Ganjopara),55,3
SHC Dilmili,63,5
SHC Saunra,126,8
SHC Upanpal,165,9
SHC Chhaparbhanpuri,126,5
SHC Nagarnar,108,9
SHC Bodanpal,68,2
PHC Badekaklur,160,4
SHC Kolchur,54,5
SHC CHARGAON,67,3
PHC Adawal,53,8
SHC Bademoratpal,106,3
SHC Sirisgura,186,4
SHC Niyanar,151,8
SHC Chapka,182,10
SHC Tikralohanga,141,3
PHC Tiriya,194,4
SHC Aasana,63,7
SHC Bispur,71,7
PHC Jaibel,89,8
SHC Phaphni,96,4
SHC Nalpawand,163,8
SHC Jamgaon(BASTAR),167,2
SHC KANKAPAL,190,4
SHC Chiurgaon,169,8
SHC Bakel,131,8
PHC Chhaparbhanpuri,145,3
SHC Singanpur(BASTAR),62,9
UPHC Shahari prathmik  Evam jachacha-bachcha kendr,123,4
SHC Anjar,71,4
SHC Sataspur,72,6
SHC Alnar,151,4
SHC Irikpal,77,1
SHC Kaklur B,133,7
SHC Gumalwada,195,9
SHC Bodli,50,9
SHC Kitepal N. 3,98,10
SHC Chitaloor,82,6
PHC Mardum,84,6
SHC Toyar,146,9
SHC Mandhota,75,3
SHC Tekameta,145,9
SHC Bedebodenar,84,6
SHC Khotlapal,119,6
SHC Retawand,98,5
SHC Kaknar,186,2
SHC Aadawal,183,1
PHC Binta,105,10
SHC Sargipal,75,4
SHC Chokar,132,2
SHC CHERAKUR,84,9
SHC Ghatpadmoor,81,4
SHC Bade Umargaon,191,5
SHC Mutanpal,168,2
SHC Pandripani(BASTAR),50,2
SHC Udiyapal,55,5
PHC Karpawand,177,9
SHC Badechakwa,84,1
SHC Dhanpunji,101,6
SHC Udiyapan,138,1
SHC Piplawand,153,8
SHC Michnar,171,2
SSK mother Teresa ward,153,1
UPHC bakawand,78,6
SHC Sadgud,152,5
SHC Darbha,86,1
SHC Chhote Deoda,123,9
SHC Balenga,127,4
SHC Rajursadakpara,158,8
SHC Dhaniyaloor,175,8
SHC Nainnar,145,6
SHC Rajpur(MUDAGAON),138,4
SHC Tirathgarh,86,3
PHC Tirtha,147,8
SHC Kulgaon,102,2
SHC Satosa,138,1
SHC Barupata,52,7
SHC Parapur,76,9
SHC LENDRA,62,10
SHC Mardum,144,2
SHC Mandlapal,70,6
SHC Kalipur(BASTAR),141,1
SHC Badeamabal,146,4
SHC Bakawand,166,1
SHC Hatkachora,113,1
SHC Badrenga,128,6
SHC Madpal,168,10
SHC Jaitgiri,95,5
SHC KARKA,134,5
SHC Telimarenga,118,6
SHC Dimrapal,172,5
SHC Gadhiya,84,1
PHC Kapanar,103,6
PHC Bakawand,143,10
SHC Kachnar,101,10
SHC Ulnar,59,4
SHC Rajnagar,153,9
SHC Kinjoli,55,4
SHC Bade Kaklur,161,9
SHC Toynar,132,6
SHC Alwa,162,8
SHC Markel,147,6
CHC LOHANDIGUDA,110,3
SHC Kumharras,85,10
SHC Harrakoder,145,7
SHC Binta,155,4
PHC Bhanpuri,199,9
PHC Nagarnar,170,4
SHC Baghmohlai,105,2
SHC Dhanpur(BASTAR),79,10
PHC Titirgaon,70,8
SHC Markapal,171,3
SHC Edjepal,70,2
SHC Sautnar,138,1
SHC Khandsara,92,1
SHC Mangnar(DARBHA),152,6
SHC Bastar,118,7
SHC Badanji,53,2
SHC SORGOAN,66,2
Udiyapan,156,2
SHC Chitrakot,161,8
SHC Mavlipadar,106,10
PHC BELAR,88,1
PHC Neganar,151,10
SHC Arracote,162,9
CHC BAKAWAND,111,7
PHC Mangnar,103,3
SHC Kolawal,188,7
SHC Kudkanar,82,10
SHC Bhaisgaon(MUDAGAON),185,6
SHC Puspal(BASTAR),123,4
SHC Adawal,66,6
SHC Gidawarli,125,3
PHC Rotma,124,7
SHC Chandragiri,52,4
SHC Ulnar,81,6
SHC Badekwali,176,10
SHC Pathri(MUDAGAON),135,4
SHC Bastanar,160,1
SHC Talnar(BASTAR),77,5
SHC Taragaon,129,9
SHC Rotma,68,10
PHC Kumharawand,76,5
SHC Borigaon,123,3
