Health Facility Name,District_Name,Number_Of_Beds,Rating
Kawnpui,KOLASIB,130,1
Lawipu UPHC,AIZAWL,180,5
Lawipu Sub Centre,AIZAWL,165,2
Kanghmun PHC,AIZAWL,64,9
Darlung W,AIZAWL,161,3
Kanghmun S/C,AIZAWL,163,5
Khawrihnim S/C,AIZAWL,184,9
Lengpui PHC,AIZAWL,110,6
Lengpui S/C,AIZAWL,182,3
Hmunpui S/C,AIZAWL,95,2
Reiek PHC,AIZAWL,123,2
Reiek S/C,AIZAWL,176,3
Ailawng S/C,AIZAWL,74,10
W Lungdar S/C,AIZAWL,129,6
Adventist Hospital,AIZAWL,68,2
BN Hospital,AIZAWL,64,5
Zemabawk UPHC,AIZAWL,125,1
Sihphir UPHC,AIZAWL,127,5
Kelkang,CHAMPHAI,155,2
East Lungdar,SERCHHIP,147,1
Bungtlang S,LAWNGTLAI,99,2
Zawngling,SAIHA,80,5
Parvatui,MAMIT,192,1
S. Vanlaiphai,LUNGLEI,149,8
Vaivakawn,AIZAWL,136,4
Bilkhawthlir,KOLASIB,117,5
Chhawrtui,CHAMPHAI,52,2
Tuipang L,SAIHA,74,4
Biate,CHAMPHAI,59,5
Marpara,MAMIT,107,9
Khawhai,CHAMPHAI,139,4
Sialhau,SERCHHIP,164,9
Vantlang,CHAMPHAI,99,7
Silsuri,MAMIT,54,4
Dapchhuah,MAMIT,189,10
Melthum,AIZAWL,113,9
Ngopa,CHAMPHAI,186,8
Ngentiang,SERCHHIP,140,5
Chawngtlai,CHAMPHAI,182,5
Hnahchang,LUNGLEI,109,7
Zuangtui,AIZAWL,194,10
Sakawrdai,AIZAWL,137,9
Kawrtethawveng,MAMIT,95,6
Sesawm,LUNGLEI,182,4
Diakkawn,KOLASIB,178,2
Chaltlang,AIZAWL,118,3
Chawngte P,LAWNGTLAI,130,9
Aizawl Hospital (Pvt.),AIZAWL,103,8
Bethesda Hospital (Pvt.),AIZAWL,126,1
Champhai,CHAMPHAI,138,2
Falkawn Hospital,AIZAWL,184,9
Tuikhuahtlang,AIZAWL,176,1
Vew Vervek,AIZAWL,195,2
Borapansury,LAWNGTLAI,190,8
Sailulak,SERCHHIP,159,3
Tuisih,SAIHA,114,5
Lungchhuan,SERCHHIP,107,4
Dinthar,MAMIT,171,10
Presbyterian Hospital Durtlang (NGO),AIZAWL,160,8
Hnahthial,LUNGLEI,189,5
Sangau,LAWNGTLAI,82,7
Vaivenga Hospital (Pvt.),AIZAWL,182,3
Old Saiha,SAIHA,53,2
Chawilung SC,LUNGLEI,113,10
Haulawng,LUNGLEI,177,8
Seling,AIZAWL,159,5
Thenzawl,SERCHHIP,156,8
Damdep,LAWNGTLAI,119,7
Tawipui S,LUNGLEI,151,3
Thuampui,LUNGLEI,153,8
Devasora,LAWNGTLAI,87,8
Sesawng,AIZAWL,67,2
S Lungpher,LAWNGTLAI,191,2
Phaisen,KOLASIB,54,6
Lamchhip,AIZAWL,83,8
Chamdur P,LAWNGTLAI,90,9
Vanzau,CHAMPHAI,112,9
Rabung,CHAMPHAI,88,8
Cherhlun,LUNGLEI,56,9
Khuangleng,CHAMPHAI,178,4
Govt. Complex,AIZAWL,169,7
N. Serzawl,AIZAWL,149,6
Durtlang Mel-5,AIZAWL,191,10
Ralvawng,LUNGLEI,58,8
Buangpui,SERCHHIP,80,3
Pangzawl,LUNGLEI,57,8
Sialsuk,AIZAWL,167,6
Vaphai,CHAMPHAI,50,6
Aizawl W Main Center,AIZAWL,194,8
Muthi,AIZAWL,73,7
Kanhmun,MAMIT,74,10
Serkawr,SAIHA,142,9
Dulte,CHAMPHAI,99,8
Bungkawn,AIZAWL,165,9
Khawbung N,CHAMPHAI,55,8
Grace Nursing Home (Pvt.),AIZAWL,170,1
Lallen,MAMIT,114,10
Tuithumhnar,LAWNGTLAI,149,1
Tuirial,AIZAWL,161,3
Kawlkulh,CHAMPHAI,158,7
Chhawnpui,AIZAWL,94,4
N. Khawlek,AIZAWL,95,8
Cherhlun,LUNGLEI,80,8
Reiek,MAMIT,58,8
Rahsi Veng,LUNGLEI,76,10
Thiak,AIZAWL,157,2
Edenthar,AIZAWL,103,2
Bethlehem Vengthlang,AIZAWL,61,8
E. Phaileng,AIZAWL,83,6
Putlungasih,LUNGLEI,75,9
Kawlchaw,LAWNGTLAI,181,3
Hauruang,LUNGLEI,165,5
Vapar,CHAMPHAI,140,4
Khawbung,CHAMPHAI,98,1
Mission Veng,AIZAWL,101,3
Khawzawl,CHAMPHAI,182,2
Venglai,LUNGLEI,93,8
Tualbung,AIZAWL,134,10
N Lungleng,AIZAWL,167,8
Bualpui NG,LAWNGTLAI,176,6
Phulpui,AIZAWL,70,8
Pangbalkawn,KOLASIB,98,10
Tuipang,SAIHA,133,7
New Chalrang,CHAMPHAI,78,8
Tuisumpui,SAIHA,132,6
Rulpuihlim,MAMIT,122,9
Thingkah,LAWNGTLAI,181,4
Zobawk,LUNGLEI,177,4
Chhinga Veng,AIZAWL,101,7
Lungkawlh,SERCHHIP,114,8
Pangzawl,LUNGLEI,88,3
Suarhliap,KOLASIB,122,8
Saihatlangkawn,SAIHA,148,10
Tlabung,LUNGLEI,171,8
Neihloh,SERCHHIP,69,2
Armed Veng,AIZAWL,186,1
Tawipui S,LUNGLEI,141,9
Upper Republic,AIZAWL,81,2
Zote,LUNGLEI,75,7
Marpara,MAMIT,60,3
Chhipphir,LUNGLEI,199,2
Bulfekzawl,CHAMPHAI,144,10
Thakthingtlang,AIZAWL,107,9
Kawrthah,MAMIT,193,8
Maubawk,SAIHA,89,10
Khankawn,CHAMPHAI,151,7
Mimbung,CHAMPHAI,129,4
Ajesora,LAWNGTLAI,65,6
Zotlang,AIZAWL,170,7
Phullen,AIZAWL,83,2
Nisapui,KOLASIB,115,6
Phura,SAIHA,127,9
NE Khawdungsei,CHAMPHAI,143,9
NE Khawdungsei,CHAMPHAI,145,8
Vanbawng,AIZAWL,128,7
Vangchhia,CHAMPHAI,178,6
Khawruhlian,AIZAWL,68,4
Khuangphah,CHAMPHAI,124,10
New Serchhip,SERCHHIP,107,5
N.Chaltlang,KOLASIB,189,2
Haulawng,LUNGLEI,160,7
Rengdil,MAMIT,174,7
Sazep,CHAMPHAI,116,2
Bunghmun S,LUNGLEI,99,9
Melriat,AIZAWL,150,2
Vawmbuk,LAWNGTLAI,69,1
Phainuam,KOLASIB,64,3
Khawbung,CHAMPHAI,178,7
Zemabawk,AIZAWL,115,3
Bazar,LUNGLEI,160,4
Sairang,AIZAWL,129,8
Saiha District Hospital,SAIHA,80,2
Saiphai,KOLASIB,70,4
Diltlang,LAWNGTLAI,132,7
Tlangsam,CHAMPHAI,91,4
Buhban,AIZAWL,144,3
Hmunlai,LAWNGTLAI,187,9
Mualpheng,AIZAWL,72,5
Khuangthing,CHAMPHAI,197,7
Bukpui,KOLASIB,172,8
Rawmibawk,SAIHA,63,6
Thingsai,LUNGLEI,100,6
Darngawn W,LUNGLEI,140,1
Lungtian,LAWNGTLAI,62,9
Tuichawng,LUNGLEI,195,2
Khawlian,AIZAWL,157,5
Lianpui,CHAMPHAI,194,9
Hortoki,KOLASIB,191,2
Sairang,AIZAWL,96,2
Vanchengpui,CHAMPHAI,175,8
Rulchawm,AIZAWL,160,4
Khawkawn,CHAMPHAI,194,5
Serchhip District Hospital,SERCHHIP,196,3
Sialhawk,CHAMPHAI,71,7
Lawngtlai,LAWNGTLAI,182,4
Darlak,MAMIT,86,3
Mualcheng,SERCHHIP,177,9
Khawrihnim,MAMIT,102,6
Palsang,AIZAWL,189,4
Phuaibuang,AIZAWL,59,4
Phuldungsei,MAMIT,132,2
Bualpui V,LUNGLEI,117,1
S Lungpher,LAWNGTLAI,156,4
Chhipphir,LUNGLEI,194,5
Puankhai,LUNGLEI,192,9
Bungzung,CHAMPHAI,135,6
Hmunpui,MAMIT,186,9
Sialsuk,AIZAWL,110,4
Niawhtlang,SAIHA,105,2
Suangpuilawn,AIZAWL,172,10
Mampui,LAWNGTLAI,188,4
Sakawrdai,AIZAWL,174,1
Bilkhawthlir,KOLASIB,110,7
Chhuarlung,SAIHA,181,1
S.Hlimen,AIZAWL,87,8
Phullen,AIZAWL,116,3
Borapansury,LAWNGTLAI,114,7
Saipum,KOLASIB,84,6
Tuitha Veng,KOLASIB,94,9
Khawhai,CHAMPHAI,193,9
Tachhip,AIZAWL,104,8
Mualpui,AIZAWL,50,5
Khawlailung,SERCHHIP,107,3
Kanhmun,MAMIT,156,2
Khawlek,LUNGLEI,63,2
Bethel,CHAMPHAI,156,1
Mauchar,AIZAWL,169,4
Hriangtlang,SERCHHIP,66,4
Kawlkulh,CHAMPHAI,152,5
Ailawng,MAMIT,177,5
Rabung,CHAMPHAI,86,6
Tualcheng,CHAMPHAI,180,10
Lengpui,MAMIT,181,3
Thingsulthliah,AIZAWL,59,8
Chanmari E,AIZAWL,94,10
Zodin,LUNGLEI,189,9
Tuipui D,LUNGLEI,81,1
Teikhang,CHAMPHAI,88,2
S Chawngtui,SERCHHIP,181,5
Ratu,AIZAWL,88,9
N Vanlaiphai,SERCHHIP,88,2
PTC Lungverh,AIZAWL,170,3
Diblibagh,LUNGLEI,64,10
Mamte,LUNGLEI,52,2
Salem,AIZAWL,124,2
Cheural,LAWNGTLAI,150,6
Kolasib Main Center,KOLASIB,69,7
Samthang,CHAMPHAI,58,1
Lenchim,AIZAWL,80,7
Kawnmawi,MAMIT,133,5
Hnahlan,CHAMPHAI,53,8
Muallianpui,LUNGLEI,106,9
Maite,AIZAWL,112,7
Thingsulthliah,AIZAWL,198,1
W Bunghmun,MAMIT,199,2
Kawlhawk,LUNGLEI,197,10
Chapui,SAIHA,79,10
Tlangpui,CHAMPHAI,51,5
Sialhawk,CHAMPHAI,142,9
Lawngtlai Main Center,LAWNGTLAI,106,4
Tuidam,MAMIT,181,2
College Veng,LAWNGTLAI,67,2
"TNT, Zuangtui",AIZAWL,101,6
Mimbung,CHAMPHAI,110,4
Kawnpui W,LUNGLEI,104,6
Tiperaghat,LUNGLEI,193,2
Reiek,MAMIT,123,2
Jarulsury,LAWNGTLAI,68,3
Nunsury,LUNGLEI,171,2
Thingdawl,KOLASIB,162,7
Tuipuibari,MAMIT,70,3
Hnahthial S,LUNGLEI,175,2
Phalhrang,SAIHA,77,5
Thiltlang,LUNGLEI,96,1
Mamit District Hospital,MAMIT,64,6
Vaseitlang Main Center,LAWNGTLAI,167,7
New Latawh,SAIHA,187,8
Maubuang,AIZAWL,187,6
Ramthar,LUNGLEI,121,2
Theiva,SAIHA,140,1
Sailam,AIZAWL,50,1
Sawleng,AIZAWL,194,10
Nazareth Hospital (Pvt.),AIZAWL,143,1
Tlabung SDH,LUNGLEI,162,1
Sailutar,AIZAWL,154,1
Neihdawn,CHAMPHAI,133,4
Nunsuri,LUNGLEI,142,10
Chhingchhip,SERCHHIP,153,5
W. Lungdar,MAMIT,165,6
Champhai Vengthlang,CHAMPHAI,112,7
Sakawrtuichhun,AIZAWL,110,7
Lungdai,KOLASIB,160,6
Chawlhhmun,AIZAWL,66,10
Aibawk,AIZAWL,181,8
Vairengte,KOLASIB,130,8
Lungmuat,KOLASIB,148,8
Siata,SAIHA,167,4
Theiriat,LUNGLEI,111,6
Tanhril,AIZAWL,71,8
Thinghlun,MAMIT,131,1
Venghlui,AIZAWL,55,5
Mawhre,SAIHA,193,6
Ngaizawl,CHAMPHAI,151,5
Maubawk,AIZAWL,189,9
Bairabi,KOLASIB,101,9
College Veng,AIZAWL,169,4
Khawruhlian,AIZAWL,95,4
Mualthuam N,LUNGLEI,167,8
Champhai Main Center,CHAMPHAI,133,2
Sumsuih,AIZAWL,184,8
Darzo,LUNGLEI,154,8
East Lungdar,SERCHHIP,170,5
Leite,LUNGLEI,123,7
M Kawnpui,LAWNGTLAI,128,2
Selam,CHAMPHAI,155,2
Tuichawng SC,LUNGLEI,90,10
Park Kawn,KOLASIB,56,4
Daido,AIZAWL,73,6
West Phaileng,MAMIT,60,6
Tualte,CHAMPHAI,96,1
Mualkhang,AIZAWL,184,2
Kepran,AIZAWL,66,4
Vaseitlang,LAWNGTLAI,113,9
Zodin,LUNGLEI,184,3
Hriphaw,MAMIT,185,1
Rawpuichhip,MAMIT,62,9
Lungdai,KOLASIB,164,2
Chawngte CHC,LAWNGTLAI,162,3
Hnahlan,CHAMPHAI,135,3
Mamit Main Center,MAMIT,148,4
Serchhip,SERCHHIP,94,2
Thinglian,SERCHHIP,189,5
Kolasib District Hospital,KOLASIB,58,7
Zamuang,MAMIT,56,6
Sangau,LAWNGTLAI,102,4
Kanghmun S,LUNGLEI,76,7
Bualpui,KOLASIB,101,3
Kawnpui,KOLASIB,136,8
Zanlawn,KOLASIB,51,10
Meisatla,SAIHA,72,8
Lairam Christian Medical Centre,LAWNGTLAI,66,4
Hmar Veng,KOLASIB,55,2
Tumpui,KOLASIB,113,6
Sihphir,AIZAWL,76,10
Republic,AIZAWL,130,6
N. Hlimen,KOLASIB,196,5
Farkawn,CHAMPHAI,173,3
Leng,SERCHHIP,147,9
Bawngkawn S,AIZAWL,162,1
Saitual,AIZAWL,90,10
Chanmari,AIZAWL,135,7
Sumsilui,LAWNGTLAI,102,5
Lungpho,SERCHHIP,199,1
Zawlpui,LUNGLEI,194,7
Thingfal,LUNGLEI,144,8
NE Bualpui Hliappui,CHAMPHAI,188,2
Zawlnuam,MAMIT,150,10
Venghnuai,AIZAWL,110,10
Khawlailung,SERCHHIP,87,8
Kulikawn Hospital,AIZAWL,140,3
Ngentiang,SERCHHIP,175,5
Hmuntha,SERCHHIP,61,4
Lawngtlai District Hospital,LAWNGTLAI,133,5
Borai,MAMIT,79,9
Chuhvel,KOLASIB,97,5
Vaisam,LUNGLEI,110,3
Khumtung,AIZAWL,152,3
Keitum,SERCHHIP,140,3
Dungtlang,CHAMPHAI,163,2
Sesih,CHAMPHAI,168,5
Lunglei District Hospital,LUNGLEI,188,1
Thingsat,AIZAWL,78,10
Zobawk Main Centre,LUNGLEI,157,10
Mission Hospital (NGO),CHAMPHAI,98,9
Thenzawl,SERCHHIP,52,7
Theiri,SAIHA,118,6
Bualpui NG,LAWNGTLAI,70,3
Hualtu,SERCHHIP,145,3
Tawngkawlong,SAIHA,145,6
Ruantlang,CHAMPHAI,181,8
Lengte,MAMIT,178,3
Changpui,LUNGLEI,146,2
Bethlehem Vengchhak,AIZAWL,160,1
Thenhlum,LUNGLEI,189,10
Bunghmun S,LUNGLEI,137,10
N. Chawnpui,KOLASIB,86,3
Saizawh,LAWNGTLAI,153,10
Khawbel,SERCHHIP,126,10
Tawipui N,LUNGLEI,92,9
Siachangkawn,LAWNGTLAI,128,4
Khatla,AIZAWL,119,2
Saitual,AIZAWL,196,8
Tuipuiferry,SAIHA,122,3
Chawngte C,LAWNGTLAI,127,2
Ramthar,AIZAWL,126,4
Laki,SAIHA,86,10
Kanghmun,MAMIT,68,2
Hnahthial,LUNGLEI,161,6
Electric,LUNGLEI,176,10
Tuikual,AIZAWL,120,9
Luangmual,AIZAWL,69,2
Central,LUNGLEI,128,2
Aizawl E Main Center,AIZAWL,102,10
Lamzawl,CHAMPHAI,68,10
Hualngohmun,AIZAWL,142,2
Christian Hospital (Baptist) (NGO),LAWNGTLAI,75,5
Chawilung,LUNGLEI,128,9
Muallungthu,AIZAWL,168,8
Ramhlun,AIZAWL,106,3
Thentlang,SERCHHIP,101,3
Ngur,CHAMPHAI,67,10
Lunglei Central Main Centre,LUNGLEI,194,4
Tinghmun,AIZAWL,199,10
Ramhlun Vengthar,AIZAWL,84,7
Lungsen,LUNGLEI,195,6
Kanaan,AIZAWL,94,4
Vaitin,AIZAWL,156,3
Hreichuk,MAMIT,65,10
Laipuitlang,AIZAWL,131,9
Vahai,SAIHA,57,1
Bairabi,KOLASIB,189,10
Nalzawl,MAMIT,147,3
Tualpui,CHAMPHAI,183,2
Mamit,MAMIT,61,10
Melbuk,CHAMPHAI,89,6
Rawpui,LUNGLEI,78,6
Khawzawl II,CHAMPHAI,75,4
Hlimen,AIZAWL,111,1
Serte,LUNGLEI,119,4
Khanpui,AIZAWL,53,3
Bungthuam,MAMIT,116,4
Pangkhua,LAWNGTLAI,152,6
Zarkawt,AIZAWL,160,3
Pawlrang,CHAMPHAI,141,7
Phuaibuang,AIZAWL,131,10
Phairuangkai,LUNGLEI,86,4
Pukpui,LUNGLEI,185,6
Sihfa,AIZAWL,101,3
Tlangnuam,AIZAWL,130,3
Lunglei N Main Centre,LUNGLEI,60,7
Ramhlun S,AIZAWL,195,3
Thuampui,AIZAWL,73,9
Paithar,LAWNGTLAI,162,10
Damrengpui,MAMIT,113,6
Kanghmun,MAMIT,155,5
Kawrtethawveng,MAMIT,100,5
Tlungvel,AIZAWL,172,2
Christian Hospital Serkawn,LUNGLEI,67,10
Rawlbuk,LAWNGTLAI,170,10
Buarpui,LUNGLEI,79,5
Parva,LAWNGTLAI,68,8
Zote,CHAMPHAI,148,8
Darlawn,AIZAWL,183,2
Mautlang,LAWNGTLAI,55,5
Lungsen,LUNGLEI,64,9
New Builum,KOLASIB,194,3
Zawlnuam,MAMIT,58,2
Vaikhawtlang,CHAMPHAI,155,2
West Phaileng,MAMIT,179,7
Zohmun,AIZAWL,149,9
Bungzung,CHAMPHAI,171,7
Lungchem,LUNGLEI,137,6
Saichal,CHAMPHAI,170,2
Bazar,AIZAWL,95,7
Saiha Main Center,SAIHA,170,1
Puankhai,LUNGLEI,80,5
Bawngkawn,AIZAWL,128,10
Lengpui,MAMIT,85,4
Sertlangpui,LUNGLEI,134,7
Tarpho,LUNGLEI,90,2
N Vanlaiphai,SERCHHIP,119,10
Lungzarhtum,LAWNGTLAI,198,9
Farm Veng,LUNGLEI,184,6
Newlife Hospital (Pvt.),AIZAWL,68,4
Chhingchhip,SERCHHIP,104,5
Biate,CHAMPHAI,154,5
Lungrang,LAWNGTLAI,131,7
Phuldungsei,MAMIT,140,10
Lungtan,CHAMPHAI,158,5
Didlibagh SC,LUNGLEI,143,8
Thanglailung,AIZAWL,87,7
Riangtlei,CHAMPHAI,113,7
Kawrthah,MAMIT,170,2
Tuithiang,AIZAWL,152,2
Salem Veng,KOLASIB,196,8
Baktawng,AIZAWL,196,7
Champhai District Hospital,CHAMPHAI,189,5
Darlawn,AIZAWL,152,8
New Eden,MAMIT,99,10
Chakhang,SAIHA,111,2
Samlukhai,AIZAWL,53,7
Chakhang,SAIHA,190,1
Hmunhmeltha,CHAMPHAI,176,2
Tuisenchhuah,LUNGLEI,124,4
Greenwood Hospital (Pvt.),AIZAWL,134,4
Kawlbem,CHAMPHAI,136,1
Venghlun,LUNGLEI,163,9
Phura,SAIHA,59,4
Vairengte,KOLASIB,165,7
Mualcheng,LUNGLEI,71,4
Hunthar,AIZAWL,190,2
Najareth Hospital (Pvt.),KOLASIB,94,6
Aizawl S Main Center,AIZAWL,83,6
Khawmawi,LAWNGTLAI,123,4
Rualalung,LAWNGTLAI,192,4
Zohnuai,LUNGLEI,103,7
Dinthar,AIZAWL,137,6
Suangpuilawn,AIZAWL,71,3
Kulikawn,AIZAWL,60,10
Farkawn,CHAMPHAI,173,7
Aizawl N Main Center,AIZAWL,75,5
Lawngban,SAIHA,144,7
Buarpui,LUNGLEI,160,3
Bukpui,KOLASIB,93,1
Pukzing,MAMIT,149,9
Durtlang,AIZAWL,167,1
ITI,AIZAWL,159,8
Rullam,SERCHHIP,105,4
Thehlep,LUNGLEI,73,4
Bungtlang S,LAWNGTLAI,164,9
Ngopa,CHAMPHAI,161,7
Zotlang,LUNGLEI,173,6
Chhuarlung,SAIHA,67,6
Serchhip,SERCHHIP,66,3
Chhiahtlang,SERCHHIP,50,1
Aizawl Civil Hospital,AIZAWL,180,4
Tuipang V,SAIHA,113,3
Bungtlang,SERCHHIP,145,9
Dampui,MAMIT,155,9
Vathuampui,LAWNGTLAI,160,7
Hrangchalkawn UPHC,LUNGLEI,156,6
S. Vanlaiphai,LUNGLEI,144,4
Ramlaitui,LUNGLEI,176,9
Electric,AIZAWL,124,1
Lunglawn,LUNGLEI,142,5
Laisawral,LUNGLEI,144,8
Buhchangphai,KOLASIB,176,7
Tiperaghat SC,LUNGLEI,102,4
Khawzawl,CHAMPHAI,170,8
Aibawk,AIZAWL,167,8
Serkhan,KOLASIB,120,10
Khuangpuilam,KOLASIB,160,4
Rawpuichhip,MAMIT,70,8
Bualpui H,LUNGLEI,117,10
Thualthu,LUNGLEI,133,5
N Sabual,MAMIT,81,5
Hrangchalkawn,LUNGLEI,52,4
Saikhawthlir,KOLASIB,77,5
Vanhe,LUNGLEI,96,2
Keifang,AIZAWL,169,7
Sateek,AIZAWL,193,3
Darlung,MAMIT,106,4
Kawnpui,KOLASIB,126,8
Lawipu UPHC,AIZAWL,87,9
Lawipu Sub Centre,AIZAWL,80,6
Kanghmun PHC,AIZAWL,115,4
Darlung W,AIZAWL,128,9
Kanghmun S/C,AIZAWL,134,9
Khawrihnim S/C,AIZAWL,86,9
Lengpui PHC,AIZAWL,182,3
Lengpui S/C,AIZAWL,194,3
Hmunpui S/C,AIZAWL,50,10
Reiek PHC,AIZAWL,59,5
Reiek S/C,AIZAWL,102,4
Ailawng S/C,AIZAWL,127,6
W Lungdar S/C,AIZAWL,178,5
Adventist Hospital,AIZAWL,52,4
BN Hospital,AIZAWL,71,7
Zemabawk UPHC,AIZAWL,172,8
Sihphir UPHC,AIZAWL,67,5
Kelkang,CHAMPHAI,147,1
East Lungdar,SERCHHIP,193,8
Bungtlang S,LAWNGTLAI,184,6
Zawngling,SAIHA,90,7
Parvatui,MAMIT,193,6
S. Vanlaiphai,LUNGLEI,196,7
Vaivakawn,AIZAWL,141,4
Bilkhawthlir,KOLASIB,57,8
Chhawrtui,CHAMPHAI,186,6
Tuipang L,SAIHA,69,1
Biate,CHAMPHAI,59,7
Marpara,MAMIT,128,4
Khawhai,CHAMPHAI,142,6
Sialhau,SERCHHIP,183,3
Vantlang,CHAMPHAI,57,8
Silsuri,MAMIT,153,3
Dapchhuah,MAMIT,187,7
Melthum,AIZAWL,180,5
Ngopa,CHAMPHAI,68,9
Ngentiang,SERCHHIP,100,5
Chawngtlai,CHAMPHAI,91,5
Hnahchang,LUNGLEI,61,7
Zuangtui,AIZAWL,117,5
Sakawrdai,AIZAWL,192,3
Kawrtethawveng,MAMIT,174,7
Sesawm,LUNGLEI,120,10
Diakkawn,KOLASIB,124,3
Chaltlang,AIZAWL,100,2
Chawngte P,LAWNGTLAI,72,6
Aizawl Hospital (Pvt.),AIZAWL,100,9
Bethesda Hospital (Pvt.),AIZAWL,59,4
Champhai,CHAMPHAI,145,10
Falkawn Hospital,AIZAWL,160,6
Tuikhuahtlang,AIZAWL,53,3
Vew Vervek,AIZAWL,196,10
Borapansury,LAWNGTLAI,54,6
Sailulak,SERCHHIP,55,5
Tuisih,SAIHA,73,7
Lungchhuan,SERCHHIP,199,2
Dinthar,MAMIT,176,4
Presbyterian Hospital Durtlang (NGO),AIZAWL,182,5
Hnahthial,LUNGLEI,74,4
Sangau,LAWNGTLAI,121,9
Vaivenga Hospital (Pvt.),AIZAWL,119,2
Old Saiha,SAIHA,185,6
Chawilung SC,LUNGLEI,105,2
Haulawng,LUNGLEI,61,4
Seling,AIZAWL,109,8
Thenzawl,SERCHHIP,61,10
Damdep,LAWNGTLAI,145,1
Tawipui S,LUNGLEI,91,2
Thuampui,LUNGLEI,147,1
Devasora,LAWNGTLAI,170,8
Sesawng,AIZAWL,106,8
S Lungpher,LAWNGTLAI,50,2
Phaisen,KOLASIB,74,5
Lamchhip,AIZAWL,147,9
Chamdur P,LAWNGTLAI,58,7
Vanzau,CHAMPHAI,127,5
Rabung,CHAMPHAI,108,2
Cherhlun,LUNGLEI,77,6
Khuangleng,CHAMPHAI,184,3
Govt. Complex,AIZAWL,101,2
N. Serzawl,AIZAWL,158,7
Durtlang Mel-5,AIZAWL,62,8
Ralvawng,LUNGLEI,50,10
Buangpui,SERCHHIP,110,2
Pangzawl,LUNGLEI,147,4
Sialsuk,AIZAWL,111,8
Vaphai,CHAMPHAI,151,10
Aizawl W Main Center,AIZAWL,170,6
Muthi,AIZAWL,130,5
Kanhmun,MAMIT,192,4
Serkawr,SAIHA,197,10
Dulte,CHAMPHAI,151,9
Bungkawn,AIZAWL,134,2
Khawbung N,CHAMPHAI,157,9
Grace Nursing Home (Pvt.),AIZAWL,119,2
Lallen,MAMIT,170,6
Tuithumhnar,LAWNGTLAI,142,6
Tuirial,AIZAWL,125,6
Kawlkulh,CHAMPHAI,96,8
Chhawnpui,AIZAWL,165,8
N. Khawlek,AIZAWL,166,1
Cherhlun,LUNGLEI,76,7
Reiek,MAMIT,142,9
Rahsi Veng,LUNGLEI,97,4
Thiak,AIZAWL,136,1
Edenthar,AIZAWL,178,7
Bethlehem Vengthlang,AIZAWL,167,5
E. Phaileng,AIZAWL,124,9
Putlungasih,LUNGLEI,189,10
Kawlchaw,LAWNGTLAI,80,10
Hauruang,LUNGLEI,173,2
Vapar,CHAMPHAI,121,6
Khawbung,CHAMPHAI,133,7
Mission Veng,AIZAWL,95,1
Khawzawl,CHAMPHAI,153,9
Venglai,LUNGLEI,113,3
Tualbung,AIZAWL,123,4
N Lungleng,AIZAWL,160,8
Bualpui NG,LAWNGTLAI,149,2
Phulpui,AIZAWL,135,4
Pangbalkawn,KOLASIB,114,10
Tuipang,SAIHA,71,6
New Chalrang,CHAMPHAI,102,8
Tuisumpui,SAIHA,158,10
Rulpuihlim,MAMIT,146,3
Thingkah,LAWNGTLAI,99,9
Zobawk,LUNGLEI,152,9
Chhinga Veng,AIZAWL,113,1
Lungkawlh,SERCHHIP,83,3
Pangzawl,LUNGLEI,50,8
Suarhliap,KOLASIB,175,10
Saihatlangkawn,SAIHA,106,10
Tlabung,LUNGLEI,193,9
Neihloh,SERCHHIP,130,3
Armed Veng,AIZAWL,193,4
Tawipui S,LUNGLEI,76,3
Upper Republic,AIZAWL,50,1
Zote,LUNGLEI,176,6
Marpara,MAMIT,158,1
Chhipphir,LUNGLEI,99,6
Bulfekzawl,CHAMPHAI,72,7
Thakthingtlang,AIZAWL,143,2
Kawrthah,MAMIT,59,2
Maubawk,SAIHA,66,7
Khankawn,CHAMPHAI,97,6
Mimbung,CHAMPHAI,135,3
Ajesora,LAWNGTLAI,158,1
Zotlang,AIZAWL,52,6
Phullen,AIZAWL,100,3
Nisapui,KOLASIB,168,8
Phura,SAIHA,67,7
NE Khawdungsei,CHAMPHAI,73,6
NE Khawdungsei,CHAMPHAI,132,2
Vanbawng,AIZAWL,109,5
Vangchhia,CHAMPHAI,124,3
Khawruhlian,AIZAWL,138,7
Khuangphah,CHAMPHAI,132,6
New Serchhip,SERCHHIP,50,8
N.Chaltlang,KOLASIB,163,5
Haulawng,LUNGLEI,95,6
Rengdil,MAMIT,102,4
Sazep,CHAMPHAI,91,4
Bunghmun S,LUNGLEI,98,2
Melriat,AIZAWL,102,9
Vawmbuk,LAWNGTLAI,81,5
Phainuam,KOLASIB,195,8
Khawbung,CHAMPHAI,147,5
Zemabawk,AIZAWL,135,3
Bazar,LUNGLEI,74,1
Sairang,AIZAWL,72,10
Saiha District Hospital,SAIHA,101,8
Saiphai,KOLASIB,106,10
Diltlang,LAWNGTLAI,141,10
Tlangsam,CHAMPHAI,147,4
Buhban,AIZAWL,128,4
Hmunlai,LAWNGTLAI,137,1
Mualpheng,AIZAWL,143,3
Khuangthing,CHAMPHAI,110,5
Bukpui,KOLASIB,161,8
Rawmibawk,SAIHA,186,9
Thingsai,LUNGLEI,88,2
Darngawn W,LUNGLEI,188,9
Lungtian,LAWNGTLAI,131,6
Tuichawng,LUNGLEI,103,6
Khawlian,AIZAWL,121,9
Lianpui,CHAMPHAI,50,1
Hortoki,KOLASIB,198,4
Sairang,AIZAWL,171,4
Vanchengpui,CHAMPHAI,137,7
Rulchawm,AIZAWL,65,2
Khawkawn,CHAMPHAI,82,9
Serchhip District Hospital,SERCHHIP,157,9
Sialhawk,CHAMPHAI,123,9
Lawngtlai,LAWNGTLAI,151,8
Darlak,MAMIT,80,8
Mualcheng,SERCHHIP,133,1
Khawrihnim,MAMIT,51,7
Palsang,AIZAWL,50,2
Phuaibuang,AIZAWL,143,10
Phuldungsei,MAMIT,184,10
Bualpui V,LUNGLEI,81,10
S Lungpher,LAWNGTLAI,107,10
Chhipphir,LUNGLEI,140,2
Puankhai,LUNGLEI,160,4
Bungzung,CHAMPHAI,63,4
Hmunpui,MAMIT,112,4
Sialsuk,AIZAWL,187,2
Niawhtlang,SAIHA,106,7
Suangpuilawn,AIZAWL,183,8
Mampui,LAWNGTLAI,190,8
Sakawrdai,AIZAWL,155,5
Bilkhawthlir,KOLASIB,108,5
Chhuarlung,SAIHA,155,7
S.Hlimen,AIZAWL,106,5
Phullen,AIZAWL,177,7
Borapansury,LAWNGTLAI,188,6
Saipum,KOLASIB,185,8
Tuitha Veng,KOLASIB,171,3
Khawhai,CHAMPHAI,182,3
Tachhip,AIZAWL,125,3
Mualpui,AIZAWL,172,10
Khawlailung,SERCHHIP,95,9
Kanhmun,MAMIT,116,8
Khawlek,LUNGLEI,193,4
Bethel,CHAMPHAI,92,9
Mauchar,AIZAWL,113,2
Hriangtlang,SERCHHIP,165,6
Kawlkulh,CHAMPHAI,167,2
Ailawng,MAMIT,122,3
Rabung,CHAMPHAI,150,6
Tualcheng,CHAMPHAI,91,4
Lengpui,MAMIT,106,1
Thingsulthliah,AIZAWL,171,6
Chanmari E,AIZAWL,159,8
Zodin,LUNGLEI,99,8
Tuipui D,LUNGLEI,111,1
Teikhang,CHAMPHAI,189,9
S Chawngtui,SERCHHIP,58,10
Ratu,AIZAWL,95,6
N Vanlaiphai,SERCHHIP,109,8
PTC Lungverh,AIZAWL,190,10
Diblibagh,LUNGLEI,147,6
Mamte,LUNGLEI,187,6
Salem,AIZAWL,193,5
Cheural,LAWNGTLAI,97,8
Kolasib Main Center,KOLASIB,58,7
Samthang,CHAMPHAI,71,8
Lenchim,AIZAWL,124,5
Kawnmawi,MAMIT,117,2
Hnahlan,CHAMPHAI,84,3
Muallianpui,LUNGLEI,121,9
Maite,AIZAWL,63,3
Thingsulthliah,AIZAWL,98,2
W Bunghmun,MAMIT,129,10
Kawlhawk,LUNGLEI,193,2
Chapui,SAIHA,179,2
Tlangpui,CHAMPHAI,113,1
Sialhawk,CHAMPHAI,85,2
Lawngtlai Main Center,LAWNGTLAI,86,10
Tuidam,MAMIT,68,3
College Veng,LAWNGTLAI,100,7
"TNT, Zuangtui",AIZAWL,146,10
Mimbung,CHAMPHAI,133,6
Kawnpui W,LUNGLEI,103,8
Tiperaghat,LUNGLEI,119,10
Reiek,MAMIT,180,1
Jarulsury,LAWNGTLAI,128,5
Nunsury,LUNGLEI,150,5
Thingdawl,KOLASIB,194,3
Tuipuibari,MAMIT,139,6
Hnahthial S,LUNGLEI,183,1
Phalhrang,SAIHA,70,2
Thiltlang,LUNGLEI,167,5
Mamit District Hospital,MAMIT,69,7
Vaseitlang Main Center,LAWNGTLAI,171,9
New Latawh,SAIHA,77,4
Maubuang,AIZAWL,190,9
Ramthar,LUNGLEI,197,3
Theiva,SAIHA,61,9
Sailam,AIZAWL,153,6
Sawleng,AIZAWL,87,8
Nazareth Hospital (Pvt.),AIZAWL,192,10
Tlabung SDH,LUNGLEI,151,9
Sailutar,AIZAWL,97,6
Neihdawn,CHAMPHAI,145,8
Nunsuri,LUNGLEI,174,2
Chhingchhip,SERCHHIP,142,4
W. Lungdar,MAMIT,81,2
Champhai Vengthlang,CHAMPHAI,76,10
Sakawrtuichhun,AIZAWL,140,6
Lungdai,KOLASIB,159,9
Chawlhhmun,AIZAWL,181,10
Aibawk,AIZAWL,124,2
Vairengte,KOLASIB,191,6
Lungmuat,KOLASIB,147,6
Siata,SAIHA,117,10
Theiriat,LUNGLEI,75,5
Tanhril,AIZAWL,167,6
Thinghlun,MAMIT,140,3
Venghlui,AIZAWL,83,7
Mawhre,SAIHA,71,3
Ngaizawl,CHAMPHAI,129,10
Maubawk,AIZAWL,55,2
Bairabi,KOLASIB,116,6
College Veng,AIZAWL,114,7
Khawruhlian,AIZAWL,183,6
Mualthuam N,LUNGLEI,176,3
Champhai Main Center,CHAMPHAI,192,4
Sumsuih,AIZAWL,71,4
Darzo,LUNGLEI,87,6
East Lungdar,SERCHHIP,135,1
Leite,LUNGLEI,138,5
M Kawnpui,LAWNGTLAI,191,10
Selam,CHAMPHAI,140,9
Tuichawng SC,LUNGLEI,52,3
Park Kawn,KOLASIB,150,9
Daido,AIZAWL,164,3
West Phaileng,MAMIT,76,2
Tualte,CHAMPHAI,188,2
Mualkhang,AIZAWL,155,2
Kepran,AIZAWL,194,10
Vaseitlang,LAWNGTLAI,91,8
Zodin,LUNGLEI,118,8
Hriphaw,MAMIT,98,10
Rawpuichhip,MAMIT,195,8
Lungdai,KOLASIB,161,6
Chawngte CHC,LAWNGTLAI,114,3
Hnahlan,CHAMPHAI,101,6
Mamit Main Center,MAMIT,145,4
Serchhip,SERCHHIP,191,8
Thinglian,SERCHHIP,66,1
Kolasib District Hospital,KOLASIB,64,2
Zamuang,MAMIT,138,5
Sangau,LAWNGTLAI,116,5
Kanghmun S,LUNGLEI,87,2
Bualpui,KOLASIB,158,2
Kawnpui,KOLASIB,162,9
Zanlawn,KOLASIB,97,7
Meisatla,SAIHA,63,2
Lairam Christian Medical Centre,LAWNGTLAI,111,4
Hmar Veng,KOLASIB,97,3
Tumpui,KOLASIB,153,10
Sihphir,AIZAWL,158,3
Republic,AIZAWL,156,10
N. Hlimen,KOLASIB,135,3
Farkawn,CHAMPHAI,175,3
Leng,SERCHHIP,88,2
Bawngkawn S,AIZAWL,198,8
Saitual,AIZAWL,180,7
Chanmari,AIZAWL,163,10
Sumsilui,LAWNGTLAI,89,2
Lungpho,SERCHHIP,79,8
Zawlpui,LUNGLEI,185,3
Thingfal,LUNGLEI,65,10
NE Bualpui Hliappui,CHAMPHAI,118,4
Zawlnuam,MAMIT,192,8
Venghnuai,AIZAWL,54,8
Khawlailung,SERCHHIP,143,6
Kulikawn Hospital,AIZAWL,175,4
Ngentiang,SERCHHIP,196,3
Hmuntha,SERCHHIP,177,5
Lawngtlai District Hospital,LAWNGTLAI,109,8
Borai,MAMIT,199,6
Chuhvel,KOLASIB,51,8
Vaisam,LUNGLEI,64,6
Khumtung,AIZAWL,157,8
Keitum,SERCHHIP,155,5
Dungtlang,CHAMPHAI,139,4
Sesih,CHAMPHAI,97,3
Lunglei District Hospital,LUNGLEI,197,6
Thingsat,AIZAWL,79,8
Zobawk Main Centre,LUNGLEI,185,9
Mission Hospital (NGO),CHAMPHAI,155,10
Thenzawl,SERCHHIP,168,3
Theiri,SAIHA,144,4
Bualpui NG,LAWNGTLAI,64,7
Hualtu,SERCHHIP,191,8
Tawngkawlong,SAIHA,149,6
Ruantlang,CHAMPHAI,160,6
Lengte,MAMIT,162,7
Changpui,LUNGLEI,84,7
Bethlehem Vengchhak,AIZAWL,123,10
Thenhlum,LUNGLEI,173,5
Bunghmun S,LUNGLEI,156,7
N. Chawnpui,KOLASIB,55,7
Saizawh,LAWNGTLAI,168,3
Khawbel,SERCHHIP,59,8
Tawipui N,LUNGLEI,116,5
Siachangkawn,LAWNGTLAI,89,5
Khatla,AIZAWL,165,6
Saitual,AIZAWL,62,7
Tuipuiferry,SAIHA,60,8
Chawngte C,LAWNGTLAI,101,4
Ramthar,AIZAWL,86,8
Laki,SAIHA,138,4
Kanghmun,MAMIT,179,3
Hnahthial,LUNGLEI,79,9
Electric,LUNGLEI,168,5
Tuikual,AIZAWL,111,1
Luangmual,AIZAWL,155,3
Central,LUNGLEI,100,2
Aizawl E Main Center,AIZAWL,143,6
Lamzawl,CHAMPHAI,123,10
Hualngohmun,AIZAWL,113,1
Christian Hospital (Baptist) (NGO),LAWNGTLAI,150,4
Chawilung,LUNGLEI,69,6
Muallungthu,AIZAWL,151,5
Ramhlun,AIZAWL,67,6
Thentlang,SERCHHIP,55,7
Ngur,CHAMPHAI,191,5
Lunglei Central Main Centre,LUNGLEI,89,10
Tinghmun,AIZAWL,181,9
Ramhlun Vengthar,AIZAWL,174,4
Lungsen,LUNGLEI,199,10
Kanaan,AIZAWL,153,9
Vaitin,AIZAWL,179,2
Hreichuk,MAMIT,179,4
Laipuitlang,AIZAWL,77,7
Vahai,SAIHA,64,2
Bairabi,KOLASIB,136,9
Nalzawl,MAMIT,113,6
Tualpui,CHAMPHAI,158,7
Mamit,MAMIT,172,3
Melbuk,CHAMPHAI,92,1
Rawpui,LUNGLEI,136,2
Khawzawl II,CHAMPHAI,170,4
Hlimen,AIZAWL,131,6
Serte,LUNGLEI,176,3
Khanpui,AIZAWL,117,6
Bungthuam,MAMIT,110,4
Pangkhua,LAWNGTLAI,139,9
Zarkawt,AIZAWL,95,1
Pawlrang,CHAMPHAI,155,4
Phuaibuang,AIZAWL,173,8
Phairuangkai,LUNGLEI,97,10
Pukpui,LUNGLEI,148,5
Sihfa,AIZAWL,83,8
Tlangnuam,AIZAWL,79,3
Lunglei N Main Centre,LUNGLEI,107,1
Ramhlun S,AIZAWL,121,5
Thuampui,AIZAWL,66,1
Paithar,LAWNGTLAI,50,3
Damrengpui,MAMIT,178,6
Kanghmun,MAMIT,169,10
Kawrtethawveng,MAMIT,112,10
Tlungvel,AIZAWL,103,10
Christian Hospital Serkawn,LUNGLEI,164,1
Rawlbuk,LAWNGTLAI,164,8
Buarpui,LUNGLEI,99,8
Parva,LAWNGTLAI,69,4
Zote,CHAMPHAI,87,3
Darlawn,AIZAWL,69,10
Mautlang,LAWNGTLAI,146,7
Lungsen,LUNGLEI,192,3
New Builum,KOLASIB,153,8
Zawlnuam,MAMIT,176,2
Vaikhawtlang,CHAMPHAI,176,7
West Phaileng,MAMIT,130,5
Zohmun,AIZAWL,100,6
Bungzung,CHAMPHAI,101,3
Lungchem,LUNGLEI,174,6
Saichal,CHAMPHAI,168,2
Bazar,AIZAWL,166,2
Saiha Main Center,SAIHA,185,9
Puankhai,LUNGLEI,138,5
Bawngkawn,AIZAWL,52,7
Lengpui,MAMIT,91,7
Sertlangpui,LUNGLEI,71,1
Tarpho,LUNGLEI,77,9
N Vanlaiphai,SERCHHIP,112,6
Lungzarhtum,LAWNGTLAI,164,10
Farm Veng,LUNGLEI,120,3
Newlife Hospital (Pvt.),AIZAWL,114,3
Chhingchhip,SERCHHIP,71,1
Biate,CHAMPHAI,188,9
Lungrang,LAWNGTLAI,103,8
Phuldungsei,MAMIT,166,3
Lungtan,CHAMPHAI,184,10
Didlibagh SC,LUNGLEI,73,10
Thanglailung,AIZAWL,151,6
Riangtlei,CHAMPHAI,175,8
Kawrthah,MAMIT,66,9
Tuithiang,AIZAWL,135,7
Salem Veng,KOLASIB,154,5
Baktawng,AIZAWL,198,4
Champhai District Hospital,CHAMPHAI,119,5
Darlawn,AIZAWL,146,6
New Eden,MAMIT,141,4
Chakhang,SAIHA,184,8
Samlukhai,AIZAWL,177,2
Chakhang,SAIHA,79,3
Hmunhmeltha,CHAMPHAI,66,2
Tuisenchhuah,LUNGLEI,179,4
Greenwood Hospital (Pvt.),AIZAWL,62,10
Kawlbem,CHAMPHAI,156,5
Venghlun,LUNGLEI,116,1
Phura,SAIHA,100,2
Vairengte,KOLASIB,194,1
Mualcheng,LUNGLEI,58,8
Hunthar,AIZAWL,122,4
Najareth Hospital (Pvt.),KOLASIB,85,5
Aizawl S Main Center,AIZAWL,95,1
Khawmawi,LAWNGTLAI,115,10
Rualalung,LAWNGTLAI,118,5
Zohnuai,LUNGLEI,99,2
Dinthar,AIZAWL,102,9
Suangpuilawn,AIZAWL,192,9
Kulikawn,AIZAWL,133,8
Farkawn,CHAMPHAI,125,9
Aizawl N Main Center,AIZAWL,181,8
Lawngban,SAIHA,80,4
Buarpui,LUNGLEI,131,8
Bukpui,KOLASIB,162,5
Pukzing,MAMIT,123,2
Durtlang,AIZAWL,62,7
ITI,AIZAWL,114,7
Rullam,SERCHHIP,90,6
Thehlep,LUNGLEI,114,3
Bungtlang S,LAWNGTLAI,172,2
Ngopa,CHAMPHAI,54,5
Zotlang,LUNGLEI,67,3
Chhuarlung,SAIHA,138,2
Serchhip,SERCHHIP,158,2
Chhiahtlang,SERCHHIP,75,4
Aizawl Civil Hospital,AIZAWL,184,3
Tuipang V,SAIHA,76,5
Bungtlang,SERCHHIP,177,7
Dampui,MAMIT,181,5
Vathuampui,LAWNGTLAI,70,9
Hrangchalkawn UPHC,LUNGLEI,126,9
S. Vanlaiphai,LUNGLEI,86,10
Ramlaitui,LUNGLEI,66,2
Electric,AIZAWL,102,3
Lunglawn,LUNGLEI,50,1
Laisawral,LUNGLEI,83,4
Buhchangphai,KOLASIB,128,3
Tiperaghat SC,LUNGLEI,116,7
Khawzawl,CHAMPHAI,147,8
Aibawk,AIZAWL,141,2
Serkhan,KOLASIB,99,2
Khuangpuilam,KOLASIB,94,2
Rawpuichhip,MAMIT,185,6
Bualpui H,LUNGLEI,131,5
Thualthu,LUNGLEI,89,6
N Sabual,MAMIT,108,6
Hrangchalkawn,LUNGLEI,61,10
Saikhawthlir,KOLASIB,176,9
Vanhe,LUNGLEI,110,4
Keifang,AIZAWL,138,7
Sateek,AIZAWL,54,2
Darlung,MAMIT,57,2
