Health Facility Name,District_Name,Number_Of_Beds,Rating
SMC Ward 4,Dadra & Nagar Haveli,64,8
Kauncha,Dadra & Nagar Haveli,88,7
Karachgam,Dadra & Nagar Haveli,53,1
Rakholi,Dadra & Nagar Haveli,72,3
Apti,Dadra & Nagar Haveli,77,3
Surangi,Dadra & Nagar Haveli,115,4
SMC Ward 6,Dadra & Nagar Haveli,58,3
Khanvel,Dadra & Nagar Haveli,106,4
Karchond,Dadra & Nagar Haveli,99,1
Mota Randha,Dadra & Nagar Haveli,145,3
Parzai,Dadra & Nagar Haveli,133,4
Vasona,Dadra & Nagar Haveli,190,1
Saily,Dadra & Nagar Haveli,83,2
UHC B,Dadra & Nagar Haveli,74,3
Bedpa,Dadra & Nagar Haveli,99,10
Umarkui,Dadra & Nagar Haveli,71,1
SMC Ward 5,Dadra & Nagar Haveli,181,9
Masat,Dadra & Nagar Haveli,136,5
Mandoni,Dadra & Nagar Haveli,140,1
Luhari,Dadra & Nagar Haveli,152,3
Dapada,Dadra & Nagar Haveli,189,6
Demani,Dadra & Nagar Haveli,176,7
Khardpada,Dadra & Nagar Haveli,163,10
Masat,Dadra & Nagar Haveli,189,3
Chauda,Dadra & Nagar Haveli,174,5
Athola,Dadra & Nagar Haveli,101,3
Dhapsa,Dadra & Nagar Haveli,53,9
SMC Ward 12,Dadra & Nagar Haveli,198,7
Khadoli,Dadra & Nagar Haveli,84,5
Bensda,Dadra & Nagar Haveli,88,1
Mandoni,Dadra & Nagar Haveli,152,4
Khedpa,Dadra & Nagar Haveli,118,3
Kilvani,Dadra & Nagar Haveli,123,6
Velugam,Dadra & Nagar Haveli,136,1
Bavisafalia (Amli),Dadra & Nagar Haveli,94,7
Randha,Dadra & Nagar Haveli,174,7
SMC Ward 14,Dadra & Nagar Haveli,183,8
Chinsda,Dadra & Nagar Haveli,131,7
Shelti,Dadra & Nagar Haveli,94,2
Nana Randha,Dadra & Nagar Haveli,96,4
Sindoni,Dadra & Nagar Haveli,94,7
Dayatfalia (Amli),Dadra & Nagar Haveli,143,4
Dapada,Dadra & Nagar Haveli,60,7
SMC Ward 3,Dadra & Nagar Haveli,176,1
Tighra,Dadra & Nagar Haveli,168,7
Ultanfalia,Dadra & Nagar Haveli,98,10
UHC A,Dadra & Nagar Haveli,172,9
Athal,Dadra & Nagar Haveli,115,2
Gunsa,Dadra & Nagar Haveli,143,6
Khanvel,Dadra & Nagar Haveli,126,4
SMC Ward 13,Dadra & Nagar Haveli,147,1
Amli (Ghandhigram),Dadra & Nagar Haveli,81,4
SMC Ward 15,Dadra & Nagar Haveli,99,6
Pati,Dadra & Nagar Haveli,143,8
Vansda,Dadra & Nagar Haveli,115,3
Rudana,Dadra & Nagar Haveli,133,2
SMC Ward 10,Dadra & Nagar Haveli,162,7
SMC Ward 2,Dadra & Nagar Haveli,132,8
Galonda,Dadra & Nagar Haveli,55,4
Naroli,Dadra & Nagar Haveli,109,4
Falandi,Dadra & Nagar Haveli,146,8
Kherarbari,Dadra & Nagar Haveli,84,4
Kudacha,Dadra & Nagar Haveli,196,8
SMC Ward 7,Dadra & Nagar Haveli,121,4
SMC Ward 8,Dadra & Nagar Haveli,138,2
SMC Ward 11,Dadra & Nagar Haveli,160,2
Amboli,Dadra & Nagar Haveli,140,4
Saily 2,Dadra & Nagar Haveli,72,2
Samarvarni,Dadra & Nagar Haveli,106,1
Dadra,Dadra & Nagar Haveli,108,3
Rudana,Dadra & Nagar Haveli,140,2
Umbervarni,Dadra & Nagar Haveli,95,4
Morkhal,Dadra & Nagar Haveli,189,9
Rakholi,Dadra & Nagar Haveli,65,4
Shri Vinoba Bhave Civil Hospital,Dadra & Nagar Haveli,170,2
Kherdi,Dadra & Nagar Haveli,122,10
Saily 3,Dadra & Nagar Haveli,123,10
SMC Ward 1,Dadra & Nagar Haveli,130,1
Dadra,Dadra & Nagar Haveli,82,6
SMC Ward 9,Dadra & Nagar Haveli,181,1
Silvassa,Dadra & Nagar Haveli,175,4
Dudhani,Dadra & Nagar Haveli,176,9
Amboli,Dadra & Nagar Haveli,94,3
Chikhali,Dadra & Nagar Haveli,113,10
Chinchpada,Dadra & Nagar Haveli,135,4
Dudhani,Dadra & Nagar Haveli,103,6
Bonta,Dadra & Nagar Haveli,182,1
Baldevi (Amli),Dadra & Nagar Haveli,52,9
Karad,Dadra & Nagar Haveli,129,1
Bindrabin,Dadra & Nagar Haveli,79,6
Sili,Dadra & Nagar Haveli,63,10
Naroli,Dadra & Nagar Haveli,122,9
SMC Ward 4,Dadra & Nagar Haveli,77,10
Kauncha,Dadra & Nagar Haveli,194,4
Karachgam,Dadra & Nagar Haveli,61,10
Rakholi,Dadra & Nagar Haveli,163,2
Apti,Dadra & Nagar Haveli,50,9
Surangi,Dadra & Nagar Haveli,112,2
SMC Ward 6,Dadra & Nagar Haveli,115,7
Khanvel,Dadra & Nagar Haveli,148,4
Karchond,Dadra & Nagar Haveli,77,1
Mota Randha,Dadra & Nagar Haveli,148,7
Parzai,Dadra & Nagar Haveli,82,5
Vasona,Dadra & Nagar Haveli,73,9
Saily,Dadra & Nagar Haveli,79,5
UHC B,Dadra & Nagar Haveli,131,3
Bedpa,Dadra & Nagar Haveli,121,2
Umarkui,Dadra & Nagar Haveli,158,4
SMC Ward 5,Dadra & Nagar Haveli,79,6
Masat,Dadra & Nagar Haveli,102,2
Mandoni,Dadra & Nagar Haveli,170,10
Luhari,Dadra & Nagar Haveli,63,10
Dapada,Dadra & Nagar Haveli,111,10
Demani,Dadra & Nagar Haveli,154,3
Khardpada,Dadra & Nagar Haveli,174,8
Masat,Dadra & Nagar Haveli,131,2
Chauda,Dadra & Nagar Haveli,180,3
Athola,Dadra & Nagar Haveli,125,3
Dhapsa,Dadra & Nagar Haveli,109,2
SMC Ward 12,Dadra & Nagar Haveli,158,7
Khadoli,Dadra & Nagar Haveli,72,2
Bensda,Dadra & Nagar Haveli,93,9
Mandoni,Dadra & Nagar Haveli,74,8
Khedpa,Dadra & Nagar Haveli,55,1
Kilvani,Dadra & Nagar Haveli,163,7
Velugam,Dadra & Nagar Haveli,143,5
Bavisafalia (Amli),Dadra & Nagar Haveli,58,10
Randha,Dadra & Nagar Haveli,150,2
SMC Ward 14,Dadra & Nagar Haveli,183,9
Chinsda,Dadra & Nagar Haveli,115,8
Shelti,Dadra & Nagar Haveli,125,2
Nana Randha,Dadra & Nagar Haveli,94,9
Sindoni,Dadra & Nagar Haveli,111,7
Dayatfalia (Amli),Dadra & Nagar Haveli,105,6
Dapada,Dadra & Nagar Haveli,120,4
SMC Ward 3,Dadra & Nagar Haveli,95,10
Tighra,Dadra & Nagar Haveli,180,7
Ultanfalia,Dadra & Nagar Haveli,176,9
UHC A,Dadra & Nagar Haveli,157,8
Athal,Dadra & Nagar Haveli,125,5
Gunsa,Dadra & Nagar Haveli,60,9
Khanvel,Dadra & Nagar Haveli,105,5
SMC Ward 13,Dadra & Nagar Haveli,153,2
Amli (Ghandhigram),Dadra & Nagar Haveli,66,10
SMC Ward 15,Dadra & Nagar Haveli,127,10
Pati,Dadra & Nagar Haveli,68,2
Vansda,Dadra & Nagar Haveli,62,10
Rudana,Dadra & Nagar Haveli,101,10
SMC Ward 10,Dadra & Nagar Haveli,98,9
SMC Ward 2,Dadra & Nagar Haveli,74,2
Galonda,Dadra & Nagar Haveli,122,4
Naroli,Dadra & Nagar Haveli,170,6
Falandi,Dadra & Nagar Haveli,175,4
Kherarbari,Dadra & Nagar Haveli,149,5
Kudacha,Dadra & Nagar Haveli,128,10
SMC Ward 7,Dadra & Nagar Haveli,143,4
SMC Ward 8,Dadra & Nagar Haveli,189,8
SMC Ward 11,Dadra & Nagar Haveli,112,3
Amboli,Dadra & Nagar Haveli,197,8
Saily 2,Dadra & Nagar Haveli,142,8
Samarvarni,Dadra & Nagar Haveli,142,7
Dadra,Dadra & Nagar Haveli,197,5
Rudana,Dadra & Nagar Haveli,55,8
Umbervarni,Dadra & Nagar Haveli,180,7
Morkhal,Dadra & Nagar Haveli,120,9
Rakholi,Dadra & Nagar Haveli,149,9
Shri Vinoba Bhave Civil Hospital,Dadra & Nagar Haveli,109,6
Kherdi,Dadra & Nagar Haveli,183,9
Saily 3,Dadra & Nagar Haveli,97,6
SMC Ward 1,Dadra & Nagar Haveli,199,6
Dadra,Dadra & Nagar Haveli,193,9
SMC Ward 9,Dadra & Nagar Haveli,111,9
Silvassa,Dadra & Nagar Haveli,103,2
Dudhani,Dadra & Nagar Haveli,136,2
Amboli,Dadra & Nagar Haveli,96,1
Chikhali,Dadra & Nagar Haveli,99,7
Chinchpada,Dadra & Nagar Haveli,89,9
Dudhani,Dadra & Nagar Haveli,53,8
Bonta,Dadra & Nagar Haveli,125,9
Baldevi (Amli),Dadra & Nagar Haveli,172,3
Karad,Dadra & Nagar Haveli,140,7
Bindrabin,Dadra & Nagar Haveli,128,8
Sili,Dadra & Nagar Haveli,164,4
Naroli,Dadra & Nagar Haveli,173,10
