Health Facility Name,Number_Of_Beds,Rating
UPHC Bodabag,144,3
UPHC Ratahara,174,3
SHC PANGADIKALA,190,5
SHC Rupouli,186,5
PHC Dabhura,81,1
SHC Garh,151,8
SHC Misirgawa,168,2
SHC Puras,183,1
SHC Akauriya,83,4
SHC Chhatragarh,185,5
SHC TAMRADESH,131,2
SHC Alhvakhurd,138,5
SHC Hakariya,81,4
SHC Khajha,109,1
SHC LOHI,172,2
SHC Chandeh,148,9
SHC  Sonwarsha,192,5
SHC DUDHMANIYA,75,10
PHC AMILIHA,57,2
SHC AMHA,127,10
SHC Sathni,73,4
SHC Chaukhada,152,3
SHC MAUHARIYA,116,9
SHC Badachh,99,3
SHC MUDARIYA,100,5
SHC Sohagi,195,6
SHC Khuta,52,1
SHC PURWA,86,9
PHC Rahat,53,10
SHC Majhigawa,173,6
PHC Beerkham,114,1
SHC Chakghat,66,6
SHC BARHATA,102,1
SHC SOOJI,91,3
SHC Majhiyar,137,10
PHC Barahadi,62,7
SHC BADWAR,75,7
SHC Roura,50,7
SHC Duari,133,7
SHC Sahapur,65,10
SHC Andwa,105,2
SHC Hinauti,133,9
SHC Bhanigawa,117,6
SHC DIHIYAPADAN,85,5
SHC KADAILA,103,4
SHC Manika,158,10
SHC DELHI,140,8
SHC Deura,161,5
SHC Katur,197,9
SHC Beeda,61,5
SHC Kharan,51,6
SHC Jankahai,173,9
SHC Bashat,93,2
SHC Dharampura,188,10
SHC Hardoli,157,8
SHC Shivpurva,148,8
CHC Semaria,156,5
SHC Reruapurwa,147,1
PHC Mangawana,122,8
SHC MADARI,177,10
SHC Dugawa,186,3
SHC Amawa,111,10
SHC Badhra,109,1
SHC Banna,147,3
PHC Gardhi,122,5
PHC Beeda,161,1
SHC PALIYA,185,10
SHC Joraut,69,6
SHC Teonthar,138,1
SHC BADAGAON,186,2
SHC Badraugautaman,154,9
SHC Badagaw,155,4
CHC Chakghat,169,2
SHC Sardaman,126,9
SHC PIPARWAR,67,6
CHC Hanumana,135,3
SHC Parasi,151,4
SHC Gudhwa,134,7
PHC Baikuntpur,175,6
"SHC, Chandi",151,5
SHC Panti,173,7
SHC KHAIRA,88,10
SHC Khamha,167,10
SHC Kota,140,9
SHC SOORA,75,9
SHC Raguli,114,2
SHC JALDAR,145,6
SHC Kuthila,170,7
SHC KADUAVAN,79,7
SHC Jadkud,128,4
PHC Dewas,68,8
SHC Bholgarh,121,1
SHC Pipra,109,6
SHC RAGHURAJGARH,142,9
SHC Maligawa,141,6
SHC MANKAHRI,168,3
SHC Dihia,116,8
SHC Amiliki,171,6
SHC PATHRAHA,194,5
SHC KADI,180,4
SHC Nakwar,171,5
SHC BAGDHADUBE,193,5
SHC Jhalwa,160,8
SHC Gondari 10,94,1
CHC Gangeo,146,4
SHC Rahat,133,5
SHC Nauwasta,142,4
SHC Khatkhari,193,7
SHC Basigada,55,1
SHC Bara,105,6
"SHC, Itauri",194,5
SHC DUARI,114,8
SHC Lohi,69,2
NOT SHC MCW CENTER,79,4
SHC Rousar,143,1
SHC Saw,186,10
SHC Chunri,134,9
SHC Amaw,130,4
SHC GURH,149,7
"SHC, Madari",170,7
SHC Madwa,113,7
SHC Bichharahta,124,1
SHC Kailaesh Pur,52,7
SHC Balbhadragarh,147,5
SHC Chijwar,91,1
SHC Kamariya,110,3
CHC Naigarhi,106,2
SHC DABHURA,134,4
DH REWA,124,3
SHC Ramnai,153,3
CHC Govindgarh,187,7
SHC Damodargarh,79,9
SHC BAKSHERA,122,3
SHC Chaukhandi,188,8
SHC Karah,175,7
SHC Judmaniya,123,9
CHC Sirmour,68,8
SHC Paipakhar,62,10
SHC Gauri,65,1
SHC PANNI,151,7
PHC Majhiiyar,60,7
SHC Basrehi,82,9
SHC Ajagarha,93,9
SHC Panwar,178,1
NOT SHC JAWA,181,10
SHC Harri pratapsingh,181,8
SHC Lin,88,1
SHC Gorgaon,136,10
SHC Byohara,180,10
SHC Bhaluha,142,4
SHC Bhaluha,169,9
PHC DHERA,105,1
SHC Umari,136,5
SHC KOLHAI,168,9
SHC Paharkha,179,8
SHC BELA,166,9
SHC Teaker,129,7
SHC Jodauri,70,1
SHC DHERA,76,9
SHC Baikunthpur,197,5
SHC TIWANI,84,10
PHC RAGAULI,55,4
SHC Kostha,138,2
PHC CHACHAI,137,4
SHC Dhawaiya,92,2
SHC Laxmanpur,87,4
SHC DIHULI,54,6
SHC Ghuman,64,3
SHC Padari,137,5
SHC Rampur,92,2
PHC BARON,80,10
SHC Dewara,154,3
PHC Barahdi,94,9
SHC LAKSHKANPUR,134,1
SHC Baisa,117,7
PHC Teekar,70,5
SHC Rajadho,124,9
PHC Hata,74,3
SHC LALGAWAN,170,3
SHC Khour,61,9
SHC Bandhwa,92,1
PHC Pahadi,176,5
SHC Sahapur,158,9
SHC Khatkari,84,1
SHC GHUREHATA,112,10
SHC KARIYAGHAR,86,8
SHC PADAR,90,7
SHC Hadiya,141,10
SHC Bainkuina,76,8
SHC Baro,104,5
SHC Rajgarh,51,5
PHC Raipur Sonauri,98,5
SHC Mau,83,5
SHC MAHMUDPUR,183,2
SHC Semaria,57,6
SHC KANTI,145,3
SHC Bahuti,158,6
SHC Bhatlo,127,7
SHC Kalyanpur,56,3
SHC Joraut,60,8
SHC Busayul,90,2
SHC Paikangaon,107,2
SHC Dadar,170,9
SHC Dadiya,137,4
SHC Anjora,168,1
SHC Hinauta Dewarth,177,8
SHC Beerpur,135,10
PHC LALGAWAN,62,5
SHC Raghunathganj.,156,2
SHC Kumara Judamani,67,8
SHC Patimishran,69,2
SHC Gardhi,107,10
SHC Ganteera Kala,197,4
SHC Gada,128,10
SHC Chariya,111,5
SHC Bahuti,113,9
SHC Rithi,163,9
SHC Bajrangpur,131,10
SHC Lohdwar,111,6
PHC Jaraha,183,4
SHC KAROUDAHA,142,5
Shyam shah Medical College REWA,92,7
SHC DIGHAUL,82,10
SHC PARASWAR,146,10
UHC REWA,82,7
SHC Kuiyan,160,1
SHC Katra,185,7
PHC KONI,110,9
SHC Bhir,77,2
SHC Patehra,140,3
PHC TIWANI,62,6
SHC Chorahata,65,9
SHC LOOK,99,4
SHC GADEHRA,155,9
SHC DIGHWAR,133,5
SHC Nivi,68,7
PHC LAXMANPUR,158,3
SHC Itaha,101,6
SHC Hardi kala,83,8
SHC NAVAGAON,167,2
SHC Shahpur,158,7
CHC GURH,118,8
SHC Patulkhi,199,3
SHC Tamara,170,10
SHC Belwa Paikan,153,2
SHC Gedurha,123,10
SHC BHADAWAL,87,8
SHC DHANGAN,155,6
SHC Kot,75,9
"SHC, Dodaw",154,8
PHC Chaukhandi,193,10
SHC DHDHNI,190,3
SHC Sailaiya,133,7
"SHC, Paira",138,8
SHC Beeradai,193,1
SHC KYOTI,142,5
SHC Shankarpur,98,10
PHC DEVTALAB,62,10
SHC Kharra,122,3
SHC HARRI GUJRAN,162,6
SHC PAKRA,72,4
SHC RAMPUR,169,4
SHC PATEHARA,100,5
SHC Gaddikeraha,119,10
SHC SARAISENGAR,87,7
SHC Hadua,106,8
SHC ITHA,109,9
SHC Piprahi,147,4
SHC Mahsow,161,7
SHC RATANGAWAN,172,9
SHC Mangi,145,7
SHC Badagaun,160,8
SHC Tighara,163,2
SHC Khamaria,94,6
SHC BAHERADABAR,152,7
SHC sivrajpur,63,9
SHC SAGRA,158,6
SHC Bausadwa,177,10
SHC Budhiya,129,6
SHC Tilkhan,88,9
SHC Tagaha,178,10
SHC Chilla,156,8
SHC DEVTALAB,179,1
SHC TADAURA,175,9
SHC PHOOL,103,2
SHC Dhakhara,87,8
SHC Agadal,153,9
CHC MAUGANJ,62,6
SHC Chaura,125,2
SHC Parsiya,113,1
CHC Jawa,171,3
SHC GAGHARA,117,7
SHC DAGDAUVA,61,7
SHC Kankar,186,8
SHC Bichhauli,184,4
SHC ITORA,195,7
SHC Patharauda,51,2
SHC Padari,106,8
SHC Kotwakash,93,10
SHC Phutaudha,199,8
PHC MALAIGAWA,64,4
CH Teonthar,84,1
SHC Chua,73,10
PHC Jodauri,167,5
CHC Raipur-Karchuliyan,67,10
SHC Bahuribandh,155,8
SHC Phulaha,194,3
SHC Khaira,144,10
SHC DEWGAON,117,7
SHC KARAUDI,104,4
SHC BANS,73,2
SHC Barav,151,4
SHC Niga,143,7
SHC SEETAPUR,53,5
SHC Raipur Sonauri,68,4
SHC Kapsha,123,1
SHC Khajuha,146,9
SHC Pratapganj,176,5
SHC Baijnath,63,2
SHC Chadrapur,196,4
SHC Lodhi,121,1
SHC Padara,106,5
SHC MANIKWAR,58,7
SHC Soharwa,187,3
UPHC Bodabag,131,6
UPHC Ratahara,144,9
SHC PANGADIKALA,61,8
SHC Rupouli,171,10
PHC Dabhura,124,5
SHC Garh,125,6
SHC Misirgawa,169,4
SHC Puras,63,4
SHC Akauriya,67,2
SHC Chhatragarh,169,5
SHC TAMRADESH,62,5
SHC Alhvakhurd,101,3
SHC Hakariya,139,1
SHC Khajha,55,1
SHC LOHI,133,1
SHC Chandeh,98,5
SHC  Sonwarsha,96,5
SHC DUDHMANIYA,171,3
PHC AMILIHA,193,3
SHC AMHA,81,3
SHC Sathni,153,10
SHC Chaukhada,133,7
SHC MAUHARIYA,111,1
SHC Badachh,109,9
SHC MUDARIYA,147,1
SHC Sohagi,127,10
SHC Khuta,195,9
SHC PURWA,113,5
PHC Rahat,145,6
SHC Majhigawa,111,3
PHC Beerkham,110,2
SHC Chakghat,168,7
SHC BARHATA,175,10
SHC SOOJI,155,6
SHC Majhiyar,77,8
PHC Barahadi,123,7
SHC BADWAR,169,9
SHC Roura,71,2
SHC Duari,115,7
SHC Sahapur,132,5
SHC Andwa,112,7
SHC Hinauti,86,3
SHC Bhanigawa,102,1
SHC DIHIYAPADAN,61,1
SHC KADAILA,73,10
SHC Manika,122,3
SHC DELHI,183,4
SHC Deura,123,9
SHC Katur,113,3
SHC Beeda,108,2
SHC Kharan,149,2
SHC Jankahai,78,3
SHC Bashat,169,1
SHC Dharampura,164,2
SHC Hardoli,91,2
SHC Shivpurva,199,3
CHC Semaria,139,3
SHC Reruapurwa,142,10
PHC Mangawana,152,9
SHC MADARI,162,4
SHC Dugawa,163,1
SHC Amawa,156,8
SHC Badhra,98,10
SHC Banna,193,5
PHC Gardhi,76,2
PHC Beeda,137,4
SHC PALIYA,125,3
SHC Joraut,185,5
SHC Teonthar,96,7
SHC BADAGAON,120,9
SHC Badraugautaman,155,7
SHC Badagaw,121,3
CHC Chakghat,84,6
SHC Sardaman,88,5
SHC PIPARWAR,145,1
CHC Hanumana,147,5
SHC Parasi,171,2
SHC Gudhwa,96,4
PHC Baikuntpur,93,10
"SHC, Chandi",59,8
SHC Panti,53,2
SHC KHAIRA,131,7
SHC Khamha,158,5
SHC Kota,195,6
SHC SOORA,185,9
SHC Raguli,186,9
SHC JALDAR,194,10
SHC Kuthila,183,9
SHC KADUAVAN,94,5
SHC Jadkud,58,1
PHC Dewas,108,7
SHC Bholgarh,164,7
SHC Pipra,126,5
SHC RAGHURAJGARH,194,4
SHC Maligawa,105,7
SHC MANKAHRI,126,1
SHC Dihia,159,6
SHC Amiliki,64,9
SHC PATHRAHA,158,6
SHC KADI,184,2
SHC Nakwar,94,4
SHC BAGDHADUBE,150,7
SHC Jhalwa,172,10
SHC Gondari 10,193,9
CHC Gangeo,66,9
SHC Rahat,152,1
SHC Nauwasta,144,5
SHC Khatkhari,91,2
SHC Basigada,84,10
SHC Bara,103,5
"SHC, Itauri",143,7
SHC DUARI,182,9
SHC Lohi,118,1
NOT SHC MCW CENTER,155,2
SHC Rousar,80,10
SHC Saw,150,9
SHC Chunri,187,9
SHC Amaw,132,2
SHC GURH,98,2
"SHC, Madari",85,3
SHC Madwa,167,8
SHC Bichharahta,144,3
SHC Kailaesh Pur,67,9
SHC Balbhadragarh,83,7
SHC Chijwar,179,9
SHC Kamariya,144,7
CHC Naigarhi,182,2
SHC DABHURA,198,2
DH REWA,193,9
SHC Ramnai,165,10
CHC Govindgarh,183,9
SHC Damodargarh,88,4
SHC BAKSHERA,53,7
SHC Chaukhandi,148,9
SHC Karah,145,7
SHC Judmaniya,77,6
CHC Sirmour,162,5
SHC Paipakhar,175,4
SHC Gauri,171,6
SHC PANNI,123,2
PHC Majhiiyar,175,5
SHC Basrehi,67,5
SHC Ajagarha,78,9
SHC Panwar,62,9
NOT SHC JAWA,150,5
SHC Harri pratapsingh,175,10
SHC Lin,186,5
SHC Gorgaon,133,9
SHC Byohara,157,1
SHC Bhaluha,76,2
SHC Bhaluha,186,9
PHC DHERA,164,8
SHC Umari,155,10
SHC KOLHAI,111,4
SHC Paharkha,82,5
SHC BELA,58,8
SHC Teaker,79,7
SHC Jodauri,179,9
SHC DHERA,178,8
SHC Baikunthpur,181,2
SHC TIWANI,105,5
PHC RAGAULI,158,3
SHC Kostha,186,1
PHC CHACHAI,93,7
SHC Dhawaiya,176,2
SHC Laxmanpur,165,3
SHC DIHULI,182,3
SHC Ghuman,120,9
SHC Padari,154,7
SHC Rampur,129,6
PHC BARON,105,6
SHC Dewara,128,8
PHC Barahdi,164,8
SHC LAKSHKANPUR,157,4
SHC Baisa,97,3
PHC Teekar,62,1
SHC Rajadho,69,8
PHC Hata,105,10
SHC LALGAWAN,171,2
SHC Khour,91,9
SHC Bandhwa,59,5
PHC Pahadi,158,1
SHC Sahapur,148,7
SHC Khatkari,99,8
SHC GHUREHATA,75,4
SHC KARIYAGHAR,168,6
SHC PADAR,101,1
SHC Hadiya,61,9
SHC Bainkuina,54,5
SHC Baro,71,4
SHC Rajgarh,155,4
PHC Raipur Sonauri,73,4
SHC Mau,130,3
SHC MAHMUDPUR,108,6
SHC Semaria,73,7
SHC KANTI,156,7
SHC Bahuti,166,9
SHC Bhatlo,95,7
SHC Kalyanpur,181,8
SHC Joraut,190,2
SHC Busayul,52,10
SHC Paikangaon,187,2
SHC Dadar,83,7
SHC Dadiya,168,5
SHC Anjora,146,8
SHC Hinauta Dewarth,76,9
SHC Beerpur,155,6
PHC LALGAWAN,112,4
SHC Raghunathganj.,65,3
SHC Kumara Judamani,160,4
SHC Patimishran,66,1
SHC Gardhi,74,9
SHC Ganteera Kala,95,5
SHC Gada,139,5
SHC Chariya,75,9
SHC Bahuti,187,6
SHC Rithi,104,3
SHC Bajrangpur,76,6
SHC Lohdwar,138,9
PHC Jaraha,165,8
SHC KAROUDAHA,191,7
Shyam shah Medical College REWA,64,4
SHC DIGHAUL,61,10
SHC PARASWAR,166,4
UHC REWA,88,8
SHC Kuiyan,70,8
SHC Katra,164,7
PHC KONI,68,10
SHC Bhir,151,2
SHC Patehra,85,7
PHC TIWANI,119,1
SHC Chorahata,120,4
SHC LOOK,122,1
SHC GADEHRA,131,2
SHC DIGHWAR,94,8
SHC Nivi,194,5
PHC LAXMANPUR,102,10
SHC Itaha,96,5
SHC Hardi kala,133,2
SHC NAVAGAON,122,6
SHC Shahpur,67,1
CHC GURH,132,3
SHC Patulkhi,98,10
SHC Tamara,120,3
SHC Belwa Paikan,163,5
SHC Gedurha,59,10
SHC BHADAWAL,113,3
SHC DHANGAN,124,6
SHC Kot,155,4
"SHC, Dodaw",56,10
PHC Chaukhandi,160,10
SHC DHDHNI,140,9
SHC Sailaiya,194,7
"SHC, Paira",187,2
SHC Beeradai,137,7
SHC KYOTI,103,6
SHC Shankarpur,76,9
PHC DEVTALAB,125,9
SHC Kharra,70,1
SHC HARRI GUJRAN,137,1
SHC PAKRA,67,8
SHC RAMPUR,196,1
SHC PATEHARA,147,10
SHC Gaddikeraha,168,4
SHC SARAISENGAR,74,5
SHC Hadua,58,10
SHC ITHA,174,6
SHC Piprahi,93,5
SHC Mahsow,137,7
SHC RATANGAWAN,157,10
SHC Mangi,91,2
SHC Badagaun,134,9
SHC Tighara,65,3
SHC Khamaria,122,5
SHC BAHERADABAR,180,1
SHC sivrajpur,101,4
SHC SAGRA,191,1
SHC Bausadwa,96,5
SHC Budhiya,149,6
SHC Tilkhan,52,1
SHC Tagaha,176,3
SHC Chilla,161,4
SHC DEVTALAB,185,6
SHC TADAURA,103,8
SHC PHOOL,116,5
SHC Dhakhara,162,6
SHC Agadal,196,1
CHC MAUGANJ,132,2
SHC Chaura,71,10
SHC Parsiya,87,8
CHC Jawa,94,8
SHC GAGHARA,190,1
SHC DAGDAUVA,114,10
SHC Kankar,169,1
SHC Bichhauli,104,6
SHC ITORA,68,7
SHC Patharauda,83,2
SHC Padari,51,7
SHC Kotwakash,118,6
SHC Phutaudha,114,10
PHC MALAIGAWA,104,5
CH Teonthar,102,5
SHC Chua,116,4
PHC Jodauri,144,4
CHC Raipur-Karchuliyan,174,3
SHC Bahuribandh,50,10
SHC Phulaha,54,1
SHC Khaira,120,4
SHC DEWGAON,178,1
SHC KARAUDI,120,1
SHC BANS,153,10
SHC Barav,126,6
SHC Niga,115,4
SHC SEETAPUR,167,1
SHC Raipur Sonauri,71,7
SHC Kapsha,71,4
SHC Khajuha,105,3
SHC Pratapganj,73,4
SHC Baijnath,57,1
SHC Chadrapur,146,5
SHC Lodhi,54,4
SHC Padara,143,6
SHC MANIKWAR,169,8
SHC Soharwa,173,8
