Health Facility Name,Number_Of_Beds,Rating
CHC BARDAH,119,10
THEKMA,179,1
PHC GODAHARA,82,1
SC AMAUDA,75,4
SADIPUR,123,3
SC SARAIMOHAN,70,1
PHC BELAU,56,4
PHC GOMADIH,186,10
SAHNUDIH,50,7
SC BHEERA,143,4
SC GOMADIH,89,5
JAMUAWA,187,4
BASAHI,142,7
BARDAH,68,1
GORAHARA,128,5
Goddahara,122,4
TAMMARPUR,162,4
BHADSARI,153,7
SARAIPALTU,63,8
BELA,157,7
ASWANIYA,71,8
JEOLI,109,2
MAHUHARI,80,9
PASIKA,141,6
SARAWAN,106,1
MEHNAJPUR,116,10
PARMANPUR,70,10
TARWA,146,4
ARAWAKHURD,185,1
BIBIPUR,71,6
PALHNA,134,3
Jiyanpur north,197,4
MAHUWAPAR,139,4
TANDWA KHASH,138,10
MEHANAJPUR,133,1
DUBHAWA,136,2
BIBIPUR,141,7
KUJRAW,181,6
PAKDIKALA,135,3
JIYAPUR DAKHINI,116,1
TIYRA,88,2
AIRAKALA,127,9
BELHADIH,75,1
AIRAKHURD,87,5
JAMUI,161,3
Barsakha 1,185,8
SULTANIPUR,108,9
TIKHARA,136,1
BAREHTA,118,7
AWANI,74,5
BASGANV,155,6
BASGANV,121,8
KARSDA,134,2
LALGANJ,139,3
BYOHARA,67,1
CHEWAR,83,2
DEVGAON,147,7
SARUPAHA,139,9
NARSINGHPUR,57,10
BHOJPUR,62,8
NONIPUR,121,2
SIDHAUNA,137,4
SOFIPUR,88,3
MADHOPUR DHARANG,52,8
BARSERAWA,123,3
AGEHATA,100,9
KARIYA GOPALPUR,62,8
BAHADURPUR,196,7
KATGHAR,116,6
BAIRIDIH,174,1
RAMPUR BADHAUNA,99,5
BEUHARA,130,6
UBARPUR,81,10
KANJHIT,186,7
BASAHI,155,6
LAHUWA,153,2
Belur,68,7
RASHULPUR,115,1
DEVGAON,140,9
CHEWAR,165,9
SALEMPUR,166,8
CHIRKIHIT,175,10
LALGANJ,146,5
Gopalganj,70,1
Parshurampur,125,5
Bashi Bandedapur,145,10
Mittupur,159,4
Mande,50,3
Hariharpur,71,7
Haraiya Main Center,103,3
Shekhupur,118,5
Pratappur(Chhatora),192,1
Mahaur,150,10
Khanduara,70,6
Ramgarh,120,3
Jagdishpur,135,7
Samsabad,171,9
Bardiha,180,1
Purandarpur,109,1
Gambhirpur,65,8
Beenapara,182,10
Rampur Jahanaganj,168,10
Ranipursubash,73,1
Badagaon,179,10
Chewar,85,4
Varna Jagdishpur,117,4
Bharchakiya,143,2
Bhiram Pur,134,10
Bhadaw,67,3
Bendui,91,3
Barra,109,7
Thekma,151,7
Srinagarpur,107,10
Atraith,118,10
Gomadih,120,8
Barehta,103,3
Sumhadih,129,3
Guai,129,8
Baharipur,143,3
Sarayameer,192,7
"Rampur,Badhouna",137,4
Main Centre,54,3
Terhi,79,6
Bashin,165,3
Mahul,198,5
Ekrampur,87,5
Johara,129,10
Bishaham,106,6
Lahuankala,199,7
Koinaha,178,1
Chistipur,186,4
Mirzapur,96,3
Gaddan pur Hichhan Patti,146,5
TILESARA,143,2
Palhana,134,3
Tiyara,112,8
Sidhouna,152,2
Madiapar,145,2
Jolhapur,199,9
Bardah,82,9
Sajai,147,5
Kharudinpur,132,6
Parasuram Pur,82,1
Jeanpur,131,10
Kandharpur,172,2
Ambari,183,5
Bilarmau,125,1
Bhagatpur,167,9
Mohammadpur-Mangrawa,147,9
Abhaypur,150,5
Baurara,136,1
Sarayapattu,170,2
Tahar,149,10
Dewara Jadid,109,6
Daur Pur,193,4
Lakhansi Jagdishpur,120,4
Surhan,160,10
Gocha,89,8
Berma,60,8
Bahadurpur,183,4
District Male Hospital Azamgarh,123,10
Ucchagoan,54,1
BastiBhujbal,53,1
Pakrouli,170,2
Khamadwari,82,4
Karakhiya,189,8
Banrahia,60,9
Saraiya,68,3
Khalishpur,88,6
Gadanpur,177,1
Nadwn,80,1
Jahanaganj PHC,163,9
Kotila,141,10
Sultanpur,63,6
Ahiroula,108,10
Karimudinpur,173,2
Baghawar,124,8
Narsinghpur,78,6
Bagbahar,110,4
Bhagatpur,180,8
Dhanhua,188,8
Ahojauli,66,1
Lalpur,145,10
Chadpatti,190,8
Gauri Narayanpur,136,8
Bajahan,78,5
Padarkunda,142,10
Dawoodpur,189,6
Nasiruddin Pur,135,5
Mahrajganj,125,8
Bhaisaha,170,7
Dewara Khash Raja,114,9
Barauna,135,9
Bahera,189,8
Nizamudinpur,157,3
Tisora,195,4
Kasba,105,4
Atraulia,156,3
Keshawpur,88,10
Tammarpur,128,10
Tandwa Khas,129,10
Jokahara,97,6
Bhormou,169,4
Barrona,140,4
Belwana,176,8
Piprahan,103,2
Bhojpur,159,8
Dhadhani,121,8
Birbhanpur,72,3
N.D.J.K I,157,9
Chandeshwar,120,6
Dedar ganj,140,1
Bhuwna Bujurg,154,3
Luhasha,77,4
Kauriya,182,4
Khatouli,75,7
Ukdaura,140,3
Mubarakpur,75,1
Rai Singh Pur,198,5
Jamin Farenda,164,3
Kanara,195,2
Latghat,100,6
Badhora,71,3
Basepur Tadwa,147,10
CHAGAIPUR,147,10
UPHC Anatpura,55,6
Koilaidhih Khurd,148,9
Rajapur,141,3
Bankat,199,3
Basti,78,9
Sanjharpur,143,4
Airakunda,85,8
Nainijor,116,1
Mehnajpur,158,10
Jigar Sandi,69,3
Khanduara,193,10
Mahwa,86,3
Narway,190,2
Khajuri,121,8
Bhikham Patti,186,2
Bilariya Ganj,189,2
Hatwa,71,1
Asrafpur,60,6
Chakrpanpur,141,9
Sarawa,138,3
Ahiraula-Kushmehra,173,2
Urdiha,133,1
Main Centre,56,8
Rasawan,178,9
Rajapur Sikaraur,107,5
Kashapur,140,1
Khalishpur,146,8
Pura Achanak,87,6
Bibipur,161,1
shankar Pur,161,6
Mohammadpur,79,1
Kusumhara,58,6
Chamawan,138,5
Godhaura,192,7
Sumbhi,154,5
Bachhabal,115,1
Bhasai,57,3
Dayalpur,136,1
Ashraf Pur,120,7
Larpur Chitara,55,2
Renda,66,10
Bheera,185,2
Dharwara,129,6
Azampur,109,3
Barserwa,94,4
Jamuhat,150,4
Badaharia,65,10
Dharang,132,9
Rasulpur Maikhargpur,142,4
Bisunpura,58,4
Behuara,67,10
Barhateer,55,5
Gothawn,106,9
Godhawa,65,3
Tarwa,139,5
Senpur,66,3
Bahona,112,10
Pyre Pur,66,7
Palthi,168,1
Magna,172,7
Koilsha,58,4
Ranipur,133,4
Gajraha,137,1
Mahuwari,82,6
Chhapra Sultanpur,174,5
Ganhabai,105,9
Kharihani,106,1
Sahdev Ganj,194,6
PHC-Mirzapur,183,8
Mittupur,186,10
Dewara Jadid,91,4
Jagdishpur,135,4
Palhani,83,7
Manpur,189,2
Dharnipur,157,9
Sadar,96,7
Singhwara,198,9
Maltari,66,2
Salimpur,126,6
Bhawanipatti,55,2
Nuruddinpur,194,2
Amoda,77,10
Khandwari,198,4
Uchahuwa,66,1
Jamin Meghai,180,8
Karihani,196,7
Deehcathouli,164,8
Malgoan,186,2
Sadipur,118,6
Bindwal,128,4
Jiapur South,128,7
Mubarakpur,170,4
Pakaraur,120,5
Molanapar,145,1
Devoriya,116,2
Ratuwapar,142,5
Pushpa Nagar,192,5
Mahula,93,5
Kalandarpur,145,4
Kanjahit,165,7
Rani Kir Sarai II,68,2
Pitambar Pur,180,2
Gaddapur,52,7
Manik Pur,158,3
Husainganj,115,10
Monipur,69,8
Sathiyan,166,2
Raunapar,162,9
Paindapur,61,1
Nai,99,9
Bakhara,67,2
Chirkihit,126,5
Raghunath Pur,195,9
Kushalgaon,74,3
Jamalpur,154,6
Bankat,122,3
Kaneri,109,7
Kolukhor,197,3
Bhadariya,193,2
Shankar Pur,164,10
Mataulipur,104,1
Mustafabad,144,6
Sardaha,60,7
Haidrabad,147,3
Bhujahi,146,5
Bibi Pur,87,1
Narawa,159,3
Maukutubpur,115,7
Vishayan,184,5
Budahpur,114,2
Mahaliya,68,5
Chaua,182,10
Parsaha,151,3
Bangaon,53,5
Lalganj-Dewgaon,146,9
Jamuwawa,76,6
Harriya-Paharpur,52,3
Abwari,137,6
Majhgawa,110,7
Bhudahar,131,10
Khamauli,162,1
Pichari,126,9
Ushar Kurawa,65,1
Koriya,110,1
Marteenganj,198,2
Chhihin,109,4
Rohuwarvedauli,127,3
Jyuli,198,5
Sikraur,165,6
Main Centre,150,7
Kalandarpur,121,9
Allipur,86,7
Mahula,81,8
Mohammadpur,64,3
Chagai,57,3
Bhatauli,173,7
Atraith,120,1
Khaziyanvar,116,2
Chattur,180,1
Sultanipur,92,2
Mahabbatpur,159,6
CHC-Palhani,149,1
Semari,149,8
Gaura,150,8
Bagbahar,65,7
Para,142,3
Pasika,157,7
Medical Collage Azamgarh,96,3
Deenapara,164,9
Kaptan Ganj,105,4
Pawai-Salarpur,60,4
Amrethu,151,9
Sanjarpur,178,1
Surahi Khurd,110,7
Mahuwa,134,9
Chand Pur,57,1
A.D. Nainijor,131,8
Lakchhe Ran Pur,144,5
Kapsa,107,7
Khush Nampur,134,10
Belwa,175,8
Aswaniya,82,3
Puraghani,165,1
Badhya,85,9
Manchobha,53,6
Nohari,136,2
Dhanar Badh,160,9
Lonia-Deeh,95,9
Bangaon,89,1
Pakadi,53,6
Phoolpur town,183,10
Israpaar,184,7
Uchi Godam,68,3
Mustafabad,65,2
KOILSA,92,1
Azamtgarh,192,3
Durbasa,86,8
Agehta,71,1
Shekhpur,62,8
Orill,97,5
Hadiya,127,9
CHAUKO KHURD,95,8
Kharihani,52,6
Basahi Nandedas Pur,59,1
Shagarh,180,3
Sihi,75,2
Khanpur Bhagat Patti,90,9
CHAPRA SULTANPUR,179,9
Lohara,167,2
Tenua Bankat,128,9
Karsada,117,3
Bhimpar,90,5
Tarwa,138,7
Aawak,109,5
Phoolesh,178,7
Jamui,110,6
Dudhnara,78,8
Kantalpur,93,1
Barjee,136,7
Sahnudih,169,5
Amuwari,142,3
Khariha,189,2
Lekhantipur,193,3
Gopal Ganj,155,4
Mehnagar,124,4
Kalyanpur,96,10
Dewgaon,63,5
Pushpa Nagar,65,4
Antpur,196,2
Senpur,139,1
Kudahi,61,10
Dubra,81,8
Kahorauli,119,8
Hanshepur,192,6
Jehara Pipari,99,10
Phoolpur-Palthi,179,5
Sethakoli,101,5
Khatouli,109,7
Singh purdariya,98,7
District Female Hospital Azamgarh,180,10
Pawai,157,6
Chhiri Brahman,197,10
Kothora,76,5
Kandharpur,138,8
Tundawal(No Est.),85,1
Madiapar,88,1
Zamin Harkhori,108,6
Sudai Pur,119,7
Madhanpur,149,5
Pakdi Kala,50,2
Ranipur(Rajmo),124,10
Jairampur,71,8
Haidrabad,181,2
BAREHTA,149,7
Rasawa,127,9
Barwa Sagar,55,10
Patna,80,8
Dewara Kadim,72,5
Rojyarpur Sikror,177,8
Jigani,119,10
Kariya Gopalpur,137,8
Palhana,135,10
Raunapar,67,5
Bamhaur,113,1
Gopalpur,184,4
Rajapur,120,2
Kourhia,81,7
Sarupaha,162,3
Newada,141,8
Katghar,75,9
Patwadh Kautuk,159,2
Kishundas Pur 2,151,9
Vazirmalpur,184,3
Arnaula,91,9
Basti,79,2
Jalalpur,111,1
Parasuram Pur,103,5
Gomadih,119,3
Bhilampur,180,1
Bairidih,123,3
CHC Sathiyan,129,1
Khajuri,55,9
Nijamuddin Patti,107,2
Chilbili,160,7
Ahiraula Main,97,2
MOLNAPUR GODRI,107,1
Airakunda,180,6
Badhaya,115,3
Khamhriya,152,6
Bhaduli,128,3
Ubarpur,170,5
Bibipur,112,9
Mangrawa,199,3
Shekha,170,8
Garerua,87,8
Nizambad,157,4
Sarai Mohan,183,7
Godhna,174,4
Bankat Jagdish,189,4
Sarakhurd,160,7
Bhimakul,188,8
Ata Pur,77,1
Chakbari,81,10
Dubhawn,120,7
LUCHUI,126,10
Rakba jallalpur,169,9
Wazeermalpur,178,6
Mirzapur,167,3
Chklal Chand,147,8
Niyauz,80,4
Sofipur,141,5
Jafarpur,140,10
Kamhen Pur,162,3
Avani,117,5
Bhedoura,159,2
Durvasha,178,4
Khanjahapur,172,8
Ram Nagar,196,4
Chaturpurwas,105,6
Chewta,125,10
Mahuwa,138,5
Airakala,129,1
Sukhipur,51,3
Manchoba,117,10
Mahraj Ganj,151,1
Gopalpur,118,4
JamalPur kazi,93,8
Kerma,98,8
Devkali,111,3
Martinganj,118,1
Main Centre,54,4
Sharpur,121,1
Bhawarpur,68,2
Saraimir,144,2
Ambari,103,4
Singhpur Dhani,77,6
Singora,137,7
Dewara Harakh Pur,102,2
Tahbarpur,113,5
Shahgarl,111,6
Barohi Fatalipur,65,5
GANGEPUR,97,4
Bharauli,62,5
Lahrapar,183,7
Chaklalchand,101,9
Salamapur,183,1
Nadauli,95,1
DEEHA,191,4
Khairuddinpur,106,7
Chatwara,58,6
Vishunpur,130,1
Rani ki Sarai,166,4
Khaira,63,2
Sodhari,99,4
Kujraw,97,7
Pachkhora,170,1
Karanpur,118,9
Bansgaon,175,7
Barouli,120,5
Loudaha,81,3
Koobakhas,101,7
Amilo,112,8
Behuara,171,5
Haraiya,166,10
Demudih,59,4
Belnadeeh,164,6
Deveti,189,7
Kharkia Raji Dewara,125,2
ChaK Lal Chand,113,2
Kamhen Pur,65,1
Pedura,79,3
Mahuja Newada,116,9
Mudiar,181,1
Masjidiya,51,4
Mahaliya,133,2
Pushpnagar Bazar,190,1
A.D. Karkhiya,91,8
Nizamabad,60,10
Gujarpur,190,1
Mahuwapar,117,6
Larpur Jokhu,127,1
Abusdardpur,50,1
Madhashiya,125,1
Araji Amani,126,1
Niyauj,172,2
Shahkhajura,84,5
Hazipur,188,1
Baieli,91,10
Bela,168,8
Madiyawa,126,9
Kishundas Pur 1,141,1
Kabrudeenpur,164,6
UPHC Dalsingar,60,6
Jamil Pur,114,7
Smeda,93,8
Kharewa,180,4
Barahal Ganj,177,10
Baddopur,89,8
Harai Ismailpur,158,7
Ishrapar,174,9
Nati,141,2
Goddara,159,3
Uchi Godam,89,3
Pura Kodai,176,5
Samopur,93,6
Bhaukutubpur,129,4
Azamtgarh,94,4
Nandana,78,8
UPHC Mubarkpur,171,5
Pakaraur,147,8
Kaptan Ganj,94,5
Sanjarpur,87,9
Shiv Pur,171,5
Orra,186,2
Hasan Pur,168,6
Gomadih(Saraipalt),69,8
Ambarpur,141,2
Indapur,134,9
Basti,143,2
Phoolesh,113,1
Rani ki Sarai,154,10
Aatapur,136,9
Lalpur Naiti,194,7
Senpur,104,5
Sonpur,159,2
Mejwa,113,10
Chakiya Dube Ram Pur,128,8
Haidrabad,59,6
Main Centre,152,3
Lachehra,186,4
Padarkunda,189,4
Baramad Pur,88,6
Khajari,98,8
Ramapur Emlimabua,104,5
Karnehua,153,3
Asona,159,10
Barahal Ganj,156,2
Mustafabad,68,8
Kankhbhar,103,9
Nandaw,166,2
Khanpur,176,10
Bhando,123,3
Rajpur(Subanra),132,10
Badanpur,146,9
Pandara,77,1
Nabarhi,75,5
Khalifat Pur,106,8
Badsara Khalsha,116,8
Badsara Aima,127,6
Nandaw,193,8
Dhakwa,165,8
Bhorajpur,187,4
Mirzapur,92,5
Shambhupur,141,1
Belhadih,101,4
Bindra Bazar,51,9
Sahapur,156,8
Bhedoura,144,5
Nizampur,147,10
Hazipur,59,6
D.T. Aima,96,6
Uchhawa,194,9
Khatauli,126,8
Mahraj Pur,58,2
Jiapur(Dachhin),81,8
Jeanpur,185,9
Pakardiha,76,5
Nouhara,172,9
Ratan Narwey,161,7
Mahul A,59,8
Amuwari(Narayanpur),52,6
Bhadsari,57,9
Lakhman Pur,177,10
Sajani,133,1
Belakhasi,103,6
Ladaura,118,2
Bankata,86,10
Anjan Shaheed,105,3
Sivrampur,120,6
Dhorahara,50,5
Atraulia,141,5
Udpur,147,9
Bilariya Ganj,178,3
Pahai,62,9
Chewar,161,1
Sherwa,96,9
Pawanikala,75,4
Kasba,144,10
Lasra,174,5
Patila Gaushpur,74,8
Gangepur,50,6
Simarpur,175,4
Serawa,107,8
Khamauli,108,9
Iswarpur,142,4
Daulta Bad,155,1
Navbarar Dewara jajij Khas l,58,7
Annaura,117,7
Dadra,183,4
Narhan,152,9
Tahbar Pur,130,5
Ganvara,57,2
CHC BARDAH,86,6
THEKMA,68,10
PHC GODAHARA,158,7
SC AMAUDA,126,10
SADIPUR,68,4
SC SARAIMOHAN,85,10
PHC BELAU,111,6
PHC GOMADIH,99,8
SAHNUDIH,60,1
SC BHEERA,161,8
SC GOMADIH,185,2
JAMUAWA,115,10
BASAHI,65,6
BARDAH,145,3
GORAHARA,156,3
Goddahara,192,10
TAMMARPUR,187,6
BHADSARI,91,8
SARAIPALTU,168,6
BELA,198,5
ASWANIYA,170,9
JEOLI,174,6
MAHUHARI,134,3
PASIKA,131,8
SARAWAN,56,3
MEHNAJPUR,106,7
PARMANPUR,120,9
TARWA,124,10
ARAWAKHURD,120,9
BIBIPUR,194,2
PALHNA,127,4
Jiyanpur north,110,10
MAHUWAPAR,120,7
TANDWA KHASH,172,3
MEHANAJPUR,189,9
DUBHAWA,98,2
BIBIPUR,179,6
KUJRAW,167,2
PAKDIKALA,138,6
JIYAPUR DAKHINI,78,3
TIYRA,108,4
AIRAKALA,140,7
BELHADIH,60,7
AIRAKHURD,90,10
JAMUI,197,2
Barsakha 1,164,1
SULTANIPUR,94,7
TIKHARA,152,2
BAREHTA,112,1
AWANI,132,2
BASGANV,116,8
BASGANV,56,7
KARSDA,151,6
LALGANJ,113,10
BYOHARA,162,8
CHEWAR,191,4
DEVGAON,86,3
SARUPAHA,88,1
NARSINGHPUR,76,10
BHOJPUR,182,4
NONIPUR,53,4
SIDHAUNA,53,8
SOFIPUR,120,8
MADHOPUR DHARANG,101,4
BARSERAWA,127,3
AGEHATA,81,7
KARIYA GOPALPUR,85,3
BAHADURPUR,195,3
KATGHAR,130,3
BAIRIDIH,133,3
RAMPUR BADHAUNA,116,6
BEUHARA,129,6
UBARPUR,89,2
KANJHIT,191,8
BASAHI,154,8
LAHUWA,103,2
Belur,94,5
RASHULPUR,188,9
DEVGAON,101,2
CHEWAR,121,3
SALEMPUR,55,3
CHIRKIHIT,79,1
LALGANJ,181,8
Gopalganj,101,8
Parshurampur,115,10
Bashi Bandedapur,177,7
Mittupur,138,4
Mande,180,8
Hariharpur,90,6
Haraiya Main Center,91,4
Shekhupur,140,1
Pratappur(Chhatora),167,1
Mahaur,120,9
Khanduara,159,1
Ramgarh,74,4
Jagdishpur,80,8
Samsabad,99,1
Bardiha,175,2
Purandarpur,115,3
Gambhirpur,185,1
Beenapara,145,8
Rampur Jahanaganj,133,6
Ranipursubash,106,3
Badagaon,139,1
Chewar,90,1
Varna Jagdishpur,196,8
Bharchakiya,91,2
Bhiram Pur,68,10
Bhadaw,109,4
Bendui,189,2
Barra,178,4
Thekma,127,2
Srinagarpur,102,6
Atraith,92,4
Gomadih,62,6
Barehta,107,4
Sumhadih,92,10
Guai,123,2
Baharipur,128,6
Sarayameer,77,7
"Rampur,Badhouna",133,5
Main Centre,137,4
Terhi,57,1
Bashin,102,3
Mahul,170,8
Ekrampur,60,3
Johara,71,7
Bishaham,97,2
Lahuankala,125,8
Koinaha,176,9
Chistipur,121,6
Mirzapur,135,4
Gaddan pur Hichhan Patti,156,3
TILESARA,103,7
Palhana,163,9
Tiyara,78,5
Sidhouna,58,10
Madiapar,93,9
Jolhapur,124,2
Bardah,87,2
Sajai,190,2
Kharudinpur,122,4
Parasuram Pur,197,9
Jeanpur,67,4
Kandharpur,161,7
Ambari,72,6
Bilarmau,61,5
Bhagatpur,193,10
Mohammadpur-Mangrawa,104,1
Abhaypur,116,5
Baurara,77,2
Sarayapattu,106,9
Tahar,106,8
Dewara Jadid,175,5
Daur Pur,158,3
Lakhansi Jagdishpur,81,1
Surhan,192,2
Gocha,133,8
Berma,159,8
Bahadurpur,62,10
District Male Hospital Azamgarh,69,3
Ucchagoan,199,5
BastiBhujbal,145,1
Pakrouli,193,5
Khamadwari,106,7
Karakhiya,118,5
Banrahia,105,8
Saraiya,118,3
Khalishpur,95,8
Gadanpur,115,1
Nadwn,81,2
Jahanaganj PHC,173,10
Kotila,95,7
Sultanpur,140,3
Ahiroula,83,3
Karimudinpur,124,1
Baghawar,121,9
Narsinghpur,69,1
Bagbahar,93,3
Bhagatpur,166,2
Dhanhua,64,7
Ahojauli,110,2
Lalpur,198,1
Chadpatti,68,6
Gauri Narayanpur,128,7
Bajahan,57,5
Padarkunda,95,4
Dawoodpur,144,5
Nasiruddin Pur,134,8
Mahrajganj,115,10
Bhaisaha,61,9
Dewara Khash Raja,59,8
Barauna,130,4
Bahera,183,5
Nizamudinpur,88,7
Tisora,66,6
Kasba,69,6
Atraulia,50,2
Keshawpur,178,8
Tammarpur,187,10
Tandwa Khas,73,9
Jokahara,139,4
Bhormou,146,2
Barrona,184,8
Belwana,193,6
Piprahan,63,8
Bhojpur,185,4
Dhadhani,129,7
Birbhanpur,185,8
N.D.J.K I,108,10
Chandeshwar,147,6
Dedar ganj,173,6
Bhuwna Bujurg,179,6
Luhasha,51,8
Kauriya,55,6
Khatouli,185,2
Ukdaura,77,3
Mubarakpur,132,9
Rai Singh Pur,180,4
Jamin Farenda,73,6
Kanara,137,7
Latghat,78,10
Badhora,99,5
Basepur Tadwa,185,5
CHAGAIPUR,197,3
UPHC Anatpura,156,1
Koilaidhih Khurd,59,7
Rajapur,141,1
Bankat,131,1
Basti,127,7
Sanjharpur,89,7
Airakunda,79,3
Nainijor,185,9
Mehnajpur,69,2
Jigar Sandi,81,7
Khanduara,180,6
Mahwa,194,8
Narway,190,2
Khajuri,131,7
Bhikham Patti,146,2
Bilariya Ganj,79,4
Hatwa,163,7
Asrafpur,50,6
Chakrpanpur,102,1
Sarawa,72,1
Ahiraula-Kushmehra,151,3
Urdiha,142,2
Main Centre,176,9
Rasawan,67,4
Rajapur Sikaraur,196,8
Kashapur,85,8
Khalishpur,55,7
Pura Achanak,79,8
Bibipur,146,7
shankar Pur,62,6
Mohammadpur,154,5
Kusumhara,182,4
Chamawan,63,2
Godhaura,180,9
Sumbhi,184,1
Bachhabal,115,3
Bhasai,167,1
Dayalpur,63,1
Ashraf Pur,145,9
Larpur Chitara,143,10
Renda,152,7
Bheera,55,10
Dharwara,192,9
Azampur,81,10
Barserwa,163,7
Jamuhat,147,7
Badaharia,146,8
Dharang,93,10
Rasulpur Maikhargpur,168,7
Bisunpura,143,8
Behuara,155,5
Barhateer,137,10
Gothawn,101,1
Godhawa,154,4
Tarwa,69,1
Senpur,135,5
Bahona,102,1
Pyre Pur,132,10
Palthi,93,10
Magna,85,6
Koilsha,159,8
Ranipur,146,1
Gajraha,131,9
Mahuwari,94,4
Chhapra Sultanpur,159,10
Ganhabai,193,5
Kharihani,146,4
Sahdev Ganj,150,9
PHC-Mirzapur,116,5
Mittupur,147,9
Dewara Jadid,117,6
Jagdishpur,132,2
Palhani,171,4
Manpur,59,6
Dharnipur,90,3
Sadar,107,7
Singhwara,103,7
Maltari,161,3
Salimpur,147,2
Bhawanipatti,93,4
Nuruddinpur,171,7
Amoda,196,8
Khandwari,161,2
Uchahuwa,158,6
Jamin Meghai,186,10
Karihani,174,3
Deehcathouli,157,5
Malgoan,62,5
Sadipur,174,8
Bindwal,87,6
Jiapur South,183,9
Mubarakpur,76,5
Pakaraur,147,9
Molanapar,191,4
Devoriya,86,1
Ratuwapar,51,3
Pushpa Nagar,118,5
Mahula,139,3
Kalandarpur,150,10
Kanjahit,194,6
Rani Kir Sarai II,153,3
Pitambar Pur,121,7
Gaddapur,167,10
Manik Pur,77,2
Husainganj,97,6
Monipur,66,6
Sathiyan,159,8
Raunapar,137,8
Paindapur,129,7
Nai,138,7
Bakhara,197,9
Chirkihit,183,6
Raghunath Pur,153,6
Kushalgaon,136,4
Jamalpur,191,2
Bankat,69,4
Kaneri,72,3
Kolukhor,189,2
Bhadariya,60,6
Shankar Pur,166,6
Mataulipur,126,4
Mustafabad,96,4
Sardaha,50,1
Haidrabad,162,4
Bhujahi,169,2
Bibi Pur,144,9
Narawa,132,1
Maukutubpur,104,2
Vishayan,67,4
Budahpur,139,8
Mahaliya,58,8
Chaua,136,3
Parsaha,135,5
Bangaon,178,3
Lalganj-Dewgaon,178,9
Jamuwawa,85,5
Harriya-Paharpur,87,9
Abwari,96,8
Majhgawa,83,10
Bhudahar,66,2
Khamauli,147,9
Pichari,79,7
Ushar Kurawa,95,2
Koriya,176,9
Marteenganj,171,1
Chhihin,101,3
Rohuwarvedauli,159,5
Jyuli,116,5
Sikraur,102,9
Main Centre,154,2
Kalandarpur,97,1
Allipur,56,1
Mahula,195,9
Mohammadpur,159,7
Chagai,64,7
Bhatauli,104,7
Atraith,146,8
Khaziyanvar,111,3
Chattur,102,4
Sultanipur,79,1
Mahabbatpur,137,5
CHC-Palhani,155,1
Semari,92,1
Gaura,114,1
Bagbahar,191,3
Para,75,6
Pasika,131,6
Medical Collage Azamgarh,84,4
Deenapara,108,9
Kaptan Ganj,67,7
Pawai-Salarpur,125,4
Amrethu,166,9
Sanjarpur,89,10
Surahi Khurd,119,8
Mahuwa,75,10
Chand Pur,55,4
A.D. Nainijor,58,4
Lakchhe Ran Pur,50,6
Kapsa,118,7
Khush Nampur,69,1
Belwa,77,7
Aswaniya,138,4
Puraghani,119,8
Badhya,68,1
Manchobha,89,10
Nohari,79,7
Dhanar Badh,138,10
Lonia-Deeh,133,8
Bangaon,188,5
Pakadi,179,7
Phoolpur town,112,6
Israpaar,103,5
Uchi Godam,50,4
Mustafabad,192,8
KOILSA,135,9
Azamtgarh,181,1
Durbasa,190,5
Agehta,140,2
Shekhpur,145,9
Orill,50,4
Hadiya,113,1
CHAUKO KHURD,98,5
Kharihani,59,2
Basahi Nandedas Pur,136,3
Shagarh,136,6
Sihi,130,8
Khanpur Bhagat Patti,63,5
CHAPRA SULTANPUR,184,8
Lohara,164,8
Tenua Bankat,105,10
Karsada,135,1
Bhimpar,182,7
Tarwa,167,2
Aawak,173,7
Phoolesh,140,1
Jamui,150,4
Dudhnara,158,6
Kantalpur,70,10
Barjee,107,6
Sahnudih,182,2
Amuwari,182,2
Khariha,150,2
Lekhantipur,130,9
Gopal Ganj,130,3
Mehnagar,93,5
Kalyanpur,148,9
Dewgaon,189,7
Pushpa Nagar,127,4
Antpur,199,5
Senpur,193,5
Kudahi,105,7
Dubra,68,2
Kahorauli,170,9
Hanshepur,106,2
Jehara Pipari,70,4
Phoolpur-Palthi,50,5
Sethakoli,116,7
Khatouli,169,8
Singh purdariya,164,9
District Female Hospital Azamgarh,185,4
Pawai,123,9
Chhiri Brahman,196,9
Kothora,152,10
Kandharpur,87,6
Tundawal(No Est.),121,10
Madiapar,159,4
Zamin Harkhori,85,4
Sudai Pur,80,4
Madhanpur,62,6
Pakdi Kala,123,6
Ranipur(Rajmo),162,6
Jairampur,68,10
Haidrabad,155,6
BAREHTA,95,1
Rasawa,83,6
Barwa Sagar,146,8
Patna,71,5
Dewara Kadim,94,5
Rojyarpur Sikror,64,8
Jigani,129,5
Kariya Gopalpur,127,4
Palhana,132,9
Raunapar,161,10
Bamhaur,195,8
Gopalpur,191,9
Rajapur,61,5
Kourhia,191,5
Sarupaha,67,4
Newada,172,7
Katghar,69,10
Patwadh Kautuk,181,2
Kishundas Pur 2,108,4
Vazirmalpur,179,2
Arnaula,196,5
Basti,103,1
Jalalpur,188,8
Parasuram Pur,139,8
Gomadih,197,9
Bhilampur,77,4
Bairidih,146,9
CHC Sathiyan,98,2
Khajuri,127,2
Nijamuddin Patti,143,9
Chilbili,52,10
Ahiraula Main,110,7
MOLNAPUR GODRI,90,10
Airakunda,128,7
Badhaya,110,5
Khamhriya,144,6
Bhaduli,156,1
Ubarpur,157,2
Bibipur,91,9
Mangrawa,90,6
Shekha,50,4
Garerua,75,7
Nizambad,173,10
Sarai Mohan,151,3
Godhna,109,5
Bankat Jagdish,143,2
Sarakhurd,182,10
Bhimakul,80,3
Ata Pur,96,5
Chakbari,195,8
Dubhawn,126,8
LUCHUI,77,7
Rakba jallalpur,172,1
Wazeermalpur,167,6
Mirzapur,135,4
Chklal Chand,76,2
Niyauz,167,8
Sofipur,124,10
Jafarpur,59,2
Kamhen Pur,60,4
Avani,77,4
Bhedoura,113,7
Durvasha,65,3
Khanjahapur,186,2
Ram Nagar,137,8
Chaturpurwas,167,8
Chewta,64,10
Mahuwa,68,8
Airakala,51,4
Sukhipur,71,5
Manchoba,144,9
Mahraj Ganj,116,10
Gopalpur,119,8
JamalPur kazi,152,10
Kerma,168,10
Devkali,161,9
Martinganj,122,4
Main Centre,107,10
Sharpur,122,6
Bhawarpur,97,5
Saraimir,133,8
Ambari,51,1
Singhpur Dhani,124,5
Singora,137,8
Dewara Harakh Pur,102,9
Tahbarpur,180,2
Shahgarl,171,5
Barohi Fatalipur,91,2
GANGEPUR,94,8
Bharauli,80,2
Lahrapar,135,9
Chaklalchand,189,1
Salamapur,150,6
Nadauli,59,8
DEEHA,172,10
Khairuddinpur,74,3
Chatwara,110,3
Vishunpur,141,4
Rani ki Sarai,59,8
Khaira,170,2
Sodhari,166,7
Kujraw,75,3
Pachkhora,173,5
Karanpur,53,10
Bansgaon,191,4
Barouli,148,1
Loudaha,107,7
Koobakhas,160,5
Amilo,109,5
Behuara,163,10
Haraiya,130,7
Demudih,117,8
Belnadeeh,151,4
Deveti,120,10
Kharkia Raji Dewara,180,10
ChaK Lal Chand,141,5
Kamhen Pur,66,3
Pedura,130,4
Mahuja Newada,57,9
Mudiar,122,3
Masjidiya,162,6
Mahaliya,75,5
Pushpnagar Bazar,64,7
A.D. Karkhiya,193,2
Nizamabad,99,3
Gujarpur,111,7
Mahuwapar,164,3
Larpur Jokhu,143,3
Abusdardpur,193,2
Madhashiya,109,6
Araji Amani,190,5
Niyauj,139,3
Shahkhajura,57,5
Hazipur,192,4
Baieli,91,2
Bela,185,10
Madiyawa,78,4
Kishundas Pur 1,82,10
Kabrudeenpur,55,3
UPHC Dalsingar,146,7
Jamil Pur,168,4
Smeda,170,7
Kharewa,67,7
Barahal Ganj,68,10
Baddopur,123,2
Harai Ismailpur,138,4
Ishrapar,84,7
Nati,101,7
Goddara,133,9
Uchi Godam,67,7
Pura Kodai,66,5
Samopur,159,4
Bhaukutubpur,163,10
Azamtgarh,95,5
Nandana,152,3
UPHC Mubarkpur,130,4
Pakaraur,187,5
Kaptan Ganj,122,8
Sanjarpur,186,5
Shiv Pur,66,10
Orra,159,5
Hasan Pur,93,7
Gomadih(Saraipalt),137,1
Ambarpur,131,10
Indapur,189,7
Basti,71,3
Phoolesh,106,10
Rani ki Sarai,98,4
Aatapur,194,4
Lalpur Naiti,72,9
Senpur,56,3
Sonpur,104,4
Mejwa,170,4
Chakiya Dube Ram Pur,189,7
Haidrabad,131,1
Main Centre,75,2
Lachehra,157,7
Padarkunda,185,3
Baramad Pur,153,3
Khajari,180,7
Ramapur Emlimabua,52,7
Karnehua,103,9
Asona,174,1
Barahal Ganj,51,9
Mustafabad,196,3
Kankhbhar,137,10
Nandaw,61,8
Khanpur,165,1
Bhando,125,8
Rajpur(Subanra),96,1
Badanpur,107,8
Pandara,105,6
Nabarhi,62,2
Khalifat Pur,145,10
Badsara Khalsha,69,6
Badsara Aima,111,8
Nandaw,114,4
Dhakwa,146,9
Bhorajpur,142,7
Mirzapur,173,2
Shambhupur,104,1
Belhadih,160,3
Bindra Bazar,166,3
Sahapur,141,9
Bhedoura,98,4
Nizampur,184,8
Hazipur,174,4
D.T. Aima,93,5
Uchhawa,113,4
Khatauli,129,5
Mahraj Pur,195,8
Jiapur(Dachhin),95,1
Jeanpur,64,8
Pakardiha,60,9
Nouhara,155,4
Ratan Narwey,140,4
Mahul A,84,5
Amuwari(Narayanpur),190,8
Bhadsari,153,9
Lakhman Pur,141,6
Sajani,100,10
Belakhasi,187,1
Ladaura,56,1
Bankata,151,6
Anjan Shaheed,92,2
Sivrampur,130,6
Dhorahara,97,9
Atraulia,195,4
Udpur,134,4
Bilariya Ganj,80,6
Pahai,66,8
Chewar,85,1
Sherwa,131,1
Pawanikala,93,2
Kasba,72,8
Lasra,193,1
Patila Gaushpur,89,1
Gangepur,159,10
Simarpur,80,9
Serawa,152,10
Khamauli,165,8
Iswarpur,85,9
Daulta Bad,89,8
Navbarar Dewara jajij Khas l,134,5
Annaura,162,8
Dadra,166,10
Narhan,92,3
Tahbar Pur,143,7
Ganvara,76,2
