Health Facility Name,Number_Of_Beds,Rating
SC Supple (Notional),163,6
SC Lokpeng,169,10
SC Pareng-I,60,6
CHC Pangin,127,9
SC Nari (Notional),84,7
SC Sitang,192,10
SC Yagrung (Notional),167,7
SC Rani (Notional),100,10
SC Jorsing,118,5
SC Borguli (Notional),190,7
SC Yibuk,193,3
SC Pangkang,155,9
PHC Riga,152,2
SC Ruksin (Notional),110,1
PHC Supple,90,7
SC Bilat (Notional),117,5
CHC Boleng,136,5
SC Koyu (Notional),132,7
SC Yembung (Notional),99,1
SC Rebo Perging (Notional),151,8
SC Begging,165,2
SC Parong-II,174,7
SC Namsing (Notional),152,7
PHC Yembung,114,9
SC Komsing,148,2
SC Komsing,168,2
PHC Rebo Perging,140,7
SC Pangin (Notional),94,10
SC Dite Dime (Notional),125,7
PHC Komsing (Notional),118,2
SC Ugeng,68,4
SC Tarak,96,1
PHC Dite Dime,183,5
SC Telam (Notional),178,4
SC Dosing,162,8
SC Yemsing,195,6
SC Riga (Notional),58,3
SC Sille (Notional),178,1
SC Korang (Notional),63,1
SC Parong-II,55,3
SC Pasighat (Notional),91,7
SC Mebo (Notional),170,5
SC Rottung,140,6
SC Supple (Notional),139,2
SC Lokpeng,198,7
SC Pareng-I,113,1
CHC Pangin,195,3
SC Nari (Notional),141,6
SC Sitang,171,7
SC Yagrung (Notional),62,9
SC Rani (Notional),123,8
SC Jorsing,145,8
SC Borguli (Notional),149,9
SC Yibuk,172,4
SC Pangkang,65,5
PHC Riga,190,3
SC Ruksin (Notional),79,3
PHC Supple,87,9
SC Bilat (Notional),54,3
CHC Boleng,168,4
SC Koyu (Notional),81,3
SC Yembung (Notional),84,2
SC Rebo Perging (Notional),129,5
SC Begging,100,5
SC Parong-II,120,1
SC Namsing (Notional),146,3
PHC Yembung,54,6
SC Komsing,186,8
SC Komsing,55,7
PHC Rebo Perging,102,7
SC Pangin (Notional),199,4
SC Dite Dime (Notional),158,5
PHC Komsing (Notional),63,6
SC Ugeng,83,4
SC Tarak,113,5
PHC Dite Dime,69,3
SC Telam (Notional),165,5
SC Dosing,129,3
SC Yemsing,140,3
SC Riga (Notional),136,1
SC Sille (Notional),126,9
SC Korang (Notional),87,6
SC Parong-II,79,8
SC Pasighat (Notional),151,1
SC Mebo (Notional),195,7
SC Rottung,185,9
