Health Facility Name,Number_Of_Beds,Rating
SHC Morani,113,1
SHC Salikala,98,2
SHC Agalgaon,165,2
SHC Bhorwada,173,2
SHC Nandgaon,134,2
SHC Kusmari,186,8
SHC Jahur,82,3
SHC Jodai,184,5
SHC Khadki,175,1
SHC Sangvi Than,126,10
SHC Ekalbara,116,5
SHC Pipaldhar,176,8
PHC Babdad,179,10
Mohanpura,89,10
CHC Palsood,147,4
SHC Jalgone,112,6
SHC Jogwada,117,10
SHC Baghad,152,1
SHC Bijasan,115,10
SHC Jamanya AB,166,6
SHC Indrapur,133,10
SHC Khajuri,197,10
SHC Balsamund,142,6
SHC Sanghvi,102,10
SHC Talav,113,7
SHC KOIDIYA,129,6
PHC Bramhangaon,118,1
SHC Bhampura,174,3
SHC Piplya Deb,72,1
SHC Jholpipri,138,7
SHC Sangaon,68,10
NOT SHC Sendhwa,135,5
SHC Alkhad,129,1
SHC Upla,169,9
PHC Bokarata,122,7
SHC Rangaon Road,91,8
SHC Thengcha,109,7
SHC Julwania,70,8
PHC Moyada,189,3
SHC Sondul,127,10
SHC Takli,137,4
SHC Pannali,171,9
SHC Jamthi,142,2
SHC Pakhalya,70,7
NOT SHC Gandhawal,74,3
SHC Bhawti,121,7
SHC Balkuan,128,7
SHC Mandranya,159,10
SHC Sidadi,92,5
SHC Dudhkheda,180,9
SHC Sustikheda,166,10
SHC LIMBAI,56,4
SHC Chitrai,146,9
SHC Balwadi,80,6
PHC Rakhi Bujurg,140,8
SHC Wakya,188,3
SHC Rahgun,50,9
SHC Chachria,110,4
SHC Nisarpur,58,9
SHC Solwan,127,7
SHC Dondwada,85,6
SHC Chitawal,137,4
CH Sendhwa,66,1
PHC Talwada Bujurg,63,5
SHC Dongargaon,62,3
SHC Derwalya,63,6
SHC Badgaon,65,4
PHC Khetia-10,124,6
SHC Sanwariapani,82,9
SHC Ghatwa,81,1
SHC Kasel,50,2
SHC Rakhi Khurd,90,6
SHC Vazar,86,1
SHC SURANA,144,9
SHC Mordad,173,9
SHC Mehatgaon,153,4
SHC Laphangaon,138,9
SHC Bagud,94,3
SHC Wasvi,101,3
SHC Bramhangaon,103,5
CHC Chachariapati(WARLA),96,7
SHC Muhala,176,1
SHC Kundia,61,8
SHC Jhiri Jamli,160,4
SHC Danod,58,10
SHC Madgaon,87,1
SHC Dabhad,87,9
SHC Junazira,137,3
SHC Bilwa Road,97,7
CHC Thikri,110,7
SHC Kot kiradi,76,3
SHC Kanpuri,195,8
CHC Pati,194,3
SHC Chikhali,75,8
SHC Kolki,123,7
SHC Jahur,193,10
SHC Rosar,155,6
SHC Bandhara Khurd,173,9
SHC Anchli,194,5
SHC Bokrata,190,10
SHC Jarwai,149,1
SHC Barda,164,10
SHC Rojanimal,62,6
SHC Chiklya,71,3
PHC Barufatak,127,1
SHC Segaon,126,10
SHC Jampati,117,8
SHC Malwan,156,3
SHC Borlai,102,5
PHC Unchawad,131,10
PHC DAWANA-THIKHRI TEHSIL,159,9
SHC Bhamta,184,3
SHC Baruphatak,173,10
SHC Limbi,172,3
SHC Jamli,57,9
SHC Dongalyapani,132,3
SHC Bhagsur,93,4
SHC Julwania Road,157,2
SHC Borkhedi,130,7
SHC Bawadya,179,1
NOT SHC Khetia,166,2
SHC Lonsara,160,8
SHC Mohipura,71,2
SHC Bhatki,128,1
SHC Ghusgaon,95,8
SHC Rai,173,9
SHC Bhakharli,61,9
PHC Menmimata,191,6
SHC Jalkheda,122,5
SHC DEVLA,179,5
PHC Brahmangaon,79,9
SHC Gawha,95,10
SHC Borali,141,10
SHC Semlet,138,8
SHC Devgarh,134,5
SHC Panwa,50,8
SHC Atarsambha,196,8
SHC Nangalwadi,67,3
PHC Roshar,122,5
SHC Vervada,180,9
SHC Bori,116,4
PHC Dhanora,112,5
SHC Ozar,63,7
SHC Bomiya,167,8
SHC Umedara,152,6
PHC Jhopali,76,9
SHC Dhawli,164,10
SHC Ubadgarh,89,4
SHC Vegalgaon,155,6
SHC HARANGAON,104,1
SHC Anjrada,86,7
NOT SHC Thikari,51,1
CHC Rajpur,93,5
PHC Chatli,128,3
SHC Golpatiwadi,170,3
SHC Bhamori,86,6
SHC Kalapani,131,5
PHC Julwania,152,8
SHC Bhurapani,193,1
SHC Chakeri,122,4
SHC Titgaria,130,2
SHC BANDHAN,68,4
SHC Sidadi,141,2
SHC Sajwani,151,8
SHC Rajpur,51,1
SHC Sali,54,5
SHC Uchawad,94,7
SHC Kusmya,197,7
SHC Amda,132,1
SHC Rajghat,194,1
SHC Ajgaria,145,1
SHC Kuwan,101,8
SHC Rui,96,9
SHC Moyada,147,9
SHC Shivani Padauta,144,4
DH BARWANI,142,3
SHC Kunjri,151,5
SHC Pokhaliya,191,8
PHC Upala,85,10
SHC Segwal,116,1
SHC Bhensdad,88,7
SHC Babdad,194,9
SHC Khedi Khurd,130,8
SHC Warla,95,4
SHC Ramgadi,176,2
SHC Nani Badwani,56,5
SHC Sirwel,70,3
SHC Zopali,68,6
SHC Temla,173,1
SHC Amjhiri,192,2
SHC Vedpuri,79,9
PHC Talwadadeb,127,3
NOT SHC Bandhara Bujurg,91,10
SHC Badgaon,171,1
SHC Mogrikheda,62,3
SHC Semli,150,5
SHC Khariya,73,2
SHC Matli,139,1
SHC Karanpura,71,1
SHC Dhawada,97,6
PHC Anjad,165,7
SHC Jhapdi padla,84,5
SHC Kelpani,182,4
SHC Lakhangaon,171,9
SHC Matrala,84,4
SHC Bhandarda,190,6
PHC Chachria,177,9
PHC Balwadi,155,5
NOT SHC Chatli,177,6
CHC Niwali,183,8
SHC Padchha,66,8
SHC Shahpura,59,7
SHC Pendarnia,185,6
SHC Rangaon Deb,53,5
SHC Mardai,123,4
PHC Bhawti,125,4
NOT SHC Silawad,56,4
SHC Talun,147,6
SHC Pospur,102,8
PHC Ojhar,131,3
SHC Malgaon,143,9
SHC Wasvi,108,2
SHC Mundla,53,5
SHC MANDWARA,121,5
SHC Bilwani,72,10
SHC Mortalai,148,2
SHC Mankui,113,7
SHC Raigun,155,3
SHC Kham Sajwani,174,4
SHC Shivni,78,5
SHC Jalgaon,179,5
SHC Mohanpadawa,197,3
SHC Hataula,66,8
SHC Panchpula uttar,84,9
SHC Malfa,197,3
SHC Khurmabad,130,8
SHC Kasrawad,186,4
PHC Jogwada,113,7
SHC Kansul,79,5
SHC Abhali,169,1
SHC Hirakrai,166,4
SHC Lakhangaon,87,7
SHC KAKRIYA,109,8
SHC Dondwada,122,1
SHC Nandyabad,125,9
NOT SHC Pati,92,6
SHC Kermala,194,10
SHC Talwada Bujurg,120,8
SHC Sakrali Bujurg,50,3
SHC Rajgarh,50,7
SHC SINGUN,120,10
PHC Dhawali,125,6
SHC Ghudchal,146,4
SHC Wangra,134,2
SHC Mojali,177,7
SHC Dongargaon,161,10
CHC Pansemal,128,9
SHC Bobalwadi,62,10
SHC Pisnawal,145,8
SHC Khurampura,73,2
SHC Nanded,57,9
SHC Talwada Deb,78,2
SHC Pipribujurg,125,9
PHC Indrapur,118,3
SHC Badgaon,174,2
SHC Baghadi,67,7
SHC Sulgaon,60,2
SHC Panya,111,7
SHC Kamod,131,5
PHC Nagalwadi,96,4
SHC Sildad,96,2
PHC Gandhwal,150,5
SHC Piplya Deb,157,2
SHC Kajalmata,156,1
SHC Gothania,195,9
SHC Menimata,137,10
SHC Palwat,189,2
SHC Sonkhedi,68,7
PHC Bandhara Bujurg,130,5
CHC Silawad,58,6
SHC Ramkola,79,5
SHC Moyda,76,4
SHC Roshmal,76,5
SHC Osada,106,10
SHC Gerughati,80,9
SHC Pichodi,146,1
SHC Nihali,103,5
SHC Rupkheda,147,5
SHC DAWANA,170,5
SHC Raichul,184,9
SHC Diwanya,113,7
SHC Dhanora,174,7
SHC Niwali,107,4
SHC Rakhi Bujurg,89,4
SHC Salkheda,158,6
SHC Dugani,58,1
SHC Morani,56,5
SHC Salikala,194,3
SHC Agalgaon,116,4
SHC Bhorwada,58,10
SHC Nandgaon,163,7
SHC Kusmari,124,5
SHC Jahur,172,10
SHC Jodai,98,7
SHC Khadki,99,2
SHC Sangvi Than,72,4
SHC Ekalbara,175,2
SHC Pipaldhar,112,6
PHC Babdad,193,5
Mohanpura,101,10
CHC Palsood,122,4
SHC Jalgone,160,10
SHC Jogwada,89,1
SHC Baghad,182,9
SHC Bijasan,190,4
SHC Jamanya AB,175,10
SHC Indrapur,141,3
SHC Khajuri,58,1
SHC Balsamund,179,6
SHC Sanghvi,99,4
SHC Talav,129,7
SHC KOIDIYA,57,7
PHC Bramhangaon,126,5
SHC Bhampura,168,1
SHC Piplya Deb,68,5
SHC Jholpipri,186,3
SHC Sangaon,141,1
NOT SHC Sendhwa,95,7
SHC Alkhad,55,5
SHC Upla,111,8
PHC Bokarata,108,9
SHC Rangaon Road,53,6
SHC Thengcha,169,4
SHC Julwania,156,1
PHC Moyada,143,8
SHC Sondul,115,9
SHC Takli,153,1
SHC Pannali,149,6
SHC Jamthi,92,3
SHC Pakhalya,63,5
NOT SHC Gandhawal,190,1
SHC Bhawti,171,10
SHC Balkuan,106,3
SHC Mandranya,98,4
SHC Sidadi,110,7
SHC Dudhkheda,149,7
SHC Sustikheda,171,2
SHC LIMBAI,82,3
SHC Chitrai,187,10
SHC Balwadi,96,2
PHC Rakhi Bujurg,182,2
SHC Wakya,148,4
SHC Rahgun,102,3
SHC Chachria,62,7
SHC Nisarpur,95,3
SHC Solwan,66,8
SHC Dondwada,109,6
SHC Chitawal,148,7
CH Sendhwa,69,1
PHC Talwada Bujurg,154,4
SHC Dongargaon,58,4
SHC Derwalya,132,9
SHC Badgaon,55,7
PHC Khetia-10,106,2
SHC Sanwariapani,85,3
SHC Ghatwa,85,3
SHC Kasel,88,1
SHC Rakhi Khurd,72,2
SHC Vazar,192,2
SHC SURANA,50,10
SHC Mordad,151,9
SHC Mehatgaon,152,2
SHC Laphangaon,188,3
SHC Bagud,113,10
SHC Wasvi,102,6
SHC Bramhangaon,51,4
CHC Chachariapati(WARLA),156,5
SHC Muhala,79,4
SHC Kundia,67,9
SHC Jhiri Jamli,115,1
SHC Danod,82,3
SHC Madgaon,179,2
SHC Dabhad,131,5
SHC Junazira,88,2
SHC Bilwa Road,62,8
CHC Thikri,114,7
SHC Kot kiradi,179,2
SHC Kanpuri,172,4
CHC Pati,197,2
SHC Chikhali,65,5
SHC Kolki,112,10
SHC Jahur,195,6
SHC Rosar,191,9
SHC Bandhara Khurd,189,5
SHC Anchli,114,4
SHC Bokrata,150,2
SHC Jarwai,119,3
SHC Barda,63,9
SHC Rojanimal,187,2
SHC Chiklya,122,5
PHC Barufatak,155,5
SHC Segaon,100,1
SHC Jampati,51,7
SHC Malwan,150,8
SHC Borlai,74,3
PHC Unchawad,182,4
PHC DAWANA-THIKHRI TEHSIL,100,2
SHC Bhamta,128,2
SHC Baruphatak,102,7
SHC Limbi,189,2
SHC Jamli,80,1
SHC Dongalyapani,185,5
SHC Bhagsur,52,9
SHC Julwania Road,133,3
SHC Borkhedi,172,3
SHC Bawadya,189,5
NOT SHC Khetia,189,2
SHC Lonsara,100,8
SHC Mohipura,112,6
SHC Bhatki,165,5
SHC Ghusgaon,146,5
SHC Rai,108,7
SHC Bhakharli,73,9
PHC Menmimata,81,9
SHC Jalkheda,71,8
SHC DEVLA,198,1
PHC Brahmangaon,50,7
SHC Gawha,122,4
SHC Borali,174,7
SHC Semlet,91,6
SHC Devgarh,126,9
SHC Panwa,199,7
SHC Atarsambha,193,4
SHC Nangalwadi,143,1
PHC Roshar,96,7
SHC Vervada,78,1
SHC Bori,105,6
PHC Dhanora,94,10
SHC Ozar,108,9
SHC Bomiya,73,5
SHC Umedara,154,4
PHC Jhopali,115,10
SHC Dhawli,58,4
SHC Ubadgarh,129,9
SHC Vegalgaon,60,1
SHC HARANGAON,181,2
SHC Anjrada,54,9
NOT SHC Thikari,71,5
CHC Rajpur,109,9
PHC Chatli,111,8
SHC Golpatiwadi,103,7
SHC Bhamori,55,10
SHC Kalapani,191,2
PHC Julwania,121,10
SHC Bhurapani,106,8
SHC Chakeri,52,2
SHC Titgaria,67,4
SHC BANDHAN,155,5
SHC Sidadi,98,7
SHC Sajwani,177,4
SHC Rajpur,96,6
SHC Sali,127,5
SHC Uchawad,131,10
SHC Kusmya,173,4
SHC Amda,154,10
SHC Rajghat,61,8
SHC Ajgaria,176,1
SHC Kuwan,167,2
SHC Rui,180,9
SHC Moyada,188,10
SHC Shivani Padauta,156,4
DH BARWANI,132,3
SHC Kunjri,127,7
SHC Pokhaliya,109,4
PHC Upala,177,9
SHC Segwal,133,10
SHC Bhensdad,129,1
SHC Babdad,108,4
SHC Khedi Khurd,195,7
SHC Warla,133,2
SHC Ramgadi,189,1
SHC Nani Badwani,115,2
SHC Sirwel,139,8
SHC Zopali,68,8
SHC Temla,127,8
SHC Amjhiri,157,6
SHC Vedpuri,60,5
PHC Talwadadeb,55,4
NOT SHC Bandhara Bujurg,131,2
SHC Badgaon,108,2
SHC Mogrikheda,185,6
SHC Semli,169,5
SHC Khariya,181,5
SHC Matli,63,7
SHC Karanpura,113,2
SHC Dhawada,93,1
PHC Anjad,64,5
SHC Jhapdi padla,64,7
SHC Kelpani,148,10
SHC Lakhangaon,131,4
SHC Matrala,117,2
SHC Bhandarda,192,2
PHC Chachria,139,2
PHC Balwadi,75,3
NOT SHC Chatli,196,6
CHC Niwali,55,3
SHC Padchha,178,7
SHC Shahpura,108,5
SHC Pendarnia,170,8
SHC Rangaon Deb,114,1
SHC Mardai,193,2
PHC Bhawti,142,9
NOT SHC Silawad,88,6
SHC Talun,109,4
SHC Pospur,68,5
PHC Ojhar,87,1
SHC Malgaon,141,3
SHC Wasvi,173,8
SHC Mundla,83,1
SHC MANDWARA,112,9
SHC Bilwani,141,2
SHC Mortalai,98,5
SHC Mankui,170,8
SHC Raigun,125,7
SHC Kham Sajwani,101,3
SHC Shivni,58,3
SHC Jalgaon,119,1
SHC Mohanpadawa,95,3
SHC Hataula,160,2
SHC Panchpula uttar,74,7
SHC Malfa,150,1
SHC Khurmabad,97,3
SHC Kasrawad,154,7
PHC Jogwada,187,10
SHC Kansul,199,3
SHC Abhali,107,10
SHC Hirakrai,170,1
SHC Lakhangaon,172,1
SHC KAKRIYA,157,1
SHC Dondwada,90,3
SHC Nandyabad,180,3
NOT SHC Pati,94,10
SHC Kermala,155,5
SHC Talwada Bujurg,110,6
SHC Sakrali Bujurg,170,7
SHC Rajgarh,164,1
SHC SINGUN,137,1
PHC Dhawali,89,3
SHC Ghudchal,143,9
SHC Wangra,186,9
SHC Mojali,102,1
SHC Dongargaon,142,5
CHC Pansemal,155,2
SHC Bobalwadi,154,3
SHC Pisnawal,128,1
SHC Khurampura,89,10
SHC Nanded,81,8
SHC Talwada Deb,61,8
SHC Pipribujurg,94,1
PHC Indrapur,102,7
SHC Badgaon,150,3
SHC Baghadi,89,6
SHC Sulgaon,187,8
SHC Panya,197,2
SHC Kamod,64,8
PHC Nagalwadi,90,5
SHC Sildad,58,3
PHC Gandhwal,165,1
SHC Piplya Deb,134,3
SHC Kajalmata,173,5
SHC Gothania,199,1
SHC Menimata,194,10
SHC Palwat,125,1
SHC Sonkhedi,85,7
PHC Bandhara Bujurg,82,6
CHC Silawad,87,1
SHC Ramkola,68,2
SHC Moyda,67,1
SHC Roshmal,75,4
SHC Osada,72,10
SHC Gerughati,114,7
SHC Pichodi,173,5
SHC Nihali,155,7
SHC Rupkheda,152,3
SHC DAWANA,157,5
SHC Raichul,93,9
SHC Diwanya,125,4
SHC Dhanora,143,9
SHC Niwali,88,2
SHC Rakhi Bujurg,60,5
SHC Salkheda,153,5
SHC Dugani,71,9
