Health Facility Name,Number_Of_Beds,Rating
Keshar Pura,82,2
Salemabad,115,7
Harrajpura,140,10
Diggi Bazar,119,4
Kotri,156,1
Mala,89,5
Bhogadit,77,6
Pharkiya,119,2
Kansh,168,2
Kebaniya,95,3
Jhirota,57,7
Kelu,157,6
NOTIONAL Makadwali,117,3
NOTIONAL Karnoj,67,1
NOTIONAL Shingawal,180,9
NOTIONAL Borada,158,7
Ajaysar,131,5
Anderi Devari,147,1
Birla,98,1
Kerot,182,2
Shrinagar,198,5
Loolwa,129,9
Bhagwanpura,164,5
Srinagar Road,77,9
Hanutia,98,1
Jaliya II,83,5
Chavandiya,153,7
Mewadia,62,10
Birkchiyawas,128,6
Lodiyana,130,5
Mandawaria,105,4
Pranhera,174,7
Tatgarh,107,6
Champaneri,115,10
Dhos,106,5
Kekri,71,10
Farkiya,90,2
NOTIONAL Nagelav,104,4
NOTIONAL Dantra,197,8
Gothra,95,5
Gothiyana,159,9
Mehroo kalan,50,7
Deoliya khurd,126,9
Shahpura,138,3
Padampura,166,10
Nyara,90,5
Chhachundra,195,10
Gudda,166,10
Baghsuri,198,7
Motalao,182,9
Nad,56,3
Arain,145,2
Gangwana,123,5
Malio ki Badi,140,9
Maveda kalan,148,6
Arnali,86,1
Sinodiya,101,3
Bajta,75,2
NOTIONAL Goyala,92,1
Meenon ka naya gaon,87,1
Shivpura,90,6
Jalia,100,10
NOTIONAL Govindgarh,96,6
nousal,87,7
NOTIONAL Tantoti,166,6
NOTIONAL Jamola,128,8
Pandolai,145,3
Sarwar,72,2
Ratacot,63,9
Roopnagar,76,1
Barkhochra,108,3
Devas,184,3
NOTIONAL Sarwar,193,1
Nagola,81,9
Aloli,137,8
Piplaj,162,6
Satawadiya,152,7
Somalpur,190,1
Bakhatawarpura,73,6
Kaniya,112,1
Delwara,182,3
Tantoti,169,2
Beawar Khas,122,4
Pratappura,160,2
Dhantol,122,10
Chanpura,76,8
Sendriya,57,6
NOTIONAL Badakhera,95,7
Aradka,140,9
Babaicha,124,4
Kanakhera,134,7
Akodia,53,2
Devmali,78,7
NOTIONAL Badali,102,10
Vaishali Nagar,87,9
Modi,130,8
Devkhera,111,3
Aashan,198,2
Majitiya,114,4
Nimeda,102,2
Kekri,190,2
Kalera kanwarji,115,6
Suraj Pura,178,3
Arjunpura,181,2
Kanakhedi,134,8
Bharai,156,6
Sathana,159,6
NOTIONAL Kelu,91,9
Borada,105,4
Khawas,136,8
Ajaynagar,69,1
Khandach,89,2
Kiranipura,120,3
Syar,55,9
Rawatmal,193,6
NOTIONAL Kuchil,102,2
NOTIONAL Nand,161,10
Sunariya,112,6
Pinglod,127,2
Jadana,177,10
Tilonia,80,4
Kalyanipura,131,6
Begliyawas,167,9
Devliya,135,5
Dadia,124,3
"Satellite Hospital Adarsh Nagar, Ajmer",168,6
Nand,182,1
NOTIONAL Saradhna,180,1
NOTIONAL Pahar Ganj,94,5
NOTIONAL Hatundi,190,7
Nandla,124,1
Devria,181,5
rodawas,73,4
Padanga,176,5
Supa,53,3
Bhudol,185,5
Sarana,171,7
Chhatdi,149,5
Sadari,114,3
Ajgara,191,5
Jawaja,115,5
Bhandawas,91,9
Bagrai,199,5
Girwarpura,93,9
Mankhand,84,4
mokhampura,56,1
Kalyan Pura,142,7
Biliya,55,6
Jasvantpura,79,9
Nasoon,149,10
Bhilawat,156,9
NOTIONAL Jethana,199,7
Nayagawn,147,8
Dabrela,142,10
Hanutiya,175,6
NOTIONAL Gola,95,9
Kalera krishan gopal,196,7
Deogaon,114,9
NOTIONAL Vijaynagar,185,2
Jamola,143,1
Padliya,146,5
NOTIONAL Fatehgarh,73,9
palri,155,6
Ghughra,137,5
Hingoniya,143,4
Modi Ka Jhhopra,70,5
NOTIONAL Junia,88,6
Deokheri,137,2
Y N Hospital Kishangarh,106,9
Anakar,111,10
Khajpura,87,9
Bhandun,70,5
Harmara,180,1
Dantra,104,7
NOTIONAL Madarpura,64,3
NOTIONAL Jaliya II,119,1
Piproli,103,10
Lallai,172,9
Rammaliya,79,10
Bhawanikheda,175,4
kardala,71,10
Dolladatta,85,7
NOTIONAL Tatgarh,176,5
Salari,78,2
NOTIONAL Kotra,125,6
Kumariya,155,4
Keriya Kalan,98,9
Jadol,146,6
Bherukhera,64,10
Taragarh,116,8
Silora,180,10
NOTIONAL Para,118,10
Gegal,122,10
Doulatpura First,120,6
Ramgarh,113,7
Rampura,124,6
Malato Ki Bair,173,9
Kund ka Lamba,197,5
NOTIONAL Arain,145,8
Gaddi Maliyan,128,3
Rampura Nand,59,6
NOTIONAL Untra,194,5
Karnoj,129,1
Karkedi,151,10
Goyala,97,5
Picholiya,67,9
Pahar Ganj,61,10
NOTIONAL Baghera,116,6
Beer,112,1
Alamboo,168,5
Nundri Maldev,150,2
Badganv,98,2
Nandwara,72,7
Lamana,130,9
Rupangarh,190,10
Jhipia,190,3
Kasheer,193,1
Barakhan,191,3
Chhota Narena,131,1
Dongriya Khurd,63,8
NOTIONAL Pisangan,61,7
PoliceLine,171,8
Dedula Ka Badiya,181,4
Kankaniawas,97,1
Fatehgarh,113,2
NOTIONAL Panchsheel,84,4
Nareli,71,8
Narwar,174,7
Makadwali,159,5
Sironj,175,5
Molkiya,110,2
NOTIONAL Kadel,86,2
Ramsar,61,8
Sakariya,121,8
Kanoj,102,6
Housing Board Kisangarh,128,10
Nituti,186,6
Samaliya,118,2
City Dispensary Nasirabaad,188,6
Chausala,135,1
jhag,181,10
Guda Khurd,150,9
Meoda khurd,193,7
Motipura,73,8
Kotdi,68,2
Kabri chat,82,7
NOTIONAL Narwar,194,3
Rawla ka Badiya,172,3
Nadi,118,2
Sarsari,141,5
Srirampura,157,9
Bubkiya,154,8
Gopal Pura,111,10
Sobdi,193,1
Barol,133,2
Kirap,86,2
NOTIONAL Mohammad Gargh,99,2
junda,59,8
Balar,181,6
Surajpura,158,10
NOTIONAL Ghatiyali,81,4
Hoshiyara,197,2
NOTIONAL Budhwara,67,10
Tankawas,122,9
Jethana,160,1
Kayad,58,3
Kohda,162,8
Hatundi,83,8
Digariya,103,3
NOTIONAL Deogaon,94,1
Rampali,154,3
Nayagoan kamwat ka,172,7
Khodmal,78,6
NOTIONAL Bhawnta,96,7
Muhami,57,6
Brahmano ka Badia,96,4
Sethan,153,3
Bala Pura,92,8
Bhinjarwada,159,1
Shikarani,156,9
NOTIONAL Jhirota,141,4
Didwara,56,1
Amarpura,88,3
Sargaon,196,9
Khiriya,97,5
Balapura,53,1
Gulgaon,125,6
Sursura,111,6
Sawar,169,5
NOTIONAL Kadera,68,3
Balwanta,52,2
Ram Ganj,165,4
Bheemrawas,115,1
Sandolia,78,9
NOTIONAL Sawar,121,7
NOTIONAL Tihari,165,1
Shokliya,68,5
Paldi,54,6
Chandma,64,1
Gujarwada,95,8
Kalesara,95,6
Loharwada,51,8
Tihari,155,9
A K Hospital Beawar Ajmer,79,4
Sarvar,148,2
Gordha,55,7
Tabiji,93,1
singala,181,5
Jotaya,82,1
Zanana Hospital Ajmer,147,7
NOTIONAL Sursura,154,10
Nayakhera,104,5
Arwar,178,2
NOTIONAL Hingoniya,90,4
Singara,80,6
Mayala,162,4
Rampura Ahiran,75,4
Jajota,126,4
Doulatpura Second,145,6
Junia,74,4
Vijaynagar,179,10
Roop Pura,72,8
Nundri mendrathan,116,1
Barana,148,2
Badali,178,6
City Dispensary Kisangarh,114,7
Lasadiya,166,8
Devpuri,151,1
Bharkala,90,7
Chota lamba,197,1
Nagar,168,2
Rajgarh,182,3
Rampura Dabla,195,1
Heemgtara,73,8
Khatoli,178,5
Chundri,115,2
Rajiyawas,65,8
NOTIONAL Gothiyana,176,8
NOTIONAL Rupangarh,156,2
Badakhera,70,6
Taswaria,117,1
NOTIONAL Karkedi,64,8
Bamanhera,196,9
Harpura,154,7
Peeplaj,139,7
NOTIONAL Vaishali Nagar,72,9
Bandanwara,159,3
NOTIONAL Nagola,149,6
Ganaheda,131,7
NOTIONAL Kharwa,190,1
Bubani,71,1
Chakva,131,5
Satolav,192,6
Kishanpura,159,10
Kavlai,51,10
Surdiya,185,8
Dolatpura,69,6
NOTIONAL Pranhera,101,7
Kesarpura,176,6
Palra,130,4
Seel,143,9
Lotiyana,76,10
NOTIONAL Banthali,111,2
NOTIONAL Ramsar,122,7
Rampura,113,1
Kishanpura,147,1
Gordhanpura,51,4
Mathuwara,58,6
Beeti,111,4
Bhinay,189,1
NOTIONAL Champaneri,66,8
Khoda,166,10
Chitakhera,176,1
Pushkar,137,2
Amali,134,8
Bhadsuri,196,3
nuwa,187,1
Dilwada,141,5
NOTIONAL Kishanpura,169,1
Tajpura,165,1
Gohana,173,5
Gola,106,3
Devliyakalan,184,7
NOTIONAL Harmara,137,3
Dumada,159,4
Kadera,104,9
Ghana,132,5
Devnagar,196,7
Mavshiya,161,1
NOTIONAL Rawla ka Badiya,102,3
Kachariya,192,1
Kuchil,182,1
Mundolao,72,2
Kurthal,153,1
Titariya,158,10
Sarvina,80,9
Biliya,115,3
NOTIONAL Dhoondhari,132,2
Nagelav,134,6
Kanpura,104,4
NOTIONAL Dhal,175,8
NOTIONAL Bhinay,56,1
Khutiya,64,2
Cheetiwas,68,9
durgawas,181,6
Shingawal,120,1
Undri,68,9
Badliya,138,3
Banthali,61,5
Hiyalia,85,2
NOTIONAL Bhamolav,183,6
Jhadwasa,131,2
Naikala,177,6
NOTIONAL Sarana,120,7
Narbadkhera,54,7
Ramnagar,56,5
Gafa,180,9
NOTIONAL Pushkar,139,10
Bandarsindri,101,1
Anderkot,154,10
Kitap,111,9
Bayla,149,10
Saradhna,154,7
Bhawnta,144,3
Khori,71,8
Sarana,178,2
Richmaliya,105,2
Sarmalia,170,4
Alipura,117,7
Kayampura,83,4
Derathu,186,9
Chachiyawas,117,7
Bithur,192,9
Ralawata,100,6
NOTIONAL Ramgarh,133,8
buharu,94,10
Rasulpura,152,6
Doulatpura Jamola,100,10
Mangliawas,138,9
Kotra,130,4
Khajpura,89,8
Bhagwanpura,145,9
Ramner ki Dhani,192,4
Dhoondhari,152,5
Naya goan maliyon ka,151,2
Ekalsingha,123,1
Bogla,112,10
Sadara,190,10
Madarpura,130,1
udaipur kalan,120,8
Bhatiyani,125,10
Hachiyawas,111,7
NOTIONAL Mehroo kalan,180,7
Hokra,138,3
Danta,116,8
Nuriyawas,88,1
Untra,185,10
Gudiyawas,125,7
Badgaon,83,9
Patan,75,8
Samproda,146,4
Jawahar Lal Nehru Medical College and Hospital,164,8
Sundarpura,171,3
Kadel,103,7
Katsura,111,2
NOTIONAL Birkchiyawas,89,9
Amarpura,180,8
Sadapur,188,4
Banola,196,4
Banewda,148,3
NOTIONAL Jawaja,71,8
Taragarh,189,8
Jalia1,56,2
NOTIONAL Dadia,54,6
Kalanada,122,7
Makreda,53,3
Nalu,101,9
Jiawda,57,8
Tyod,65,10
Badla,134,9
Gagundha,191,7
Sapla,56,10
Seliberi,197,5
NOTIONAL Masuda,93,8
Tityari,131,1
Manpura,64,7
NOTIONAL Nyara,106,1
Bhamolav,114,2
Uttami,53,8
Ghatiyali,136,4
Kabra,83,3
Hathikhera,161,2
NOTIONAL Leedi,105,9
Leswa,155,4
Kusalpura,168,4
Shyamgarh,75,1
NOTIONAL Shrinagar,79,7
Rajosi,192,10
Dorai,178,2
Bhagwant Pura,104,1
Kanai Kalan,80,3
Shambhoonagar,58,9
Lordi,61,1
Suhawa,71,7
Sanod,78,7
NOTIONAL Bhandun,81,9
Shergarh,60,5
Karanti,85,8
Tikawara,91,10
Mohammad Gargh,72,3
City Dispensary Beawar,99,9
NOTIONAL Gangwana,106,7
NOTIONAL Baghsuri,170,1
Dodiyana,86,2
nondpura,196,3
Paner,101,3
Panchsheel,60,5
Tilana,90,5
NOTIONAL Kirap,146,3
Kushayata,176,4
Kaklana,107,7
Johar khera,102,2
NOTIONAL Loolwa,61,1
Mataji Ka Khera,96,5
Pisangan,180,10
Ajba ka badiya,166,1
Bharwai,101,4
Dhal,115,9
NOTIONAL Rajiyawas,121,9
Moyana,84,9
Govindgarh,183,6
Lamgara,106,4
Raghunathpura,146,2
Kotda,186,1
NOTIONAL Gudda,111,8
Neemera,184,10
Badi,61,8
Jaswantpura,170,2
NOTIONAL Bandanwara,108,4
Jetpura,61,6
Baral Second,99,1
Budhwara,189,5
Surajpua,129,8
Para,131,9
Sher Gargh,117,6
Nandshi,156,1
Ladpura,78,4
Dhasuk,81,2
Jeewana,174,3
NOTIONAL Sapla,71,9
Pagara,51,3
Masuda,176,6
Dewata,162,1
Govt Hospital Nasirabad,198,7
Kasturba,146,4
Motisar,176,6
Tilora,86,1
Kharwa,52,3
Leedi,82,5
Gulabbadi,134,3
Manoharpura,61,2
NOTIONAL Jotaya,157,6
NOTIONAL Devliyakalan,85,6
Baghera,104,2
Bisundani,184,6
Thal,51,6
Keshar Pura,61,8
Salemabad,108,2
Harrajpura,172,7
Diggi Bazar,115,10
Kotri,184,4
Mala,144,2
Bhogadit,181,10
Pharkiya,140,4
Kansh,117,1
Kebaniya,134,7
Jhirota,121,2
Kelu,157,1
NOTIONAL Makadwali,60,2
NOTIONAL Karnoj,114,10
NOTIONAL Shingawal,126,9
NOTIONAL Borada,101,5
Ajaysar,50,10
Anderi Devari,193,2
Birla,158,2
Kerot,125,3
Shrinagar,189,2
Loolwa,109,1
Bhagwanpura,88,5
Srinagar Road,82,3
Hanutia,139,1
Jaliya II,190,10
Chavandiya,196,6
Mewadia,125,2
Birkchiyawas,135,1
Lodiyana,98,1
Mandawaria,127,10
Pranhera,98,7
Tatgarh,69,6
Champaneri,55,6
Dhos,50,9
Kekri,188,1
Farkiya,111,10
NOTIONAL Nagelav,174,1
NOTIONAL Dantra,81,6
Gothra,60,6
Gothiyana,72,8
Mehroo kalan,56,5
Deoliya khurd,100,2
Shahpura,151,1
Padampura,52,1
Nyara,51,3
Chhachundra,129,3
Gudda,192,1
Baghsuri,72,2
Motalao,53,5
Nad,179,5
Arain,159,7
Gangwana,118,3
Malio ki Badi,105,4
Maveda kalan,185,9
Arnali,145,8
Sinodiya,167,3
Bajta,123,5
NOTIONAL Goyala,86,5
Meenon ka naya gaon,157,3
Shivpura,182,2
Jalia,177,5
NOTIONAL Govindgarh,187,2
nousal,129,2
NOTIONAL Tantoti,174,2
NOTIONAL Jamola,134,3
Pandolai,188,2
Sarwar,173,8
Ratacot,111,6
Roopnagar,114,4
Barkhochra,199,2
Devas,84,4
NOTIONAL Sarwar,129,2
Nagola,119,2
Aloli,166,4
Piplaj,143,7
Satawadiya,133,2
Somalpur,160,7
Bakhatawarpura,153,6
Kaniya,193,8
Delwara,93,4
Tantoti,96,4
Beawar Khas,60,2
Pratappura,184,4
Dhantol,168,5
Chanpura,93,8
Sendriya,104,1
NOTIONAL Badakhera,97,6
Aradka,152,3
Babaicha,173,1
Kanakhera,196,6
Akodia,147,3
Devmali,135,2
NOTIONAL Badali,137,2
Vaishali Nagar,59,1
Modi,51,5
Devkhera,88,7
Aashan,168,7
Majitiya,112,8
Nimeda,52,3
Kekri,190,8
Kalera kanwarji,51,1
Suraj Pura,118,6
Arjunpura,117,4
Kanakhedi,72,2
Bharai,100,2
Sathana,110,2
NOTIONAL Kelu,132,6
Borada,182,9
Khawas,115,1
Ajaynagar,180,1
Khandach,191,6
Kiranipura,128,8
Syar,85,7
Rawatmal,61,2
NOTIONAL Kuchil,131,5
NOTIONAL Nand,98,3
Sunariya,57,5
Pinglod,186,4
Jadana,134,10
Tilonia,180,1
Kalyanipura,51,8
Begliyawas,126,4
Devliya,74,5
Dadia,126,5
"Satellite Hospital Adarsh Nagar, Ajmer",191,8
Nand,116,8
NOTIONAL Saradhna,188,4
NOTIONAL Pahar Ganj,159,9
NOTIONAL Hatundi,84,7
Nandla,144,3
Devria,107,3
rodawas,150,2
Padanga,120,2
Supa,79,4
Bhudol,131,7
Sarana,101,7
Chhatdi,182,9
Sadari,121,4
Ajgara,110,8
Jawaja,68,7
Bhandawas,151,4
Bagrai,63,2
Girwarpura,110,10
Mankhand,55,10
mokhampura,98,3
Kalyan Pura,115,1
Biliya,146,6
Jasvantpura,51,3
Nasoon,87,8
Bhilawat,99,7
NOTIONAL Jethana,61,9
Nayagawn,179,8
Dabrela,135,7
Hanutiya,164,9
NOTIONAL Gola,74,5
Kalera krishan gopal,124,4
Deogaon,115,10
NOTIONAL Vijaynagar,146,10
Jamola,195,1
Padliya,182,4
NOTIONAL Fatehgarh,180,8
palri,78,10
Ghughra,102,9
Hingoniya,169,1
Modi Ka Jhhopra,148,8
NOTIONAL Junia,182,4
Deokheri,59,4
Y N Hospital Kishangarh,77,3
Anakar,60,6
Khajpura,139,5
Bhandun,137,3
Harmara,84,2
Dantra,148,4
NOTIONAL Madarpura,198,2
NOTIONAL Jaliya II,108,6
Piproli,125,1
Lallai,174,3
Rammaliya,146,2
Bhawanikheda,140,6
kardala,73,10
Dolladatta,65,3
NOTIONAL Tatgarh,95,3
Salari,87,10
NOTIONAL Kotra,71,1
Kumariya,57,2
Keriya Kalan,115,1
Jadol,117,7
Bherukhera,102,9
Taragarh,174,7
Silora,81,5
NOTIONAL Para,76,2
Gegal,139,4
Doulatpura First,168,10
Ramgarh,61,7
Rampura,195,3
Malato Ki Bair,104,5
Kund ka Lamba,160,1
NOTIONAL Arain,123,10
Gaddi Maliyan,91,9
Rampura Nand,125,5
NOTIONAL Untra,124,7
Karnoj,65,4
Karkedi,116,3
Goyala,134,3
Picholiya,58,3
Pahar Ganj,132,7
NOTIONAL Baghera,81,4
Beer,87,5
Alamboo,71,9
Nundri Maldev,50,4
Badganv,54,2
Nandwara,153,10
Lamana,119,8
Rupangarh,145,2
Jhipia,141,7
Kasheer,164,1
Barakhan,199,2
Chhota Narena,70,9
Dongriya Khurd,165,9
NOTIONAL Pisangan,161,2
PoliceLine,193,7
Dedula Ka Badiya,193,6
Kankaniawas,129,2
Fatehgarh,170,2
NOTIONAL Panchsheel,178,5
Nareli,70,6
Narwar,162,10
Makadwali,197,6
Sironj,196,4
Molkiya,118,5
NOTIONAL Kadel,131,1
Ramsar,190,7
Sakariya,78,7
Kanoj,84,3
Housing Board Kisangarh,137,10
Nituti,130,3
Samaliya,178,8
City Dispensary Nasirabaad,82,5
Chausala,124,10
jhag,128,1
Guda Khurd,185,4
Meoda khurd,89,5
Motipura,109,2
Kotdi,101,10
Kabri chat,163,4
NOTIONAL Narwar,178,7
Rawla ka Badiya,144,6
Nadi,114,3
Sarsari,138,10
Srirampura,111,5
Bubkiya,107,7
Gopal Pura,141,5
Sobdi,59,10
Barol,55,9
Kirap,53,8
NOTIONAL Mohammad Gargh,78,9
junda,170,8
Balar,171,3
Surajpura,100,1
NOTIONAL Ghatiyali,154,5
Hoshiyara,73,2
NOTIONAL Budhwara,134,5
Tankawas,64,10
Jethana,111,5
Kayad,124,4
Kohda,98,7
Hatundi,187,8
Digariya,146,4
NOTIONAL Deogaon,61,6
Rampali,70,6
Nayagoan kamwat ka,153,9
Khodmal,52,4
NOTIONAL Bhawnta,171,4
Muhami,67,9
Brahmano ka Badia,52,3
Sethan,191,8
Bala Pura,107,7
Bhinjarwada,99,3
Shikarani,72,1
NOTIONAL Jhirota,105,6
Didwara,179,9
Amarpura,107,2
Sargaon,191,7
Khiriya,193,10
Balapura,161,7
Gulgaon,96,3
Sursura,64,9
Sawar,143,7
NOTIONAL Kadera,125,7
Balwanta,126,3
Ram Ganj,118,7
Bheemrawas,187,10
Sandolia,168,2
NOTIONAL Sawar,172,1
NOTIONAL Tihari,104,10
Shokliya,67,5
Paldi,66,5
Chandma,126,2
Gujarwada,114,9
Kalesara,149,3
Loharwada,79,3
Tihari,74,5
A K Hospital Beawar Ajmer,134,7
Sarvar,111,2
Gordha,58,2
Tabiji,133,2
singala,145,10
Jotaya,166,5
Zanana Hospital Ajmer,52,8
NOTIONAL Sursura,162,3
Nayakhera,51,4
Arwar,67,7
NOTIONAL Hingoniya,157,3
Singara,106,9
Mayala,107,4
Rampura Ahiran,123,10
Jajota,53,5
Doulatpura Second,124,1
Junia,56,4
Vijaynagar,74,6
Roop Pura,57,9
Nundri mendrathan,180,3
Barana,141,4
Badali,186,9
City Dispensary Kisangarh,83,5
Lasadiya,133,5
Devpuri,76,4
Bharkala,166,3
Chota lamba,53,6
Nagar,71,10
Rajgarh,137,1
Rampura Dabla,57,10
Heemgtara,189,6
Khatoli,179,5
Chundri,105,4
Rajiyawas,153,4
NOTIONAL Gothiyana,115,10
NOTIONAL Rupangarh,90,4
Badakhera,115,7
Taswaria,55,8
NOTIONAL Karkedi,72,6
Bamanhera,60,3
Harpura,91,5
Peeplaj,84,10
NOTIONAL Vaishali Nagar,173,2
Bandanwara,130,1
NOTIONAL Nagola,121,2
Ganaheda,195,10
NOTIONAL Kharwa,179,4
Bubani,159,4
Chakva,101,2
Satolav,164,10
Kishanpura,129,3
Kavlai,133,3
Surdiya,175,9
Dolatpura,163,3
NOTIONAL Pranhera,157,3
Kesarpura,173,10
Palra,105,3
Seel,157,5
Lotiyana,139,10
NOTIONAL Banthali,191,7
NOTIONAL Ramsar,189,5
Rampura,78,9
Kishanpura,102,8
Gordhanpura,163,6
Mathuwara,84,10
Beeti,140,6
Bhinay,104,10
NOTIONAL Champaneri,156,7
Khoda,89,5
Chitakhera,120,2
Pushkar,50,5
Amali,60,10
Bhadsuri,70,4
nuwa,61,10
Dilwada,128,6
NOTIONAL Kishanpura,78,4
Tajpura,92,2
Gohana,54,7
Gola,171,4
Devliyakalan,149,2
NOTIONAL Harmara,169,4
Dumada,133,5
Kadera,107,4
Ghana,130,6
Devnagar,82,10
Mavshiya,198,9
NOTIONAL Rawla ka Badiya,82,2
Kachariya,145,6
Kuchil,142,2
Mundolao,125,7
Kurthal,130,2
Titariya,183,3
Sarvina,176,3
Biliya,109,1
NOTIONAL Dhoondhari,153,3
Nagelav,169,9
Kanpura,140,6
NOTIONAL Dhal,123,8
NOTIONAL Bhinay,168,1
Khutiya,145,7
Cheetiwas,185,8
durgawas,55,10
Shingawal,123,9
Undri,138,7
Badliya,133,2
Banthali,145,5
Hiyalia,87,10
NOTIONAL Bhamolav,144,5
Jhadwasa,86,3
Naikala,165,5
NOTIONAL Sarana,163,2
Narbadkhera,185,7
Ramnagar,188,10
Gafa,102,1
NOTIONAL Pushkar,166,3
Bandarsindri,134,9
Anderkot,60,8
Kitap,60,7
Bayla,51,10
Saradhna,82,7
Bhawnta,153,7
Khori,106,7
Sarana,162,9
Richmaliya,72,3
Sarmalia,176,8
Alipura,94,8
Kayampura,122,10
Derathu,97,5
Chachiyawas,92,5
Bithur,156,10
Ralawata,161,5
NOTIONAL Ramgarh,70,10
buharu,106,8
Rasulpura,133,5
Doulatpura Jamola,198,3
Mangliawas,174,6
Kotra,78,5
Khajpura,168,4
Bhagwanpura,81,6
Ramner ki Dhani,196,3
Dhoondhari,117,6
Naya goan maliyon ka,192,6
Ekalsingha,52,4
Bogla,181,4
Sadara,72,9
Madarpura,54,3
udaipur kalan,134,8
Bhatiyani,151,4
Hachiyawas,186,9
NOTIONAL Mehroo kalan,117,4
Hokra,60,6
Danta,149,7
Nuriyawas,180,1
Untra,76,8
Gudiyawas,145,4
Badgaon,173,6
Patan,142,2
Samproda,113,1
Jawahar Lal Nehru Medical College and Hospital,184,6
Sundarpura,147,3
Kadel,120,9
Katsura,78,2
NOTIONAL Birkchiyawas,102,7
Amarpura,170,1
Sadapur,103,10
Banola,133,6
Banewda,175,8
NOTIONAL Jawaja,69,6
Taragarh,199,8
Jalia1,65,2
NOTIONAL Dadia,129,1
Kalanada,191,2
Makreda,147,4
Nalu,90,3
Jiawda,91,4
Tyod,107,9
Badla,148,2
Gagundha,164,6
Sapla,189,2
Seliberi,80,4
NOTIONAL Masuda,140,8
Tityari,96,7
Manpura,177,7
NOTIONAL Nyara,121,6
Bhamolav,170,1
Uttami,84,8
Ghatiyali,71,7
Kabra,134,6
Hathikhera,146,5
NOTIONAL Leedi,169,5
Leswa,81,10
Kusalpura,121,8
Shyamgarh,146,4
NOTIONAL Shrinagar,189,3
Rajosi,170,9
Dorai,59,5
Bhagwant Pura,64,10
Kanai Kalan,78,1
Shambhoonagar,135,7
Lordi,195,6
Suhawa,189,4
Sanod,150,8
NOTIONAL Bhandun,137,5
Shergarh,181,2
Karanti,185,3
Tikawara,80,2
Mohammad Gargh,125,10
City Dispensary Beawar,93,2
NOTIONAL Gangwana,155,3
NOTIONAL Baghsuri,76,7
Dodiyana,178,4
nondpura,122,2
Paner,78,7
Panchsheel,124,2
Tilana,60,8
NOTIONAL Kirap,58,1
Kushayata,60,6
Kaklana,196,9
Johar khera,105,1
NOTIONAL Loolwa,60,2
Mataji Ka Khera,168,8
Pisangan,105,9
Ajba ka badiya,73,2
Bharwai,179,1
Dhal,147,2
NOTIONAL Rajiyawas,88,8
Moyana,184,3
Govindgarh,148,1
Lamgara,171,9
Raghunathpura,93,5
Kotda,146,1
NOTIONAL Gudda,50,3
Neemera,152,1
Badi,112,4
Jaswantpura,60,5
NOTIONAL Bandanwara,109,6
Jetpura,117,3
Baral Second,72,5
Budhwara,133,1
Surajpua,51,6
Para,165,5
Sher Gargh,129,7
Nandshi,92,4
Ladpura,92,2
Dhasuk,52,10
Jeewana,81,10
NOTIONAL Sapla,64,2
Pagara,95,10
Masuda,108,6
Dewata,94,9
Govt Hospital Nasirabad,117,1
Kasturba,102,6
Motisar,165,5
Tilora,179,4
Kharwa,86,1
Leedi,65,7
Gulabbadi,85,5
Manoharpura,178,8
NOTIONAL Jotaya,148,10
NOTIONAL Devliyakalan,154,4
Baghera,117,9
Bisundani,190,2
Thal,184,2
