Health Facility Name,Number_Of_Beds,Rating
Sumitra Hospital,115,7
Nayabansh Uphc,56,6
Uphc Chipyana,133,10
HOSIYARPUR UPHC,199,5
Sadarpur UPHC,126,4
Tigri UPHC,141,9
Bhangel UPHC,172,4
Barola UPHC,99,8
SURAJPUR UPHC,101,9
TUGALPUR UPHC,114,4
DADRI UPHC,197,4
RAIPUR UPHC,125,4
SARFABAD UPHC,110,6
Chouda Raghunathpur sec.22 UPHC,141,4
Mirjapur,126,4
Jonchana,143,9
Sect- Alfa (G. Noida),51,8
Bishara,126,2
Chithera,65,6
Rampur Khadar,62,4
Sainthli,58,10
Dujana,192,5
Mamura,196,4
Rilkha,162,7
Mirjapur,154,5
Luharli,188,2
Nagla Charandas,149,4
Sadonpur,167,8
Dadupur,180,2
Babawar,151,9
Kulashra,139,6
Surajpur,188,3
Kaasna,193,3
Cheeti,180,10
Neemka,108,3
Barola,111,2
Maycha,126,1
Nithari,160,7
Kamralla Chakrsenpur,123,2
Bahlolpur,118,1
Khandera,78,9
Rohi,103,8
Gopal Garh,124,8
Makoda,133,5
Sabotta,98,7
Jarcha,128,6
Vaidpura,78,3
Bisrakh,185,5
Kalonda,190,6
Patari,113,5
Mandi Shyam Ng.,151,5
Silarpur,76,8
Cheeti,124,2
Sadonpur,148,4
Chhelera,154,1
Nawada,143,10
Sadarpur,135,5
Ellaha Bas,104,10
Sect- Beeta (G. Noida),173,3
Gangholla,139,7
Naya Haibatpur,71,6
Salarpur,161,10
Basantpur,150,4
Barola,56,4
Roneeja,133,10
Chithera,127,4
Devta,192,7
Makoda,171,7
Mirjapur,98,1
Ranhera,71,8
Chhaproli - Mangroli,70,5
Navada,136,5
Rampur Khadar,125,1
Mahmoodpur Jaddon,93,8
Sadarpur,50,6
Chauna,110,7
Thapkheda,72,5
Hosiyarpur,118,6
Chhaprola,172,9
Maycha,115,9
Upralsi,146,4
Cholas,199,8
Piyawali,137,2
Jahanagirpur,74,8
CHC-Dadri,107,2
Bankapur,137,6
Mandi Shyam Nagar,197,5
Junpat,160,5
Basantpur,182,9
Piyawali,79,2
Junpat,77,7
Paarsol,105,1
Dankaur,151,10
Chipyana,144,2
Garhi Chokhandi,136,2
Kamralla Chakrsenpur,79,9
New PHC,78,10
Latifpur,72,7
Khagoda,127,3
Gorhi Bacchera,124,3
Kani Garhi,159,4
Gijhode,160,9
Sorkha,126,1
Rabupura,137,7
Mandi S-C,115,6
Aakalpur,153,3
Raipur Bangar,195,6
Thapkheda,63,10
Kureb,114,10
Kalonda,195,4
Bilaspur,187,6
Khatana,168,7
Dankaur,169,4
Kanarsi,194,4
PHC-Bisrakh,86,10
Khedi,60,10
Nagla Hukum Singh,112,7
Salarpur,131,1
Bishara,118,10
Khanpur,149,9
Achheja,71,7
Thora,78,5
Koodi Khera,136,7
Jevar Main,81,2
Birondi,150,5
Phelleda,162,2
Mahendipur,148,4
Naya Bass,106,1
Dadri,165,4
PHC-Dankaur,150,9
Atta Sector - 19,198,7
Kishorpur,171,2
Kheri,53,8
Rampur,182,3
Bodaki,185,6
Raipur Bangar,83,4
Chijarshi,172,2
Dujana,112,8
Khandera,64,4
Choda Raghunathpur,116,10
Gorhi Bacchera,158,10
Chanchli,118,10
Bodaki,117,9
Koodi Khera,155,1
Kot,92,6
Kot,150,2
Chiti,175,10
Chidolli,154,4
Tugalpur,149,1
Barola Sub Center,87,9
Ranoli Latifpur,114,5
Rampur Khadar,139,5
Cholas,104,6
Dhoom Manikpur,120,1
Luharli,86,1
Main Center Bisrakh,95,5
Silarpur Kalana,100,4
Nai Basti Barangpur,71,1
Bhengel,89,3
Jila Chikitsalya,84,3
Naya Habaitpur,126,10
Dayanatpur,108,10
Mangrolee,194,1
Uncha Amipur,149,2
Lodana,195,8
Bilaspur,163,8
Dhoom Manikpur,58,7
Dolla Rajpura,146,1
Dadri Main,116,2
Chauroli,106,8
Girdharpur,51,8
Baadauli,88,9
PHC-Jever,191,8
Dhanori Kalna,114,10
Chipyanna,81,7
Bilaspur,195,7
Sect- Gama ( G. Noida),118,9
Bhaipur,69,4
Roja Yakubpur,143,6
Bilaspur,71,8
Ranoli Latifpur,174,5
Dujana,55,5
Sultanpur,126,9
Uncha Amipur,163,5
Atta Fathepur,100,2
Patari,150,4
Khagoda,173,9
Acchepur,142,1
Aamka,74,1
Kaundli,146,7
Veerampur,137,4
Chidolli,67,2
Badalpur,161,7
Aamka,173,7
Salampur Gurjjar,138,7
Harola,179,5
Birondi,176,7
Babawar,152,3
Accheja,116,6
Khera Mohamdabad,130,8
Sumitra Hospital,61,3
Nayabansh Uphc,75,6
Uphc Chipyana,173,3
HOSIYARPUR UPHC,170,9
Sadarpur UPHC,117,2
Tigri UPHC,138,5
Bhangel UPHC,130,8
Barola UPHC,178,4
SURAJPUR UPHC,118,1
TUGALPUR UPHC,107,3
DADRI UPHC,192,5
RAIPUR UPHC,142,9
SARFABAD UPHC,155,1
Chouda Raghunathpur sec.22 UPHC,70,10
Mirjapur,65,2
Jonchana,97,8
Sect- Alfa (G. Noida),189,1
Bishara,113,10
Chithera,189,2
Rampur Khadar,108,1
Sainthli,61,5
Dujana,125,10
Mamura,93,3
Rilkha,110,7
Mirjapur,85,1
Luharli,50,2
Nagla Charandas,75,8
Sadonpur,139,7
Dadupur,78,4
Babawar,77,7
Kulashra,175,2
Surajpur,106,4
Kaasna,141,9
Cheeti,91,2
Neemka,107,10
Barola,92,4
Maycha,126,8
Nithari,104,5
Kamralla Chakrsenpur,137,3
Bahlolpur,169,8
Khandera,110,7
Rohi,153,5
Gopal Garh,82,7
Makoda,66,9
Sabotta,121,10
Jarcha,65,4
Vaidpura,94,9
Bisrakh,183,9
Kalonda,117,10
Patari,152,4
Mandi Shyam Ng.,180,10
Silarpur,195,5
Cheeti,117,1
Sadonpur,199,4
Chhelera,133,3
Nawada,190,4
Sadarpur,76,2
Ellaha Bas,199,4
Sect- Beeta (G. Noida),125,3
Gangholla,52,8
Naya Haibatpur,50,10
Salarpur,142,1
Basantpur,147,9
Barola,142,6
Roneeja,75,1
Chithera,138,8
Devta,195,4
Makoda,163,2
Mirjapur,115,6
Ranhera,198,2
Chhaproli - Mangroli,175,5
Navada,161,10
Rampur Khadar,169,5
Mahmoodpur Jaddon,95,4
Sadarpur,74,1
Chauna,90,8
Thapkheda,62,1
Hosiyarpur,55,9
Chhaprola,83,6
Maycha,196,7
Upralsi,153,6
Cholas,196,9
Piyawali,71,3
Jahanagirpur,197,10
CHC-Dadri,159,1
Bankapur,171,10
Mandi Shyam Nagar,130,9
Junpat,191,5
Basantpur,71,9
Piyawali,137,10
Junpat,52,3
Paarsol,188,5
Dankaur,115,5
Chipyana,161,8
Garhi Chokhandi,94,9
Kamralla Chakrsenpur,97,3
New PHC,113,8
Latifpur,177,6
Khagoda,186,2
Gorhi Bacchera,141,2
Kani Garhi,163,5
Gijhode,171,9
Sorkha,133,8
Rabupura,136,6
Mandi S-C,191,2
Aakalpur,170,6
Raipur Bangar,52,9
Thapkheda,87,8
Kureb,194,10
Kalonda,108,5
Bilaspur,171,6
Khatana,88,1
Dankaur,171,4
Kanarsi,112,5
PHC-Bisrakh,165,1
Khedi,81,9
Nagla Hukum Singh,167,1
Salarpur,94,6
Bishara,192,9
Khanpur,190,3
Achheja,140,1
Thora,81,3
Koodi Khera,60,9
Jevar Main,99,3
Birondi,68,5
Phelleda,180,4
Mahendipur,186,9
Naya Bass,90,1
Dadri,124,5
PHC-Dankaur,176,4
Atta Sector - 19,159,4
Kishorpur,154,9
Kheri,152,5
Rampur,179,7
Bodaki,94,2
Raipur Bangar,138,4
Chijarshi,132,5
Dujana,171,4
Khandera,148,10
Choda Raghunathpur,127,5
Gorhi Bacchera,87,6
Chanchli,76,1
Bodaki,198,6
Koodi Khera,163,3
Kot,104,4
Kot,134,2
Chiti,60,4
Chidolli,161,7
Tugalpur,154,7
Barola Sub Center,79,8
Ranoli Latifpur,57,4
Rampur Khadar,52,7
Cholas,94,6
Dhoom Manikpur,182,7
Luharli,112,4
Main Center Bisrakh,52,6
Silarpur Kalana,190,9
Nai Basti Barangpur,115,5
Bhengel,51,7
Jila Chikitsalya,84,4
Naya Habaitpur,118,2
Dayanatpur,91,6
Mangrolee,193,3
Uncha Amipur,76,9
Lodana,116,6
Bilaspur,109,4
Dhoom Manikpur,120,5
Dolla Rajpura,77,3
Dadri Main,192,9
Chauroli,127,5
Girdharpur,184,5
Baadauli,147,5
PHC-Jever,116,6
Dhanori Kalna,155,2
Chipyanna,166,8
Bilaspur,94,2
Sect- Gama ( G. Noida),59,6
Bhaipur,113,4
Roja Yakubpur,92,9
Bilaspur,143,7
Ranoli Latifpur,108,3
Dujana,194,10
Sultanpur,199,3
Uncha Amipur,101,7
Atta Fathepur,151,4
Patari,67,1
Khagoda,141,2
Acchepur,64,10
Aamka,62,9
Kaundli,122,6
Veerampur,140,5
Chidolli,173,8
Badalpur,101,3
Aamka,138,2
Salampur Gurjjar,166,5
Harola,61,8
Birondi,104,8
Babawar,197,7
Accheja,151,6
Khera Mohamdabad,190,7
