Health Facility Name,Number_Of_Beds,Rating
Kandi Sub Divisional Hospital,88,1
Jangipur Sub Divisional Hospital,98,8
LALBAGH Sub Divisional HOSPITAL,95,1
Parshalika SC,104,5
Bagdanga PHC,140,9
Bhagirathpur BPHC,51,9
Hariharpara SC,181,7
Housenagar SC,59,7
2 NO. NPCC Colony SC,65,8
Panchthupi PHC SC,138,6
Ghaneshyampur SC,65,3
Jalangi RCH SC,62,10
Hikampur SC,110,10
Rousanagar SC,183,7
Amarpur  SC,136,9
Guripara SC,104,1
Goghata SC,88,2
Char Rajanagar SC,93,3
Banneswar  SC,101,3
Purandarpur SC,132,5
Singer SC,63,1
Ranipur SC,132,6
Chamapara SC,92,1
Bharatpur SC,130,7
Bokhara-II GP  SC,166,8
Gobardhandanga  SC,57,1
Swarnahati SC,141,8
Komnagar SC,151,6
Khamardiar SC,192,8
Popara  SC,163,7
Prosadpur S.C.,175,9
Sripur  SC,169,5
Uttar Md.pur SC,115,8
Amarpur SC,133,8
Juginda SC,166,4
Swaruppur  SC,115,8
Herampur P.H.C.,92,6
Bagdanga SC,124,4
Sundipur SC,78,3
Arjunpur P.H.C.,88,3
Nidhinagar SC,68,3
Natungram  SC,176,2
Ahiran B.P.H.C.,169,10
Chh. Paschimpara SC,157,2
Bagore SC,103,2
Patikabari PHC SC,96,1
Jotkamal SC,161,10
Saralpur GP HQ SC,76,4
Masurdanga  SC,183,5
Krishnamati SC,164,7
Gopipur  SC,78,7
Mirjapur SC,180,2
Diar Raninagar  SC,105,9
Natunganj  SC,74,8
Dakshinnagar GP HQ SC,70,6
Islampur GP HQ SC,162,7
Farakka B.P.H.C.,178,2
Tartipur SC,52,2
Uplai SC,95,3
Jalangi GPHQ SC,108,10
Ramnagar SC,119,1
Rajdharpur,88,3
Tildanga SC,150,5
Dahina  SC,54,4
Parulia PHC SC,159,10
Nazirpur  SC,149,10
Amtala RH SC,156,7
Suparigola SC,199,8
Kagram P.H.C.S.C.,122,2
Bahadurpur  SC,169,5
Dayarampur SC,177,10
Mirzapur  (S) SC,59,4
Godapara SC,77,3
Pomaipur SC,124,5
Bundainagar SC,156,4
Balida Pukur SC,199,7
Talgram SC,83,1
Perdier GP HQ SC,121,5
Dewansarai SC,143,2
Jitpur  SC,119,1
Margram PHC HQ SC,75,7
Aurangabad-II GP SC,68,2
Tintina SC,118,7
Roypur SC,199,4
Talibpur P.H.C.S.C.,117,1
Srikrishnapur SC,185,2
Rainda SC,106,2
Gudhia  SC,194,5
Mahesasthali SC,60,8
Nonadanga  SC,81,2
Dohali SC,166,7
Jhilli P.H.C.,134,9
Gajdharpara SC,176,4
Akheriganj GP HQ SC,94,8
Sundarpur P.H.C.,73,10
Hillora  SC,98,5
Salar B.D.O. Office   S.C.,73,5
Bokhara-I GP    SC,99,2
Kushaberia GP HQ SC,158,6
Azadnagar SC,147,6
Doulatabad SC,62,9
Kodbeltala SC,53,7
Gobindapur SC,79,2
Monigram P.H.C.,50,6
Nowda(HQ) SC,92,4
Gholla SC,54,10
G- Mahismara SC,78,6
Laxminarayanpur SC,65,6
Saspara SC,73,4
Illimpur SC,175,9
Naith SC,168,2
Benipur  SC,92,6
Sonatikury  SC,185,4
Damdama SC,196,5
Binodia SC,163,4
Ghosh Para S.C.,165,2
Islampur SC,174,1
Pulinda RCH SC,108,5
Dewanpara SC,77,2
Sagardighi Rural Hospital,84,8
Parulia P.H.C.,86,6
Fulpur P.H.C.,112,8
Andulberia P.H.C.,180,10
Sahajadpur SC,148,2
Paharpur SC,162,2
Habaspur GP SC,130,4
Fatullapur  SC,120,2
Kashipur SC,168,4
Suki SC,63,10
Goaljan SC,109,3
Faridpur P.H.C.,138,9
Bochadanga SC,153,4
Sripore SC,155,7
Mohestala SC,155,9
Sulitala SC,150,4
Sankarpur  SC,131,5
Kulgachi GP SC,88,4
Bogdadnagar GP SC,62,6
Sita Nagar SC,81,2
Monigram  SC,151,4
Tilipara SC,113,6
Natun-Swaruppur  SC,182,4
Md Pur GP SC,99,3
Kirtipur HQ SC,70,3
Amtala SC,132,8
Mohisar HQ SC,154,4
Barala  SC,83,3
Nagar East(Murcha) SC,86,9
Alaipur SC,139,8
Batikamari SC,185,9
Khosbaspur SC,50,8
Boyra SC,179,8
Jhilli  SC,141,1
Durgapur SC,122,4
Komodda SC,198,5
Kayor  SC,132,6
Hurshi P.H.C.,131,4
Benipur SC,58,4
Herampur (H.Q) SC,165,2
Pathanpara  SC,176,1
Satui  SC,90,9
Kunia SC,120,3
Gankar P.H.C.,74,3
Sahajadpur  SC,158,10
Kapasdanga RCH SC,59,6
Gopo Gram S.C.,190,8
Bhandara SC,137,7
Kanfala SC,106,7
Tenya P.H.C.S.C.,82,4
Nagrar West SC,133,1
Burwan SC,171,7
Nowda  SC,123,1
Dhulauri SC,142,1
Tejsinghapur SC,137,1
Shahpur SC,152,5
Sekhalipara SC,146,2
Ramakanta Pur  SC,139,2
Kumarpara SC,100,1
Sagarpara PHC SC,63,1
Jitpur PHC SC,174,7
Nabakantpur SC,127,5
Majiara SC,189,3
Bajegopalnagar SC,167,10
Katakopra SC,146,3
Nagra SC,105,4
Mazlishpur SC,149,10
Nashipur BPHC  SC,171,1
Babupur SC,55,1
Lalgola SC,98,4
Sankopara/Jigri SC,106,10
Narashinghapur GP Hq. SC,56,4
Raipur GP HQ SC,59,6
Habaspur PHC SC,105,10
Manindranagar SC,98,2
Lalnagar SC,104,7
Sidhori  SC,54,1
Joypur SC,94,9
Maniknagar SC,71,5
Janpur R.C.H. SC,134,1
Narikelbari SC,135,2
Jhowbona  SC,106,6
Baligram GP HQ (Ranitala) SC,103,10
Siborambati SC,160,6
Kabilpur  H.Q  SC,176,7
Munsipara SC,114,7
Tilipara SC,182,3
Bansgara SC,178,4
Jugsara SC,184,5
Islampur SC,93,3
Imamnagar SC,198,3
Antardipa SC,179,8
Salu R.C.H.S.C.,105,3
Mirzapur  (Mid) SC,131,1
Baisnabpara GP HQ SC,138,5
Ranjitpur SC,63,8
Jarur SC,166,9
Lochanpur (H.Q) SC,123,3
Char Daulatpur SC,183,10
Shyamnagar RCH SC,88,9
Khidirpur SC,80,8
Elliotnagar SC,161,8
Patikabari PHC,119,4
Fulpur PHC  SC,149,6
Amarkunda,195,4
Mandra SC,131,10
Ramnagar  SC,80,10
Laskarpur SC,95,10
Aoucha S.C.,128,10
Kharjuna (Sabaldaha) P.H.C.,128,2
Ramchandropur SC,175,9
Sarmastipur R.C.H. S.C.,180,4
Chandpara  SC,81,8
Kagram PHC,172,9
Amaniganj Diar SC,74,8
Dalua SC,161,10
Barala  SC,119,4
Shibchandrapur SC,114,9
Chandnidaha  SC,61,1
Karandi SC,125,4
Kaharpara SC,137,5
Mirzapur RCH SC,60,7
Nawpara SC,135,8
Shibnagar SC,88,9
Chupore SC,175,9
Bahara SC,120,7
Hazipur SC,180,10
Sahabnagar  SC,197,9
Bindugram SC,114,8
Baze-gajipur  SC,68,7
Goas  SC,196,8
Andharmanik SC,125,2
Mukundabag SC,148,2
Alinagar SC,81,2
Chaksapur  SC,130,2
Sahebrampur SC,179,1
Padamkandi(HQ)  SC,190,3
Sundarpur Vill  SC,63,5
Sherpur  SC,89,1
Sahebnagar RCH SC,129,7
Nalbatta  SC,99,8
Kajipara SC,56,10
Amuha   SC,82,2
Banshabati  SC,74,5
Ajimganj P.H.C.,147,5
Ujir - Momintola SC,155,5
Loknathpur  SC,129,10
Kashipur SC,120,5
Maniknagar   SC,79,4
Manikchak SC,124,8
Jamna SC,189,1
Harevaktopur SC,145,7
Amdahara SC,102,7
Jajan SC,199,9
Dhanirampur G.P HQ SC,152,2
Khoribona GP HQ SC,172,4
Beldanga  BPHC SC,76,2
Tikarbaria SC,64,4
Ratanpur (Bibi Nagar) SC,55,7
Suryapur SC,98,8
Rajnagar SC,190,6
Madhurkul GP HQ SC,61,5
Andulberia RCH SC,59,4
Charlabangola SC,189,10
Mukundapur SC,93,4
Malopara  SC,114,6
Hiranandapur  SC,180,4
Kodla SC,57,5
Jaypur RCH  SC,196,1
Itore,147,2
Ajmatpur SC,160,2
Khanabari SC,85,2
Madartala SC,114,7
Kebalrampur SC,162,10
Dangapara P.H.C.,138,8
Anantapur S/C,163,10
Balanagar  SC,117,10
Dasturhat  SC,104,3
Mahula PHC SC,77,10
Mehedipara GP HQ SC,82,8
Daskhin  Raipur SC,100,8
Rajarampur SC,84,3
Ghorsala  SC,91,8
Khodarampur SC,164,4
Sadikhans Dearh Rural Hospital,133,3
Sultanpur SC,98,4
Hareknagar Majhpara SC,156,3
Mahula PHC,175,7
Laxmikantapur SC,68,10
Bahara P.H.C.,136,5
Jotkanai GP HQ SC,58,10
Kunchgaria RCH SC,100,7
Indranagar SC,128,2
Sahabajpur GP HQ SC,132,4
Sabitrinagar SC,159,4
Biprosekhar SC,105,5
Seuli SC,150,5
Palsanda SC,123,8
Nabagram SC,112,2
Kazisha Mohanpur SC,52,7
Goas Sarkarpara SC,52,7
Bajitpur G.P SC,75,7
Kutubpur SC,63,10
Kiriteswari SC,104,6
S.Gouripur  SC,163,2
Purba Mondalpara SC,149,4
Ghugridanga  SC,113,5
Senpara SC,128,8
Debkundu (N) SC,167,7
Kanchantala GP SC,151,1
Dopukuria SC,129,8
Kantanagar   SC,162,4
Kuligram SC,113,5
Chowrigachha P.H.C.,157,5
Amtala Rural Hospital,192,6
Godhanpara BPHC,158,5
Bauripuni  SC,76,6
Debpur  SC,168,2
Gurulia SC,101,6
Nowda SC,131,2
Beharia SC,160,5
Krishnapur SC,155,2
Kulidear Char SC,141,4
Jiakharda SC,66,1
Pearapur RCH SC,184,8
Panchthupi P.H.C.,135,4
Adaityanagar SC,91,8
Uttar Mahammadpur P.H.C.,115,3
Debidaspur SC,62,10
Kedarchandpur-I(HQ) SC,197,2
Udaychandpur  SC,144,3
Kumrapur SC,109,3
Garaimari PHC,101,9
Jodupur  SC,171,8
Kamurdiar SC,133,9
Nayagram  SC,85,2
Natunpara RCH  SC,75,1
Jorpukuria SC,93,3
Sarangpur SC,191,2
Belkhoria  SC,113,10
Kantanagar GP SC,68,2
Ramnarayanpara SC,168,2
Kuricha SC,64,3
Baje-Gajipur P.H.C.,194,8
Sundarpur PHC SC,96,4
Aurangabad PHC SC,178,4
Masla SC,145,9
Bhatsala SC,78,5
Chak  SC,152,2
Ramnagar Sarkarpara  SC,130,5
Mobarakpur   SC,135,9
Benipur SC,95,7
Saktipur BPHC SC,183,2
Garaimari SC,65,10
Rakhaldaspur SC,162,10
Joyrampur SC,92,1
Singeswari-Gouripur P.H.C.,146,2
Saktipur BPHC,109,6
Jagtai-I  SC,180,9
Amirabad P.H.C.,132,7
Gayespur SC,169,5
Begunbari SC,176,6
Gantla SC,124,3
Tungi PHC SC,143,3
Patikabari (HQ) SC,120,9
Kurunnarun SC,92,1
Shibnagar SC,87,6
Hazarpur Nabagram SC,168,3
Pirtala SC,110,7
Kabilpur  SC,152,9
Kandra S.C.,91,9
Nayabahadurpur  SC,89,6
Sundarpur GP SC,155,3
Moregram  SC,119,7
Alugram SC,174,2
Harispur SC,105,1
Choa  SC,132,9
Hamid hati Pilkhundi S.C.,188,7
Bhaluipara SC,103,3
Sargachhi SC,67,7
Solua SC,51,1
Katnai  SC,60,1
Baruipara SC,100,8
Aminabad SC,127,8
Mahesail-II G.P SC,124,10
Kalabag SC,81,7
Karnasubarna  SC,154,2
Lalkuthi P.H.C.,171,10
Hatinagar SC,126,5
Ranjitpara  SC,93,1
Jhikarhati SC,156,7
Baharan P.H.C.,87,9
Sarbeswarpur SC,69,7
Brahmangram SC,198,7
Beniagram SC,199,9
Bohora R.C.H. S.C.,126,3
Sarbangapur P.H.C.,187,3
Char Bansgara SC,78,3
Beldanga BPHC,191,1
Mahalandi SC,146,4
Monikandra SC,85,1
Munsurpur SC,187,5
Jalalpur SC,188,8
Protapganj GP SC,118,5
Ballalpur SC,124,7
Habaspur P.H.C.,170,8
Ganeshpur  SC,181,2
Sannyashidanga SC,148,8
Banjetia SC,181,1
Harish Chandrapur SC,131,10
Nimtita RCH GP HQ  SC,111,8
Majhpara  SC,145,1
Bali-I / Ratanpur(HQ) SC,124,9
Murshidabad Medical College,140,7
Ramna Etbernagar GP HQ SC,54,8
Kharsadanga SC,95,3
Amaipara SC,126,5
Amjua SC,145,10
Simuldanga SC,93,8
Pirtala SC,81,4
Maharajpur SC,136,3
Doulatpur SC,55,7
Krishnapur Rural Hospital,128,4
Simanapara,149,8
Basudebpur GP Hq. SC,198,1
Polladanga RCH SC,186,1
Asanpur SC,144,3
Balirghat  SC,152,3
Kamalchak SC,136,4
Khargram HQ SC,58,3
Paschimgamini SC,150,7
Sompara SC,186,7
Dobapara SC,150,8
Jalbandha  SC,85,1
Sonatikuri SC,188,5
Kuli PHC SC,67,4
Topidanga SC,123,9
Kholabari SC,199,5
Kazisha RCH SC,166,10
Hosnabad SC,166,3
Atai SC,183,6
Gangadhari SC,172,1
Alampur SC,114,3
Char Harudanga SC,107,7
Jaladipur  SC,187,5
Oper-orahar P.H.C.,107,2
Eroali RCH HQ SC,128,6
Saharbati SC,165,6
Aurangabad P.H.C.,110,7
Gaisabad SC,137,7
Balarampur SC,87,8
Srihatta SC,115,2
Mahesail RH,136,8
Kiriteswari P.H.C.,171,2
Politapara SC,107,9
Jhowbona SC,79,2
Talibpur P.H.C.,57,2
Chaitanyapur PHC,138,1
Bahara SC,129,3
Khamarpara SC,158,7
Khatua  SC,160,5
Palashi  SC,170,8
Sujapur SC,149,10
Chhatai SC,125,6
Margram P.H.C.,144,9
Ujunia S.C.,113,3
Ruhia SC,171,4
Kacharipara SC,193,2
Khamarmati  SC,141,6
Hari Shankarpur SC,103,2
Sabdarnagar PHC SC,121,1
Kanapukur BPHC SC,181,6
Omrapur SC,135,10
Abdulpur SC,179,1
Jagannathpur SC,165,10
Kirtoniapara SC,165,7
Rajdharpara SC,74,7
Barshimul SC,182,7
Kumarsanda SC,53,10
Bhagirathpur BPHC SC,174,6
Bhabanipur SC,111,5
Khargram Rural Hospital,199,7
Sanmatinagar SC,73,8
Bhairobtola SC,88,6
Paikmari SC,178,8
Jibanti  SC,197,10
Gangapur SC,98,9
Putimari P.H.C.,122,3
Siteshnagar SC,188,10
Sompara P.H.C.,114,6
Sankoghat SC,84,7
Bhabanibati SC,69,9
Ch Paikmari SC,133,7
Tofapur SC,89,10
Nimtala SC,105,9
Palsanda SC,78,8
Kanapukur BPHC,177,4
Arjunpur SC,134,4
Garaimari PHC SC,90,4
Kapasdanga  SC,163,7
Chowatore SC,155,8
Indrani P.H.C.,128,8
Kutubpur SC,74,10
Chandigram  SC,122,9
Bhabanipur SC,55,8
Diarfatepur SC,113,2
Kalgram SC,124,1
Kundal SC,145,10
Patkeldanga  SC,146,6
Bejpara SC,184,10
Hasnabad  SC,81,6
Ghoraipara  SC,61,8
Goraipur SC,53,1
Bahutali P.H.C.,178,1
Sadi Khan Dearh BPHC SC,74,9
Lohadaha SC,197,2
Kuthirampur GP SC,169,8
Harua  SC,186,2
Beniakhali SC,84,5
Bidupur SC,189,7
Foridpur PHC SC,176,4
Salar B.P.H.C. S.C.,119,9
Islampur Rural Hospital,98,6
Mojhampur SC,77,9
Ghoramara-Mohismara P.H.C.,194,10
Bachra SC,141,2
Rejinagar SC,132,1
Hanumantanagar GP SC,187,10
Nowdapara SC,153,6
Gura  SC,167,10
Modna  SC,145,6
Laxmipur GP SC,85,3
Palsa SC,72,7
Sabalpur SC,190,2
Ayeshbag  SC,121,10
Kharkati SC,62,7
Gahilbari SC,168,6
Mahammadpur SC,134,10
Najirpur  SC,157,10
Durlavpur SC,190,6
Dakshin Khanda  S.C.,112,10
Talibpur S.C.,137,8
Lachanpur SK Para  SC,173,3
Nashipur B.P.H.C.,54,1
Putimari PHC SC,71,4
Tantibirol  SC,76,9
Kalitaladiar SC,68,5
Gopegram SC,181,2
Madhya Goribpur SC,182,7
Khagraghat SC,60,4
Jasohari SC,76,6
Sahadiar SC,161,1
Hukahara RCH SC,113,3
Gangadhari P.H.C.,165,2
Hitanpur SC,149,3
Srikantapur SC,108,4
Kalitala RCH   SC,192,7
Kasiadanga SC,117,9
Ramdaspur  SC,141,9
Jahangirpur SC,85,7
Bharowa RCH SC,71,7
Paharpur (H.Q) SC,65,10
Anupnagar BPHC,70,9
Raghunandanpur SC,175,2
Badua SC,100,2
Pilkhana SC,76,8
Pachula SC,188,5
Ramkrishnapur  SC,189,4
Bilpochakopra PHC SC,151,3
Nischintapur SC,103,10
Gopalpur SC,174,9
Bhagwanpur SC,103,3
Banti SC,151,9
D.Balagachi  SC,194,5
Ishanpur SC,126,9
Nashipur GP HQ SC,120,5
Suryapur P.H.C.,99,1
Ghoshpara GP Hq. SC,67,2
Bagdahar  SC,157,3
Indrani PHC HQ SC,186,5
Gokarna SC,103,1
Bahagalpur SC,170,2
Purapara SC,84,9
Basantapur  SC,178,2
Khidirpur SC,77,4
Sherpur SC,77,6
Jhikra SC,133,6
Nabagram SC,71,5
Joggeswarpur  SC,64,9
Domkal Sub Divisional Hospital,76,3
Rukanpur SC,177,3
Bagirapara P.H.C.,99,4
Dogachhi Noapara GP HQ SC,116,1
Madhupur SC,81,7
Chuapukur SC,188,1
Sukdebmati  SC,174,5
Bajitpur SC,185,4
Harhari Sag  GP  SC,170,2
Rajnagar  SC,121,6
Kolan PHC,165,8
Dafar Pur  SC,94,4
Chatra SC,72,4
Manikyahar SC,105,2
Dangapara SC,134,5
Bali RCH SC,177,10
Jafarganj SC,83,3
Malancha GP SC,117,3
Sahajadpur SC,76,2
Orahar PHC SC,135,3
Panchgram P.H.C.,97,6
Sarbangapur (HQ) SC,137,3
Bagirapara SC,144,10
Nabingram SC,124,1
Palashbati SC,181,6
Rameswarpur RCH SC,72,5
Indradanga  SC,166,8
Namo-Chachanda SC,193,6
Krishnapur Dinurpara P.H.C.,193,2
Baidyapur  SC,54,1
Jiterpur  SC,76,2
Tenya P.H.C.,145,9
Sujnipara  SC,54,2
Srihatti SC,97,8
Hatinagar P.H.C.,69,10
Baidyanathpur SC,124,7
Baharan SC,74,6
Bahadurpur SC,190,5
Dhanaipur SC,192,1
Rameswarpur SC,88,2
Tiktikipara SC,95,10
Sagarpara P.H.C.,58,3
Sadal HQ SC,134,4
Raninagar SC,177,7
Aurangabad-I G.P SC,62,3
Kanduri SC,97,8
Choa PHC,73,4
Kupila SC,155,1
Gholdoba SC,60,8
Dudsar SC,56,2
Kamalpur  SC,162,2
Karna Subarna B.P.H.C.,150,1
Khairtala SC,167,8
Sonarundi S.C.,71,6
Ratanpur SC,178,9
Kesore SC,94,5
Per Raghunathpur  SC,75,3
Sahora SC,126,3
Kanupur  SC,95,10
Gotha  SC,189,2
Anukha SC,123,8
Bhagwangola GP SC,155,3
Kuchiamora GP HQ SC,157,1
Shibtala SC,123,8
Raigram S.C.,152,10
Hariharpara B.P.H.C.,105,2
Hajipur  SC,118,4
Saktipur  SC,168,8
Simulia SC,60,2
Mahesail BPHC SC,53,10
Raghunathpur SC,138,10
Tungi P.H.C.,170,7
Uttar  Raipur  SC,64,4
Latiberpara SC,179,10
Khidirpur SC,196,2
Targram  SC,191,5
Debipur SC,142,8
Sarbangapur PHC SC,127,7
Kendua P.H.C.,89,10
Mandal Pur  SC,106,2
Char Bajitpur SC,154,4
Miyapur SC,194,10
Dhanaipur SC,148,5
Gangadaspara GP HQ SC,80,10
Nowpara  SC,182,5
Moya SC,155,9
Raninagar  SC,86,1
Nagrazole SC,118,10
Chowanpara GP Hq. SC,148,9
Bharatpur BPHC,188,1
Sk. Para SC,186,6
Debkundu  (S) SC,130,2
Chhetani SC,116,7
Ramakantapur  SC,154,6
Krishnanagar RCH SC,56,3
Kurulpara  SC,127,7
Brindabanpur SC,194,4
Godhanpara  SC,166,7
Dangapara  SC,98,1
Kalinagar SC,190,6
Bhasaipaikar GP HQ SC,89,1
Chhaitani SC,177,3
Jajan P.H.C.,148,7
Boardarpara  SC,78,3
Mahendrapur SC,123,9
Sijgram SC,140,3
Dakshin Mahadevnagar SC,131,5
Kuchidanga  SC,82,8
Kuthirampur RCH SC,188,8
Modanpur SC,111,7
Takipur SC,53,6
Debipur  SC,164,4
Bhadur RCH   SC,123,6
Baligram SC,121,3
Kharjuna PHC SC,198,9
Ankura SC,138,6
Subarna Mrigee SC,73,9
Katlamari PHC SC,193,7
Farakka B.P.H.C.  SC,109,9
Balia HQ SC,139,4
Godhanpara BPHC  SC,72,7
Zamindari SC,178,7
Ahiran Masjidpara  SC,184,5
Prosadpur  SC,56,3
Kariya  SC,164,4
Uttar Mahadevnagar SC,51,9
Beniagram P.H.C.,179,3
Dafarpur SC,129,10
Madapur SC,133,2
Barala P.H.C.,128,4
Diara  SC,103,10
Kaliganj SC,108,7
Madhupur(HQ) SC,182,5
Banipur SC,56,4
Patenda SC,122,5
Nimtala  SC,70,4
Sarala SC,144,10
Kumrai SC,113,8
Chitanyapur PHC   SC,72,3
Telduma SC,52,4
Bhakuri SC,157,9
Maheshpur SC,127,3
Boramosia SC,157,8
Nabagram B.P.H.C.,185,9
Baharan Sk. Para SC,150,2
Icchakhali SC,76,9
Rajapur RCH SC,182,2
Kadkhali SC,129,3
Barjumla SC,71,2
Niallishpara SC,60,5
Pundi  SC,51,2
Gokarna BPHC,159,1
Mohata SC,160,9
Gobindapur SC,65,3
Bilbari SC,53,6
Madda SC,114,8
Amirabad  SC,101,4
Rampara Nalahati  SC,134,1
Natundiar SC,119,8
Gobindapur SC,171,2
Kantakhali SC,171,8
Ramnagar Bachra P.H.C.,94,1
Naldahari SC,70,10
Juranpur SC,155,1
Uttar Gupinatpur SC,95,9
Damodarpur SC,52,8
Palashdanga SC,118,1
Balumati SC,93,2
Sahapur  SC,130,9
Nashipur SC,105,2
Kharera S.C.,150,2
Sitalpara SC,140,8
Chaltia SC,148,6
Lakshmikantapur P.H.C.,56,1
Bhatpara  SC,150,6
Horipur SC,197,1
Madhurpukur SC,62,1
Laskarpur SC,131,9
Purandarpur P.H.C.,86,4
Shyampur SC,103,4
Ecomba SC,108,4
Bazarpara SC,53,2
Nurpur  SC,150,3
Bhabanipur SC,148,3
Kalupur SC,132,4
Ratanpur RCH SC,198,8
Tentulia  SC,147,4
Tantipara SC,95,2
Uttarpara SC,88,3
Hilora P.H.C.,58,3
Mohammadpur P.H.C.,157,8
Nisadbag SC,63,10
Madhyam Mahadevnagar SC,151,10
Jhunka SC,132,5
Bhabta  (N) SC,145,3
Gouripur SC,95,9
Panchgram  SC,166,6
Paikpara SC,93,7
Khoyra SC,147,8
Teghari SC,193,9
Nazirpur  SC,176,10
Tarafrasulpur SC,73,9
Natun Hasanpur  SC,112,5
Rajnagar B.P.H.C.,98,10
Baishnabdanga  SC,172,4
Chachanda GP HQ SC,170,4
Simulia P.H.C.S.C.,188,7
Sahabad  SC,184,8
Jhillera SC,57,5
Saikhpara  SC,193,3
Palsanda P.H.C.,73,3
Nischantapur SC,98,9
Borojdihi  SC,189,8
Kutubpur RCH SC,189,3
Laxminathpur SC,125,6
Talai SC,189,2
Kolan-Radhakantapur P.H.C.,81,10
Katabari GP HQ SC,140,1
Kaladanga SC,138,1
Mithipur SC,88,8
Malopara  SC,114,4
Sabdarnagar P.H.C.,106,9
Ram Nagar  SC,136,9
Ahiran  SC,182,3
Andiron SC,72,6
Bainchitala SC,121,6
Murutia  SC,79,5
Dadpur SC,125,8
Jitpur PHC,133,5
Gopinathpur SC,74,5
Jiaganj Rural Hospital,141,1
Kendua SC,138,5
Vandarha SC,186,10
Jalukha SC,94,6
Mahaldarpara SC,111,9
Ashariadaha SC,182,8
Amlai SC,147,7
Domadi SC,128,5
Ghasipur SC,112,3
Kumarpur SC,97,10
Gojnipur  SC,64,5
Kanthalia  SC,109,8
Durlavpur SC,136,9
Godda  SC,105,9
Bekibagan (H.Q) SC,174,1
Bewa  SC,149,1
Bahadinagar  SC,190,1
Bahutali SC,78,3
Bangabari  SC,100,6
Kulgachhi SC,127,9
Laxmizola RCH SC,139,3
Balia  SC,87,7
Ramrampur SC,180,1
Jangipur Barrage  SC,68,1
Simulia P.H.C.,105,7
Parashpur SC,122,9
Punashi R.C.H. S.C.,128,6
Jitpurpara SC,184,2
Belgram SC,64,3
Kuli P.H.C.,141,5
Bhabta RCH SC,80,4
Burwan Rural Hospital,121,8
Sekendra SC,87,6
Daharpar SC,52,4
Shibnagar SC,173,2
Debaipur SC,181,6
Gobra SC,182,4
Suja Pur  SC,89,3
Padmanavpur  SC,184,3
Gangedda SC,127,10
Teghari B.P.H.C.,178,7
Tenkaraipur (H.Q) SC,94,5
Jadavpur  SC,58,8
Lalkuthi SC,67,6
Lochanmati  SC,193,9
Beliapara SC,126,3
Barafkhana  SC,152,1
Andulberia Colony SC,148,9
Patikabari North SC,87,10
Salar BPHC,106,1
Balutungi SC,100,9
Chowrigachha  SC,83,9
Laxminarayanpur  SC,85,4
Bilpochakopra PHC,191,2
Deputy Para  SC,111,4
Beldanga RH,151,3
Basudebkhali SC,127,2
Natungram SC,58,10
Sontosh Pur  SC,143,7
Hareknagar SC,171,4
Chanak,129,8
KD Para SC,198,10
Kamadpur SC,139,2
Muktarpur SC,152,1
Shakarghat SC,180,3
Ramnagarpara SC,65,4
Mirzapur Sitalpara SC,98,7
Bagdabra SC,125,2
Mothura pur  SC,178,2
Bhalkundi HQ SC,102,1
Madhunia SC,174,10
Bhagirathpur PHC,74,4
Chakpara SC,103,1
Katlamari PHC,185,2
Trimohini RCH SC,138,7
Kalyanpur SC,162,1
Charmahula  SC,127,2
Nejampur  SC,195,2
Barhatti S.C.,153,7
Jugore  SC,166,2
Miangram SC,130,5
Rajarampur P.H.C.,177,1
Birpara SC,102,6
Duttabarutia S.C.,86,9
Jagannathpur SC,197,6
Joyenpur  SC,188,2
Joyrampur SC,62,2
Lalkhandiar SC,95,8
Pananagar SC,138,5
Tarakpur SC,81,2
Mahammadpur SC,99,2
Monoharpur SC,104,10
Gankar  SC,199,6
Ghughupara SC,92,7
Amlai P.H.C.,131,3
Andi( Bahara) SC,78,4
Jasaitala SC,172,2
Kandi Sub Divisional Hospital,104,7
Jangipur Sub Divisional Hospital,99,4
LALBAGH Sub Divisional HOSPITAL,94,4
Parshalika SC,127,7
Bagdanga PHC,88,7
Bhagirathpur BPHC,141,7
Hariharpara SC,122,2
Housenagar SC,80,8
2 NO. NPCC Colony SC,173,9
Panchthupi PHC SC,151,2
Ghaneshyampur SC,141,1
Jalangi RCH SC,161,7
Hikampur SC,121,6
Rousanagar SC,80,1
Amarpur  SC,184,4
Guripara SC,104,6
Goghata SC,159,4
Char Rajanagar SC,197,4
Banneswar  SC,80,3
Purandarpur SC,65,3
Singer SC,141,6
Ranipur SC,62,3
Chamapara SC,119,3
Bharatpur SC,198,1
Bokhara-II GP  SC,105,1
Gobardhandanga  SC,133,10
Swarnahati SC,193,4
Komnagar SC,135,1
Khamardiar SC,182,9
Popara  SC,149,7
Prosadpur S.C.,98,10
Sripur  SC,50,5
Uttar Md.pur SC,72,2
Amarpur SC,74,2
Juginda SC,112,10
Swaruppur  SC,97,2
Herampur P.H.C.,62,4
Bagdanga SC,192,6
Sundipur SC,50,9
Arjunpur P.H.C.,52,10
Nidhinagar SC,188,3
Natungram  SC,132,5
Ahiran B.P.H.C.,170,1
Chh. Paschimpara SC,157,3
Bagore SC,147,7
Patikabari PHC SC,75,3
Jotkamal SC,138,9
Saralpur GP HQ SC,176,8
Masurdanga  SC,144,6
Krishnamati SC,147,6
Gopipur  SC,149,6
Mirjapur SC,69,2
Diar Raninagar  SC,113,6
Natunganj  SC,134,8
Dakshinnagar GP HQ SC,145,2
Islampur GP HQ SC,145,4
Farakka B.P.H.C.,180,10
Tartipur SC,128,8
Uplai SC,167,10
Jalangi GPHQ SC,150,6
Ramnagar SC,76,3
Rajdharpur,125,8
Tildanga SC,127,6
Dahina  SC,110,7
Parulia PHC SC,53,5
Nazirpur  SC,78,8
Amtala RH SC,59,2
Suparigola SC,126,1
Kagram P.H.C.S.C.,88,7
Bahadurpur  SC,140,10
Dayarampur SC,164,3
Mirzapur  (S) SC,92,7
Godapara SC,164,6
Pomaipur SC,130,3
Bundainagar SC,84,6
Balida Pukur SC,136,5
Talgram SC,150,1
Perdier GP HQ SC,80,9
Dewansarai SC,121,1
Jitpur  SC,136,1
Margram PHC HQ SC,76,8
Aurangabad-II GP SC,150,2
Tintina SC,193,5
Roypur SC,138,9
Talibpur P.H.C.S.C.,131,5
Srikrishnapur SC,159,5
Rainda SC,58,8
Gudhia  SC,69,6
Mahesasthali SC,127,8
Nonadanga  SC,160,9
Dohali SC,60,10
Jhilli P.H.C.,157,1
Gajdharpara SC,187,4
Akheriganj GP HQ SC,148,6
Sundarpur P.H.C.,145,2
Hillora  SC,87,1
Salar B.D.O. Office   S.C.,109,1
Bokhara-I GP    SC,53,6
Kushaberia GP HQ SC,154,9
Azadnagar SC,123,7
Doulatabad SC,178,10
Kodbeltala SC,95,6
Gobindapur SC,174,3
Monigram P.H.C.,63,7
Nowda(HQ) SC,107,3
Gholla SC,133,4
G- Mahismara SC,167,2
Laxminarayanpur SC,74,2
Saspara SC,101,1
Illimpur SC,87,9
Naith SC,112,1
Benipur  SC,167,4
Sonatikury  SC,152,8
Damdama SC,94,10
Binodia SC,173,7
Ghosh Para S.C.,56,8
Islampur SC,148,5
Pulinda RCH SC,165,9
Dewanpara SC,137,8
Sagardighi Rural Hospital,67,3
Parulia P.H.C.,196,8
Fulpur P.H.C.,182,8
Andulberia P.H.C.,110,9
Sahajadpur SC,92,9
Paharpur SC,61,8
Habaspur GP SC,139,8
Fatullapur  SC,175,3
Kashipur SC,67,4
Suki SC,86,3
Goaljan SC,166,5
Faridpur P.H.C.,172,3
Bochadanga SC,65,6
Sripore SC,54,9
Mohestala SC,139,1
Sulitala SC,169,6
Sankarpur  SC,69,10
Kulgachi GP SC,53,4
Bogdadnagar GP SC,72,5
Sita Nagar SC,70,2
Monigram  SC,101,4
Tilipara SC,81,1
Natun-Swaruppur  SC,111,9
Md Pur GP SC,174,10
Kirtipur HQ SC,155,7
Amtala SC,187,6
Mohisar HQ SC,99,7
Barala  SC,144,3
Nagar East(Murcha) SC,155,6
Alaipur SC,108,7
Batikamari SC,188,8
Khosbaspur SC,134,3
Boyra SC,105,6
Jhilli  SC,198,2
Durgapur SC,62,2
Komodda SC,120,7
Kayor  SC,98,2
Hurshi P.H.C.,198,3
Benipur SC,172,4
Herampur (H.Q) SC,116,3
Pathanpara  SC,145,1
Satui  SC,109,5
Kunia SC,198,7
Gankar P.H.C.,66,2
Sahajadpur  SC,63,5
Kapasdanga RCH SC,101,6
Gopo Gram S.C.,120,9
Bhandara SC,63,2
Kanfala SC,130,6
Tenya P.H.C.S.C.,181,4
Nagrar West SC,187,1
Burwan SC,122,9
Nowda  SC,106,9
Dhulauri SC,119,10
Tejsinghapur SC,196,4
Shahpur SC,165,4
Sekhalipara SC,158,2
Ramakanta Pur  SC,145,2
Kumarpara SC,162,5
Sagarpara PHC SC,110,5
Jitpur PHC SC,91,7
Nabakantpur SC,154,3
Majiara SC,154,4
Bajegopalnagar SC,51,2
Katakopra SC,105,9
Nagra SC,68,3
Mazlishpur SC,164,9
Nashipur BPHC  SC,157,4
Babupur SC,105,5
Lalgola SC,69,9
Sankopara/Jigri SC,128,5
Narashinghapur GP Hq. SC,167,4
Raipur GP HQ SC,102,1
Habaspur PHC SC,115,8
Manindranagar SC,183,3
Lalnagar SC,66,8
Sidhori  SC,192,1
Joypur SC,118,10
Maniknagar SC,196,8
Janpur R.C.H. SC,86,4
Narikelbari SC,108,2
Jhowbona  SC,94,3
Baligram GP HQ (Ranitala) SC,199,3
Siborambati SC,192,6
Kabilpur  H.Q  SC,149,7
Munsipara SC,60,10
Tilipara SC,60,3
Bansgara SC,133,10
Jugsara SC,125,8
Islampur SC,96,3
Imamnagar SC,138,2
Antardipa SC,74,8
Salu R.C.H.S.C.,123,4
Mirzapur  (Mid) SC,88,10
Baisnabpara GP HQ SC,173,2
Ranjitpur SC,53,10
Jarur SC,80,1
Lochanpur (H.Q) SC,55,5
Char Daulatpur SC,132,7
Shyamnagar RCH SC,155,6
Khidirpur SC,146,2
Elliotnagar SC,180,8
Patikabari PHC,98,4
Fulpur PHC  SC,153,5
Amarkunda,82,7
Mandra SC,199,4
Ramnagar  SC,131,5
Laskarpur SC,122,10
Aoucha S.C.,121,10
Kharjuna (Sabaldaha) P.H.C.,100,2
Ramchandropur SC,77,9
Sarmastipur R.C.H. S.C.,98,3
Chandpara  SC,114,2
Kagram PHC,63,3
Amaniganj Diar SC,162,4
Dalua SC,77,5
Barala  SC,51,7
Shibchandrapur SC,189,6
Chandnidaha  SC,171,5
Karandi SC,108,4
Kaharpara SC,131,10
Mirzapur RCH SC,63,6
Nawpara SC,55,7
Shibnagar SC,70,5
Chupore SC,141,2
Bahara SC,86,6
Hazipur SC,116,9
Sahabnagar  SC,165,6
Bindugram SC,78,3
Baze-gajipur  SC,145,2
Goas  SC,64,1
Andharmanik SC,153,7
Mukundabag SC,72,1
Alinagar SC,82,9
Chaksapur  SC,52,4
Sahebrampur SC,134,10
Padamkandi(HQ)  SC,89,5
Sundarpur Vill  SC,158,10
Sherpur  SC,67,9
Sahebnagar RCH SC,57,10
Nalbatta  SC,165,6
Kajipara SC,148,3
Amuha   SC,168,3
Banshabati  SC,118,4
Ajimganj P.H.C.,110,6
Ujir - Momintola SC,112,3
Loknathpur  SC,163,8
Kashipur SC,60,6
Maniknagar   SC,171,6
Manikchak SC,107,4
Jamna SC,88,6
Harevaktopur SC,144,1
Amdahara SC,136,4
Jajan SC,114,3
Dhanirampur G.P HQ SC,180,1
Khoribona GP HQ SC,137,5
Beldanga  BPHC SC,180,4
Tikarbaria SC,100,4
Ratanpur (Bibi Nagar) SC,186,5
Suryapur SC,137,4
Rajnagar SC,148,1
Madhurkul GP HQ SC,186,8
Andulberia RCH SC,195,4
Charlabangola SC,96,4
Mukundapur SC,66,6
Malopara  SC,86,10
Hiranandapur  SC,58,2
Kodla SC,165,8
Jaypur RCH  SC,89,5
Itore,53,10
Ajmatpur SC,153,5
Khanabari SC,103,9
Madartala SC,63,8
Kebalrampur SC,163,3
Dangapara P.H.C.,193,8
Anantapur S/C,178,7
Balanagar  SC,81,5
Dasturhat  SC,198,7
Mahula PHC SC,126,6
Mehedipara GP HQ SC,111,9
Daskhin  Raipur SC,154,3
Rajarampur SC,113,8
Ghorsala  SC,65,6
Khodarampur SC,108,5
Sadikhans Dearh Rural Hospital,64,5
Sultanpur SC,190,8
Hareknagar Majhpara SC,170,6
Mahula PHC,51,3
Laxmikantapur SC,175,5
Bahara P.H.C.,129,5
Jotkanai GP HQ SC,182,6
Kunchgaria RCH SC,193,10
Indranagar SC,53,3
Sahabajpur GP HQ SC,137,9
Sabitrinagar SC,147,1
Biprosekhar SC,111,4
Seuli SC,181,9
Palsanda SC,188,4
Nabagram SC,195,6
Kazisha Mohanpur SC,142,7
Goas Sarkarpara SC,150,9
Bajitpur G.P SC,71,7
Kutubpur SC,98,9
Kiriteswari SC,89,9
S.Gouripur  SC,109,9
Purba Mondalpara SC,150,5
Ghugridanga  SC,51,1
Senpara SC,172,1
Debkundu (N) SC,77,6
Kanchantala GP SC,193,2
Dopukuria SC,78,6
Kantanagar   SC,178,2
Kuligram SC,170,7
Chowrigachha P.H.C.,105,9
Amtala Rural Hospital,196,1
Godhanpara BPHC,59,7
Bauripuni  SC,63,3
Debpur  SC,167,10
Gurulia SC,181,10
Nowda SC,160,4
Beharia SC,69,4
Krishnapur SC,137,7
Kulidear Char SC,77,9
Jiakharda SC,112,10
Pearapur RCH SC,135,10
Panchthupi P.H.C.,76,3
Adaityanagar SC,77,6
Uttar Mahammadpur P.H.C.,134,6
Debidaspur SC,82,10
Kedarchandpur-I(HQ) SC,70,10
Udaychandpur  SC,79,5
Kumrapur SC,119,1
Garaimari PHC,144,1
Jodupur  SC,110,1
Kamurdiar SC,130,8
Nayagram  SC,114,1
Natunpara RCH  SC,54,9
Jorpukuria SC,153,9
Sarangpur SC,71,10
Belkhoria  SC,129,6
Kantanagar GP SC,188,9
Ramnarayanpara SC,107,6
Kuricha SC,194,5
Baje-Gajipur P.H.C.,119,8
Sundarpur PHC SC,134,8
Aurangabad PHC SC,104,9
Masla SC,144,10
Bhatsala SC,179,9
Chak  SC,174,4
Ramnagar Sarkarpara  SC,58,2
Mobarakpur   SC,54,1
Benipur SC,72,5
Saktipur BPHC SC,165,9
Garaimari SC,126,6
Rakhaldaspur SC,58,10
Joyrampur SC,81,9
Singeswari-Gouripur P.H.C.,102,9
Saktipur BPHC,195,5
Jagtai-I  SC,82,4
Amirabad P.H.C.,146,10
Gayespur SC,63,4
Begunbari SC,89,4
Gantla SC,94,4
Tungi PHC SC,190,9
Patikabari (HQ) SC,96,6
Kurunnarun SC,195,9
Shibnagar SC,134,5
Hazarpur Nabagram SC,173,6
Pirtala SC,69,1
Kabilpur  SC,55,9
Kandra S.C.,73,8
Nayabahadurpur  SC,136,10
Sundarpur GP SC,66,6
Moregram  SC,162,4
Alugram SC,176,8
Harispur SC,116,8
Choa  SC,106,9
Hamid hati Pilkhundi S.C.,143,7
Bhaluipara SC,58,7
Sargachhi SC,110,6
Solua SC,129,1
Katnai  SC,94,3
Baruipara SC,142,1
Aminabad SC,178,3
Mahesail-II G.P SC,124,3
Kalabag SC,131,6
Karnasubarna  SC,180,6
Lalkuthi P.H.C.,68,6
Hatinagar SC,130,4
Ranjitpara  SC,63,8
Jhikarhati SC,115,3
Baharan P.H.C.,150,1
Sarbeswarpur SC,165,1
Brahmangram SC,125,7
Beniagram SC,193,9
Bohora R.C.H. S.C.,91,10
Sarbangapur P.H.C.,123,8
Char Bansgara SC,188,1
Beldanga BPHC,187,2
Mahalandi SC,142,2
Monikandra SC,125,6
Munsurpur SC,180,6
Jalalpur SC,191,9
Protapganj GP SC,120,3
Ballalpur SC,157,5
Habaspur P.H.C.,50,9
Ganeshpur  SC,196,5
Sannyashidanga SC,98,10
Banjetia SC,95,3
Harish Chandrapur SC,61,6
Nimtita RCH GP HQ  SC,76,7
Majhpara  SC,112,10
Bali-I / Ratanpur(HQ) SC,192,8
Murshidabad Medical College,121,8
Ramna Etbernagar GP HQ SC,180,4
Kharsadanga SC,101,3
Amaipara SC,83,1
Amjua SC,67,3
Simuldanga SC,143,10
Pirtala SC,149,8
Maharajpur SC,111,6
Doulatpur SC,194,5
Krishnapur Rural Hospital,98,6
Simanapara,99,9
Basudebpur GP Hq. SC,161,2
Polladanga RCH SC,144,6
Asanpur SC,85,7
Balirghat  SC,179,8
Kamalchak SC,122,1
Khargram HQ SC,56,2
Paschimgamini SC,175,5
Sompara SC,70,10
Dobapara SC,116,4
Jalbandha  SC,124,1
Sonatikuri SC,171,2
Kuli PHC SC,125,5
Topidanga SC,102,1
Kholabari SC,73,8
Kazisha RCH SC,119,8
Hosnabad SC,123,2
Atai SC,194,6
Gangadhari SC,182,4
Alampur SC,169,9
Char Harudanga SC,83,8
Jaladipur  SC,50,7
Oper-orahar P.H.C.,97,7
Eroali RCH HQ SC,131,6
Saharbati SC,113,3
Aurangabad P.H.C.,53,6
Gaisabad SC,124,7
Balarampur SC,177,6
Srihatta SC,121,9
Mahesail RH,129,10
Kiriteswari P.H.C.,179,5
Politapara SC,179,3
Jhowbona SC,171,8
Talibpur P.H.C.,112,5
Chaitanyapur PHC,68,4
Bahara SC,92,1
Khamarpara SC,182,10
Khatua  SC,106,6
Palashi  SC,138,6
Sujapur SC,149,7
Chhatai SC,121,10
Margram P.H.C.,72,9
Ujunia S.C.,53,10
Ruhia SC,70,3
Kacharipara SC,113,7
Khamarmati  SC,164,7
Hari Shankarpur SC,197,10
Sabdarnagar PHC SC,77,10
Kanapukur BPHC SC,84,4
Omrapur SC,197,5
Abdulpur SC,66,4
Jagannathpur SC,133,9
Kirtoniapara SC,83,8
Rajdharpara SC,163,1
Barshimul SC,183,2
Kumarsanda SC,59,1
Bhagirathpur BPHC SC,174,9
Bhabanipur SC,79,2
Khargram Rural Hospital,60,3
Sanmatinagar SC,70,3
Bhairobtola SC,95,7
Paikmari SC,50,5
Jibanti  SC,84,7
Gangapur SC,151,10
Putimari P.H.C.,149,2
Siteshnagar SC,151,9
Sompara P.H.C.,70,10
Sankoghat SC,169,10
Bhabanibati SC,102,5
Ch Paikmari SC,127,10
Tofapur SC,72,10
Nimtala SC,74,6
Palsanda SC,165,3
Kanapukur BPHC,127,2
Arjunpur SC,64,7
Garaimari PHC SC,151,8
Kapasdanga  SC,162,4
Chowatore SC,168,1
Indrani P.H.C.,156,3
Kutubpur SC,71,9
Chandigram  SC,184,3
Bhabanipur SC,108,6
Diarfatepur SC,87,4
Kalgram SC,155,7
Kundal SC,175,10
Patkeldanga  SC,160,4
Bejpara SC,145,8
Hasnabad  SC,137,8
Ghoraipara  SC,57,3
Goraipur SC,193,4
Bahutali P.H.C.,135,7
Sadi Khan Dearh BPHC SC,175,9
Lohadaha SC,146,9
Kuthirampur GP SC,183,5
Harua  SC,74,2
Beniakhali SC,152,4
Bidupur SC,100,9
Foridpur PHC SC,50,8
Salar B.P.H.C. S.C.,95,10
Islampur Rural Hospital,186,8
Mojhampur SC,59,3
Ghoramara-Mohismara P.H.C.,107,8
Bachra SC,172,2
Rejinagar SC,106,5
Hanumantanagar GP SC,173,6
Nowdapara SC,78,6
Gura  SC,147,3
Modna  SC,188,4
Laxmipur GP SC,74,10
Palsa SC,93,5
Sabalpur SC,64,9
Ayeshbag  SC,117,4
Kharkati SC,197,1
Gahilbari SC,109,8
Mahammadpur SC,172,3
Najirpur  SC,86,5
Durlavpur SC,164,3
Dakshin Khanda  S.C.,145,4
Talibpur S.C.,101,6
Lachanpur SK Para  SC,54,9
Nashipur B.P.H.C.,116,10
Putimari PHC SC,155,7
Tantibirol  SC,69,3
Kalitaladiar SC,76,3
Gopegram SC,157,7
Madhya Goribpur SC,59,2
Khagraghat SC,174,7
Jasohari SC,105,7
Sahadiar SC,112,1
Hukahara RCH SC,98,8
Gangadhari P.H.C.,135,10
Hitanpur SC,65,10
Srikantapur SC,81,1
Kalitala RCH   SC,82,7
Kasiadanga SC,193,6
Ramdaspur  SC,153,9
Jahangirpur SC,177,7
Bharowa RCH SC,121,1
Paharpur (H.Q) SC,150,2
Anupnagar BPHC,156,6
Raghunandanpur SC,56,2
Badua SC,113,1
Pilkhana SC,69,1
Pachula SC,145,10
Ramkrishnapur  SC,115,2
Bilpochakopra PHC SC,57,2
Nischintapur SC,142,5
Gopalpur SC,106,5
Bhagwanpur SC,166,7
Banti SC,127,4
D.Balagachi  SC,152,6
Ishanpur SC,106,6
Nashipur GP HQ SC,143,10
Suryapur P.H.C.,134,9
Ghoshpara GP Hq. SC,166,8
Bagdahar  SC,169,1
Indrani PHC HQ SC,181,5
Gokarna SC,110,2
Bahagalpur SC,130,10
Purapara SC,95,5
Basantapur  SC,177,5
Khidirpur SC,80,7
Sherpur SC,176,7
Jhikra SC,65,10
Nabagram SC,89,8
Joggeswarpur  SC,81,5
Domkal Sub Divisional Hospital,107,6
Rukanpur SC,129,4
Bagirapara P.H.C.,181,1
Dogachhi Noapara GP HQ SC,87,2
Madhupur SC,136,3
Chuapukur SC,106,9
Sukdebmati  SC,90,8
Bajitpur SC,173,4
Harhari Sag  GP  SC,89,10
Rajnagar  SC,104,3
Kolan PHC,140,10
Dafar Pur  SC,126,1
Chatra SC,98,10
Manikyahar SC,173,4
Dangapara SC,166,6
Bali RCH SC,94,6
Jafarganj SC,59,7
Malancha GP SC,189,4
Sahajadpur SC,122,7
Orahar PHC SC,80,4
Panchgram P.H.C.,63,10
Sarbangapur (HQ) SC,154,7
Bagirapara SC,196,3
Nabingram SC,139,9
Palashbati SC,197,4
Rameswarpur RCH SC,164,2
Indradanga  SC,114,7
Namo-Chachanda SC,178,9
Krishnapur Dinurpara P.H.C.,185,9
Baidyapur  SC,196,4
Jiterpur  SC,183,5
Tenya P.H.C.,185,4
Sujnipara  SC,173,1
Srihatti SC,108,10
Hatinagar P.H.C.,122,3
Baidyanathpur SC,148,6
Baharan SC,114,9
Bahadurpur SC,82,1
Dhanaipur SC,179,10
Rameswarpur SC,59,10
Tiktikipara SC,150,7
Sagarpara P.H.C.,131,7
Sadal HQ SC,131,4
Raninagar SC,53,6
Aurangabad-I G.P SC,157,1
Kanduri SC,121,5
Choa PHC,148,8
Kupila SC,85,1
Gholdoba SC,94,2
Dudsar SC,180,6
Kamalpur  SC,70,9
Karna Subarna B.P.H.C.,50,4
Khairtala SC,86,4
Sonarundi S.C.,153,5
Ratanpur SC,158,4
Kesore SC,154,10
Per Raghunathpur  SC,90,4
Sahora SC,57,2
Kanupur  SC,164,6
Gotha  SC,84,10
Anukha SC,153,3
Bhagwangola GP SC,63,5
Kuchiamora GP HQ SC,65,6
Shibtala SC,143,4
Raigram S.C.,129,8
Hariharpara B.P.H.C.,108,6
Hajipur  SC,185,9
Saktipur  SC,131,8
Simulia SC,50,1
Mahesail BPHC SC,97,2
Raghunathpur SC,90,8
Tungi P.H.C.,105,3
Uttar  Raipur  SC,99,2
Latiberpara SC,144,8
Khidirpur SC,141,6
Targram  SC,182,9
Debipur SC,160,6
Sarbangapur PHC SC,155,5
Kendua P.H.C.,179,8
Mandal Pur  SC,138,7
Char Bajitpur SC,77,3
Miyapur SC,78,4
Dhanaipur SC,57,10
Gangadaspara GP HQ SC,198,5
Nowpara  SC,90,5
Moya SC,193,2
Raninagar  SC,188,2
Nagrazole SC,132,4
Chowanpara GP Hq. SC,186,1
Bharatpur BPHC,59,6
Sk. Para SC,149,3
Debkundu  (S) SC,157,4
Chhetani SC,150,7
Ramakantapur  SC,66,9
Krishnanagar RCH SC,134,8
Kurulpara  SC,179,10
Brindabanpur SC,71,3
Godhanpara  SC,155,5
Dangapara  SC,112,2
Kalinagar SC,188,1
Bhasaipaikar GP HQ SC,60,5
Chhaitani SC,98,5
Jajan P.H.C.,56,4
Boardarpara  SC,123,3
Mahendrapur SC,117,7
Sijgram SC,197,3
Dakshin Mahadevnagar SC,86,6
Kuchidanga  SC,194,6
Kuthirampur RCH SC,57,9
Modanpur SC,59,2
Takipur SC,148,9
Debipur  SC,190,2
Bhadur RCH   SC,128,1
Baligram SC,95,4
Kharjuna PHC SC,186,6
Ankura SC,63,5
Subarna Mrigee SC,83,1
Katlamari PHC SC,115,6
Farakka B.P.H.C.  SC,142,4
Balia HQ SC,132,8
Godhanpara BPHC  SC,166,1
Zamindari SC,177,2
Ahiran Masjidpara  SC,84,1
Prosadpur  SC,117,10
Kariya  SC,86,9
Uttar Mahadevnagar SC,103,10
Beniagram P.H.C.,120,10
Dafarpur SC,97,1
Madapur SC,159,8
Barala P.H.C.,113,9
Diara  SC,83,9
Kaliganj SC,126,4
Madhupur(HQ) SC,137,1
Banipur SC,121,3
Patenda SC,176,3
Nimtala  SC,64,1
Sarala SC,138,6
Kumrai SC,143,8
Chitanyapur PHC   SC,170,6
Telduma SC,135,5
Bhakuri SC,104,4
Maheshpur SC,129,5
Boramosia SC,115,7
Nabagram B.P.H.C.,156,8
Baharan Sk. Para SC,146,10
Icchakhali SC,150,4
Rajapur RCH SC,70,6
Kadkhali SC,174,6
Barjumla SC,63,1
Niallishpara SC,117,9
Pundi  SC,180,3
Gokarna BPHC,190,1
Mohata SC,112,10
Gobindapur SC,121,9
Bilbari SC,75,6
Madda SC,171,2
Amirabad  SC,103,10
Rampara Nalahati  SC,150,6
Natundiar SC,193,9
Gobindapur SC,86,3
Kantakhali SC,169,6
Ramnagar Bachra P.H.C.,61,1
Naldahari SC,185,9
Juranpur SC,186,7
Uttar Gupinatpur SC,53,2
Damodarpur SC,132,9
Palashdanga SC,184,8
Balumati SC,74,10
Sahapur  SC,107,7
Nashipur SC,135,2
Kharera S.C.,180,10
Sitalpara SC,94,4
Chaltia SC,67,2
Lakshmikantapur P.H.C.,159,3
Bhatpara  SC,95,4
Horipur SC,173,9
Madhurpukur SC,105,5
Laskarpur SC,50,7
Purandarpur P.H.C.,78,2
Shyampur SC,119,9
Ecomba SC,184,7
Bazarpara SC,197,8
Nurpur  SC,170,2
Bhabanipur SC,93,6
Kalupur SC,188,3
Ratanpur RCH SC,171,5
Tentulia  SC,82,10
Tantipara SC,62,6
Uttarpara SC,102,7
Hilora P.H.C.,191,9
Mohammadpur P.H.C.,189,6
Nisadbag SC,180,9
Madhyam Mahadevnagar SC,97,3
Jhunka SC,186,3
Bhabta  (N) SC,190,2
Gouripur SC,118,3
Panchgram  SC,166,9
Paikpara SC,68,2
Khoyra SC,198,2
Teghari SC,108,3
Nazirpur  SC,72,6
Tarafrasulpur SC,193,4
Natun Hasanpur  SC,110,10
Rajnagar B.P.H.C.,169,7
Baishnabdanga  SC,95,8
Chachanda GP HQ SC,128,3
Simulia P.H.C.S.C.,186,5
Sahabad  SC,134,9
Jhillera SC,127,10
Saikhpara  SC,58,4
Palsanda P.H.C.,128,10
Nischantapur SC,101,1
Borojdihi  SC,168,7
Kutubpur RCH SC,126,4
Laxminathpur SC,96,6
Talai SC,110,2
Kolan-Radhakantapur P.H.C.,172,10
Katabari GP HQ SC,106,10
Kaladanga SC,158,5
Mithipur SC,192,2
Malopara  SC,97,8
Sabdarnagar P.H.C.,170,8
Ram Nagar  SC,90,10
Ahiran  SC,187,10
Andiron SC,157,10
Bainchitala SC,72,3
Murutia  SC,169,3
Dadpur SC,86,9
Jitpur PHC,184,6
Gopinathpur SC,153,9
Jiaganj Rural Hospital,172,8
Kendua SC,73,3
Vandarha SC,186,9
Jalukha SC,69,5
Mahaldarpara SC,105,6
Ashariadaha SC,62,9
Amlai SC,170,6
Domadi SC,83,10
Ghasipur SC,88,7
Kumarpur SC,97,4
Gojnipur  SC,154,2
Kanthalia  SC,180,5
Durlavpur SC,151,10
Godda  SC,65,1
Bekibagan (H.Q) SC,113,7
Bewa  SC,144,7
Bahadinagar  SC,177,3
Bahutali SC,133,8
Bangabari  SC,163,5
Kulgachhi SC,75,2
Laxmizola RCH SC,98,2
Balia  SC,174,5
Ramrampur SC,94,1
Jangipur Barrage  SC,64,10
Simulia P.H.C.,157,10
Parashpur SC,65,3
Punashi R.C.H. S.C.,96,4
Jitpurpara SC,109,9
Belgram SC,117,6
Kuli P.H.C.,118,9
Bhabta RCH SC,104,10
Burwan Rural Hospital,142,1
Sekendra SC,125,2
Daharpar SC,132,1
Shibnagar SC,184,4
Debaipur SC,74,2
Gobra SC,94,3
Suja Pur  SC,107,8
Padmanavpur  SC,154,10
Gangedda SC,106,3
Teghari B.P.H.C.,107,7
Tenkaraipur (H.Q) SC,86,5
Jadavpur  SC,93,10
Lalkuthi SC,147,7
Lochanmati  SC,167,9
Beliapara SC,175,7
Barafkhana  SC,104,6
Andulberia Colony SC,151,5
Patikabari North SC,92,10
Salar BPHC,51,9
Balutungi SC,174,4
Chowrigachha  SC,71,2
Laxminarayanpur  SC,127,3
Bilpochakopra PHC,133,2
Deputy Para  SC,169,7
Beldanga RH,72,3
Basudebkhali SC,152,10
Natungram SC,67,7
Sontosh Pur  SC,51,6
Hareknagar SC,127,4
Chanak,127,1
KD Para SC,159,10
Kamadpur SC,60,7
Muktarpur SC,133,3
Shakarghat SC,94,6
Ramnagarpara SC,116,5
Mirzapur Sitalpara SC,86,6
Bagdabra SC,52,6
Mothura pur  SC,115,5
Bhalkundi HQ SC,180,3
Madhunia SC,112,8
Bhagirathpur PHC,119,10
Chakpara SC,191,3
Katlamari PHC,168,2
Trimohini RCH SC,167,9
Kalyanpur SC,81,9
Charmahula  SC,171,2
Nejampur  SC,54,9
Barhatti S.C.,117,10
Jugore  SC,65,8
Miangram SC,183,7
Rajarampur P.H.C.,114,6
Birpara SC,166,7
Duttabarutia S.C.,183,8
Jagannathpur SC,81,10
Joyenpur  SC,60,1
Joyrampur SC,105,2
Lalkhandiar SC,97,10
Pananagar SC,124,1
Tarakpur SC,164,7
Mahammadpur SC,148,8
Monoharpur SC,168,10
Gankar  SC,140,8
Ghughupara SC,151,10
Amlai P.H.C.,115,4
Andi( Bahara) SC,102,7
Jasaitala SC,196,6
