Health Facility Name,Number_Of_Beds,Rating
DMO Parbhani,112,8
Banegaon,77,3
RH PURNA,104,5
Khadagaon,79,6
Sonna,138,5
Dharasur,110,10
Khandali,62,2
RH JINTUR,140,7
Bordi,188,3
Khadka,83,5
Kantheshwar,78,7
mandakhali,116,6
Makhani,189,1
Nipani Takali,119,2
Kothala,159,2
Handi,153,8
Kausadi,176,10
Ukkalgaon,157,8
Asegaon,197,3
Khadi,103,10
RH PATHARI,130,2
Warud,177,8
Mandhani,141,7
Sambar,152,4
Bamni bk,100,3
Asegaon,195,8
Gunj,175,10
Devgaon,116,7
Chandaj,134,8
Narwadi,88,6
dharasur,129,5
Pingali,94,5
Lohagaon,120,5
Chatori,91,1
Pathargavhan (Kh),52,1
Kansur,56,9
Pimpaldari,160,4
Daithana,113,4
Wazur,114,7
kolha,164,5
Pimpalgaon,128,9
Balsa Bk.,63,6
Dudhgaon,107,4
Waghala,130,3
Walur,109,1
Bharaswada,115,2
Padegaon,123,8
Sonpeth,71,1
Kawalgaon,115,7
Yeldari,68,9
Kanadkheda,165,3
Sawangi mahalsa,120,3
Karegaon,148,3
Dhamani,136,9
Zedgaon,153,10
Esad,178,1
Tattujawla,53,4
Mardasgaon,177,6
Pimpran,194,5
Shirshi (Bk),178,8
Sawargaon,188,7
Kolha,196,5
Ghatangra,73,9
Singanapur,72,8
Kerwadi,99,1
Kausadi,152,2
Borkini,88,2
Elegaon,76,5
Muda,120,1
Pimpri rohila,137,10
Renakhali,191,1
Umari,171,4
Pokharni,132,6
Women Hospital Parbhani,89,4
Zari,58,8
Shewadi,191,6
Khujda,184,5
Mahatpuri,82,8
Mangrul,163,10
Aarkhed,181,2
Bhosi,129,1
Pangra,107,10
Dasala,89,5
Brahmangon,125,5
Waghala,111,4
Rawalgaon,150,1
Taroda,64,8
Sawangi (Pc),122,8
Farkanda,177,1
PBMC Municipal Dispencery,51,5
Wangi,104,1
Devalgaongat,147,3
SDH-GANGAKHED,176,2
Nandapur,94,5
Dharmapuri,128,5
Tadpangri,154,1
Jamb,185,4
Pimpalgaon gaike,178,3
Nathra,118,5
Shekhrajur,130,3
Dewalgaon Awachar,75,10
Degaon,133,5
Wanipimpalgaon,195,5
Ambetakali,117,10
Khali,135,2
Dhanora Kale,178,6
Borwand (Bk),143,10
Raorajur,51,3
Babhulgaon,88,3
Waghi,128,6
Pangari,183,5
Pedgaon,174,8
Shelgaon (H),146,1
Kinhola,63,10
Mandwa,81,5
Shelwadi,50,7
Walur,84,9
Sawargaon,162,3
Hadgaon,51,2
Adgaon,108,6
Yerandeshwar,108,2
Zari,74,6
Pedgaon,197,8
Mahatpuri,118,5
Wazur (Bk),67,3
Nrlad,172,5
Kundi,189,2
gogalgaon,196,4
Mojmabad,110,6
Umra,61,3
Hatkarwadi,132,7
Chatori,58,8
Palodi,179,7
Ravrajur,139,9
Jawalajuta,104,10
Kodri,96,7
Kasapuri,102,7
Vita,164,9
Hadgaon pawade,197,5
Rahati,182,9
Awai,54,10
SDH sailu,109,1
Babhulgaon,174,9
Hamdapur,133,10
Girgaon (Bk),132,4
Malsonna,183,2
Itoli,123,5
Rampuri,105,5
Nandkheda,94,8
Antarweli,97,6
Mategaon,136,8
Pingali,126,1
RH BORI,83,7
Harangul,194,2
WazarBk,113,5
Surpimpri,155,6
Sadegaon,59,1
Wadgaon,122,4
Muli,92,2
Mardasgaon,113,1
Pimplalokhande,160,9
Shindetakali,52,10
Nandgaon,178,4
Pimpari (Bk),130,9
Rametakali,183,4
Katneshwar,75,6
Sarola,69,6
Kalgaon,146,5
Limba,56,8
Deulgaon Du,117,1
Ambarwadi,143,7
Moregaon,142,2
RH PALAM,167,2
Khoras,137,8
Kekarjawala,151,1
Kodri,53,6
Kehala,190,10
Borda,139,8
District Hospital Parbhani,108,7
RH MANWAT,103,6
Pimpalgaon kajle,89,3
Hadgaon,79,6
Ukhali,146,1
Pethshiwni,108,8
Nila,156,3
Charthana,76,4
Suppa,168,9
Aaherborgaon,183,8
Tadborgaon,71,2
Niwale,126,2
Dhanoramotya,159,8
Khadgaon,121,1
Rawa,74,9
Kasar,75,6
Sanpuri,98,2
Wassa,137,6
Manoli,146,3
Yeldari,128,6
Ranisawargaon,79,5
Chikhalthana (Bk),97,4
Banwas,64,1
Chudawa,69,1
Renapur,140,5
Pathargavhan,150,10
Sarfrajpur,196,4
Kupta,129,8
Shendra,103,6
Limla,131,10
Charthana,131,9
Mangrul Pap,148,5
Gaur,170,7
Sawangi,146,2
Pimpri Deshmukh,145,3
Lasina,95,4
Durga,94,4
Rampuri,143,7
Aaherwadi,123,4
Belkheda,191,1
Dongargaon,191,9
Dhangartakali,174,8
Kantheshwar,129,2
Karanji,198,3
Warna,193,10
Dighol,86,10
Salapuri,97,1
Pokharnidevi,87,9
Aarvi,180,9
Guglidhamangaon,149,8
Dhanegaon,158,4
Bhogaon,80,3
Tura,103,10
Wazar,143,5
Korwadi,100,6
Khanhegaon,190,4
Bori,85,8
Pethpimpalgaon,173,4
Parava,112,6
Takali Bobade,74,8
Deulgaon Gat,74,7
koke,180,6
Wadi,110,7
Jamb,63,1
Pimpla,129,9
Takali (Ku),131,2
Chimngaon,86,8
Mirkhel,115,4
Pimpaldari,154,2
Awalgoan,62,3
Sawali,57,1
Pachegaon,131,4
Jodparali,71,4
Fulkalas,114,8
Tadkalas,98,4
Murumba,74,10
Pachlegaon,185,9
Daithana,118,5
Asola,113,7
DMO Parbhani,63,2
Banegaon,179,2
RH PURNA,196,8
Khadagaon,184,4
Sonna,168,9
Dharasur,155,5
Khandali,171,10
RH JINTUR,105,1
Bordi,140,8
Khadka,120,3
Kantheshwar,96,3
mandakhali,76,7
Makhani,182,5
Nipani Takali,166,8
Kothala,195,9
Handi,89,1
Kausadi,61,2
Ukkalgaon,154,5
Asegaon,187,2
Khadi,116,10
RH PATHARI,188,10
Warud,97,6
Mandhani,183,2
Sambar,134,8
Bamni bk,198,6
Asegaon,186,5
Gunj,108,9
Devgaon,72,3
Chandaj,127,1
Narwadi,190,4
dharasur,173,4
Pingali,61,10
Lohagaon,122,3
Chatori,71,10
Pathargavhan (Kh),183,8
Kansur,96,1
Pimpaldari,140,6
Daithana,77,8
Wazur,144,9
kolha,193,1
Pimpalgaon,88,7
Balsa Bk.,81,6
Dudhgaon,83,2
Waghala,151,2
Walur,100,4
Bharaswada,124,2
Padegaon,156,8
Sonpeth,96,5
Kawalgaon,100,5
Yeldari,57,1
Kanadkheda,169,4
Sawangi mahalsa,175,1
Karegaon,168,8
Dhamani,133,3
Zedgaon,113,8
Esad,133,7
Tattujawla,123,5
Mardasgaon,174,3
Pimpran,158,2
Shirshi (Bk),174,1
Sawargaon,108,8
Kolha,96,5
Ghatangra,60,1
Singanapur,65,8
Kerwadi,128,1
Kausadi,80,2
Borkini,136,4
Elegaon,82,9
Muda,58,2
Pimpri rohila,62,8
Renakhali,156,4
Umari,105,3
Pokharni,108,7
Women Hospital Parbhani,140,8
Zari,126,9
Shewadi,168,10
Khujda,76,4
Mahatpuri,83,3
Mangrul,87,3
Aarkhed,79,2
Bhosi,146,8
Pangra,108,4
Dasala,193,7
Brahmangon,198,3
Waghala,159,6
Rawalgaon,149,4
Taroda,103,5
Sawangi (Pc),64,8
Farkanda,143,5
PBMC Municipal Dispencery,170,7
Wangi,115,7
Devalgaongat,88,3
SDH-GANGAKHED,171,10
Nandapur,134,5
Dharmapuri,88,2
Tadpangri,74,8
Jamb,122,8
Pimpalgaon gaike,155,2
Nathra,57,8
Shekhrajur,57,2
Dewalgaon Awachar,149,6
Degaon,130,3
Wanipimpalgaon,134,2
Ambetakali,173,2
Khali,157,9
Dhanora Kale,177,8
Borwand (Bk),111,8
Raorajur,60,10
Babhulgaon,171,10
Waghi,135,3
Pangari,196,1
Pedgaon,109,1
Shelgaon (H),67,4
Kinhola,145,5
Mandwa,76,10
Shelwadi,99,3
Walur,54,1
Sawargaon,104,4
Hadgaon,57,9
Adgaon,131,9
Yerandeshwar,99,5
Zari,170,9
Pedgaon,114,5
Mahatpuri,133,10
Wazur (Bk),90,9
Nrlad,138,1
Kundi,54,9
gogalgaon,191,2
Mojmabad,154,8
Umra,61,2
Hatkarwadi,74,9
Chatori,169,6
Palodi,97,3
Ravrajur,134,7
Jawalajuta,103,5
Kodri,155,8
Kasapuri,53,6
Vita,140,2
Hadgaon pawade,110,2
Rahati,101,2
Awai,110,9
SDH sailu,117,6
Babhulgaon,79,2
Hamdapur,172,6
Girgaon (Bk),155,7
Malsonna,64,1
Itoli,131,6
Rampuri,95,1
Nandkheda,174,4
Antarweli,193,4
Mategaon,122,4
Pingali,122,5
RH BORI,157,10
Harangul,185,5
WazarBk,53,6
Surpimpri,123,2
Sadegaon,69,5
Wadgaon,85,3
Muli,160,8
Mardasgaon,135,3
Pimplalokhande,136,6
Shindetakali,120,6
Nandgaon,113,3
Pimpari (Bk),194,9
Rametakali,52,9
Katneshwar,190,9
Sarola,106,3
Kalgaon,97,9
Limba,142,2
Deulgaon Du,125,7
Ambarwadi,85,1
Moregaon,68,7
RH PALAM,179,2
Khoras,183,1
Kekarjawala,149,3
Kodri,135,7
Kehala,172,3
Borda,128,3
District Hospital Parbhani,93,2
RH MANWAT,194,8
Pimpalgaon kajle,54,4
Hadgaon,53,10
Ukhali,57,10
Pethshiwni,157,5
Nila,69,9
Charthana,171,9
Suppa,167,6
Aaherborgaon,105,2
Tadborgaon,176,6
Niwale,72,2
Dhanoramotya,172,4
Khadgaon,132,10
Rawa,141,10
Kasar,180,7
Sanpuri,161,10
Wassa,79,8
Manoli,56,1
Yeldari,60,4
Ranisawargaon,53,8
Chikhalthana (Bk),135,7
Banwas,139,5
Chudawa,190,10
Renapur,153,2
Pathargavhan,162,7
Sarfrajpur,56,8
Kupta,147,6
Shendra,129,10
Limla,193,3
Charthana,187,3
Mangrul Pap,160,1
Gaur,77,4
Sawangi,164,2
Pimpri Deshmukh,126,5
Lasina,63,3
Durga,128,5
Rampuri,89,1
Aaherwadi,81,3
Belkheda,165,9
Dongargaon,160,10
Dhangartakali,117,1
Kantheshwar,76,3
Karanji,142,9
Warna,147,3
Dighol,77,3
Salapuri,187,9
Pokharnidevi,177,6
Aarvi,57,10
Guglidhamangaon,106,6
Dhanegaon,187,1
Bhogaon,115,3
Tura,61,9
Wazar,62,8
Korwadi,93,1
Khanhegaon,51,1
Bori,153,10
Pethpimpalgaon,137,6
Parava,189,7
Takali Bobade,69,2
Deulgaon Gat,177,2
koke,79,5
Wadi,140,6
Jamb,97,2
Pimpla,199,8
Takali (Ku),145,10
Chimngaon,79,9
Mirkhel,84,3
Pimpaldari,120,7
Awalgoan,128,7
Sawali,158,4
Pachegaon,61,5
Jodparali,89,9
Fulkalas,178,6
Tadkalas,74,8
Murumba,96,4
Pachlegaon,81,7
Daithana,65,7
Asola,199,8
