Health Facility Name,Number_Of_Beds,Rating
Sarala Kalan,181,3
Kapoori,131,9
AKOUT,132,6
Mandouli,158,6
Kakrala,165,5
Bridhno,107,5
Brass,188,2
Karhali,117,6
Marru,79,6
Ram Nagar Sanea,192,6
Kulburcha,102,4
HASSANPUR,165,8
Kalwanoo,126,8
Bamna,131,9
Loh Simbli,159,9
Bhadson,154,9
PHC Gharam,133,1
Aluna,112,2
Gurditpura,181,4
Wazidpur,148,10
Jand Mangoli,128,2
LACHKANI,161,1
PHC Harpalpur,137,2
RAIPUR,140,6
FAGANMAJRA,117,7
KAULI,111,6
PHC Gopalpur,184,6
Shahpur,82,6
Bhoglan,131,6
PHC Kheri Gurna,63,7
Balbera,67,3
Khairpur Jattan,50,2
SAINSERWAL,67,4
Mardaheri,64,6
Duttal,64,10
chintawala,60,2
Galwati,119,2
THERI,191,5
Shambu Kalan,50,9
Ajrawar,184,2
Chattar Nagar,148,9
Manakpur,64,6
Ghanaur,151,9
Madanpur,77,4
RAKHRA,65,6
Devigarh,194,3
Ghagga,52,1
Kakrala,171,1
PHC Gajewas,127,7
Uksi Sanian,165,8
PHC Kakrala,186,6
PHC Khera Gajju,122,5
PHC Roshanpur Jhungia,86,1
Kalomajra,79,4
DROULLA,66,6
PHC Arno,58,1
Shadipur,55,1
Arno,139,6
Sehra,69,4
DAKALA,145,10
PHC Kapoori,68,2
CHC Kalomajra,88,8
Rurka,176,3
Harpalpur,86,10
Matorda,171,2
SDH Rajpura,110,1
Babarpur,95,5
Ugani,199,10
PHC Sauja,58,8
KALLAR BHAINI,118,3
Mohi Kalan,85,10
Bhedwal,73,9
JALALPUR,56,6
BATHOI KHURD,51,6
Mirzapur,151,9
PHC Balbera,84,2
CHC Bhadson,188,5
Bhankher,85,4
Ramgarh,149,7
CHC Tohra,97,9
DAUN KALAN,115,6
CHC Badshahpur,137,2
PASSIANA,132,2
PHC Dhainthal,162,5
Lachhru Kalan,131,7
Gajewas,157,1
Kheri Jattan,169,3
Momian,161,8
Kartarpur,73,5
Aehrukalan,71,5
Rethgarh,171,4
Bujrak,154,7
Tarkheri,80,10
Dodra,145,2
Ajnouda,144,3
Mavi Kalan,192,8
PHC Ajnouda,186,3
Bollar Kallan,161,6
Mandour,179,7
Pehar Kalan,140,2
NANDPURKESHO,188,4
SC Magar Sahib,79,4
Gharam,189,10
Khokh,109,2
Dhedna,165,3
DHABLAN,130,1
RAJGARH,192,3
Kheri Ranwa,140,3
PHC Kularan,109,9
Hamchari,196,9
Shergarh,140,5
HARDASPUR,165,10
WAZIDPUR,112,1
Ageti,167,10
Mavi Sappan,93,9
Talwandi Malik,76,1
Todarpur,197,2
Khanoura,147,2
Chamaru,70,5
Rohti Mouran,155,1
PHC GAJJUMAJRA,53,5
Meerapur,171,6
PHC Dhanetha,135,6
PHC Ajrawar,73,10
Badshahpur,170,1
Roshanpur Jhungia,68,6
Lubana,180,6
Jogipur,135,6
Khanewal,119,8
PHC Kakrala,88,10
PHC KALYAN,59,10
Kamalpur,155,2
PHC KAULI,170,1
CHC Patran,166,1
Kheri Gurna,91,7
Majri Jattan,196,1
Gobindpura,128,2
Seal,170,4
Mehtabgarh,191,1
PHC Fatehpur,103,2
Jansui,50,9
PHC HASSANPUR,75,3
Allowal,162,3
PHC Surastigarh,60,7
Bhunerheri,108,3
Dudhan Sadhan,147,3
SDH Samana,124,9
Fatehpur,125,6
Ram Nagar,72,5
Panjola,63,5
Kularan,60,10
SDH Nabha,59,1
Bhappal,175,9
Dhainthal,58,7
Chunagra,150,3
Jogewal,119,3
Manjouli,152,2
Salempur Shekhan,104,4
Fatehpur Rajputtan,192,5
Safera,67,7
Thuha,74,8
Fatehpur,106,4
Dhakansu,131,3
Duggal Khurd,187,3
Mukhmailpur,66,9
Dhanetha,74,4
Kaboolpur,194,2
PHC KALLAR BHAINI,185,5
RIWAS,165,2
LANG,59,7
Sadoheri,142,3
PHC Mardanpur,163,6
Badanpur,98,6
Mallewal,78,8
khera Gajju,147,6
Chicharwala,85,8
Kharola,105,1
Baprour,160,3
Laut,190,5
KALYAN,159,9
GAJJUMAJRA,102,2
CHC Dudhan Sadhan,159,2
Agoul,133,6
Dandrala Dhindsa,138,6
Suron,124,5
Hasanpur,132,3
KHERI MANIA,183,6
Mardanpur,80,4
Budhmore,161,2
Majal Kalan,124,8
BARSAT,134,6
Nasirpur,51,7
Gunike,127,8
CHC Shutrana,95,3
Bhootgarh,79,2
Arnetoo,104,2
Bhari Panechan,66,3
Bhasmarha,110,10
Haryoo Khurad,139,2
Taipur,192,10
Dharamkot,148,9
Nanhera,192,9
Gurnanakpura,55,9
Shutrana,63,3
Mangewal,198,5
BAKSHIWALA,107,2
Ganda Kheri,128,1
Sauja,83,9
Daftriwala,74,10
Channa,62,10
Miyal Kalan,134,1
DHAKRABA,109,10
CHC Ghanaur,93,8
Allana,169,3
Massingan,120,10
Dittupur,192,3
PHC Jogipur,196,5
Narru,66,10
Behal,122,3
Pabri,129,9
Tharua,152,2
PHC Babarpur,181,2
BHADURGARH,114,9
ALIPUR,119,2
DH MKH,73,2
Sarala Kalan,60,9
Kapoori,189,6
AKOUT,192,1
Mandouli,66,10
Kakrala,90,3
Bridhno,195,10
Brass,159,10
Karhali,76,4
Marru,80,6
Ram Nagar Sanea,50,7
Kulburcha,57,4
HASSANPUR,80,5
Kalwanoo,192,5
Bamna,71,6
Loh Simbli,116,1
Bhadson,83,9
PHC Gharam,187,3
Aluna,96,1
Gurditpura,100,5
Wazidpur,74,3
Jand Mangoli,116,2
LACHKANI,187,7
PHC Harpalpur,176,6
RAIPUR,167,7
FAGANMAJRA,189,2
KAULI,82,8
PHC Gopalpur,111,5
Shahpur,98,1
Bhoglan,165,2
PHC Kheri Gurna,71,7
Balbera,160,10
Khairpur Jattan,89,4
SAINSERWAL,80,2
Mardaheri,82,9
Duttal,135,5
chintawala,51,4
Galwati,124,10
THERI,60,5
Shambu Kalan,86,9
Ajrawar,150,1
Chattar Nagar,195,2
Manakpur,195,6
Ghanaur,70,4
Madanpur,113,4
RAKHRA,79,8
Devigarh,171,6
Ghagga,187,3
Kakrala,74,7
PHC Gajewas,73,3
Uksi Sanian,136,8
PHC Kakrala,150,5
PHC Khera Gajju,105,4
PHC Roshanpur Jhungia,190,8
Kalomajra,186,3
DROULLA,192,2
PHC Arno,120,2
Shadipur,195,2
Arno,153,7
Sehra,116,2
DAKALA,144,4
PHC Kapoori,125,4
CHC Kalomajra,91,3
Rurka,169,9
Harpalpur,53,4
Matorda,151,5
SDH Rajpura,70,7
Babarpur,155,8
Ugani,124,2
PHC Sauja,82,4
KALLAR BHAINI,116,10
Mohi Kalan,90,1
Bhedwal,54,6
JALALPUR,109,2
BATHOI KHURD,92,1
Mirzapur,92,9
PHC Balbera,71,1
CHC Bhadson,123,7
Bhankher,186,2
Ramgarh,55,6
CHC Tohra,140,2
DAUN KALAN,74,2
CHC Badshahpur,74,4
PASSIANA,124,8
PHC Dhainthal,69,10
Lachhru Kalan,74,9
Gajewas,182,5
Kheri Jattan,155,8
Momian,112,1
Kartarpur,51,8
Aehrukalan,57,7
Rethgarh,123,1
Bujrak,88,10
Tarkheri,104,8
Dodra,57,7
Ajnouda,127,10
Mavi Kalan,194,5
PHC Ajnouda,166,9
Bollar Kallan,86,5
Mandour,111,9
Pehar Kalan,188,10
NANDPURKESHO,106,9
SC Magar Sahib,96,1
Gharam,123,9
Khokh,182,10
Dhedna,168,7
DHABLAN,197,1
RAJGARH,177,8
Kheri Ranwa,170,5
PHC Kularan,89,1
Hamchari,113,4
Shergarh,93,8
HARDASPUR,134,9
WAZIDPUR,148,6
Ageti,132,8
Mavi Sappan,88,7
Talwandi Malik,148,6
Todarpur,121,4
Khanoura,106,1
Chamaru,180,5
Rohti Mouran,98,2
PHC GAJJUMAJRA,115,1
Meerapur,54,6
PHC Dhanetha,179,8
PHC Ajrawar,193,10
Badshahpur,156,5
Roshanpur Jhungia,184,10
Lubana,114,8
Jogipur,55,5
Khanewal,121,9
PHC Kakrala,153,5
PHC KALYAN,155,4
Kamalpur,71,1
PHC KAULI,115,5
CHC Patran,167,9
Kheri Gurna,160,6
Majri Jattan,73,5
Gobindpura,124,10
Seal,152,6
Mehtabgarh,102,1
PHC Fatehpur,64,1
Jansui,54,4
PHC HASSANPUR,118,6
Allowal,90,3
PHC Surastigarh,123,3
Bhunerheri,96,10
Dudhan Sadhan,165,7
SDH Samana,170,5
Fatehpur,176,1
Ram Nagar,103,9
Panjola,78,3
Kularan,198,7
SDH Nabha,66,6
Bhappal,89,2
Dhainthal,187,2
Chunagra,84,8
Jogewal,171,7
Manjouli,160,8
Salempur Shekhan,123,1
Fatehpur Rajputtan,109,3
Safera,72,10
Thuha,196,10
Fatehpur,167,10
Dhakansu,136,9
Duggal Khurd,104,6
Mukhmailpur,140,7
Dhanetha,78,10
Kaboolpur,56,9
PHC KALLAR BHAINI,116,5
RIWAS,124,2
LANG,154,4
Sadoheri,112,3
PHC Mardanpur,136,7
Badanpur,72,4
Mallewal,148,8
khera Gajju,178,9
Chicharwala,146,3
Kharola,153,3
Baprour,85,1
Laut,104,8
KALYAN,100,8
GAJJUMAJRA,159,9
CHC Dudhan Sadhan,83,8
Agoul,125,7
Dandrala Dhindsa,176,1
Suron,84,3
Hasanpur,123,3
KHERI MANIA,112,8
Mardanpur,63,10
Budhmore,174,3
Majal Kalan,130,4
BARSAT,144,8
Nasirpur,79,1
Gunike,55,3
CHC Shutrana,92,6
Bhootgarh,86,1
Arnetoo,75,2
Bhari Panechan,91,3
Bhasmarha,73,4
Haryoo Khurad,93,6
Taipur,188,2
Dharamkot,92,5
Nanhera,106,4
Gurnanakpura,92,3
Shutrana,65,3
Mangewal,94,5
BAKSHIWALA,128,4
Ganda Kheri,99,4
Sauja,62,10
Daftriwala,147,5
Channa,91,4
Miyal Kalan,60,1
DHAKRABA,195,9
CHC Ghanaur,191,3
Allana,198,9
Massingan,188,3
Dittupur,118,1
PHC Jogipur,133,8
Narru,53,9
Behal,161,7
Pabri,76,7
Tharua,75,3
PHC Babarpur,84,7
BHADURGARH,181,8
ALIPUR,102,3
DH MKH,141,2
