Health Facility Name,Number_Of_Beds,Rating
DEBEN MAHATO HOSPITAL (DISTRICT HOSPITAL),142,3
INSTITUTE FOR MENTAL CARE,117,4
RAGHUNATHPUR SUB DIVN. HOSPITAL,155,9
Puara SC,180,9
Mrigichami SC,194,9
Raherdih  SC,133,5
Beriadih SC,99,10
Nunia,198,3
Sidhi PHC,166,1
Bandwan BPHC,50,9
Belma SC,192,6
Amdanga SC,198,7
Ladhurka SC,136,10
Pirrah SC,105,2
Guniara SC,190,7
Keliada  SC,177,3
Koreng PHC,79,9
Dhatla SC,69,7
Kuki SC,150,8
Patradih SC,79,8
Herbona SC,145,6
Murlu  SC,50,5
Belyadih,182,4
Sindri  SC,180,7
Durmunt  SC,142,3
Kalimati SC,77,4
Pathardih SC,182,10
Barabazar BPHC,68,2
Manipur  SC,151,7
Madhutati  SC,177,7
Lagda PHC,74,8
Jambad,104,10
Basantapur SC,55,8
Damrughutu  SC,79,10
Begunkodar PHC,156,10
Tulsibari SC,54,4
Manihara  SC,61,6
Ichhar,141,3
Pabra SC,59,1
Chirudih,187,6
Durku SC,68,7
Amrabera SC,132,3
Durma  SC,143,2
Chelyama SC,180,4
Bagkundi SC,102,6
Bishria,170,5
Bareria,140,10
Dubcharka SC,164,4
Gorsika SC,185,2
Nanna SC,78,9
Kolloli  SC,133,7
Babudergram PHC,180,10
Damjuri SC,85,5
Panipathar SC,132,9
Kotshila  SC,146,3
Adabona SC,111,7
Rangadih SC,96,5
Ulugoria,114,1
Jorberia  SC,184,8
Kuda SC,168,10
Laharia SC,62,6
Chatumadar PHC,103,6
Hura SC,175,3
Dhansura SC,134,4
Nildih PHC,192,2
Baragram  SC,138,4
Arsha SC,128,6
Metalla  SC,66,4
Bhalubasa SC,160,6
Jamtoria PHC,102,10
Tulin SC,176,1
Bansgarh CHC,86,3
Chandra SC,128,2
Banjora SC,106,8
Chekya  SC,162,5
Chatuhansa SC,126,1
Gopladih SC,113,4
Mankiary,79,5
Korroria,159,5
Manbazar RH,56,6
Daldali SC,117,10
Biltora PHC,164,10
Bhanderpuara  Chipida SC,181,8
Korchey  SC,71,5
Bonra SC,174,5
Anara SC,146,2
Chakalta SC,100,3
Jorberia SC,145,9
Muradih SC,146,1
Dhanudih SC,117,7
Tunturi PHC,97,6
Gengara SC,164,8
Raibandh PHC,184,9
Jargo SC,142,2
Sarjumathu SC,121,4
Punura,78,9
Majhidih  SC,57,2
Kulgora SC,195,3
Bamundiha SC,179,5
Bhagabandh SC,66,6
Pilai SC,67,9
Kantadih PHC,140,8
Mamurjore SC,149,1
Rajagram,188,10
Suisa SC,110,2
Surulia  SC,82,9
Kelyahi  SC,183,9
Kenda SC,177,5
Ajodhya PHC,144,6
Jhapra  SC,158,8
Napara  SC,112,5
Hetjari SC,145,8
Bhurasole SC,186,2
Barakadam SC,109,2
Golamara SC,176,4
Ushir SC,154,9
Rigid  SC,91,8
Baragram SC,150,4
Santuri  SC,169,6
Bandwan,183,4
Khudibandh,136,6
Nutandi  SC,51,10
Gittinglahar SC,195,5
Kuruktopa,141,4
Balarampur SC,56,2
Balarampur GP SC,149,8
Fusrabaid PHC,162,8
Dumurdih SC,159,9
Ropo  SC,59,10
Kurni SC,118,9
Pichasi  SC,171,10
Lagda  SC,130,9
Rokhera SC,164,4
Murguma  SC,51,6
Serengdih SC,156,3
Baragram PHC,190,4
Harmadih SC,71,3
Dumdumi SC,103,8
Parasiri  SC,152,8
Asurbandh,119,9
Puncha SC,64,6
Metyala SC,88,1
Buribir SC,142,9
Dubra  SC,148,9
Patuara SC,166,9
Monpura SC,95,10
Pakhuria SC,87,9
Kantaranguni,166,3
Bansgarh MC SC,193,8
Bela SC,145,2
Dhadkigora SC,188,1
Haratsaldih,157,6
Biramdih SC,182,6
Bhurkundabari SC,78,1
Salbani,157,5
Hutmura SC,85,4
Goria SC,109,9
Chandanpur SC,195,3
Tilaboni SC,59,2
Katagora,102,6
Chayanpur PHC,181,9
Chakda SC,68,6
Kanki  SC,55,3
Mudali SC,119,8
Talpat,150,5
Manjhupra  SC,117,4
Bhamuria SC,132,2
Jhalda SC,95,4
Patharmohara  SC,66,5
Simali SC,153,3
Tatari SC,115,4
Tunturi SC,144,7
Poradih  SC,77,2
Darikadoba SC,75,10
Sirkabad SC,56,3
Deoli SC,121,8
Sulunga  SC,135,7
Nowadih SC,77,7
Rajapara SC,161,4
Fusrabaid  SC,168,9
Zilling SC,192,3
Saltore  SC,112,2
Udaypur  SC,140,10
Jitujuri SC,116,2
Bisri SC,57,3
Adardih SC,76,9
Bhagabandh SC,93,2
Manguria SC,110,5
Jasudih SC,108,4
Rampur  SC,70,4
Bhowridih SC,141,1
Manara  SC,189,5
Lakhanpur SC,56,5
Chayanpur SC,197,7
Gangamanna SC,63,3
Podlara  SC,125,3
Chatumadar SC,146,5
Matha SC,151,4
Chirudih PHC,103,7
Palma  SC,92,8
Ranga SC,150,4
Bamusadhu SC,198,9
Gumra SC,187,8
Bamarrah SC,126,2
Bongabari SC,121,10
Malti SC,156,10
Barrah SC,80,5
Pathardih BPHC,149,2
Barasini SC,128,3
Delang SC,160,7
Satra SC,105,3
Hutmura PHC,182,3
Brajapur SC,155,4
Sankra B  SC,192,4
Gosaidih SC,65,4
Sutabai  SC,84,5
Damda SC,72,9
Rahamda SC,79,5
Jamkuri SC,100,1
Bhadudanga SC,95,1
Parsa SC,182,7
Pichasi PHC,86,5
Bagalia SC,192,3
Namsole SC,154,9
Barabagan  SC,69,4
Bali  SC,155,4
Sankra A  SC,155,10
Kerrow SC,134,4
Joypur Main  SC,101,8
Nildih SC,196,4
Kotshila RH,100,10
Maguria  SC,88,10
Bero  SC,62,9
Malancha  SC,104,6
Pirorgaria SC,191,10
Sargo SC,102,1
Beniasole  SC,179,1
Monipur,97,4
Pattoria SC,174,1
Sukurhutu SC,150,6
Lipania  SC,101,1
Hethadih,52,10
Puriara SC,103,2
Mukundapur  SC,149,4
Bari BPHC,150,1
Pairachali  SC,101,6
Baram SC,108,1
Ahattore SC,85,8
Latapara,91,3
Metal Sahar  SC,50,9
Rukni SC,78,5
Tuperdih  SC,90,5
Palashkola  SC,151,5
Rangamati SC,115,9
Kalitala SC,53,8
Buribandh SC,125,6
Bogra PHC,111,10
Ghatrangamati SC,179,6
Raibandh SC,159,6
Hussaindih SC,83,5
Hizla SC,71,8
Murulia SC,84,2
Puncha BPHC,152,5
Joypur New  SC,170,3
Moutorh SC,159,2
Simchaka  SC,62,8
Ghatbera SC,179,10
Jhunjka SC,166,1
Palasboni  SC,80,8
Ramnagar  SC,143,3
Bagalmari SC,105,6
Kutni SC,112,9
Parasia SC,175,2
Darda SC,153,6
Jilling SC,151,10
Gagi SC,68,1
Jarobari SC,150,1
Bispuria SC,112,9
Patahensal SC,128,9
Bhangra SC,111,2
Alokdih SC,195,9
Para  SC,89,3
Santuri PHC,184,5
Panchudanga  SC,159,7
Gobrandha SC,99,6
Pabra  SC,51,5
Simla  SC,179,10
Ladhurka PHC,101,2
Dumuriakuri  SC,50,5
Panduka  SC,171,1
Chakra SC,144,2
Sirkabad BPHC,109,5
Pusti SC,100,8
Supurdih SC,114,8
Kargali SC,84,2
Chepra SC,61,10
Bamnia SC,155,1
Kushaldih,180,10
Sirgi SC,129,7
Rajnowagarh SC,176,9
Senabana SC,176,8
Biltora  SC,51,4
Polpol,65,3
Nabagram SC,58,9
Chakaltore SC,143,4
Bororola  SC,180,6
Tumrasole SC,57,10
Barabazar SC,160,8
Digardih  SC,123,4
Bansraya SC,141,8
Dhabani SC,92,10
Palanja  SC,54,1
Jojodih SC,89,6
Kansra SC,145,4
Gurguria  SC,123,8
Kalabani SC,152,5
Kuruktupa PHC,123,9
Kalapathar  SC,153,5
Alkusha SC,191,4
Hatiramgora SC,192,1
Konapara SC,172,8
Purda  SC,110,3
Hansdima SC,107,9
Dhargram SC,191,2
Bangora  SC,152,9
Gurur PHC,75,8
Birudih SC,120,7
Babugram SC,168,4
Jambad  SC,119,5
Pabra  SC,118,4
Lara  SC,100,5
Khajura  SC,186,5
Bagbindha SC,115,7
Arrah SC,98,8
Naragoria SC,61,4
Garaphusra SC,98,6
Bagda SC,59,1
Teliavasa SC,118,4
Sanka  SC,51,7
Dumurdih SC,175,9
Lakhra SC,70,3
Chilla SC,80,2
Bhandarpuara SC,129,8
Bhagabandh SC,103,4
Chakoltore BPHC,78,5
Para BPHC,106,4
Mekhada  SC,99,5
Kaliabasa SC,71,7
Karadih,184,9
Belkuri PHC,163,2
Banda BPHC,119,10
Keliathole,78,3
Jambaid SC,84,2
Bortoria PHC,143,10
Kadampur SC,197,2
Bhamuria PHC,175,8
Chorpahari  SC,62,4
Sarambo,101,5
Baraurma SC,141,9
Kantaranguni PHC,61,2
Sindri SC,69,10
Chhirudih SC,155,5
Kuda PHC,71,7
Palashkola  SC,193,4
Bamundiha PHC,101,5
Shyamnagar SC,186,8
Agardih SC,136,1
Sidhi  SC,152,2
Mutukura  SC,83,6
Alkusha  SC,93,9
Ghagra  SC,127,10
Chitmu  SC,76,6
Latapara PHC,86,8
Gamarkuri SC,179,8
Chhatka  SC,173,4
Tilabani SC,170,6
Beria SC,170,6
Hetgugui SC,167,2
Phuhura SC,84,2
Barrah SC,85,8
Barabendya  SC,57,9
Manbazar SC,83,4
Karamara SC,124,3
Bandwan SC,199,3
Madhupur SC,171,5
Ankro SC,139,7
Chapaitarh  SC,67,9
Bari SC,98,9
Srirampur  SC,155,5
Kuilapal SC,171,2
Pandra  SC,66,9
Berada SC,61,10
Pahargora SC,194,5
Bansole SC,179,4
Laulara,116,5
Joypur BPHC,71,8
Talajuri,82,3
Tentlow SC,167,5
Kerowa PHC,133,3
Jorashal,51,7
Oldih  SC,195,10
Darikuri  SC,130,7
Bagda PHC,94,6
Keshya SC,125,7
Nimdiha SC,117,7
Sorbori  SC,158,7
Bansa SC,131,1
Tentulhity,169,4
Khairipihira SC,173,3
Raghunathpur BPHC,180,7
Kandoya SC,151,9
Bathandih SC,97,9
Iloo SC,172,1
Rudra  SC,131,10
Kumra SC,54,1
Bogra SC,151,5
Pargella SC,163,7
Gopinathpur  SC,52,4
Balitora PHC,113,1
Ashurbandh PHC,154,1
Kroshjuri PHC,96,3
Khatanga PHC,139,8
Bortoria SC,178,6
Lupungdih  SC,167,7
Nekre SC,170,4
Talajuri PHC,129,2
Nadiyara  SC,192,4
Begunkodar  SC,154,4
Daulatpur SC,174,2
Chargali SC,166,7
Baliguma SC,192,7
Surulia  SC,139,1
Beko SC,126,8
Dighi SC,115,10
Darikuri PHC,196,8
Tumba Jhalda,180,9
Dhabani SC,184,2
Sonaijuri  SC,167,1
Keshorgoria SC,168,4
Salanchi SC,59,7
Ketankiyari,136,1
Bandhdih SC,179,5
Ramchandrapur  SC,64,3
Sindurpur  SC,107,3
Basantapur PHC,50,2
Kolloli BPHC,167,9
Khamar SC,160,1
Shyampur  SC,115,3
Pandrama  SC,199,9
Uparrah  SC,180,8
Khariduara SC,135,5
Chapuri SC,121,7
Jaharhatu  SC,122,5
Bargaria SC,101,4
Bhalagora SC,198,9
Raghabpur  SC,111,4
Gurur SC,52,9
Baruadih SC,134,5
Sindri SC,86,3
Vosko  SC,88,7
Gobindapur,163,2
Charida,172,2
Hensla,101,3
Jamtoria SC,180,9
Chitra SC,73,2
Fufundih SC,114,2
Beldih,192,7
Mantarh  SC,130,1
Borda SC,125,5
Joradih SC,66,5
Keshargarh SC,82,9
Kendapara SC,101,2
Badra SC,64,4
Uparjari SC,124,6
Madhukunda SC,54,9
Kotlui SC,130,9
Koreng SC,144,2
Kroshjuri,114,2
Kerowa SC,147,9
Katadih,94,2
Damru  SC,81,10
Muradih BPHC,116,5
Arsha PHC,133,2
Nutandih SC,59,3
Tamakhun SC,104,4
Nalkuri SC,190,8
Perbelia SC,177,5
Balitora SC,99,10
Ragma SC,122,10
Nowahatu  SC,149,10
Dandahit SC,182,10
Nekre PHC,199,10
Harmadih RH,86,7
Kochahatu  SC,167,3
Mahatomara PHC,89,2
Ramchak  SC,186,7
Saharjuri SC,136,2
Bortolia  SC,148,10
Jhalda BPHC,99,10
Fuljhore SC,109,4
Nadiha PHC,184,5
Baghmundi,66,9
Damankiyari,154,9
Ankro PHC,131,7
Maru SC,160,5
Gopalnagar SC,94,6
Taldabra SC,180,9
Buridih SC,60,2
Tatuara  SC,176,7
Ledason SC,76,10
Ramokundhi,102,10
Ajodhya SC,165,4
Malthore  SC,94,1
Mohara SC,94,10
Rasuldih SC,90,8
Rajpati SC,184,10
Boro SC,51,10
Bamni SC,102,9
Rigidih  SC,51,3
Kustaur  SC,100,1
Kustour BPHC,175,4
Khairipihira PHC,154,5
Bhul SC,64,3
Bandhgarh SC,120,2
Jharbagda,106,1
Agardih PHC,112,10
Rangadanga  SC,72,6
Bansbera SC,163,1
Hati Kundar SC,104,1
Kudagara SC,67,6
Iloo PHC,65,10
Dighi PHC,126,10
Kustore  SC,87,2
Pairachli PHC,123,4
Haridih SC,115,6
Bamunpara SC,186,9
Khatanga  SC,197,2
Shyampur  SC,70,10
Rajnowagarh PHC,121,7
Napara SC,140,8
Nodiha,190,5
Ranipur SC,199,9
Hura RH,68,4
Kunchia SC,97,4
Birgram SC,175,8
Makarkendi SC,90,7
Dandua SC,72,10
Sindri PHC,190,9
Jambaid,146,5
Narrah  SC,144,7
Sagma SC,100,3
Jaragora SC,192,4
Darda SC,107,7
Siyada  SC,67,4
Karmatard,105,8
Kalidasdih SC,78,9
Damodarpur SC,199,4
Suraidih SC,77,1
Charrah SC,67,5
Malti PHC,119,1
DEBEN MAHATO HOSPITAL (DISTRICT HOSPITAL),99,5
INSTITUTE FOR MENTAL CARE,93,4
RAGHUNATHPUR SUB DIVN. HOSPITAL,81,5
Puara SC,76,6
Mrigichami SC,62,4
Raherdih  SC,166,8
Beriadih SC,118,8
Nunia,171,1
Sidhi PHC,177,2
Bandwan BPHC,140,7
Belma SC,89,1
Amdanga SC,72,2
Ladhurka SC,192,1
Pirrah SC,77,2
Guniara SC,131,6
Keliada  SC,90,1
Koreng PHC,160,6
Dhatla SC,95,7
Kuki SC,88,2
Patradih SC,167,5
Herbona SC,181,4
Murlu  SC,156,6
Belyadih,158,9
Sindri  SC,133,1
Durmunt  SC,196,7
Kalimati SC,146,5
Pathardih SC,199,9
Barabazar BPHC,60,10
Manipur  SC,159,10
Madhutati  SC,103,2
Lagda PHC,105,8
Jambad,96,4
Basantapur SC,119,10
Damrughutu  SC,150,1
Begunkodar PHC,185,7
Tulsibari SC,175,3
Manihara  SC,170,10
Ichhar,138,7
Pabra SC,159,4
Chirudih,154,1
Durku SC,93,7
Amrabera SC,119,3
Durma  SC,110,5
Chelyama SC,175,8
Bagkundi SC,138,9
Bishria,167,8
Bareria,82,2
Dubcharka SC,188,4
Gorsika SC,69,9
Nanna SC,79,2
Kolloli  SC,151,10
Babudergram PHC,85,2
Damjuri SC,107,9
Panipathar SC,176,9
Kotshila  SC,160,5
Adabona SC,169,5
Rangadih SC,95,7
Ulugoria,105,1
Jorberia  SC,95,5
Kuda SC,114,1
Laharia SC,193,2
Chatumadar PHC,170,9
Hura SC,191,9
Dhansura SC,183,7
Nildih PHC,66,6
Baragram  SC,98,6
Arsha SC,92,10
Metalla  SC,155,6
Bhalubasa SC,162,9
Jamtoria PHC,99,9
Tulin SC,157,7
Bansgarh CHC,72,2
Chandra SC,125,6
Banjora SC,152,9
Chekya  SC,160,10
Chatuhansa SC,143,6
Gopladih SC,70,7
Mankiary,194,9
Korroria,88,10
Manbazar RH,183,2
Daldali SC,176,1
Biltora PHC,84,3
Bhanderpuara  Chipida SC,134,6
Korchey  SC,79,6
Bonra SC,181,4
Anara SC,197,2
Chakalta SC,126,2
Jorberia SC,146,8
Muradih SC,86,3
Dhanudih SC,103,7
Tunturi PHC,185,5
Gengara SC,136,1
Raibandh PHC,60,7
Jargo SC,181,2
Sarjumathu SC,71,5
Punura,112,4
Majhidih  SC,75,7
Kulgora SC,101,6
Bamundiha SC,98,9
Bhagabandh SC,115,5
Pilai SC,196,4
Kantadih PHC,172,5
Mamurjore SC,54,10
Rajagram,190,4
Suisa SC,60,7
Surulia  SC,133,9
Kelyahi  SC,118,3
Kenda SC,83,6
Ajodhya PHC,150,6
Jhapra  SC,190,9
Napara  SC,193,1
Hetjari SC,133,5
Bhurasole SC,198,5
Barakadam SC,177,5
Golamara SC,71,4
Ushir SC,137,9
Rigid  SC,178,1
Baragram SC,74,5
Santuri  SC,116,8
Bandwan,54,5
Khudibandh,65,8
Nutandi  SC,176,3
Gittinglahar SC,186,9
Kuruktopa,162,9
Balarampur SC,58,10
Balarampur GP SC,58,3
Fusrabaid PHC,138,2
Dumurdih SC,59,4
Ropo  SC,151,7
Kurni SC,79,4
Pichasi  SC,130,6
Lagda  SC,102,2
Rokhera SC,131,8
Murguma  SC,154,8
Serengdih SC,153,7
Baragram PHC,168,8
Harmadih SC,153,9
Dumdumi SC,163,8
Parasiri  SC,90,3
Asurbandh,151,10
Puncha SC,134,7
Metyala SC,182,5
Buribir SC,65,9
Dubra  SC,119,4
Patuara SC,177,5
Monpura SC,54,3
Pakhuria SC,98,8
Kantaranguni,112,6
Bansgarh MC SC,185,10
Bela SC,52,4
Dhadkigora SC,65,10
Haratsaldih,167,8
Biramdih SC,51,5
Bhurkundabari SC,74,9
Salbani,154,8
Hutmura SC,80,10
Goria SC,158,1
Chandanpur SC,129,3
Tilaboni SC,90,8
Katagora,119,10
Chayanpur PHC,72,4
Chakda SC,70,9
Kanki  SC,106,5
Mudali SC,194,2
Talpat,192,5
Manjhupra  SC,164,2
Bhamuria SC,182,4
Jhalda SC,82,3
Patharmohara  SC,106,5
Simali SC,90,7
Tatari SC,109,6
Tunturi SC,191,9
Poradih  SC,56,6
Darikadoba SC,120,9
Sirkabad SC,161,7
Deoli SC,106,1
Sulunga  SC,168,2
Nowadih SC,140,10
Rajapara SC,83,6
Fusrabaid  SC,70,9
Zilling SC,82,4
Saltore  SC,169,1
Udaypur  SC,97,9
Jitujuri SC,107,4
Bisri SC,112,8
Adardih SC,184,4
Bhagabandh SC,90,9
Manguria SC,83,10
Jasudih SC,90,2
Rampur  SC,152,2
Bhowridih SC,62,6
Manara  SC,171,5
Lakhanpur SC,199,2
Chayanpur SC,174,6
Gangamanna SC,56,7
Podlara  SC,108,7
Chatumadar SC,147,8
Matha SC,78,6
Chirudih PHC,159,10
Palma  SC,120,9
Ranga SC,61,3
Bamusadhu SC,100,1
Gumra SC,156,6
Bamarrah SC,190,5
Bongabari SC,177,4
Malti SC,173,7
Barrah SC,83,7
Pathardih BPHC,107,8
Barasini SC,186,7
Delang SC,192,10
Satra SC,176,5
Hutmura PHC,105,3
Brajapur SC,194,8
Sankra B  SC,106,1
Gosaidih SC,186,7
Sutabai  SC,116,3
Damda SC,76,6
Rahamda SC,186,2
Jamkuri SC,105,6
Bhadudanga SC,113,8
Parsa SC,195,1
Pichasi PHC,136,5
Bagalia SC,140,10
Namsole SC,137,1
Barabagan  SC,151,1
Bali  SC,129,1
Sankra A  SC,199,6
Kerrow SC,147,7
Joypur Main  SC,157,10
Nildih SC,136,2
Kotshila RH,117,10
Maguria  SC,189,1
Bero  SC,71,7
Malancha  SC,71,7
Pirorgaria SC,178,7
Sargo SC,99,10
Beniasole  SC,186,4
Monipur,65,2
Pattoria SC,134,4
Sukurhutu SC,104,5
Lipania  SC,81,5
Hethadih,162,1
Puriara SC,89,3
Mukundapur  SC,64,8
Bari BPHC,60,5
Pairachali  SC,110,6
Baram SC,186,4
Ahattore SC,77,2
Latapara,184,9
Metal Sahar  SC,150,4
Rukni SC,139,10
Tuperdih  SC,185,10
Palashkola  SC,55,7
Rangamati SC,83,9
Kalitala SC,82,9
Buribandh SC,146,6
Bogra PHC,76,9
Ghatrangamati SC,102,9
Raibandh SC,86,4
Hussaindih SC,183,4
Hizla SC,164,4
Murulia SC,151,1
Puncha BPHC,105,4
Joypur New  SC,156,9
Moutorh SC,76,6
Simchaka  SC,63,4
Ghatbera SC,132,2
Jhunjka SC,74,6
Palasboni  SC,193,9
Ramnagar  SC,119,7
Bagalmari SC,184,2
Kutni SC,141,10
Parasia SC,160,6
Darda SC,81,9
Jilling SC,109,9
Gagi SC,140,6
Jarobari SC,87,6
Bispuria SC,133,1
Patahensal SC,102,3
Bhangra SC,156,8
Alokdih SC,119,4
Para  SC,183,6
Santuri PHC,128,8
Panchudanga  SC,132,9
Gobrandha SC,99,1
Pabra  SC,66,5
Simla  SC,57,3
Ladhurka PHC,50,10
Dumuriakuri  SC,112,4
Panduka  SC,123,2
Chakra SC,135,6
Sirkabad BPHC,58,1
Pusti SC,186,2
Supurdih SC,68,1
Kargali SC,53,2
Chepra SC,127,5
Bamnia SC,97,2
Kushaldih,175,1
Sirgi SC,65,4
Rajnowagarh SC,62,5
Senabana SC,108,7
Biltora  SC,118,9
Polpol,52,7
Nabagram SC,135,4
Chakaltore SC,92,10
Bororola  SC,134,9
Tumrasole SC,60,1
Barabazar SC,114,1
Digardih  SC,73,9
Bansraya SC,180,3
Dhabani SC,157,1
Palanja  SC,126,5
Jojodih SC,148,9
Kansra SC,133,8
Gurguria  SC,189,7
Kalabani SC,113,1
Kuruktupa PHC,64,8
Kalapathar  SC,135,4
Alkusha SC,194,10
Hatiramgora SC,123,6
Konapara SC,84,2
Purda  SC,150,10
Hansdima SC,94,8
Dhargram SC,96,2
Bangora  SC,157,9
Gurur PHC,138,1
Birudih SC,134,1
Babugram SC,193,7
Jambad  SC,96,6
Pabra  SC,58,4
Lara  SC,126,7
Khajura  SC,75,1
Bagbindha SC,120,5
Arrah SC,57,5
Naragoria SC,114,6
Garaphusra SC,89,2
Bagda SC,143,4
Teliavasa SC,186,9
Sanka  SC,176,6
Dumurdih SC,115,9
Lakhra SC,102,7
Chilla SC,95,8
Bhandarpuara SC,188,6
Bhagabandh SC,133,6
Chakoltore BPHC,104,4
Para BPHC,183,2
Mekhada  SC,120,5
Kaliabasa SC,136,2
Karadih,123,9
Belkuri PHC,177,5
Banda BPHC,140,3
Keliathole,106,8
Jambaid SC,62,2
Bortoria PHC,60,3
Kadampur SC,63,3
Bhamuria PHC,136,1
Chorpahari  SC,126,5
Sarambo,156,2
Baraurma SC,195,3
Kantaranguni PHC,176,3
Sindri SC,121,3
Chhirudih SC,144,1
Kuda PHC,79,4
Palashkola  SC,85,9
Bamundiha PHC,108,1
Shyamnagar SC,187,1
Agardih SC,182,2
Sidhi  SC,151,6
Mutukura  SC,98,8
Alkusha  SC,143,2
Ghagra  SC,95,7
Chitmu  SC,190,3
Latapara PHC,185,7
Gamarkuri SC,132,5
Chhatka  SC,96,1
Tilabani SC,100,7
Beria SC,167,1
Hetgugui SC,92,9
Phuhura SC,114,10
Barrah SC,150,3
Barabendya  SC,96,9
Manbazar SC,190,10
Karamara SC,64,4
Bandwan SC,178,1
Madhupur SC,124,4
Ankro SC,127,7
Chapaitarh  SC,105,7
Bari SC,165,2
Srirampur  SC,113,5
Kuilapal SC,95,2
Pandra  SC,100,8
Berada SC,120,4
Pahargora SC,197,5
Bansole SC,142,6
Laulara,173,8
Joypur BPHC,170,5
Talajuri,75,9
Tentlow SC,131,6
Kerowa PHC,180,4
Jorashal,181,6
Oldih  SC,55,1
Darikuri  SC,137,9
Bagda PHC,110,4
Keshya SC,117,3
Nimdiha SC,97,4
Sorbori  SC,156,5
Bansa SC,186,3
Tentulhity,188,4
Khairipihira SC,176,10
Raghunathpur BPHC,112,1
Kandoya SC,62,6
Bathandih SC,162,4
Iloo SC,121,9
Rudra  SC,84,9
Kumra SC,86,9
Bogra SC,62,8
Pargella SC,90,7
Gopinathpur  SC,152,10
Balitora PHC,155,9
Ashurbandh PHC,161,2
Kroshjuri PHC,100,4
Khatanga PHC,95,7
Bortoria SC,157,8
Lupungdih  SC,105,6
Nekre SC,122,6
Talajuri PHC,119,2
Nadiyara  SC,148,2
Begunkodar  SC,89,6
Daulatpur SC,161,2
Chargali SC,52,6
Baliguma SC,133,5
Surulia  SC,69,9
Beko SC,93,2
Dighi SC,185,3
Darikuri PHC,176,2
Tumba Jhalda,76,8
Dhabani SC,186,10
Sonaijuri  SC,95,10
Keshorgoria SC,135,9
Salanchi SC,105,10
Ketankiyari,161,10
Bandhdih SC,57,8
Ramchandrapur  SC,59,8
Sindurpur  SC,165,7
Basantapur PHC,54,6
Kolloli BPHC,193,2
Khamar SC,182,8
Shyampur  SC,93,5
Pandrama  SC,77,9
Uparrah  SC,170,2
Khariduara SC,119,2
Chapuri SC,189,6
Jaharhatu  SC,91,4
Bargaria SC,163,9
Bhalagora SC,147,7
Raghabpur  SC,143,7
Gurur SC,124,1
Baruadih SC,173,3
Sindri SC,132,3
Vosko  SC,131,9
Gobindapur,145,8
Charida,176,6
Hensla,109,10
Jamtoria SC,189,8
Chitra SC,194,3
Fufundih SC,167,3
Beldih,56,2
Mantarh  SC,123,3
Borda SC,148,3
Joradih SC,52,7
Keshargarh SC,88,6
Kendapara SC,147,10
Badra SC,130,10
Uparjari SC,178,8
Madhukunda SC,148,5
Kotlui SC,57,1
Koreng SC,51,6
Kroshjuri,125,4
Kerowa SC,158,9
Katadih,184,6
Damru  SC,93,9
Muradih BPHC,174,6
Arsha PHC,85,2
Nutandih SC,109,2
Tamakhun SC,79,8
Nalkuri SC,57,6
Perbelia SC,132,9
Balitora SC,168,6
Ragma SC,65,9
Nowahatu  SC,102,10
Dandahit SC,68,2
Nekre PHC,175,10
Harmadih RH,113,9
Kochahatu  SC,102,1
Mahatomara PHC,112,10
Ramchak  SC,120,3
Saharjuri SC,166,6
Bortolia  SC,99,8
Jhalda BPHC,119,9
Fuljhore SC,92,8
Nadiha PHC,91,6
Baghmundi,106,10
Damankiyari,70,1
Ankro PHC,51,1
Maru SC,132,8
Gopalnagar SC,58,7
Taldabra SC,67,4
Buridih SC,134,2
Tatuara  SC,123,9
Ledason SC,176,1
Ramokundhi,117,10
Ajodhya SC,158,10
Malthore  SC,144,8
Mohara SC,137,9
Rasuldih SC,136,2
Rajpati SC,113,8
Boro SC,110,5
Bamni SC,131,5
Rigidih  SC,52,3
Kustaur  SC,64,6
Kustour BPHC,124,5
Khairipihira PHC,173,8
Bhul SC,149,5
Bandhgarh SC,165,8
Jharbagda,164,8
Agardih PHC,51,3
Rangadanga  SC,118,4
Bansbera SC,123,3
Hati Kundar SC,86,10
Kudagara SC,164,2
Iloo PHC,162,4
Dighi PHC,142,6
Kustore  SC,155,7
Pairachli PHC,128,2
Haridih SC,195,7
Bamunpara SC,159,6
Khatanga  SC,134,1
Shyampur  SC,195,4
Rajnowagarh PHC,50,10
Napara SC,79,1
Nodiha,71,8
Ranipur SC,142,1
Hura RH,73,8
Kunchia SC,169,5
Birgram SC,175,3
Makarkendi SC,105,2
Dandua SC,181,1
Sindri PHC,124,7
Jambaid,143,6
Narrah  SC,115,2
Sagma SC,119,9
Jaragora SC,176,9
Darda SC,72,4
Siyada  SC,84,7
Karmatard,121,8
Kalidasdih SC,95,1
Damodarpur SC,83,6
Suraidih SC,112,4
Charrah SC,188,7
Malti PHC,53,1
