Health Facility Name,Number_Of_Beds,Rating
Kasola,134,4
Chandhai,132,1
Kalamba BK,152,3
Manoli Kasola,139,6
Sonkhas,129,9
Risod 1,59,8
Risod 2,165,2
Risod 3,131,9
District Maleria Office,94,1
Palaskhed,168,2
Warla,50,9
Kenwad,199,10
Mohari,120,8
Bhambdevi,166,9
Wakad,55,1
Tandali Shevai,116,8
Pangri Nawghare,176,4
Kata,139,10
Givha,99,6
Adoli,178,5
Irala,85,8
Sheluwada,132,6
Manbha,187,7
Chikhali,177,6
Kawardari,83,2
Bhadshivani,183,5
Kinhiraja,82,1
R.H.Malegaon,182,8
Umarda (bajar),69,4
Dhotra Jahangir,146,2
Gavha,87,5
Pendgaon,199,6
Karanji,178,1
Pangrabandi,67,4
Girholi,154,3
Haral,178,6
Malegaon 2,199,10
Poha,83,5
Sohal,147,6
Kondala Zanbare,80,7
Dhumka,137,4
Mop,89,8
R.H.Kamargaon,198,6
Tarhala,68,4
Masla pen,141,2
Manora 1,129,1
Fulumari,75,6
Hirangi,179,4
Rajgaon,173,5
District Hospital Washim,117,1
Sonkhas,53,8
Asegaon,176,2
Falegaon,56,10
Kinhiraja,133,6
Kamatha,98,6
Hivara,197,7
Pardi Takmor,116,6
Mungala,129,1
Wai,191,2
Dhanora,159,9
Kolambi,147,10
Babhulgaon,116,3
Kasola,161,9
Kamargaon1,111,9
Malegaon 1,149,10
Ansing 1,53,2
Koyali BK.,174,3
Mahagaon,124,5
Kalamba Bk.,187,6
Jaulka,76,4
Mohari,113,8
Kekatumara,166,6
Dhanaj Kh.,94,6
Amanwadi,109,9
Bhadjahangir,177,7
Amkheda,61,4
R.H.Mangrulpir,176,9
Kawatha,118,3
Kasola,91,1
Motsavanga,114,9
Umra Shamshoddin,170,2
Hatana,175,9
Davha,115,10
Soyjana,110,9
Rajura,80,2
Kajleshwar,178,2
Dhamani,58,1
Kawtha Khu.,87,3
Shirpur2,133,4
Poti,184,5
Asegaon Pen,89,7
Medshi,104,5
Mangul Zanak,117,7
Poharadevi,176,8
Rithad,54,5
Gobhani,120,3
R.H.Risod,128,7
Shaha,111,10
Tondgaon,57,10
Mothegaon,123,2
Umbrda bazar,146,2
Khandala,194,8
Shelu Bajar,137,6
Inza,167,10
Ansing 2,119,10
Tondgaon,183,4
Loni Arab,140,2
Waigaul,156,7
Kondoli,132,5
Kupta,94,8
Sakhardoh,90,5
Mangul Zanak,164,1
Medshi,56,4
Manoli,132,9
Kupta,122,5
Chambhai,137,9
Netansa,73,8
Waroli,56,4
Tandali Bu.,101,2
Dubalwel,157,9
Jaulka,128,2
Shirpur,140,9
Shelu Bajar,169,1
Asegaon,101,9
Manora 2,154,5
Sangaon,145,9
Kokalgaon,161,3
Wasari,101,3
Kothari,97,2
Asola,88,10
Dhanaj Bk.,92,6
Dongarkinhi,119,8
Shirpur1,151,8
Kata,159,4
SavargaonJire,157,7
Pardi Tal,195,2
Shelu Khadse,64,5
Mahagaon,59,4
Zodga,103,10
Chandhai,87,10
Loni,197,4
R.H.Manora,131,2
Bembala,61,9
Sawali,99,3
Pangri kute,50,1
Dapura,97,4
Lehani,133,1
Poha,175,10
Karpa,118,3
Ukali Pen,113,4
Vitholi,135,6
Kamathwada,175,8
Kalamba Mahali,197,10
Shendurjana,169,6
Mandwa,176,4
Kenwad,51,4
Manbha,154,7
Bhoyani,121,3
Malegaon,155,10
Kawthal,80,4
Wanoja,107,10
Chinchama Bhar,114,8
Linga Ko,75,2
Warla,99,9
Inzori,150,7
Dhamani,152,2
Chivara,65,2
Pardi Takomor,115,6
Panchala,53,2
Dhanaj bk,52,6
Eklaspur,71,10
Pimpalgaon,77,10
Shendurjana,93,3
RH ANSING,119,10
Yevta,73,10
Marsul,165,5
Poharadevi,138,3
Gowardhan,78,9
Palodi,134,1
Kumbhi,176,5
Sawad,63,4
Shirpur3,120,2
Tamsi,136,5
Borkhedi,118,6
Chandas,125,6
Wanoja,50,2
R.H.Karanja,114,9
Shirsala,192,6
Mop,126,4
Umari,78,4
Borala,182,1
Lohara,117,7
Kasola,93,1
Chandhai,66,3
Kalamba BK,188,6
Manoli Kasola,176,3
Sonkhas,91,5
Risod 1,67,1
Risod 2,155,10
Risod 3,189,1
District Maleria Office,98,9
Palaskhed,98,6
Warla,159,8
Kenwad,182,6
Mohari,141,8
Bhambdevi,70,10
Wakad,123,9
Tandali Shevai,190,9
Pangri Nawghare,168,3
Kata,156,6
Givha,82,1
Adoli,103,5
Irala,111,5
Sheluwada,103,2
Manbha,130,3
Chikhali,87,4
Kawardari,171,8
Bhadshivani,111,3
Kinhiraja,136,6
R.H.Malegaon,152,1
Umarda (bajar),157,9
Dhotra Jahangir,161,3
Gavha,56,2
Pendgaon,52,2
Karanji,164,3
Pangrabandi,196,9
Girholi,121,1
Haral,69,4
Malegaon 2,87,5
Poha,67,1
Sohal,164,4
Kondala Zanbare,196,3
Dhumka,188,9
Mop,72,10
R.H.Kamargaon,104,4
Tarhala,154,6
Masla pen,148,2
Manora 1,144,9
Fulumari,116,7
Hirangi,176,3
Rajgaon,176,5
District Hospital Washim,92,8
Sonkhas,130,5
Asegaon,113,5
Falegaon,57,10
Kinhiraja,93,4
Kamatha,57,4
Hivara,113,10
Pardi Takmor,129,1
Mungala,190,9
Wai,86,5
Dhanora,183,8
Kolambi,58,1
Babhulgaon,129,7
Kasola,50,4
Kamargaon1,54,9
Malegaon 1,133,9
Ansing 1,69,8
Koyali BK.,173,5
Mahagaon,159,4
Kalamba Bk.,169,8
Jaulka,131,8
Mohari,198,5
Kekatumara,124,7
Dhanaj Kh.,169,2
Amanwadi,144,4
Bhadjahangir,198,6
Amkheda,53,9
R.H.Mangrulpir,164,4
Kawatha,73,9
Kasola,158,4
Motsavanga,177,8
Umra Shamshoddin,69,9
Hatana,72,1
Davha,89,8
Soyjana,149,5
Rajura,66,4
Kajleshwar,125,10
Dhamani,161,3
Kawtha Khu.,124,1
Shirpur2,92,1
Poti,58,2
Asegaon Pen,167,2
Medshi,191,1
Mangul Zanak,124,7
Poharadevi,99,5
Rithad,93,9
Gobhani,162,4
R.H.Risod,153,5
Shaha,115,9
Tondgaon,60,1
Mothegaon,52,10
Umbrda bazar,121,7
Khandala,69,2
Shelu Bajar,105,9
Inza,61,7
Ansing 2,113,10
Tondgaon,65,9
Loni Arab,95,1
Waigaul,178,9
Kondoli,65,8
Kupta,81,2
Sakhardoh,63,8
Mangul Zanak,121,4
Medshi,178,2
Manoli,117,4
Kupta,139,4
Chambhai,65,9
Netansa,189,9
Waroli,174,4
Tandali Bu.,80,5
Dubalwel,167,7
Jaulka,133,8
Shirpur,75,3
Shelu Bajar,100,8
Asegaon,124,8
Manora 2,94,7
Sangaon,104,9
Kokalgaon,67,5
Wasari,66,8
Kothari,56,8
Asola,69,9
Dhanaj Bk.,72,4
Dongarkinhi,185,8
Shirpur1,190,3
Kata,98,5
SavargaonJire,86,5
Pardi Tal,176,1
Shelu Khadse,199,3
Mahagaon,52,5
Zodga,160,6
Chandhai,124,6
Loni,171,4
R.H.Manora,68,4
Bembala,157,5
Sawali,97,10
Pangri kute,117,8
Dapura,112,9
Lehani,109,5
Poha,76,10
Karpa,196,4
Ukali Pen,98,8
Vitholi,132,10
Kamathwada,148,5
Kalamba Mahali,148,3
Shendurjana,180,4
Mandwa,195,6
Kenwad,184,3
Manbha,67,5
Bhoyani,187,5
Malegaon,172,10
Kawthal,91,6
Wanoja,152,10
Chinchama Bhar,190,1
Linga Ko,163,7
Warla,143,6
Inzori,133,3
Dhamani,189,9
Chivara,67,6
Pardi Takomor,134,5
Panchala,132,2
Dhanaj bk,184,9
Eklaspur,122,10
Pimpalgaon,108,3
Shendurjana,89,3
RH ANSING,191,8
Yevta,97,1
Marsul,144,9
Poharadevi,162,2
Gowardhan,126,5
Palodi,170,10
Kumbhi,126,7
Sawad,75,1
Shirpur3,162,2
Tamsi,67,9
Borkhedi,97,6
Chandas,158,4
Wanoja,173,6
R.H.Karanja,154,10
Shirsala,56,9
Mop,174,1
Umari,80,10
Borala,142,6
Lohara,69,9
