Health Facility Name,Number_Of_Beds,Rating
Sadar Hospital Sasaram,76,10
SDH Bikramganj,78,4
SDH Dehri,178,7
UPHC BEDA,107,6
UPHC MORADABAD,63,7
UPHC Bouliya,72,10
Referral Hospital Nasriganj,111,10
Karmaini,110,7
Kaithi,154,4
Masona,131,9
Selash,55,3
Dighita,104,6
Baradih,131,6
Usari,100,9
Jamsona,110,10
Jonhi,74,5
Kajhai,100,1
Khairabhudhar,167,10
Mohani,52,8
Rediya,78,8
Durgadih,88,2
Banauli,95,2
Hata,137,8
Renriyakala,175,2
Ubhawn,127,10
Kenarkala,165,7
Lengarkakai,80,1
Agarsidihra,79,9
Burhwal,65,8
Deo,104,10
Ibrahimpur,158,9
Kusi,159,4
Bharkundia,155,8
Banauli,129,1
CHATAUNA,81,5
Nonsari,164,10
Kharahana,55,3
Akasi,132,7
Chandanpura,80,2
Sonwarsa,130,7
Bank,85,5
APHC Koiria,74,4
Koiria,167,3
Muradabad,61,6
Chamar Dehri (N),130,1
Badyoga,63,8
Sheosagar,85,3
Sotwa,83,10
Kargahar (N),178,6
Siyawak,80,10
Chenari,179,9
Rehal,123,6
Bilari,142,10
Kapasiya,113,2
KOCHAS (N),118,1
Tenduni,118,2
Naouan,180,5
Thorsan,155,10
Akasi (N),137,9
Amouna,146,1
Admapur,53,7
Soli,117,7
APHC Kowath,80,9
Bairipur,120,8
Barka Deo Khaira,153,5
Khiriaon,152,1
Tenuath Mathia,191,9
Ghordihin,117,10
Sadokhar,151,7
Meyari Bazar,179,1
Shahpur,175,7
Badahari,118,8
Gosaldih,143,1
Nasriganj,121,4
Mohanpur,93,7
Kusumhara,57,2
Sanjhauli,180,4
Khutahan,65,6
Nagatoli,115,1
Ulho,90,1
Karup,120,2
APHC Barna Dehri,72,4
Ubhawn,178,8
Uli Banahi,179,8
Surayapura,182,5
Baluahi,122,9
Bishrampur,81,3
APHC Bhimkarup,166,2
Kathrai,176,5
Amra,69,2
Tilouthu,180,6
Gamhariya,85,8
Arila Raghunathpur,165,8
Saraiya,86,7
Leruwa,194,9
Kargahar,55,8
Karpurwa,108,3
Paiga ( APHC),194,5
Baraw Kala (APHC),189,8
Rohtas,63,7
Mokar,152,8
Mani,155,8
APHC Telari,182,6
Bhurkura,196,4
APHC Darihat,61,6
Ugahani,152,5
Dhaundhar,145,7
Diheen,181,7
Dharupur,120,7
Surhuriya,67,9
Jabra,82,7
Malawn,175,9
Belwai,197,3
Chiksil (N),93,1
Chougain,67,7
Bhawarah,164,4
Mednipur,68,8
Nasriganj (N),170,7
Nauhatta,134,8
Chhitani,129,3
Bairiya,98,7
Etarhiya,184,1
Barukahi,76,4
GORARI (N),123,9
Udaypur,157,2
Ganjbharasara,57,5
Panch Pokhari,148,5
Sonhar,153,9
Barahri ( N),162,2
Agrer Khurd,170,7
Saharmedani,60,9
Lilwachh,66,4
Nahauna,177,3
APHC Danwar,73,9
Dhanpurwa,192,8
Hata,183,3
Samardiha,152,9
Barawo,103,2
Baknaura,187,6
Milki,94,7
Khurmabad,148,9
Mathurapur,81,4
Natwar (N),141,9
Dewariya (APHC),134,9
Patluka,156,9
Darigao (N),166,7
Matauli,58,6
Kanjar,134,5
Bhagwalya,142,4
Baligawan,139,10
APHC Paiga,88,5
Chatra,153,7
Kanchanpur,110,3
Mathiya,60,6
Laduai,157,7
Penar,116,6
Kosanda,81,8
Kouriari,115,4
Jaipur,165,1
Tarawn,134,5
Dinara (N),53,10
Lahuara ( N ),79,9
Uchitpur,71,4
Raipur Chor,100,8
Sidhauli,160,7
APHC Chakanhawa,99,7
Parasathua (N),58,1
Ankorha,147,9
Semari,57,10
Mahddiganj,120,1
Sikareya,110,4
Mohania,187,1
APHC Khairahi,109,2
Nauhatta ( PHC),195,6
Sukahra Dehri (N),116,8
Sukahara Dehri ( APHC),113,6
Pipardih,160,2
Nokha (N),56,5
Khariham,122,7
Agarer,72,7
Bhim Karup,77,6
Baradih,190,3
Karakat ( PHC),149,7
Bisrampur,159,10
Ghusikala,148,4
Silari,94,7
Bahuara,146,8
Chaukhanda Chitauli,186,1
Kastar,184,5
Budhua,162,10
Kowath (N),125,9
Gamhariya,144,10
Dawath,157,6
Akasi,102,10
Dhawani Pawani,58,7
Munji,101,7
Paiga (N),137,6
Dhawani,133,2
Balthari,156,1
Sasaram,167,1
APHC Kaupa,111,4
Samahutta,180,10
Imirta,127,2
Derhaon,126,5
Sheobahar,184,6
Ramdihra,172,8
Mahadeva,88,8
APHC Itarhiya,162,3
karkatpur,146,3
Tetradh,125,6
Bakara,71,9
Sujanpur,91,8
Bisrampur,74,4
Silari ( N),83,10
Bhokhari,126,3
Tetrarh (N),101,2
Tiyara Kala,117,4
Silari,102,8
APHC Parsathua,66,6
Chakanhawa (APHC ),50,5
Khairahi ( N),74,8
APHC Tetradh,159,1
Jina Manuli ( APHC ),59,3
Barao,146,8
Pitambarpur,171,3
GHARWASDIH (N),186,6
Shivpur,189,9
Jamrodh,135,10
APHC Baraokala,193,7
Berkap,81,6
Dedhgaon,112,5
Torani,84,2
Surajpura (N),128,5
APHC Natwar,85,8
Nimhat,114,9
Telari,62,1
Gobina,108,8
Karma,147,6
Kusahi,197,9
Kochas,167,10
Gansadih,163,8
Sahpur,131,2
APHC Gharwasdih,95,9
Sanjhauli,65,8
Motha,174,5
Rajpur,59,9
Chandra Kaithi,197,8
Bararhi,141,2
Jamodhi,118,9
Dharampura,147,8
APHC Badahari,58,8
Bhanas ( N),186,6
Etimha,128,4
Padsar,113,8
APHC Lahuara,173,7
Darihat (APHC),109,5
Kurur,188,1
Mednipur,145,4
Narwar,198,4
Bensagar,72,8
Alampur,101,6
Ahraon,130,10
Rashulpur,124,2
Indour,141,6
Bisikala,105,8
Dawath,74,6
APHC Chamardehri,71,5
Amartha,127,8
APHC Gorari,152,1
Paduri,83,6
Sakla,119,5
Torni Baheri,153,7
Hurka,192,4
APHC Sukahra Dehri,86,2
Dehri,124,10
Bilsi Bilaspur,51,3
Mukundpur,78,3
Rajpur,160,7
Kushdhar,162,9
Naunhar,192,1
Bikramganj,179,3
Gori,98,6
Daranagar,112,5
Gowardhanpur,89,5
Shekh Bahauara,197,5
Amri,100,5
Karhansi,110,1
Paduri,66,10
Majhigaon,151,8
Dhankadha,146,10
Kapasiya,116,5
kosanda khurd,169,9
Jainagra,64,8
Sisrit,105,6
ITARIYA (N),183,7
Akorhi,55,8
Tilokhar,61,1
Gotapa,113,10
Manihari,136,1
APHC Deowaria,162,5
Bikramganj (N),198,9
Bhadra,187,6
Beda,171,3
Parasiyan,80,8
Barna Dehri (N),139,10
Mahuli,125,5
Jina Manauli (N),165,3
Basdiha,189,5
Arila Raghunathpur ( N),70,2
Araruwa,149,4
APHC Bhanas,164,5
Katiyara,61,1
Bhanpur,110,6
Madhurampur,69,2
Purvi Bhelari,181,1
Babhnaul,73,6
Doiyan,161,1
Jamuhar,50,4
Karwanida,116,9
Laheri,79,1
Nokha,54,8
Maidhara,199,7
KAUPA (N),104,7
Parsiya,125,2
Nekra,52,10
Dinara,169,5
APHC Jina Manauli,137,3
Darigao,79,7
Kachhawan,100,6
DANWAR (N),62,6
Karakat,55,10
APHC Chiksil,97,1
Itwan,78,10
Chilbila,196,8
Pahleja,62,1
Awadhi,82,8
Nad,141,3
Salempur,69,5
Parasiya Kalan,81,8
Sikraul,153,1
Osawan,196,6
Panjar,107,6
Babhani Pahari,131,1
Akorha,113,3
Pakadiya,102,6
Gharbair,125,8
Malhipur,78,2
Akorhigola,119,6
Sadar Hospital Sasaram,138,6
SDH Bikramganj,76,3
SDH Dehri,81,7
UPHC BEDA,197,9
UPHC MORADABAD,118,5
UPHC Bouliya,73,3
Referral Hospital Nasriganj,143,10
Karmaini,57,10
Kaithi,100,8
Masona,148,3
Selash,55,8
Dighita,115,10
Baradih,119,1
Usari,87,3
Jamsona,111,10
Jonhi,165,10
Kajhai,167,6
Khairabhudhar,109,1
Mohani,71,8
Rediya,135,7
Durgadih,107,3
Banauli,189,8
Hata,69,9
Renriyakala,127,1
Ubhawn,55,6
Kenarkala,116,6
Lengarkakai,62,1
Agarsidihra,98,9
Burhwal,106,8
Deo,110,6
Ibrahimpur,184,5
Kusi,97,1
Bharkundia,138,10
Banauli,75,10
CHATAUNA,77,1
Nonsari,142,2
Kharahana,172,7
Akasi,71,8
Chandanpura,145,10
Sonwarsa,162,5
Bank,133,3
APHC Koiria,191,5
Koiria,132,4
Muradabad,196,8
Chamar Dehri (N),122,4
Badyoga,131,3
Sheosagar,120,2
Sotwa,64,8
Kargahar (N),53,7
Siyawak,104,8
Chenari,93,9
Rehal,183,6
Bilari,105,10
Kapasiya,120,5
KOCHAS (N),64,7
Tenduni,57,2
Naouan,184,4
Thorsan,120,8
Akasi (N),119,6
Amouna,55,2
Admapur,71,8
Soli,115,10
APHC Kowath,75,9
Bairipur,113,2
Barka Deo Khaira,84,2
Khiriaon,63,1
Tenuath Mathia,114,4
Ghordihin,189,4
Sadokhar,76,2
Meyari Bazar,117,7
Shahpur,185,2
Badahari,198,10
Gosaldih,80,7
Nasriganj,121,7
Mohanpur,161,8
Kusumhara,59,6
Sanjhauli,67,1
Khutahan,140,6
Nagatoli,118,7
Ulho,90,5
Karup,81,8
APHC Barna Dehri,156,4
Ubhawn,168,1
Uli Banahi,107,8
Surayapura,70,7
Baluahi,118,9
Bishrampur,169,2
APHC Bhimkarup,110,8
Kathrai,108,9
Amra,191,7
Tilouthu,162,5
Gamhariya,96,6
Arila Raghunathpur,57,2
Saraiya,161,7
Leruwa,119,5
Kargahar,82,8
Karpurwa,81,9
Paiga ( APHC),75,1
Baraw Kala (APHC),140,1
Rohtas,97,10
Mokar,128,5
Mani,164,1
APHC Telari,194,6
Bhurkura,174,2
APHC Darihat,52,7
Ugahani,69,6
Dhaundhar,173,7
Diheen,148,6
Dharupur,193,7
Surhuriya,151,3
Jabra,155,4
Malawn,159,10
Belwai,198,9
Chiksil (N),50,8
Chougain,68,6
Bhawarah,133,2
Mednipur,126,5
Nasriganj (N),135,9
Nauhatta,133,3
Chhitani,139,10
Bairiya,131,2
Etarhiya,147,8
Barukahi,62,9
GORARI (N),173,2
Udaypur,127,7
Ganjbharasara,65,2
Panch Pokhari,75,2
Sonhar,96,6
Barahri ( N),89,8
Agrer Khurd,97,8
Saharmedani,142,10
Lilwachh,190,4
Nahauna,138,3
APHC Danwar,170,9
Dhanpurwa,184,10
Hata,184,10
Samardiha,92,10
Barawo,155,8
Baknaura,72,7
Milki,113,3
Khurmabad,120,2
Mathurapur,190,4
Natwar (N),188,3
Dewariya (APHC),146,7
Patluka,56,7
Darigao (N),179,8
Matauli,112,9
Kanjar,88,3
Bhagwalya,159,7
Baligawan,101,4
APHC Paiga,182,5
Chatra,65,5
Kanchanpur,156,4
Mathiya,171,7
Laduai,57,1
Penar,197,6
Kosanda,168,1
Kouriari,150,9
Jaipur,78,9
Tarawn,158,9
Dinara (N),124,4
Lahuara ( N ),198,10
Uchitpur,140,1
Raipur Chor,140,8
Sidhauli,86,4
APHC Chakanhawa,199,1
Parasathua (N),54,10
Ankorha,190,5
Semari,166,7
Mahddiganj,127,4
Sikareya,171,7
Mohania,97,9
APHC Khairahi,101,5
Nauhatta ( PHC),68,9
Sukahra Dehri (N),152,3
Sukahara Dehri ( APHC),55,3
Pipardih,91,4
Nokha (N),178,2
Khariham,99,10
Agarer,123,4
Bhim Karup,176,5
Baradih,94,7
Karakat ( PHC),169,5
Bisrampur,165,6
Ghusikala,179,9
Silari,122,2
Bahuara,74,8
Chaukhanda Chitauli,188,2
Kastar,128,2
Budhua,136,1
Kowath (N),66,8
Gamhariya,195,1
Dawath,136,2
Akasi,153,9
Dhawani Pawani,196,10
Munji,139,8
Paiga (N),173,5
Dhawani,98,3
Balthari,160,3
Sasaram,119,6
APHC Kaupa,83,3
Samahutta,149,4
Imirta,83,3
Derhaon,136,8
Sheobahar,134,6
Ramdihra,139,7
Mahadeva,85,6
APHC Itarhiya,150,3
karkatpur,162,1
Tetradh,143,10
Bakara,192,8
Sujanpur,94,9
Bisrampur,136,5
Silari ( N),137,4
Bhokhari,198,4
Tetrarh (N),88,2
Tiyara Kala,55,1
Silari,165,9
APHC Parsathua,59,10
Chakanhawa (APHC ),128,5
Khairahi ( N),146,1
APHC Tetradh,91,10
Jina Manuli ( APHC ),158,3
Barao,150,7
Pitambarpur,162,7
GHARWASDIH (N),142,5
Shivpur,108,7
Jamrodh,110,8
APHC Baraokala,160,2
Berkap,94,7
Dedhgaon,68,4
Torani,88,8
Surajpura (N),144,6
APHC Natwar,85,2
Nimhat,174,10
Telari,147,2
Gobina,88,5
Karma,108,2
Kusahi,50,9
Kochas,160,3
Gansadih,61,7
Sahpur,88,10
APHC Gharwasdih,103,6
Sanjhauli,80,10
Motha,59,5
Rajpur,102,1
Chandra Kaithi,116,3
Bararhi,160,3
Jamodhi,130,10
Dharampura,177,5
APHC Badahari,120,5
Bhanas ( N),198,8
Etimha,102,3
Padsar,89,7
APHC Lahuara,121,4
Darihat (APHC),140,10
Kurur,113,2
Mednipur,188,8
Narwar,149,2
Bensagar,137,7
Alampur,132,5
Ahraon,111,4
Rashulpur,54,2
Indour,156,1
Bisikala,86,2
Dawath,59,9
APHC Chamardehri,85,2
Amartha,77,9
APHC Gorari,167,10
Paduri,187,2
Sakla,130,5
Torni Baheri,69,2
Hurka,148,9
APHC Sukahra Dehri,195,1
Dehri,165,9
Bilsi Bilaspur,184,9
Mukundpur,137,2
Rajpur,113,6
Kushdhar,60,10
Naunhar,125,10
Bikramganj,178,2
Gori,89,5
Daranagar,57,10
Gowardhanpur,106,3
Shekh Bahauara,65,5
Amri,106,8
Karhansi,199,6
Paduri,55,8
Majhigaon,64,3
Dhankadha,148,1
Kapasiya,148,7
kosanda khurd,150,1
Jainagra,123,7
Sisrit,197,1
ITARIYA (N),149,3
Akorhi,116,2
Tilokhar,100,2
Gotapa,132,10
Manihari,100,6
APHC Deowaria,115,8
Bikramganj (N),85,7
Bhadra,68,8
Beda,143,2
Parasiyan,191,6
Barna Dehri (N),117,3
Mahuli,116,7
Jina Manauli (N),85,6
Basdiha,138,7
Arila Raghunathpur ( N),182,10
Araruwa,141,2
APHC Bhanas,60,7
Katiyara,182,2
Bhanpur,131,9
Madhurampur,119,5
Purvi Bhelari,188,5
Babhnaul,187,10
Doiyan,182,10
Jamuhar,183,6
Karwanida,86,1
Laheri,185,4
Nokha,195,5
Maidhara,98,5
KAUPA (N),192,4
Parsiya,79,6
Nekra,124,4
Dinara,117,5
APHC Jina Manauli,70,3
Darigao,159,10
Kachhawan,66,8
DANWAR (N),117,1
Karakat,64,2
APHC Chiksil,162,7
Itwan,88,1
Chilbila,73,3
Pahleja,93,9
Awadhi,69,6
Nad,152,10
Salempur,74,4
Parasiya Kalan,110,8
Sikraul,139,6
Osawan,139,1
Panjar,56,10
Babhani Pahari,145,5
Akorha,156,3
Pakadiya,163,2
Gharbair,57,8
Malhipur,196,6
Akorhigola,124,7
