Health Facility Name,Number_Of_Beds,Rating
SC Hija,76,9
SC Depo,79,9
SC Radhpu,189,9
SC Seya,177,3
SC Ambam,115,7
SC Kemliko,172,2
SC Radum,96,10
SC Aye,98,7
SC Tamen,169,4
SC Bus Camp,101,10
SC Repari,177,3
SC Tanyang Putu,53,7
SC Rottom,131,1
SC Tayo,112,3
SC Tajgi,54,3
PHC Terrijo,131,2
SC Sito,109,1
PHC Dollungmukh,60,10
SC Hong,159,8
PHC Raga,166,4
GH Ziro,106,8
SC Miya,86,5
SC Manipolyang,176,9
SC Boa Simla (Notional),97,8
SC Loth,68,8
SC Hari,199,5
SC Pania,99,8
CHC Old Ziro,89,10
SC Ziro (Notional),104,8
SC Peel-Joram,175,7
SC Raga (Notional),104,9
SC Kuch-Kut,167,10
CHC Yazali,112,7
SC Dem - I,103,1
PHC Deed Neelam,100,9
SC Kamporijo,56,6
SC Tadarko,187,1
SC Siiro,88,6
SC Yattap,76,8
PHC Yachuli,126,10
PHC Pistana,107,6
SC Old Ziro (Notional),54,7
SC Pistana (Notional),52,1
SC Bello,142,10
SC Dollungmukh (Notional),98,10
SC Yorkum,171,4
SC Deed (Notional ),136,1
SC Mengi-Kabak,168,5
SC Miya,60,10
SC Joram,174,6
SC Poru,169,6
SC Sito,78,5
SC Bulla,162,10
PHC Boa Simla,75,5
SC Godak,87,8
SC Mai,155,10
SC Tal,89,4
SC Yachuli (Notional),181,1
SC Taya Simla,186,10
SC Yoglu,85,2
PHC Talo,149,1
PHC Poru,50,10
SC Yazali (Notional),156,6
SC Ambam,183,9
SC Dem,84,5
SC Hija,165,4
SC Depo,165,3
SC Radhpu,101,6
SC Seya,96,6
SC Ambam,64,7
SC Kemliko,145,1
SC Radum,82,3
SC Aye,186,7
SC Tamen,74,5
SC Bus Camp,63,10
SC Repari,148,3
SC Tanyang Putu,87,3
SC Rottom,126,5
SC Tayo,85,8
SC Tajgi,170,8
PHC Terrijo,101,9
SC Sito,89,1
PHC Dollungmukh,109,8
SC Hong,115,8
PHC Raga,60,1
GH Ziro,172,9
SC Miya,50,10
SC Manipolyang,188,8
SC Boa Simla (Notional),96,9
SC Loth,114,9
SC Hari,142,9
SC Pania,153,4
CHC Old Ziro,177,3
SC Ziro (Notional),78,10
SC Peel-Joram,73,6
SC Raga (Notional),178,10
SC Kuch-Kut,187,3
CHC Yazali,133,7
SC Dem - I,78,3
PHC Deed Neelam,99,4
SC Kamporijo,113,9
SC Tadarko,125,3
SC Siiro,90,9
SC Yattap,51,10
PHC Yachuli,136,9
PHC Pistana,131,3
SC Old Ziro (Notional),169,8
SC Pistana (Notional),154,7
SC Bello,65,9
SC Dollungmukh (Notional),98,10
SC Yorkum,110,5
SC Deed (Notional ),140,6
SC Mengi-Kabak,115,5
SC Miya,76,9
SC Joram,165,9
SC Poru,199,3
SC Sito,129,10
SC Bulla,68,3
PHC Boa Simla,141,1
SC Godak,189,2
SC Mai,53,2
SC Tal,70,8
SC Yachuli (Notional),58,6
SC Taya Simla,195,1
SC Yoglu,145,10
PHC Talo,132,5
PHC Poru,67,7
SC Yazali (Notional),188,8
SC Ambam,109,8
SC Dem,77,5
