Health Facility Name,Number_Of_Beds,Rating
Heirok CHC,53,8
Charangpat PHC,198,1
PHSC Uchiwa Turel Wangma,155,1
PHSC Haoreibi Mayai Leikai,155,6
Wangjing PHC,87,8
PHSC Irengband Thoibi Bazar,92,9
CHC Haoreibi Makha Leikai,122,10
PHSC Thokchom Bengi,88,6
PHSC Phoudel Keirambi,68,2
PHSC Khangabok,147,8
PHSC  Haoreibi Turel Ahanbi,66,9
PHSC Tentha,62,8
PHSC Thoubal Khunou,136,6
PHSC Waikhong,83,4
PHSC Tekcham,131,3
PHSC Chaobok Kabui,75,8
PHSC Arong Tera,189,4
PHSC Maibam Konjin,195,8
PHSC Mayeng Lamjao,113,6
PHSC Elangkhangpokpi,191,10
PHSC Lisamlok,168,9
Khoirom PHC,130,10
PHSC Chandrakhong,97,2
PHSC Ukhongsang,69,1
PHSC Moijing,156,6
PHSC Khekman,160,8
Thoubal District Hospital,136,5
Nongpok Sekmai PHC,88,9
Kakching Khunou PHC,122,1
PHSC Athokpam,101,2
UHCThoubal,66,1
PHSC Leirongthel Malom,77,8
Wangoo Laipham PHC,136,3
Yairipok CHC,168,9
PHSC Wabagai,75,6
PHSC Mantak,115,3
PHSC Irong Chesaba,175,4
PHSC Wangkhem,164,9
Hiyanglam PHC,55,6
PHSC Kshetri Leikai Moirangpurel,195,10
PHSC Santhel Lital Makhong,193,1
PHSC Kiyam Litanpok,167,5
PHSC Langmeidong,108,1
PHSC Irong Khunou,105,8
PHSC Heibong Makhong,115,6
Pallel PHC,85,3
PHSC Thoubal Wangmataba,144,5
Sugnu CHC,195,6
PHSC Langathel,69,9
PHSC Nungei,183,8
PHSC Waithou,78,10
Khongjom PHC,151,10
PHSC Phundrei,140,8
UPHC Phouden,181,5
Kiyam Litanpok,163,3
PHSC Pangaltabi,87,1
PHSC Salungpham,187,9
PHSC Sangaiyumpham,108,4
Kakching CHC,197,8
PHSC Nungoo Chairel,87,3
PHSC Thokchom Bengi,81,7
PHSC Thoubal Ningombam,146,6
PHSC Khoirom Kekru,59,4
Leisangthem PHC,89,10
PHSC Thongam,175,7
PHSC Keirak Kangjeibung,142,3
Serou PHC,195,5
PHSC Oinam Sawombung,98,4
PHSC Sora,178,3
Lilong PHC,159,4
PHSC Leirongthel Pitra,175,6
Heirok CHC,54,5
Charangpat PHC,147,8
PHSC Uchiwa Turel Wangma,137,7
PHSC Haoreibi Mayai Leikai,169,4
Wangjing PHC,64,3
PHSC Irengband Thoibi Bazar,184,5
CHC Haoreibi Makha Leikai,105,9
PHSC Thokchom Bengi,194,8
PHSC Phoudel Keirambi,68,8
PHSC Khangabok,62,4
PHSC  Haoreibi Turel Ahanbi,87,5
PHSC Tentha,174,10
PHSC Thoubal Khunou,124,3
PHSC Waikhong,175,1
PHSC Tekcham,121,10
PHSC Chaobok Kabui,128,2
PHSC Arong Tera,81,4
PHSC Maibam Konjin,111,1
PHSC Mayeng Lamjao,96,9
PHSC Elangkhangpokpi,92,4
PHSC Lisamlok,93,6
Khoirom PHC,187,10
PHSC Chandrakhong,59,7
PHSC Ukhongsang,87,7
PHSC Moijing,99,7
PHSC Khekman,198,5
Thoubal District Hospital,150,8
Nongpok Sekmai PHC,178,5
Kakching Khunou PHC,132,10
PHSC Athokpam,96,3
UHCThoubal,98,5
PHSC Leirongthel Malom,116,4
Wangoo Laipham PHC,67,4
Yairipok CHC,153,8
PHSC Wabagai,88,9
PHSC Mantak,127,7
PHSC Irong Chesaba,168,4
PHSC Wangkhem,51,10
Hiyanglam PHC,161,3
PHSC Kshetri Leikai Moirangpurel,199,7
PHSC Santhel Lital Makhong,112,8
PHSC Kiyam Litanpok,120,8
PHSC Langmeidong,120,7
PHSC Irong Khunou,126,4
PHSC Heibong Makhong,111,8
Pallel PHC,138,8
PHSC Thoubal Wangmataba,74,3
Sugnu CHC,95,4
PHSC Langathel,96,4
PHSC Nungei,135,7
PHSC Waithou,172,5
Khongjom PHC,143,8
PHSC Phundrei,57,3
UPHC Phouden,166,9
Kiyam Litanpok,96,7
PHSC Pangaltabi,171,6
PHSC Salungpham,81,5
PHSC Sangaiyumpham,60,6
Kakching CHC,87,4
PHSC Nungoo Chairel,79,7
PHSC Thokchom Bengi,91,6
PHSC Thoubal Ningombam,150,5
PHSC Khoirom Kekru,89,7
Leisangthem PHC,98,7
PHSC Thongam,192,1
PHSC Keirak Kangjeibung,90,10
Serou PHC,175,10
PHSC Oinam Sawombung,99,1
PHSC Sora,80,5
Lilong PHC,151,3
PHSC Leirongthel Pitra,63,1
