Health Facility Name,Number_Of_Beds,Rating
UPHC-1,157,3
UPHC-2 Tatoriya,197,10
SHC KENDI,186,1
SHC Amarpura,104,3
SHC Nagda,171,7
SHC Amroniya,146,3
SHC Niwar,114,8
PHC Alipura,189,1
SHC Jhijhan,94,8
SHC Nadgaen,91,8
PHC Lakhanguan,66,6
SHC Churwari,61,10
SHC Pipat,146,7
SHC Rampur,180,8
SHC Thakurra,77,6
PHC Chandranagar,60,6
SHC Nidhauli,86,3
SHC Panagar,96,8
SHC Revna,79,4
SHC Mahuajhala,180,1
SHC Udaypura,139,1
SHC Tikuri,102,9
SHC Kishangarh,83,5
SHC Maharajganj,160,10
SHC Gaharwar,148,4
SHC Gahbara,141,6
SHC Panotha,116,3
PHC Maharajpur,130,9
SHC Bandni,124,10
SHC Bandha Chandoli,154,4
SHC Pahra,199,4
PHC Sarvai,130,8
SHC Sadwa,63,7
SHC Ramtoriya,123,8
SHC Lakhanguan,73,5
SHC Bhaira,191,9
PHC Basari,174,4
SHC Banjari,119,9
DH CHHATARPUR,73,9
SHC Madhopur,50,9
SHC Sarvai,115,3
SHC Saurai,104,8
SHC Nand,174,5
SHC Hatwaha,52,4
SHC Bajna,188,1
SHC Bamnora,114,1
PHC Lahera Purwa,143,1
SHC Padwaha,104,2
CHC Bada Malhera,139,4
CHC Nowgong,192,1
SHC Barethi,108,10
SHC Maniya,67,6
SHC Badaura Kala,184,4
SHC Shahgarh,169,4
SHC Panwari,131,4
SHC Didwara,121,7
SHC Gadohi,187,2
CHC Gaurihar,189,1
PHC Harpalpur,164,5
SHC Mad Devra,123,5
SHC Rajapur,51,6
SHC Bamhori,170,10
SHC Sewadi,64,10
SHC Chandwara,179,7
SHC Bhagwan,135,8
SHC Jaitupura,197,8
SHC Midka,149,5
SHC Mungwari,113,4
SHC Churiyari,161,7
SHC Ghuwara,81,5
CHC Khajuraho,116,9
SHC Deori,51,3
PHC Bajna,73,3
SHC Palta,176,4
PHC Kurraha,71,10
SHC Bagauta,145,3
PHC Khadeha,146,4
SHC Chandpura,69,4
SHC Deri,177,5
PHC Karri,159,7
SHC Gauhani,97,3
SHC Ranguwa,175,7
SHC Ganj,141,5
SHC Alipura,83,9
SHC Atrar,66,7
SHC Dauni,87,5
CHC Ghuwara,115,1
SHC Kalani,55,8
SHC Mau,122,2
SHC Chauber,167,8
SHC Chhati Bamhori,181,3
SHC Bagmau,164,7
SHC Thara,117,5
PHC Rajnagar,189,3
SHC Purmau,128,8
SHC Khaddi,193,10
SHC Ghinochi,80,1
SHC Devran,85,3
CHC Kishangarh,137,10
PHC Dawad,101,1
PHC Garroli,135,3
SHC Garha,131,10
SHC Devra,64,9
SHC Ranital,99,6
SHC Maheba,168,7
SHC Kupi,168,5
SHC Parsaniya,69,3
SHC Kurraha,162,8
PHC Chhati Bamhori,177,8
SHC Raopur,168,4
PHC Gulganj,154,3
SHC Atkohan,91,8
SHC Kutora,154,4
SHC Garroli,159,5
PHC Chandla,66,1
SHC Salaiya,131,4
SHC Urdmau,198,3
SHC Neguwan,52,9
SHC Manuriya,95,6
SHC Lakheri,102,9
SHC Khera Kasar,142,5
SHC Matguwan,190,3
SHC Padariya,136,7
PHC Matguan,63,5
PHC Ramnagar Kanti,135,3
SHC Sandni,70,9
SHC Bhadar,165,3
PHC Angaur,90,10
SHC Jaitpur,161,10
SHC Bandha Simariya,102,9
PHC Bhagwan,152,1
SHC Karhari,120,9
SHC Kotheha,179,10
SHC Mankari,117,10
SHC Khadeha,83,7
SHC Hatwa,130,8
PHC Satai,180,9
SHC Imaliya,194,1
PHC Bamitha,96,1
PHC Gadimalhera,126,3
SHC Bangay,126,1
SHC Chithari,105,4
SHC Gorakhpura,118,7
SHC Madhopur,59,3
SHC Hinota,127,7
SHC Sijai,159,6
PHC Barigarh,79,10
SHC Imiliya,67,1
SHC Sarani,186,3
CHC Bijawar,116,5
SHC Maharajpur,158,2
SHC Kurela,191,4
SHC Lugasi,125,7
SHC Kherakala,95,8
SHC Tilohan,63,7
SHC Singpur,150,3
SHC Chauka,137,7
SHC Singhpur,126,10
SHC Gadimalhera,83,6
SHC Himmatpura,54,9
SHC Badagaon,59,1
SHC Pahra Purwa,141,8
SHC Biharwara,133,10
SHC Sarsed,78,2
SHC Lalpur,58,3
SHC Neguwa,123,6
SHC Dauriya,104,1
SHC Dhanguan,151,9
SHC Nahdora,52,2
PHC Jhamtuli,175,10
CHC Isanagar,64,7
SHC Padariya,92,8
PHC Devra,176,4
SHC Surajpura Khurd,59,2
SHC Chandranagar,140,7
SHC Sukwan,66,3
SHC Saidara,108,5
SHC Parwa,74,4
SHC Dhamora,135,4
SHC Simariya,89,7
SHC Niwari,118,8
PHC Munderi,96,1
SHC Kaimaha,102,6
SHC Patharguan,110,1
SHC Ragauli,58,5
SHC Barha,152,6
SHC Jyoraha,113,4
SHC Ghoora,69,4
PHC Vikrampur,56,3
SHC Bandha Chamroi,135,4
SHC Kurminpurwa,131,4
SHC Basari,143,4
SHC Balkaura,172,3
SHC Pathada,167,8
SHC Surajpura,165,7
SHC Pahadi Sapoha,150,8
SHC Nainagir,158,10
PHC Sendhpa,197,3
SHC Lahera,147,10
SHC Gulat,99,4
SHC Jhamtuli,74,5
SHC Brajpura,101,3
SHC Bachhon,96,5
PHC Bamnora,196,7
SHC Palkoha,91,6
SHC Prakash Bamhori,186,10
SHC Salaiya,76,10
PHC Silon,83,4
SHC Nadgay,191,5
SHC Pahadgaon,105,7
SHC Devri,180,9
SHC Kutia,114,2
PHC Pahra,119,1
SHC Munderi,162,7
SHC Ujara,132,10
SHC Khajwa,88,3
SHC Sendhpa,160,1
SHC Patha,167,10
CHC Buxwaha,166,2
SHC Dhamna,58,5
SHC Kurra,108,9
CHC Laundi,134,10
SHC Angaur,61,8
SHC Kharrohi,77,5
SHC Beeron,182,1
SHC Darguan,91,3
SHC Futwari,123,9
SHC Majhguan Ghati,70,8
SHC Dharampura,134,6
SHC Rangawan,142,3
PHC Ramtoriya,147,7
PHC Lugasi,87,10
SHC Bilhari,182,1
SHC Ragouli,50,3
SHC Sunwaha,56,7
SHC Gudha,87,10
SHC Sorkhi,162,6
SHC Bharatpura,67,8
SHC Tatam,171,6
SHC Purwa Bamhori,177,3
SHC Baron,184,4
SHC Dumra,68,6
SHC Kariyanala,111,7
SHC Harpalpur,183,4
SHC Gulganj,57,8
UPHC-1,193,9
UPHC-2 Tatoriya,117,6
SHC KENDI,165,3
SHC Amarpura,149,3
SHC Nagda,97,1
SHC Amroniya,76,4
SHC Niwar,89,5
PHC Alipura,142,6
SHC Jhijhan,75,7
SHC Nadgaen,149,8
PHC Lakhanguan,137,6
SHC Churwari,60,6
SHC Pipat,73,9
SHC Rampur,152,9
SHC Thakurra,68,2
PHC Chandranagar,70,10
SHC Nidhauli,177,2
SHC Panagar,127,8
SHC Revna,111,2
SHC Mahuajhala,55,10
SHC Udaypura,194,9
SHC Tikuri,95,8
SHC Kishangarh,95,5
SHC Maharajganj,128,6
SHC Gaharwar,90,7
SHC Gahbara,125,9
SHC Panotha,86,7
PHC Maharajpur,168,10
SHC Bandni,126,8
SHC Bandha Chandoli,149,1
SHC Pahra,142,7
PHC Sarvai,106,8
SHC Sadwa,168,5
SHC Ramtoriya,87,2
SHC Lakhanguan,90,10
SHC Bhaira,100,6
PHC Basari,197,8
SHC Banjari,183,4
DH CHHATARPUR,136,4
SHC Madhopur,120,5
SHC Sarvai,77,5
SHC Saurai,160,10
SHC Nand,92,2
SHC Hatwaha,94,3
SHC Bajna,126,7
SHC Bamnora,153,10
PHC Lahera Purwa,79,9
SHC Padwaha,85,10
CHC Bada Malhera,115,1
CHC Nowgong,125,5
SHC Barethi,195,6
SHC Maniya,79,10
SHC Badaura Kala,181,7
SHC Shahgarh,125,5
SHC Panwari,159,4
SHC Didwara,67,9
SHC Gadohi,82,7
CHC Gaurihar,146,6
PHC Harpalpur,94,4
SHC Mad Devra,89,2
SHC Rajapur,89,2
SHC Bamhori,145,3
SHC Sewadi,111,5
SHC Chandwara,133,2
SHC Bhagwan,102,2
SHC Jaitupura,105,6
SHC Midka,98,4
SHC Mungwari,86,7
SHC Churiyari,174,3
SHC Ghuwara,50,2
CHC Khajuraho,78,9
SHC Deori,193,7
PHC Bajna,105,9
SHC Palta,124,7
PHC Kurraha,174,3
SHC Bagauta,136,10
PHC Khadeha,159,1
SHC Chandpura,59,3
SHC Deri,143,7
PHC Karri,126,9
SHC Gauhani,74,2
SHC Ranguwa,126,1
SHC Ganj,130,4
SHC Alipura,171,8
SHC Atrar,102,9
SHC Dauni,186,2
CHC Ghuwara,137,2
SHC Kalani,131,3
SHC Mau,194,7
SHC Chauber,58,6
SHC Chhati Bamhori,53,1
SHC Bagmau,135,4
SHC Thara,61,6
PHC Rajnagar,161,7
SHC Purmau,183,4
SHC Khaddi,146,5
SHC Ghinochi,169,1
SHC Devran,181,1
CHC Kishangarh,159,1
PHC Dawad,144,8
PHC Garroli,107,5
SHC Garha,51,10
SHC Devra,178,9
SHC Ranital,50,10
SHC Maheba,60,9
SHC Kupi,105,1
SHC Parsaniya,169,2
SHC Kurraha,182,1
PHC Chhati Bamhori,89,1
SHC Raopur,132,8
PHC Gulganj,86,6
SHC Atkohan,139,2
SHC Kutora,88,1
SHC Garroli,165,7
PHC Chandla,92,1
SHC Salaiya,92,4
SHC Urdmau,77,5
SHC Neguwan,198,3
SHC Manuriya,180,1
SHC Lakheri,97,7
SHC Khera Kasar,119,3
SHC Matguwan,64,8
SHC Padariya,193,6
PHC Matguan,60,3
PHC Ramnagar Kanti,77,3
SHC Sandni,117,9
SHC Bhadar,68,1
PHC Angaur,118,10
SHC Jaitpur,66,3
SHC Bandha Simariya,120,9
PHC Bhagwan,117,7
SHC Karhari,66,8
SHC Kotheha,112,10
SHC Mankari,88,5
SHC Khadeha,66,6
SHC Hatwa,155,8
PHC Satai,125,1
SHC Imaliya,181,5
PHC Bamitha,91,6
PHC Gadimalhera,116,6
SHC Bangay,176,1
SHC Chithari,166,4
SHC Gorakhpura,120,8
SHC Madhopur,137,8
SHC Hinota,157,5
SHC Sijai,103,8
PHC Barigarh,173,6
SHC Imiliya,154,2
SHC Sarani,124,8
CHC Bijawar,178,3
SHC Maharajpur,148,6
SHC Kurela,113,6
SHC Lugasi,137,3
SHC Kherakala,106,5
SHC Tilohan,120,6
SHC Singpur,175,10
SHC Chauka,131,1
SHC Singhpur,80,3
SHC Gadimalhera,68,2
SHC Himmatpura,115,10
SHC Badagaon,96,3
SHC Pahra Purwa,101,9
SHC Biharwara,125,8
SHC Sarsed,147,5
SHC Lalpur,91,7
SHC Neguwa,122,8
SHC Dauriya,99,9
SHC Dhanguan,112,4
SHC Nahdora,82,9
PHC Jhamtuli,98,3
CHC Isanagar,147,10
SHC Padariya,51,1
PHC Devra,197,9
SHC Surajpura Khurd,72,2
SHC Chandranagar,50,9
SHC Sukwan,57,2
SHC Saidara,85,9
SHC Parwa,110,4
SHC Dhamora,199,4
SHC Simariya,179,2
SHC Niwari,149,5
PHC Munderi,175,2
SHC Kaimaha,66,6
SHC Patharguan,90,10
SHC Ragauli,189,5
SHC Barha,145,9
SHC Jyoraha,124,4
SHC Ghoora,158,2
PHC Vikrampur,149,2
SHC Bandha Chamroi,191,8
SHC Kurminpurwa,113,10
SHC Basari,61,10
SHC Balkaura,162,9
SHC Pathada,192,3
SHC Surajpura,70,3
SHC Pahadi Sapoha,186,7
SHC Nainagir,133,3
PHC Sendhpa,100,9
SHC Lahera,143,4
SHC Gulat,106,8
SHC Jhamtuli,166,9
SHC Brajpura,56,6
SHC Bachhon,89,1
PHC Bamnora,144,3
SHC Palkoha,127,6
SHC Prakash Bamhori,113,10
SHC Salaiya,63,3
PHC Silon,95,2
SHC Nadgay,133,3
SHC Pahadgaon,153,8
SHC Devri,173,4
SHC Kutia,80,3
PHC Pahra,170,7
SHC Munderi,84,10
SHC Ujara,74,2
SHC Khajwa,68,3
SHC Sendhpa,120,5
SHC Patha,182,4
CHC Buxwaha,89,7
SHC Dhamna,161,1
SHC Kurra,101,6
CHC Laundi,129,5
SHC Angaur,96,7
SHC Kharrohi,61,6
SHC Beeron,87,1
SHC Darguan,63,2
SHC Futwari,91,5
SHC Majhguan Ghati,185,3
SHC Dharampura,198,4
SHC Rangawan,161,10
PHC Ramtoriya,67,7
PHC Lugasi,68,3
SHC Bilhari,58,10
SHC Ragouli,107,1
SHC Sunwaha,176,2
SHC Gudha,185,4
SHC Sorkhi,185,8
SHC Bharatpura,86,8
SHC Tatam,132,10
SHC Purwa Bamhori,168,7
SHC Baron,55,2
SHC Dumra,135,2
SHC Kariyanala,161,1
SHC Harpalpur,79,1
SHC Gulganj,62,5
