Health Facility Name,Number_Of_Beds,Rating
bhadasar khas,102,4
Chakdeiya,106,3
CHC KASIA,78,8
Bauliya,55,10
AHIRAULU BAZAR,97,8
MAHUADIH LAUNGARAPUR,120,3
SAKRAULI,88,1
KARITIN,160,7
Khadda ll,157,5
Sankar pur,62,5
Bhainsahi,57,2
Muderaupadhyay,84,8
Bheri Jungle,127,9
Rampur,181,5
Mitaha Mafi,101,10
Sohsamathiya,194,10
Mahuwa,173,6
Banchara,159,2
Kurhawan,99,4
Vijaypur,148,2
Pagar,156,3
Patakhauli,144,10
Kauwasar,117,6
Baujupatti,75,9
mathiya mafi,102,7
Phirojaha,100,2
Semara dhusi,188,3
Deoria pandey,194,5
Matihinia bujurg,172,4
Katkuyia,75,6
Jangal Belwa,63,6
Ghortap,177,6
Kurmi Patti,143,1
Haskhor,132,4
siswa mahnth,50,4
Jawhi Dyal,126,10
Rampur Sihulia,107,6
Singha,175,4
Piprahi,121,6
Sakhauli,68,5
Devtaha,154,6
Gauri Sriram,102,5
Sarpatahi,99,5
Shekhanwania (bujrg),152,9
Rampurvujurg,190,4
Bulahwa,173,5
maghi,126,8
barwa bujurg,192,8
Rampur Barhan,100,1
Pharenha,65,1
Dumhai,116,10
Sariswa,186,3
Ahladpur,147,6
MAIN CENTRE,182,10
Godaria,76,4
Gaunar,63,7
Jogia,111,7
sohnriya,196,4
Mathauli,75,8
Horla pur,53,10
Jangal lalaChapra,72,4
Asana,58,3
sheyam pur(h),160,4
Narayanpur,183,3
Dudhai-Rampur barahan,165,4
Bedupar,179,2
Rampur barahan,110,4
Kirkeya,196,5
Deoria Babu,124,5
Narkatiya,65,2
Tamkuhi-Turkpatti,84,4
Saphi Tadwa,82,4
Kardah,87,2
Morvan,70,10
BADAHRA,159,10
Aurahi Kripura,112,5
NEWPHC FHARENDAHA,181,3
Mohnapur,73,8
Nahar chhpra,170,10
Padari (Bhaluhi),119,2
Sabya,118,9
Jinda Chhapra,85,6
BODARWAR,50,7
Soharauna,140,10
Laxmipur bujurg,95,2
Khajuri,97,9
SOMALI,116,6
KOELASWA,165,9
Sirsiya Kala,122,1
BHALUHI,113,2
Nebua Nauragia,183,5
Parsauni,97,6
Nautar,106,6
Khari,170,7
Dubha,164,8
Tamkuhi,163,10
Khadda l,87,1
New PHC Bhaisahi,68,8
Pipra Agrawa,107,6
Chaubia pathkauli,184,7
Pipirahi Bhadkulawa,167,1
BARDHA BAZAR,167,7
Sudhiyani,184,9
Tekuatar,112,9
Ahirauli,91,5
samra harduo,65,9
Padrauna,120,4
Bhatwalia,75,8
Rohuawa Machargawa,84,1
Parsauni Mukundha,61,3
Sirsiya,152,7
Rampur,156,5
Dandopur,152,5
Thadibhar,175,4
Bahorachhapra,109,2
Pagara,87,4
Bishunpura,83,8
Narchochwa,85,1
Gurwalia,198,10
Jatha Bazar,141,6
shakhopar,180,6
Khhada bujurg,143,4
Tekuatar,110,9
Barwaratanpur,79,9
Rakba dulmapatti,58,8
Khesia,58,1
Siswa Goiti,182,1
Bairiya,72,3
mahuva bujurg,93,2
Dumariswangipatti,153,9
Senduria,166,7
Daniyadi,118,10
HARPUR MANCHHAGAR,151,7
Chhaph,193,3
Barsaina,197,2
Deoria vrit,132,9
Pakdi Bangar,110,4
Laxmipur,82,8
Khadda-Shivpur,68,9
siswaliya,75,5
Chhahun,58,1
Katkuyia,184,1
Pipraghat,177,7
Mathiya Alam,64,4
Sikta,54,3
Bhujauli,86,3
Pachrukhiya,137,7
mahuawa khurd,199,7
Tinphedia,191,7
RAMPUR CHAUBE,91,6
Khothi,83,4
Dharmpur parwat,198,6
Mishrauli,86,4
NEWPHC KOILSHWA,53,3
Tharuaa dih,150,10
Bintoli,199,5
Laxmipur,121,3
Bhathahibabu,144,9
Barwaratanpur,104,9
gangooli,128,10
BLIYAWA,143,4
Baikunthpur,181,1
Betia,186,8
Vishunpura-Dandopur,196,5
Naika chhapara,109,9
Dhurpatti Jamuan,79,4
Baratha,181,2
Sirsiya,99,4
Sarang Chhapra,176,10
Mukya kendra,197,6
Padari,56,9
MANSURGANJ,139,10
Sirsiya bujurg,107,6
Ahiraulidan,92,8
jagdish pur,77,1
Jhankar,122,4
MADAR BINDWALIYA,67,3
Sapha s-c,153,10
KHABRABHAR,146,6
Bhaluhi madaripatti,82,7
NPHC kudwa,115,2
Dibni Banjrwa,178,3
BADHRA,165,10
Rampur Bagha,104,10
batrouli,119,5
Parsauni,155,5
Pidra,94,3
Chirgaura,176,2
Duria Imiliya,94,10
Khairatawa,179,8
Chhitauni,116,6
Nebua raiganj,112,8
Amwa digar,63,2
Parwarpar,157,3
KUNDUR,177,10
Basdila mahant,126,2
Salemgarh,106,3
Basgaw,85,9
Chandrauta,85,6
Lehani,152,9
LAKSHMIPUR MISHRA,162,9
Gagrani,108,5
Barwa Harpur,74,5
Parshad pur,107,7
Semrahardo patti,130,4
GANGITIKAR,123,9
Bhujauli,126,1
Chaph,137,10
Mudilapur Harpur,186,6
DHAURAHRA,152,2
Motichak,147,7
Shivdatt Chhapra,53,4
Shahpur,77,7
saphi bujurg,106,9
New PHC Paikauli,65,5
Bihar Khurd,138,9
Prithvipur,69,1
Khothi,187,2
kaptanganj gramin,154,5
CHC-HATA-SAKRAULI,126,9
Turkpatti Mahuawa,190,3
Radhiya devria,181,7
Pipra,135,7
Bahadurpur,145,4
padraun madurahi,158,6
Dhuria,189,4
Parsauni,171,6
PIPRA RAJJAB,125,2
MADHURIYA,187,10
Gopalgarh,137,9
Sumhi Sangram,65,1
PHC Sukrauli,162,2
Kuchiya mathiya,90,2
Tinbradhaha,69,7
kokilpatti,183,8
Dhadha Bujurg,122,8
laxmipur,54,7
Banbira,134,5
SONA PAKAD,124,5
Laxmiganj,196,7
Rampur Sohrauna,66,4
sidhuwa bager-(stebelish),188,7
Tamkuhi,129,6
Baghi,145,10
Morvan,69,7
Roari,136,10
Khajuriya,137,10
BHATHAHI BUJURG,60,7
shidhuwa,76,4
Dholha,153,6
Maghi Kothilwa,115,5
Semrahardo patti,105,1
JAURA BAJAR,59,6
holiya,66,7
baluwa,188,5
Mainpurva,158,2
Narayanpur,188,9
NPHC JAURA BAJAR,151,2
Pipra Bazar,189,9
Shukhari chhapra,129,10
Pipraicha,57,10
Barwa kala,168,3
Amwa,142,6
Lala Chhapra,114,3
Mathiya Sriram,184,10
Pipra Khurd,55,4
Khanu Chhapra,78,4
Puraina katya,63,7
Sikatiya,144,7
mahashon,80,10
Rampur Khottha,109,8
Ahirauli bajar,91,7
khasari gidha,145,3
Rampur Gonha,176,9
bashiya,86,8
Ganhi Jungle,185,2
Mishrauli,131,9
Bhagwanpur Bujurg,137,2
Jangal Bishunpura,107,1
Samaur,122,8
Motipakad Srikant,93,7
District Combined Hospital Kushinagar,90,2
Dhargauli,184,7
Labnia,188,5
Batrauli,129,10
INDARPUR,164,10
Balkudia,93,1
Shakhwania,139,1
MANSOORGANJ,175,1
Babuiyan Harpur,62,4
Baghachaur,140,8
Chiraihatava,197,3
Amwa khas ist,148,4
Magrith Ghorath,90,8
Mujdiha,145,1
Pachfeda,100,5
Semri Parsauni,116,9
Haphua jiwan,81,3
nadah,71,8
Ghorath,185,2
Singapatti,65,6
Main center,157,2
Mainpur,81,4
lakhima,101,5
CHC FAZILNAGAR,100,10
LOHARBALIYA,184,7
Sonbarasa,77,1
Bhaluhi,91,2
Rampur Bangra,63,10
Bhiswalala,99,10
Sarpatahi Khurd,167,5
SUMHI BUJURAG,95,9
Ramkaranpatti,196,4
Badya bujurg,144,9
Baluwa takia,65,10
KASTURWA,135,2
Sohang,63,3
Puraini,116,9
Mahuadihlaungarpur,192,7
Bhaisha,111,2
Akbarpur,115,7
Misradhadha,186,2
Visheshranpur,162,10
Kasia-Sapha,183,7
Saurha Bujurg,52,7
Badhara Babu,105,9
Premwalia,146,8
sidhuwa bager,194,7
Thadibhar,178,1
PACHAR,137,7
Gopalpur,55,7
Baluwa,65,1
Ghanga,70,2
Sapha,56,5
Kotwa,119,2
Khadda,147,2
Telganwa,61,9
Gauri Narottam,141,10
Dudhai,61,10
dumarbhar,136,9
Morvan,126,6
jangal luathha,113,3
Belwa Ghat,108,1
Maghi Mathia,148,5
Ahirauli,116,9
Barhaj,141,5
Kanakpipra,102,8
Karmaini,65,6
Pipera jatampur,107,10
Dhuwantikar,171,8
Amwa bujurg,132,2
Mehda,81,1
Hirnahi,198,9
Awarawa,96,5
Pipra Humail,60,2
Basahiya Urf Kaptanganj,172,9
Jinda Chhapra,166,9
Deo pokhar,139,8
NARAYAN PUR,50,7
PHC Taryasujan,89,3
DHANHA,186,9
Siswa gopal,82,2
Barahara Laxmipur,81,6
Kanthi Chapra,110,6
sohrouna,110,2
Dashwa,69,6
Pokarbhinda,77,8
Kudwadilipnagar,96,8
Khokhiya,84,3
Sidhawe,115,2
Chandarpur,87,8
Hariharpur,187,4
Koindi Khurd,180,3
Birwat Konhwalia,146,5
Kohargaddi,183,4
Padri Piparpati,188,2
Malludih,162,3
Gidaha,114,9
Chilgoda,166,5
padri,108,9
Naurangia,120,2
Pagra basantpur,134,1
Balkudia,111,6
Barwa raja pakad,156,5
Chhitauni,82,2
shidhuwa sthan-(stebelish),192,7
Semri Maheshpur,162,3
SOHANI,139,8
New PHC Purani,75,7
Rampur mishri,175,9
Sirsia khohiya,137,5
Rampur Bujurg,120,5
Doghara,195,5
Manikaura,55,7
Mukya Kendra,196,3
Sonvarsa,96,4
Ahirauli,151,4
Ajijnagar,188,5
New PHC Jhanga,96,7
Kurmauta,73,4
Rampurmath,96,8
Mujahida,119,9
CHC Dudhai,71,2
RAHSU JANEVIPATTI,63,1
Papur,56,10
Navapar,163,3
Dewtaha,156,6
Dewgaun,193,7
Badila Gunagar,62,6
Kubernath-(stebelish),109,8
FAZILNAGAR,76,3
Gauri jagdish,146,1
Kataibharpurwa,185,3
Chatur,129,1
Khottha,150,9
Kotwa,77,7
Pakdiyar Purabpatti,177,7
Batardera,109,10
shadi bugrg,106,6
Ahirauli,192,10
Jawhi narendra,90,4
BHADSAR KHAS,167,1
bhadasar khas,181,8
Chakdeiya,191,6
CHC KASIA,179,3
Bauliya,97,8
AHIRAULU BAZAR,119,5
MAHUADIH LAUNGARAPUR,62,5
SAKRAULI,85,6
KARITIN,170,3
Khadda ll,50,2
Sankar pur,126,1
Bhainsahi,62,6
Muderaupadhyay,186,2
Bheri Jungle,87,2
Rampur,122,9
Mitaha Mafi,175,9
Sohsamathiya,140,10
Mahuwa,121,7
Banchara,56,5
Kurhawan,165,7
Vijaypur,198,4
Pagar,115,6
Patakhauli,117,5
Kauwasar,189,1
Baujupatti,94,10
mathiya mafi,147,1
Phirojaha,157,3
Semara dhusi,165,5
Deoria pandey,123,9
Matihinia bujurg,149,9
Katkuyia,131,10
Jangal Belwa,186,2
Ghortap,199,8
Kurmi Patti,79,9
Haskhor,160,3
siswa mahnth,117,10
Jawhi Dyal,96,9
Rampur Sihulia,125,3
Singha,53,10
Piprahi,86,10
Sakhauli,183,3
Devtaha,179,8
Gauri Sriram,110,9
Sarpatahi,60,7
Shekhanwania (bujrg),170,1
Rampurvujurg,149,2
Bulahwa,180,3
maghi,89,3
barwa bujurg,104,5
Rampur Barhan,154,1
Pharenha,91,3
Dumhai,192,2
Sariswa,102,10
Ahladpur,142,4
MAIN CENTRE,117,10
Godaria,107,2
Gaunar,109,8
Jogia,189,1
sohnriya,192,3
Mathauli,104,2
Horla pur,183,3
Jangal lalaChapra,102,2
Asana,149,9
sheyam pur(h),73,6
Narayanpur,193,7
Dudhai-Rampur barahan,89,2
Bedupar,69,9
Rampur barahan,124,8
Kirkeya,74,3
Deoria Babu,197,1
Narkatiya,89,9
Tamkuhi-Turkpatti,65,5
Saphi Tadwa,77,6
Kardah,167,6
Morvan,170,2
BADAHRA,160,5
Aurahi Kripura,125,10
NEWPHC FHARENDAHA,154,2
Mohnapur,69,4
Nahar chhpra,194,10
Padari (Bhaluhi),76,1
Sabya,158,4
Jinda Chhapra,57,1
BODARWAR,145,2
Soharauna,148,4
Laxmipur bujurg,176,1
Khajuri,113,5
SOMALI,77,10
KOELASWA,81,4
Sirsiya Kala,126,2
BHALUHI,58,3
Nebua Nauragia,176,2
Parsauni,145,2
Nautar,61,2
Khari,150,8
Dubha,169,9
Tamkuhi,132,1
Khadda l,194,9
New PHC Bhaisahi,63,3
Pipra Agrawa,160,8
Chaubia pathkauli,125,1
Pipirahi Bhadkulawa,160,1
BARDHA BAZAR,76,3
Sudhiyani,177,4
Tekuatar,65,5
Ahirauli,65,4
samra harduo,94,6
Padrauna,141,7
Bhatwalia,93,4
Rohuawa Machargawa,137,9
Parsauni Mukundha,118,9
Sirsiya,176,10
Rampur,114,7
Dandopur,104,4
Thadibhar,192,9
Bahorachhapra,199,5
Pagara,170,5
Bishunpura,97,1
Narchochwa,114,4
Gurwalia,194,4
Jatha Bazar,62,5
shakhopar,76,1
Khhada bujurg,89,6
Tekuatar,94,1
Barwaratanpur,133,7
Rakba dulmapatti,106,7
Khesia,132,5
Siswa Goiti,110,7
Bairiya,68,10
mahuva bujurg,197,2
Dumariswangipatti,156,4
Senduria,113,1
Daniyadi,192,7
HARPUR MANCHHAGAR,137,7
Chhaph,132,10
Barsaina,88,5
Deoria vrit,181,6
Pakdi Bangar,79,2
Laxmipur,153,10
Khadda-Shivpur,53,7
siswaliya,137,8
Chhahun,94,8
Katkuyia,79,9
Pipraghat,197,7
Mathiya Alam,194,10
Sikta,162,9
Bhujauli,184,1
Pachrukhiya,52,10
mahuawa khurd,173,3
Tinphedia,138,4
RAMPUR CHAUBE,52,2
Khothi,145,3
Dharmpur parwat,137,2
Mishrauli,180,9
NEWPHC KOILSHWA,58,10
Tharuaa dih,124,5
Bintoli,120,4
Laxmipur,122,10
Bhathahibabu,103,4
Barwaratanpur,79,10
gangooli,171,7
BLIYAWA,165,8
Baikunthpur,111,8
Betia,179,1
Vishunpura-Dandopur,91,6
Naika chhapara,71,8
Dhurpatti Jamuan,190,7
Baratha,102,2
Sirsiya,157,9
Sarang Chhapra,139,9
Mukya kendra,169,8
Padari,98,1
MANSURGANJ,109,5
Sirsiya bujurg,182,7
Ahiraulidan,135,8
jagdish pur,175,6
Jhankar,68,1
MADAR BINDWALIYA,182,5
Sapha s-c,136,8
KHABRABHAR,71,1
Bhaluhi madaripatti,187,2
NPHC kudwa,56,7
Dibni Banjrwa,104,10
BADHRA,51,4
Rampur Bagha,186,10
batrouli,66,3
Parsauni,125,1
Pidra,52,1
Chirgaura,57,1
Duria Imiliya,66,7
Khairatawa,60,6
Chhitauni,125,9
Nebua raiganj,75,8
Amwa digar,155,7
Parwarpar,197,10
KUNDUR,143,7
Basdila mahant,76,1
Salemgarh,181,10
Basgaw,55,1
Chandrauta,127,7
Lehani,142,8
LAKSHMIPUR MISHRA,74,4
Gagrani,100,1
Barwa Harpur,53,3
Parshad pur,158,7
Semrahardo patti,142,3
GANGITIKAR,82,9
Bhujauli,93,9
Chaph,185,7
Mudilapur Harpur,159,9
DHAURAHRA,80,3
Motichak,131,6
Shivdatt Chhapra,76,10
Shahpur,147,5
saphi bujurg,190,5
New PHC Paikauli,133,10
Bihar Khurd,83,6
Prithvipur,164,7
Khothi,155,4
kaptanganj gramin,111,4
CHC-HATA-SAKRAULI,119,10
Turkpatti Mahuawa,139,2
Radhiya devria,109,7
Pipra,199,5
Bahadurpur,147,6
padraun madurahi,134,7
Dhuria,97,2
Parsauni,172,2
PIPRA RAJJAB,56,4
MADHURIYA,178,2
Gopalgarh,145,4
Sumhi Sangram,174,5
PHC Sukrauli,123,3
Kuchiya mathiya,130,5
Tinbradhaha,66,9
kokilpatti,164,7
Dhadha Bujurg,123,8
laxmipur,80,5
Banbira,57,9
SONA PAKAD,186,8
Laxmiganj,66,1
Rampur Sohrauna,118,2
sidhuwa bager-(stebelish),101,6
Tamkuhi,158,9
Baghi,111,3
Morvan,158,1
Roari,112,10
Khajuriya,150,6
BHATHAHI BUJURG,182,9
shidhuwa,160,3
Dholha,141,9
Maghi Kothilwa,67,5
Semrahardo patti,65,6
JAURA BAJAR,119,6
holiya,195,8
baluwa,192,10
Mainpurva,90,5
Narayanpur,109,1
NPHC JAURA BAJAR,172,3
Pipra Bazar,189,1
Shukhari chhapra,114,6
Pipraicha,127,5
Barwa kala,119,9
Amwa,190,8
Lala Chhapra,143,8
Mathiya Sriram,139,9
Pipra Khurd,167,6
Khanu Chhapra,158,7
Puraina katya,183,4
Sikatiya,99,2
mahashon,159,3
Rampur Khottha,73,5
Ahirauli bajar,165,1
khasari gidha,138,7
Rampur Gonha,160,9
bashiya,104,3
Ganhi Jungle,186,6
Mishrauli,130,10
Bhagwanpur Bujurg,104,7
Jangal Bishunpura,65,3
Samaur,73,2
Motipakad Srikant,117,4
District Combined Hospital Kushinagar,139,3
Dhargauli,132,1
Labnia,102,7
Batrauli,132,6
INDARPUR,69,9
Balkudia,87,1
Shakhwania,99,1
MANSOORGANJ,149,4
Babuiyan Harpur,67,10
Baghachaur,173,8
Chiraihatava,116,8
Amwa khas ist,60,10
Magrith Ghorath,139,10
Mujdiha,109,8
Pachfeda,105,7
Semri Parsauni,149,7
Haphua jiwan,63,4
nadah,82,1
Ghorath,194,8
Singapatti,78,8
Main center,143,3
Mainpur,144,4
lakhima,51,5
CHC FAZILNAGAR,128,3
LOHARBALIYA,130,2
Sonbarasa,145,10
Bhaluhi,84,10
Rampur Bangra,139,3
Bhiswalala,94,3
Sarpatahi Khurd,55,1
SUMHI BUJURAG,90,5
Ramkaranpatti,72,10
Badya bujurg,86,4
Baluwa takia,93,1
KASTURWA,172,5
Sohang,50,3
Puraini,82,2
Mahuadihlaungarpur,114,7
Bhaisha,182,6
Akbarpur,159,2
Misradhadha,65,8
Visheshranpur,138,4
Kasia-Sapha,105,7
Saurha Bujurg,145,5
Badhara Babu,66,2
Premwalia,93,1
sidhuwa bager,199,9
Thadibhar,75,8
PACHAR,117,2
Gopalpur,131,5
Baluwa,153,2
Ghanga,173,8
Sapha,66,9
Kotwa,117,5
Khadda,168,3
Telganwa,100,2
Gauri Narottam,120,1
Dudhai,95,1
dumarbhar,142,8
Morvan,52,4
jangal luathha,181,2
Belwa Ghat,54,6
Maghi Mathia,58,9
Ahirauli,160,9
Barhaj,84,5
Kanakpipra,166,2
Karmaini,99,10
Pipera jatampur,118,10
Dhuwantikar,101,3
Amwa bujurg,119,2
Mehda,129,9
Hirnahi,120,1
Awarawa,146,3
Pipra Humail,161,10
Basahiya Urf Kaptanganj,168,3
Jinda Chhapra,187,9
Deo pokhar,59,9
NARAYAN PUR,52,4
PHC Taryasujan,52,9
DHANHA,170,7
Siswa gopal,61,10
Barahara Laxmipur,178,1
Kanthi Chapra,111,6
sohrouna,140,6
Dashwa,149,10
Pokarbhinda,159,1
Kudwadilipnagar,185,9
Khokhiya,89,4
Sidhawe,133,2
Chandarpur,187,4
Hariharpur,123,3
Koindi Khurd,165,5
Birwat Konhwalia,87,4
Kohargaddi,119,6
Padri Piparpati,50,5
Malludih,118,9
Gidaha,187,3
Chilgoda,68,4
padri,123,9
Naurangia,174,4
Pagra basantpur,100,2
Balkudia,190,8
Barwa raja pakad,124,5
Chhitauni,114,3
shidhuwa sthan-(stebelish),97,10
Semri Maheshpur,103,9
SOHANI,158,4
New PHC Purani,135,2
Rampur mishri,53,5
Sirsia khohiya,152,6
Rampur Bujurg,156,10
Doghara,109,4
Manikaura,92,10
Mukya Kendra,105,10
Sonvarsa,156,5
Ahirauli,152,4
Ajijnagar,126,6
New PHC Jhanga,187,4
Kurmauta,161,10
Rampurmath,175,9
Mujahida,113,2
CHC Dudhai,137,3
RAHSU JANEVIPATTI,94,2
Papur,52,7
Navapar,53,6
Dewtaha,60,4
Dewgaun,85,8
Badila Gunagar,51,1
Kubernath-(stebelish),183,4
FAZILNAGAR,170,6
Gauri jagdish,70,3
Kataibharpurwa,170,6
Chatur,191,3
Khottha,78,2
Kotwa,66,7
Pakdiyar Purabpatti,57,1
Batardera,91,4
shadi bugrg,177,3
Ahirauli,64,5
Jawhi narendra,100,10
BHADSAR KHAS,154,1
