Health Facility Name,Number_Of_Beds,Rating
Sub Centre Mokhra 1,107,5
Sub Centre Mokhra IInd,182,8
Sub Centre Mokhra kheri rojh,141,6
sub Centre Muradpur Tekna,195,4
PHC Mokhra,198,7
Farmana,54,4
Saiman 2nd,159,1
Saiman 1st,137,6
Bhaini chanderpal,123,10
Bhaini Surjan,76,4
PHC Farmana Badshahpur,168,8
General Hospital Rohtak,70,10
Chinyot Colony,175,5
Sheetal Nagar,187,6
Kishanpura,151,6
Tilak Nagar,88,7
Officer colony/Revenue Colony,67,4
Jhang Colony,56,9
Bharat Colony,52,5
Model Town,160,2
Kamal Colony,196,10
Basant Vihar & Inderprast,106,9
Sector-01,92,5
Partap Mohalla,61,6
SC Madina-K,167,2
Muradpur Tekna,145,8
Bhaini Bharon,114,9
Ismaila-9B,73,1
Chhout Ram Colony,85,2
SC Nidana,158,7
Ghuskani,54,1
Kheri Sadh,64,8
Kalanaur-I,55,1
Mansarover Colony,109,6
GH Quarter,117,4
Bainsi,97,2
Rohtak Pvt. Institution,180,2
Chiri-II,143,1
Rithal Phogat,187,3
PHC Pilana,170,7
Kherari,159,2
Hari Singh Colony,190,2
Kamla Nagar,184,2
Surya Nagar,136,9
Sanjay Nagar,110,5
Railway Colony,55,5
PHC Girawar,71,8
AWC No. 54,122,9
Roop Nagar Nehru Colony,164,6
PHC Kharawar,100,6
Bakheta,77,7
Chunni Pura,128,9
Kishangarh,57,1
Karountha,142,10
Saini Anand Pura,90,4
Bhagwati Pur,60,8
Nindana Tigri,131,8
Mokhra-I,83,8
Balak Nath Colony,179,10
PHC Ghilour Kalan,162,8
Ritauli,191,9
Bhainsaru kalan,52,1
Sunderpur,92,9
Rohtash Nagar,127,2
PHC Farmana Badshahpur,77,10
Gaddi Kheri,62,8
Banyani,119,1
AWC No. 135,92,5
Old Housing Board,120,3
Kheri Ros,75,7
Jasia,113,2
PHC Kahnaur,139,4
Sector 14,78,6
Farmana,90,1
Bahali Anandpur,178,7
Sampla,171,7
Chamaria,134,2
Ladhot,67,3
PHC HasanGarh(Rohtak),61,8
Chaman Pura,137,3
Kherainti,119,2
Kahanaur 2,81,2
Subhash  Nagar,56,8
Lakhanmajra,135,9
Nigana,142,10
Nunond,68,8
Ashok Nagar,75,9
PHC Chiri,95,10
Hassangarh,74,9
Charak Mohalla,125,6
Mahavir Colony,134,10
PHC Kalanaur,91,10
PHC SamarGopal Pur,165,9
Dhamar,142,3
PHC Lakhanmajra,87,9
Krishana Colony,116,10
Kalanaur-III,123,3
Bohar-II,122,9
Dev Colony,52,10
Kahni,90,2
PHC Kiloi,122,6
Busana,172,1
Pardhana Mohalla,125,5
PHC Sanghi,194,2
Seman-II,104,10
Sundana,137,10
Kath Mandi,147,8
Shri Nagar Adarsh nagar,78,5
Chiri-I,128,6
Sunari Khurd,127,10
Asthal Bohar,115,5
Ram Gopal Colony,194,3
Khadwali,117,10
Jasbir Colony,111,9
Indergarh,91,10
Shastri Nagar,176,2
Dattor,116,10
Shivaji Thana,79,4
Pilana,196,4
Gandhi Nagar,77,7
Ghilor Kalan,158,4
Anwal,183,10
Ekta Colony,160,9
Garnauthi,195,10
PGI Rtk,192,7
Maham,64,10
Chameli Market,151,5
Kansala,89,7
Pakasma,121,3
Lahli,147,7
Ram Nagar,78,2
Sector 3,182,5
Bahamanwas,138,6
Gandhra,161,6
Mungan,193,3
Saini Was,103,3
Kalanaur-II,137,8
Naya Bans,79,8
PHC Sampla,81,7
Roop Nagar,66,8
SC Madina-G,182,6
Kiloi-I,117,7
Rajiv Colony,116,4
PHC Mokhra,196,3
Sonipat Stand,58,2
Balam,95,4
Bharan,119,8
Pandav Nagar,52,1
Sunari Kalan,76,3
Bhaini Maharajpur,128,4
Katesra,152,4
Chawala Colony,76,4
Humayun Pur,160,2
PHC Meham,116,10
Poly Clinic,70,4
Shastri Nagar,76,9
Rajiv Colony,120,10
Baland,181,2
Samchana,92,8
New Janta Colony,59,8
Gudhan,87,9
Mokhra-II,133,9
Chulliana,110,2
Sec14 HUDA Civil Dispensary,146,3
Behlba-I,198,5
Sugar Mil Colony,187,4
Kabulpur,108,2
Kherawar,100,1
AWC No. 09,110,7
Bahu Akberpur I,166,8
Singhpura,58,2
PHC Pakasma,131,8
Prit Vihar,186,6
SPM 1,132,10
Bhalot,175,10
Rurki,108,2
Marodhi,191,6
Bhaini Surjan,99,6
Morkheri,171,5
Titoli 1,180,9
Chandi,104,1
AWC No. 68,169,10
Bhaini Chanderpal,190,5
Kirpal Nagar,193,3
PHC Behlba,128,8
Seman-I,190,7
Kheri Sampla,159,6
Patwapur,88,4
Assan,169,9
Atail,150,8
Baliana,74,1
PHC Bhalaut,185,10
Bohar-I,113,2
Ambedkar Colony,96,10
Kharak Jatan,184,10
Kharkhra,78,7
Gurauthi,160,10
Girawar,160,8
Sisar Khas,50,8
Nandal,185,10
Makrouli kalan,121,6
PPC,136,8
Kultana,69,9
Kahanaur 1,95,3
PHC Madina,137,1
PPC GH,59,7
Kila Mohalla,144,6
Gandhi Camp Geeta Colony,107,7
AWC No. 85 Babara Mohalla,185,8
Kabir Colony,54,5
Old Arya Nagar,77,6
Ajaib,54,5
Vijay Nagar,165,8
Nirmal Nagar,120,1
SPM 2,184,9
Saini Pura,152,9
Ekta Colony,163,1
Pahrawar,51,2
Shiv Colony,191,6
Kheri Maham,102,3
Maina,127,1
Nindana M. Pur,174,7
Titoli 2,146,6
Behlba-II,57,2
Kila Road,126,1
Shivaji Colony,78,9
PHC Baland,195,6
Ismaila-11B,69,8
Sector 02,172,7
Hari Singh Colony,184,10
Sanghi,74,4
Kiloi-II,117,9
Samargopal Pur,150,8
Bahu Akberpur II,128,9
Prem Nagar,65,4
PHC Banyani,71,8
Sub Centre Mokhra 1,131,8
Sub Centre Mokhra IInd,183,3
Sub Centre Mokhra kheri rojh,63,3
sub Centre Muradpur Tekna,63,8
PHC Mokhra,66,1
Farmana,143,6
Saiman 2nd,124,6
Saiman 1st,133,9
Bhaini chanderpal,61,2
Bhaini Surjan,179,1
PHC Farmana Badshahpur,87,6
General Hospital Rohtak,165,8
Chinyot Colony,152,3
Sheetal Nagar,117,7
Kishanpura,157,7
Tilak Nagar,101,2
Officer colony/Revenue Colony,153,8
Jhang Colony,83,1
Bharat Colony,53,7
Model Town,121,2
Kamal Colony,65,4
Basant Vihar & Inderprast,66,1
Sector-01,109,4
Partap Mohalla,149,1
SC Madina-K,63,6
Muradpur Tekna,171,9
Bhaini Bharon,100,2
Ismaila-9B,185,4
Chhout Ram Colony,61,5
SC Nidana,67,6
Ghuskani,107,4
Kheri Sadh,126,6
Kalanaur-I,83,10
Mansarover Colony,91,7
GH Quarter,164,1
Bainsi,121,10
Rohtak Pvt. Institution,162,6
Chiri-II,159,6
Rithal Phogat,199,7
PHC Pilana,58,2
Kherari,156,2
Hari Singh Colony,52,6
Kamla Nagar,93,2
Surya Nagar,106,6
Sanjay Nagar,121,6
Railway Colony,58,10
PHC Girawar,109,10
AWC No. 54,115,5
Roop Nagar Nehru Colony,182,7
PHC Kharawar,76,5
Bakheta,143,7
Chunni Pura,109,8
Kishangarh,117,5
Karountha,189,10
Saini Anand Pura,83,9
Bhagwati Pur,145,4
Nindana Tigri,86,9
Mokhra-I,142,9
Balak Nath Colony,86,2
PHC Ghilour Kalan,86,10
Ritauli,146,5
Bhainsaru kalan,185,1
Sunderpur,122,9
Rohtash Nagar,130,1
PHC Farmana Badshahpur,115,9
Gaddi Kheri,64,4
Banyani,184,4
AWC No. 135,85,8
Old Housing Board,67,2
Kheri Ros,79,9
Jasia,148,10
PHC Kahnaur,138,9
Sector 14,160,5
Farmana,171,2
Bahali Anandpur,51,8
Sampla,89,5
Chamaria,50,3
Ladhot,135,4
PHC HasanGarh(Rohtak),94,5
Chaman Pura,127,8
Kherainti,186,10
Kahanaur 2,99,5
Subhash  Nagar,78,9
Lakhanmajra,154,2
Nigana,179,6
Nunond,163,2
Ashok Nagar,128,10
PHC Chiri,116,9
Hassangarh,80,7
Charak Mohalla,190,10
Mahavir Colony,122,1
PHC Kalanaur,60,3
PHC SamarGopal Pur,79,1
Dhamar,76,6
PHC Lakhanmajra,88,5
Krishana Colony,80,6
Kalanaur-III,177,1
Bohar-II,52,8
Dev Colony,153,9
Kahni,190,9
PHC Kiloi,196,10
Busana,95,10
Pardhana Mohalla,107,3
PHC Sanghi,111,6
Seman-II,108,10
Sundana,167,7
Kath Mandi,129,2
Shri Nagar Adarsh nagar,119,8
Chiri-I,135,4
Sunari Khurd,167,8
Asthal Bohar,53,9
Ram Gopal Colony,165,4
Khadwali,126,8
Jasbir Colony,178,2
Indergarh,185,6
Shastri Nagar,57,4
Dattor,95,10
Shivaji Thana,176,5
Pilana,194,8
Gandhi Nagar,57,7
Ghilor Kalan,84,5
Anwal,109,3
Ekta Colony,129,9
Garnauthi,66,9
PGI Rtk,160,2
Maham,107,4
Chameli Market,61,7
Kansala,56,5
Pakasma,112,8
Lahli,114,5
Ram Nagar,164,9
Sector 3,163,2
Bahamanwas,187,10
Gandhra,196,6
Mungan,165,6
Saini Was,119,8
Kalanaur-II,185,10
Naya Bans,198,7
PHC Sampla,194,2
Roop Nagar,53,7
SC Madina-G,133,6
Kiloi-I,152,4
Rajiv Colony,104,2
PHC Mokhra,137,2
Sonipat Stand,143,10
Balam,112,1
Bharan,197,4
Pandav Nagar,152,9
Sunari Kalan,169,4
Bhaini Maharajpur,159,10
Katesra,70,8
Chawala Colony,97,9
Humayun Pur,145,1
PHC Meham,167,1
Poly Clinic,75,8
Shastri Nagar,138,5
Rajiv Colony,67,2
Baland,176,6
Samchana,117,4
New Janta Colony,170,10
Gudhan,100,6
Mokhra-II,182,3
Chulliana,181,5
Sec14 HUDA Civil Dispensary,103,4
Behlba-I,138,7
Sugar Mil Colony,69,8
Kabulpur,94,2
Kherawar,75,1
AWC No. 09,64,2
Bahu Akberpur I,165,2
Singhpura,57,5
PHC Pakasma,161,7
Prit Vihar,152,9
SPM 1,83,6
Bhalot,50,2
Rurki,156,7
Marodhi,185,1
Bhaini Surjan,191,9
Morkheri,122,2
Titoli 1,145,1
Chandi,159,5
AWC No. 68,84,2
Bhaini Chanderpal,159,7
Kirpal Nagar,72,10
PHC Behlba,111,3
Seman-I,64,6
Kheri Sampla,68,10
Patwapur,194,2
Assan,113,2
Atail,74,5
Baliana,174,7
PHC Bhalaut,61,6
Bohar-I,53,5
Ambedkar Colony,62,4
Kharak Jatan,114,8
Kharkhra,114,4
Gurauthi,83,3
Girawar,118,3
Sisar Khas,192,10
Nandal,97,2
Makrouli kalan,61,7
PPC,69,8
Kultana,81,10
Kahanaur 1,114,5
PHC Madina,91,1
PPC GH,51,4
Kila Mohalla,157,4
Gandhi Camp Geeta Colony,162,10
AWC No. 85 Babara Mohalla,140,6
Kabir Colony,117,5
Old Arya Nagar,136,9
Ajaib,179,1
Vijay Nagar,195,4
Nirmal Nagar,191,1
SPM 2,199,10
Saini Pura,89,5
Ekta Colony,182,7
Pahrawar,151,1
Shiv Colony,68,4
Kheri Maham,128,9
Maina,163,6
Nindana M. Pur,116,1
Titoli 2,176,3
Behlba-II,154,4
Kila Road,197,9
Shivaji Colony,138,3
PHC Baland,164,6
Ismaila-11B,84,8
Sector 02,106,4
Hari Singh Colony,109,2
Sanghi,71,8
Kiloi-II,192,10
Samargopal Pur,139,4
Bahu Akberpur II,55,3
Prem Nagar,117,9
PHC Banyani,50,4
