Health Facility Name,Number_Of_Beds,Rating
PHC Dadhi,59,7
District Hospital Bemetara,80,5
SHC Khatthiya,101,10
SHC Baijalpur(DURG),76,2
PHC Jewra,148,3
SHC Amora(DURG),93,2
PHC Sarda,55,2
SHC Umariya(DURG),186,1
SHC Keshdabri,98,2
SHC Mau,189,4
SHC Bhansuli(DURG),175,1
SHC Nandal,187,2
SHC Hemabandh,174,10
SHC Jhanki,76,4
SHC KURAAN,161,9
SHC Balsamund(DURG),129,3
SHC Dhangaon,105,2
SHC Bhalesar,183,9
SHC Harduwa,57,8
SHC Ghotwani,193,1
SHC Gondgiri,53,3
SHC Nawagowkala,197,7
SHC Jewra(DURG),173,3
CHC Berla,68,8
PHC Devrbija,90,10
SHC Lenjwara,72,2
SHC Khairjhitikala,181,5
SHC BADNARA,102,7
PHC Devkar,149,7
SHC Khati,199,6
CHC Saja (Block PHC Saja),63,9
SHC BHADRALI,114,5
SHC Bhendni,84,5
PHC Kusmi,174,8
SHC Bhatgaon,105,9
SHC Bandhi,187,8
PHC Karesara,132,7
SHC Gaduwa,69,10
SHC Hasda(DURG),144,1
SHC PENDRI(DURG),139,2
SHC Jewra,194,10
SHC Kanhera,76,3
SHC Baghul,92,8
SHC Khamhi,162,1
SHC Amlidih(DURG),131,4
SHC Khamharia(DURG),197,5
SHC Kanteli(DURG),178,4
SHC Sondh,132,4
CHC Nawagarh,85,10
SHC Sandi,92,3
SHC Nagpura(DURG),117,1
SHC Devrbija,54,5
SHC TENDUA(DURG),55,3
SHC Kuralu,160,9
SHC Hadahuli,129,4
SHC Bahera,50,5
SHC Gudheli,133,2
SHC Bijagoda,175,5
SHC Jata,166,4
SHC Mohatara,181,5
SHC Somaikala,73,9
SHC Kurud,95,3
SHC Kehaka(DURG),183,5
SHC CHAKRAWAYA,173,1
SHC Parasbod,70,6
SHC Mohgown,119,10
PHC Marka,129,3
SHC Pratappur,178,8
SHC Ghivari,184,6
PHC Chandnu,88,10
SHC Pahanda(DURG),152,10
PHC Batar,168,8
PHC Katai,165,4
CHC Khandsara,103,8
SHC Khurmuda,78,10
SHC Bilai,125,5
SHC Ufra,114,1
SHC Atargadhi,153,8
SHC Babamohtara,187,5
SHC Bargaon(DURG),87,5
SHC Jhiriya,133,5
SHC Bhilori,86,3
SHC Ninwa,105,9
SHC GADAMOR,64,1
SHC Modhe(DURG),83,2
SHC Kusmi(BEMETARA),155,9
SHC MURRA,143,6
SHC Mohrenga,116,4
SHC Karesara,91,7
SHC Odiya,115,1
PHC Gudheli,112,4
SHC Kongiyakala,111,7
SHC Devkar,113,8
SHC Kharra(DURG),152,3
SHC BAIJALPUR,76,9
SHC Bhimbhori(DURG),109,2
SHC Andhiyarkhor,148,9
SHC Bortara,129,1
SHC Chetuwa,146,8
PHC Maro,157,7
SHC Bahera(DURG),129,8
SHC Dhourabhatha,190,10
PHC Kathotiya,71,6
SHC Padmi,110,7
SHC Kusmi(DURG),188,5
SHC Thengabhata,52,1
SHC Katai,73,3
SHC LOHADANGIA,142,2
SHC Nawagaonkala,107,5
SHC Parpoda,58,5
SHC GODHIKALA,51,6
SHC TEMRI(DURG),148,7
SHC Berla,177,3
SHC JHAL,142,8
SHC Thelaka,89,7
SHC Khamhariya(DURG),187,2
SHC Gadadih,180,8
SHC Singardih,78,10
SHC KHEDA,79,9
SHC MEHNA,143,7
PHC Anandgaon,140,9
PHC Khandsara,148,10
PHC Nandghat,180,7
SHC Arjuni(DURG),71,7
SHC Patora(DURG),184,9
SHC S.Kampa,147,1
SHC MALDA(DURG),100,3
SHC Chorbhatti,160,9
SHC Biza,163,1
PHC Temri,62,10
SHC Anandgaon,142,1
CHC Khamhariya,148,7
SHC HATHADANDU,118,2
SHC Sahaspur(DURG),189,3
SHC Pachbhaiya,160,1
SHC Jhal(KHANDSARA),159,9
SHC GHURSENA,75,7
SHC Batar,192,9
SHC Kodwa,119,8
PHC Chhirha,82,7
PHC Parpodi,76,8
SHC Siwar,71,9
SHC Martara,119,6
SHC Kiritpur,181,9
SHC Hataraka,105,3
SHC MURTA,75,9
SHC Sarda(DURG),90,2
SHC Banraka,188,3
SHC Reve,190,9
SHC Karchuwa,184,2
SHC Saigona,126,4
SHC Kurda(DURG),94,10
SHC NARAYANPUR(DURG),155,10
PHC Sambalpur,159,5
SHC Pendritarai,141,7
PHC Dadhi,131,4
District Hospital Bemetara,57,10
SHC Khatthiya,129,1
SHC Baijalpur(DURG),143,7
PHC Jewra,80,3
SHC Amora(DURG),138,8
PHC Sarda,142,1
SHC Umariya(DURG),181,6
SHC Keshdabri,125,5
SHC Mau,86,9
SHC Bhansuli(DURG),170,1
SHC Nandal,86,5
SHC Hemabandh,183,1
SHC Jhanki,171,3
SHC KURAAN,106,8
SHC Balsamund(DURG),77,10
SHC Dhangaon,195,5
SHC Bhalesar,148,3
SHC Harduwa,189,8
SHC Ghotwani,152,2
SHC Gondgiri,76,1
SHC Nawagowkala,171,6
SHC Jewra(DURG),94,2
CHC Berla,150,10
PHC Devrbija,145,7
SHC Lenjwara,75,10
SHC Khairjhitikala,77,3
SHC BADNARA,139,8
PHC Devkar,65,10
SHC Khati,123,4
CHC Saja (Block PHC Saja),171,7
SHC BHADRALI,167,3
SHC Bhendni,194,10
PHC Kusmi,81,2
SHC Bhatgaon,54,1
SHC Bandhi,103,6
PHC Karesara,128,3
SHC Gaduwa,64,5
SHC Hasda(DURG),126,9
SHC PENDRI(DURG),129,1
SHC Jewra,97,7
SHC Kanhera,72,2
SHC Baghul,91,9
SHC Khamhi,136,3
SHC Amlidih(DURG),51,2
SHC Khamharia(DURG),138,2
SHC Kanteli(DURG),177,2
SHC Sondh,191,4
CHC Nawagarh,85,1
SHC Sandi,88,10
SHC Nagpura(DURG),61,1
SHC Devrbija,86,3
SHC TENDUA(DURG),134,8
SHC Kuralu,103,10
SHC Hadahuli,185,2
SHC Bahera,140,10
SHC Gudheli,159,5
SHC Bijagoda,157,6
SHC Jata,123,7
SHC Mohatara,176,3
SHC Somaikala,131,9
SHC Kurud,101,3
SHC Kehaka(DURG),176,4
SHC CHAKRAWAYA,104,2
SHC Parasbod,54,3
SHC Mohgown,146,5
PHC Marka,160,7
SHC Pratappur,131,4
SHC Ghivari,145,5
PHC Chandnu,135,10
SHC Pahanda(DURG),118,4
PHC Batar,159,4
PHC Katai,192,8
CHC Khandsara,86,8
SHC Khurmuda,144,1
SHC Bilai,84,4
SHC Ufra,127,8
SHC Atargadhi,138,1
SHC Babamohtara,63,8
SHC Bargaon(DURG),164,3
SHC Jhiriya,187,5
SHC Bhilori,113,10
SHC Ninwa,179,10
SHC GADAMOR,159,8
SHC Modhe(DURG),184,8
SHC Kusmi(BEMETARA),140,4
SHC MURRA,84,1
SHC Mohrenga,134,10
SHC Karesara,156,7
SHC Odiya,107,7
PHC Gudheli,168,4
SHC Kongiyakala,67,5
SHC Devkar,151,9
SHC Kharra(DURG),159,3
SHC BAIJALPUR,163,9
SHC Bhimbhori(DURG),87,10
SHC Andhiyarkhor,84,2
SHC Bortara,114,3
SHC Chetuwa,182,4
PHC Maro,164,3
SHC Bahera(DURG),55,3
SHC Dhourabhatha,54,10
PHC Kathotiya,94,7
SHC Padmi,198,5
SHC Kusmi(DURG),181,1
SHC Thengabhata,128,4
SHC Katai,99,10
SHC LOHADANGIA,117,8
SHC Nawagaonkala,174,1
SHC Parpoda,107,2
SHC GODHIKALA,197,2
SHC TEMRI(DURG),54,5
SHC Berla,109,4
SHC JHAL,88,2
SHC Thelaka,116,2
SHC Khamhariya(DURG),194,3
SHC Gadadih,148,3
SHC Singardih,81,8
SHC KHEDA,60,7
SHC MEHNA,131,10
PHC Anandgaon,77,1
PHC Khandsara,160,10
PHC Nandghat,105,2
SHC Arjuni(DURG),76,1
SHC Patora(DURG),75,6
SHC S.Kampa,166,5
SHC MALDA(DURG),198,5
SHC Chorbhatti,73,5
SHC Biza,123,1
PHC Temri,163,6
SHC Anandgaon,66,4
CHC Khamhariya,153,4
SHC HATHADANDU,118,8
SHC Sahaspur(DURG),182,9
SHC Pachbhaiya,178,9
SHC Jhal(KHANDSARA),173,2
SHC GHURSENA,198,5
SHC Batar,127,1
SHC Kodwa,107,9
PHC Chhirha,98,10
PHC Parpodi,111,6
SHC Siwar,126,6
SHC Martara,198,6
SHC Kiritpur,92,4
SHC Hataraka,110,4
SHC MURTA,105,4
SHC Sarda(DURG),194,5
SHC Banraka,95,4
SHC Reve,113,9
SHC Karchuwa,51,7
SHC Saigona,155,2
SHC Kurda(DURG),164,10
SHC NARAYANPUR(DURG),57,2
PHC Sambalpur,65,8
SHC Pendritarai,58,3
