Health Facility Name,Number_Of_Beds,Rating
VAYALPADU,102,6
KALIKIRI,134,6
CHINNAGOTTIGALLU,84,1
P.Kothakota,165,8
OGU,183,7
MADANAPALLI,114,10
SATHYAVEDU,142,7
NAGARI,183,10
BANGARUPALYAM,116,8
DISTRICT HOSPITAL,127,4
CHANDRAGIRI,79,4
PUNGANUR,76,10
PILER,156,8
Palamaner,166,1
CHAVARAMBAKAM VOYALPAD,151,4
M.VENKATAGIRI,51,3
ANGALLU,69,8
ADAVARAM,142,6
MUKKALATHURU,197,10
KUMBARLLAPALLE,154,1
VENGAMVARIPALLI,180,3
Peddauppara Palli,143,10
KRISHANAPURAM,100,1
PULIKALLU,152,4
Thamballa Palli,64,7
KARANI,50,6
Kasirala,77,1
SODAM,85,6
L.K.P. VOORU,92,7
THUGUNDRAM,115,1
KEELAGARAM,169,4
GANGAMAMBAPURAM,185,3
Ramakuppam,161,3
OOTUPALLE,72,10
GUDUPALLE,87,10
VALLIGATLA,152,3
NAYANUR,64,4
Kannamadugu,187,4
CHINTHAPARTHY,173,2
P.T.M,117,9
MUDIPALLE,169,4
M K PURAM,156,7
KALAMNAIDUPETA,184,4
PEDDAUPPARAPALLI,109,1
NETHAKUPPAM,103,2
MARADAWADA,172,6
KARAKANTAPURAM,103,5
GAJULAPALLLI,71,1
VIJALAPURAM,64,4
CHEEKALABAILU,172,2
PALLIKUPPAM,74,3
GANDRAJUKUPPAM,113,9
REDDYVARIPALLI,181,8
PALASAMUDRAM,56,2
KARTHIKEYANAGUNTA,197,3
RAYABEDU,130,6
VARIKASUVUVARIPALLE,67,3
Baireddypalli,114,8
Panapakam,177,3
KOLAMASANAPALLI,64,1
AKKURTHY,139,4
PALAMANDA,170,6
Pachikapalyam,85,5
P.KOTHAKOTA,170,10
URANDUR,130,4
Puttur,143,9
RAMARAO COLONY,172,9
PANTRAMPALLI,128,6
GUNDLASAGARAM,118,9
RANGAMPETA,171,2
PALAMANER (S),191,9
DIGUVAPALLE,181,6
SANTHAVELLORE,97,3
Chinna Raju Kuppam,168,5
R.T. RANDEV NAGAR,89,3
DODDIPALLI,85,5
THENABANDA,150,9
PALAKUR,169,5
PITCHULLAVARIPALLE,152,10
Punganur,140,2
GUNTIPALLE,121,9
MARELLA,67,1
THALAMBEDU,113,9
NALAGAMPALLE,195,9
C C GUNTA,138,8
PANNURU,99,5
KOTHAPETA - II,199,7
BANGARUPALEM,158,6
THURUPUPALLI,128,5
PUNGANUR-6,176,8
KARVETINAGARAM 2,119,3
Thotapalli,105,6
Mudipapanapalli,52,1
BEGGILIPALLE,61,5
MDIKURTHY,128,5
VARADAIAHPALEM - I,174,5
PENUGOLAKALA,142,9
NAGARI II,110,7
NAGARAJUKUPPAM,84,5
SETTIPALLE,190,5
K.V.B.PURAM,129,6
M.KOTUR,54,2
MUTHUKURU,85,3
IMA,112,4
GUDAREVUPALLE,185,7
KAMACHENAMAPALLE,127,6
SODAM,142,7
B.N.Kandriga,99,8
NENNURU,154,1
MATLACHENU,84,9
KONGANAPALLE,185,7
YELLAMANDA,63,5
Thoruru,61,4
CHIGURAVARAM,141,5
SINDHIREDDYPALLE,111,2
GOVINDAPALLI,174,4
PALLECHERUVU,124,4
THAMBALLAPALLI,83,6
Peddaupparapalli,132,10
NAGARI III,142,2
Kandukur,149,7
GOBBILLAKOTHUR,94,7
RAGIMANUPENTA,133,2
Vayalpadu West,125,10
VISANAKARRAVARIPALLE,176,5
Palasamudram,175,4
Visanakarravari palli,125,10
GANGAMMAGUNTA,114,9
BANDARLAPALLE,88,9
PILER - I,53,10
Kovanur,94,4
DASARAPALLE,89,8
Dasireddy Pally,135,4
MCH CHITTOOR MUNICIPALITY,65,2
Chinthaparthy,69,5
M.M.KOTHUR,149,4
IRUGUVAI,170,10
Gudipala,63,5
THIPEREDDYVARIPALLI,108,2
G D NELLORE,114,5
YERRABALLI,126,4
Mallanur,168,4
V. KOTA III,65,7
Burlapalli,50,10
Kukkarajupalli,165,10
KADAPANATHAM,90,3
POLAKALA,163,4
KANGUNDI,141,7
Peddamandyam,163,6
BALIJAKANDRIGA,60,5
Garnimitta,115,9
B.KOTHAKOTA I,168,3
VELKUR,199,10
MUDARAMDODDI,60,1
THUMBUR,181,3
SATHYAVEDU - I I,75,5
SOMPALLE,170,8
MANCHURU,90,3
Renigunta,192,10
Rallabuduguru,96,6
REDDYVARI PALLE,114,5
VALASAPALLI,123,2
PADIRI,182,5
KARVETINAGARAM,102,3
PILER - II,165,4
VELAMAPADU,162,2
Thugundram,60,2
S.S.PURAM,127,2
MORAM,147,6
GODUGUCHINTA,177,9
K.P. AGRAHARAM,161,7
BATHALAVALLAM,97,8
KAYAMPETA,121,1
GANGAVARAM,182,2
SIDDAVARAM,54,2
KALICHERLA,150,8
UFWC PALAMANER,56,6
VEPAGUNTA,110,8
SRIHARIPURAM,83,10
CHENCHUMAREDDYGARIPALLI,93,6
Gurramkonda-l,60,8
KANDURU,185,2
S R PURAM,107,7
YERRAMITTA,169,7
SIVAGIRI,86,8
PASALAVANDLAPALLI,120,7
THUMMALAVARIPALLE,179,6
VADAMALAPETA,92,1
P.Gollapalli,57,2
GUNDLURU,145,2
NAGALAPURAM II,91,5
KONA,151,7
VALLIVEDU,143,10
Empedu,178,5
GD.Kallur,156,1
GUNDUGALLU,128,7
KARANI,190,8
KAMALLA,105,2
K.V.B.Puram,161,8
MUDIVEDU,109,9
EDDUVARIPALLE,198,9
GUDURUPALLI,120,5
A.KOTHAPETA,70,1
Kandukuru,118,5
MATTAM,128,1
MALLANUR,162,7
SODIGANIPALLE,123,3
PAPEPALLI,52,6
R R PURAM,54,10
189.KOTHAPALLE,176,7
SAVE,76,2
MALLELA,194,9
VEMPALLI,72,1
CHERUKUVARIPALLE,88,10
TIRUMALA - I,122,6
Jakkidona,85,8
NELLIMANDA,159,9
Chinreddipalli,57,5
Thavalam,106,7
BANDARUPALLI,149,3
SATRAWADA,93,8
V.R.KANDRIGA,192,5
KOTAVOORU,96,8
NAGARI - I,89,7
E. REDDIGARIPALLE,58,10
Metllavaripalli,75,4
SN NAGAR,188,2
PUNGANUR-4,119,1
CHINTHAPALEM,186,3
Mangalam,114,4
ALLAMADUGU,126,10
BANDREVU,168,10
RKVB.PET,102,8
KADAPALLI,182,4
DAMARAPAKAM,171,7
Veernamala,55,10
KALAVAGUNTA,196,3
PAPANAIDUPETA,186,10
Royalpet,94,10
MODEL COLONY,64,2
YADAMARI,51,4
K V PALLI,57,3
KOTHERAVEDU,99,3
THAGGUVARIPALLE,148,7
O.G.KUPPAM,129,2
PALLAVOLU,136,7
Rangasamudram,182,9
Pulicherla,142,6
PUNGANUR-2,88,8
CIMANAYANAPALLI,198,8
Mallela,168,5
Taduru,135,1
DANDI KUPPAM,148,4
KEELAPATLA,150,8
VANAMALADINNE,197,3
C M PALLI,159,4
Paipalyam,136,3
B.R.PALLE,116,10
SOGADABALLA,109,6
THALAPULA,71,4
SATHAMBAKAM,145,1
MAHAL,199,8
Bommanacheruvu,144,1
P.GORPADU,138,5
MURAKAMBATTU,57,10
BOYALAGADDA,146,7
KANIPAKAM,148,4
MELUMAI,81,2
VENGAMPALLI,116,9
C.M.PALLE,188,5
DAMALCHERUVU,61,5
VINJAM,187,4
V.KOTA I,66,5
KOTHAPETA - I,75,9
AKKARAMPALLI,171,9
GD.Kuppambaduru,190,5
Thottambedu,86,1
Pedda kannali,86,4
UFWC SRIKALAHASTI,105,9
PATRAPALLI,185,3
KONGATTAM,147,7
ENUMALAVARIPALLE,57,4
G.D.Nellore,164,9
Pedda thippa samudram,187,10
Kurablakota,94,3
KUNTRAPAKAM,176,2
MAHASAMUDRAM,90,5
RAJAGOPALAPURAM,137,5
RAYALPETA,63,3
BUCHIREDDYGARI PALLE,110,6
Thalapula,159,7
Varadaiahpalem,57,9
VARADAIAHPALEM II,199,6
RAMACHANDRAPURAM,72,3
CHINNAPANDURU,169,2
VEPURIKOTA,110,6
GONUGURU,144,10
Koormaoddepalli,56,6
Pakala,82,5
BURAKAILAKOTA,73,10
64 PEDDURU,80,4
POTHABROLU,167,2
NIDIGUNTA,112,7
KANAKAPALLE,141,6
Chinnapanduru,85,6
PP Unit Madanapalli,108,8
THUMMAL GUNTA,58,10
PAIPALAM,171,8
Penchupadu,58,8
PUNGANUR-5,73,1
PUNGANUR-3,179,5
Thottambedu,163,10
T PUTTUR,170,2
PUDIPATLA,138,10
ERRAKOTAPALLI,140,2
Puthalapattu,74,3
YELLAMANDA,195,4
SEELAMVARIPALLE,190,4
ISUKANUTHAVARIPALLI,111,2
Nagalapuram,136,9
KANCHARAPALEM,184,4
Gurramkonda,110,10
ENUGONDAPALEM,169,8
CHAVARAM BAKAM,74,9
Malepadu,173,4
PALAMANGALAM,64,3
PACHIKAPALAM,193,9
Narayanavanam,159,4
THALLIAGRAHARAM,94,10
BUDIDAVEDU,107,3
MANGALAM - II,195,1
RALLABADUGURU,178,3
Chinna Thayaru,105,6
THUVVAPALLE,121,1
A L PURAM,94,8
VEERAPALLE,198,4
KOSALANAGARAM,194,7
Kasaram,57,2
Damalcheruvu,140,10
MUSALIKUNTA,130,9
ZILLELAMANDA,100,5
SADAKUPPAM,162,6
LINGESWAR NAGAR,122,7
KURMAI,63,9
T SANDRAVARIPALLI,52,5
Pitchatur,198,5
SC Appalal Gunta,81,9
Eswaarapuram,165,10
Tharigonda,75,3
Sri.Venkateshwara Ram Narayana Ruia Gen.Hospl.Tirupathi,54,7
NERNIPALLE,128,6
BODEVANDLAPALLI,153,1
Pedda Kanaparthi,63,1
DANDAPALLE,58,6
SOMLA,53,10
Gurramkonda-li,181,4
T GOLLAPALLI,87,6
KALIKIRI,106,8
CHUKKAVARIPALLI,118,10
CHAVATAGUNTA,170,6
T SETTYVARIPALLI,147,2
DASIREDDY PALLI,108,4
VITTALAM,82,7
ALLIKASAM,72,7
BANDAPALLE,167,2
PATHAPETA,109,1
NERABAILU,128,2
GOLLAPALLE,52,10
KONDALACHENU,83,2
KEELAPALA,142,10
Theertham,117,5
BASINIKONDA,148,8
S.V. NAGAR,194,2
THUKIVAKAM,53,6
LAKSHMAMBAPURAM,163,5
DORNAKAMBALA,101,8
Nariganipalli,76,5
T.SADUM,172,10
KOTALA,191,7
CHALAMANGALAM,194,5
IRUGULEM,129,9
BANDLAPALLI,62,10
KAMMACHERUVU,125,9
BODABANDLA,92,10
KOTTALA,168,6
UFWC PUTTUR,114,9
Vijayapuram,51,7
CHENDRAGIRI,133,6
SETTYPETA,134,7
KRISHNAPURAM,134,5
GAJENDRA NAGAR,53,5
Irala,88,3
THETTU,108,10
Pudi,50,5
MADDIAIAHGARIPALLE,97,3
PARAMESWARAMANGALAM,123,7
BOMMASAMUDRAM,129,4
SATHYAVEDU - I,120,4
BOMMANACHERUVU,101,8
RAGIGUNTA,57,2
GUTTAPALEM,175,10
MAHALRAJU PALLI,64,10
THIRUMALAIAHGARI PALLI,88,3
K DODDIPALLI,184,7
RKM.PURAM,81,9
M GOLLAPALLI,172,8
POLAVARAM,79,4
THELLAGUNDLAPALLE,165,6
M.MITTOOR,108,9
ARIMAKULA PALLI,103,1
KAJOOR,121,2
MOGARALA,67,8
S.N.KANDRIGA,195,8
PUNGANUR-1,62,7
MANGALAMPETA,141,3
KARAKAMBADI,131,6
Regallu,136,8
KARURU,111,10
SATYASAI,130,8
RENIGUNTA(N),156,4
BAKARAPETA,111,6
KALAVAPALLE,171,1
IRREKIPENTA,96,6
KOLAMASANAPALLE,189,10
CHANDRAMAKULAPALLI,155,3
RASS,151,1
GANDABOYANA PALLI,70,4
DEVALAMPETA,196,1
BOYANAPALLI,114,8
O.S.PALLE,62,10
BANGAREDDYPALLI,93,6
TADUKUPETA,60,1
K.K.PETA,112,3
Kalakada,53,4
Gangavaram,153,7
Chittor,154,1
DASUKUPPAM,86,10
GURUKUVARIPALLI,191,9
YERRAVARIPALEM,110,3
PADI PETA,148,9
BHASKAR PET,59,7
THIRUMALAKUPPAM,184,6
T.P.KOTA,192,7
KADIRAYANACHERUVU,174,6
THATIGUNTAPALAM,68,3
GATTU,75,10
KANDUKUR,58,1
KAMMAPALLE,115,8
KOTHAPALLI,53,4
KOTHAVARIPALLI,55,1
C T M,175,10
S.BANDAPALLE,94,4
BAKARAPETA,176,4
PENGARAGUNTA,118,10
Kanduru,192,2
PONGURUPALLE,66,4
SANTHIPURAM,97,7
B.N.KANDRIGA,113,1
SAGINEKUPPAM,99,10
MARRIKUNTAPALLI,79,4
Thangellapalli,76,4
CHEELLAPALLI,53,6
MAPAKSHI,188,10
Agraharam,133,8
Kotala,136,4
THALAPULAPALLI,78,3
Vadamalapet,131,3
PEDDAMANDYAM,142,10
VIJAYAPURAM,91,8
RAMAGIRI,121,6
Santhipuram,95,6
Poyya,99,4
SC Anuppalli,114,5
Arimakulapalli,78,6
AMBAKAM,81,5
Gudupalle,99,3
GAJULAMANDYAM,131,1
PATHIKONDA,64,4
NINDRA,73,7
V.Kota,118,3
KOLLABAYALLU,72,6
KAPUGANNERI,137,2
EMPEDU,93,7
GAJENDRA NAGAR,189,5
TEKUMANDA,188,2
AMUDALA,55,8
PEDDABANGARUNATHAM,162,5
DEVARAKONDA,145,4
BURLAPALLI,59,1
THONDAMANADU,165,5
Pedda thippa samudram,197,9
JANAKARIPALLE,78,9
KATHERAPALLE,156,9
Madireddypalli,127,3
GUDUPALLE,81,4
SBR.PURAM,123,3
GANDRAJUPALLI,176,1
RASAPALEM,124,7
Errakotapalli,60,3
P P Unit Tirupathi,72,8
VAYALPADU EAST,76,2
G.KATTAMANCHI,181,1
RANGAMPETA,96,2
KANLAGATTU,154,5
NARAYANAVANAM  I,60,10
VENGALATHUR,165,8
MADDINAYANIPALLE,108,6
MEDIKURTHY,62,9
E MATHYAM,189,8
CHINTHALAPATTEDA,111,1
CHOWDASAMUDRAM,77,3
N.R.Pet,192,5
Kammapalli,112,1
KALAKADA,176,9
SPINNINGMILLE,119,6
R.MALLAVARAM,105,3
Chembakur,166,2
Dusukuppam,180,9
THIRUCHANUR-li,86,4
MUPALLE,191,1
DASARLAPALLI,132,7
Penumuru,53,3
NARASINGAPURAM,174,6
KOPPEDU,101,7
M V PURAM,90,3
Kosuvaripalli,79,5
PERURU,62,2
N R PET,68,8
NOOTHANAKALVA,193,6
NELAPALLE,64,7
NADIGADDA,165,8
Thimmapuram,189,1
ATHURU,139,9
Thavanampalle,129,8
BAITAKODIAMBEDU,148,7
PICHATURU,174,4
PP Unit Chittor,181,5
M.R.PALLE,112,7
NELLIPATLA,50,3
Penchupadu,117,5
T CHAVATAPALLI,59,7
BATAVARIPALLE,98,3
BANDLAVANKA,109,8
SURAMALA,68,1
VEMAPURAM,130,4
Yadamarri,191,1
PEDDAPALAM,69,2
THAVANAMPALLI,62,6
THEERTHAM,110,10
SC Thummai Gunta,171,4
MANGALAPALLE,182,3
CHADALLA,122,4
Kangundi,164,1
GUNDLAPALLE,122,2
IRALA,125,9
ANNASWAMYVARIPALLE,143,10
P.P.BAILU,75,4
ALATHUR,149,4
GUNDLAMADUGU,152,5
KAREPAKAM,143,3
THIRUVANAMPALLI,136,6
KOVANUR,145,7
BADIKAYALA PALLE,168,9
ANNEMMAGARIPALLE,191,4
C.T.M,126,2
ARADIGUNTA,86,4
THIRUCHANUR-l,152,4
C. MALLAVARAM,74,7
PENUMALLAM,99,4
Papanaidupeta,110,9
USTHIKAYALAPENTA,73,8
Thumbakuppam,188,10
PATOOR,60,3
CHOWDEPALLI,134,5
MUDIGOLAM,120,4
VASANADU,77,3
PEDDAKONDAMARRI,104,4
OGU,113,6
MOOGAVARI GOLLA PALLI,53,6
B.KOTHAKOTA II,122,4
PULIGUNDRAM,179,8
NAMPALLE,66,3
PEDDAPANJANI,65,10
CHOWDEPALLE,129,1
Rompicherla,77,5
PUTHALAPATTU,51,3
S.MANGAPURAM,178,4
GH.Palala,93,8
Puttur-1,196,3
45 KOTHAPALLE,90,10
UGRANAMPALLE,196,6
K REDDIVARIPALLI,191,3
MODIYAMVARIPALLE,90,8
THUMBAKUPPAM,76,1
KOTANNAKANAPALLE,57,3
EKAMBARAKUPPAM,185,9
DIVITIVARIPALLE,193,2
BATHALAVARIKANDRIGA,166,5
PEDDASETTTYPALLE,109,4
Yellanivaripalli,116,3
Chittathur,157,8
Peddamallela,125,4
PERURU,78,2
Gundlapalli,59,5
THOTAKANAMA,131,9
DESAGANNUR,171,1
MODUGULAPALEM,53,1
SAMUDAYAM,82,5
KALANGI,159,7
PATHIGADA,130,4
Devalampeta,128,8
NARINI,91,4
BATTIKANDIGA,79,2
CHERLOPALLI,192,4
GOLLAPALLE,183,4
VARIGAPALLE,136,2
Thalapulanenivaripalli,168,3
MOLAKALACHERUVU,130,3
AGARAM,65,3
Peddapanjani,151,8
Punugupalli,156,9
DODDIPALLI,56,5
KATOOR,75,8
THUMSI,111,5
NANJAMPETA,162,3
GUNDLLAMAYANAPALLI,103,4
Kallur,155,8
KEERAMANDA,198,9
PASS,136,4
SINGASAMUDRAM,116,6
PEDDUR,148,2
YETAVAKILI,86,10
S.R.Puram,103,9
NAGALAPURAM I,76,4
Y. SANTHAGATE,87,1
Muduramapuram,167,2
MUDUPULAVANKA,168,8
Naravaripalli,70,7
KALLUPALLE,173,3
HANUMANTHAPURAM,173,7
Nimmanapalli,116,2
VEDHURLACHERUVU,80,10
PERUNALAPALLE,136,5
Mulakalacheruvu,132,3
BELUPALLI,96,5
N R PURAM,62,2
KOTRAKONA,68,8
MELUMDODDI,190,5
AVULAPALLI,102,1
KANDADU,149,9
Balakavaripalli,122,2
KUPPAM  WEST,95,4
Rompicherla,158,4
K V PURAM,178,6
Booragamandha,144,4
SC Rayala Cheruvu,54,4
Kota Agaram,58,3
GOVINDAREDDYPALLE,177,8
DESURU AGRAHARAM,98,2
PEDDAGOTTIGALLU,121,1
K. G. GARIPALLI,148,10
REGALLU,63,1
BUGGA AGRAHARAM,91,6
CHITHAPARA,171,3
GUDIPALA,72,5
Puttur-II,141,9
RAJEEV NAGAR COLONY,50,1
Nendra Gunta,56,9
PULICHERLA,170,2
ANJIMEDU,172,1
PATHAGUNTA,72,4
MATLAVARIPALLE,185,8
PUNGANUR - V,152,9
MADANAMBEDU,146,8
MALLAMGUNTA,60,2
POOJIGANIPALLI,88,9
Chembakur,182,9
THARANI,123,2
S K PETA,83,3
MIDDIKANDIGA,73,2
KOTABYLU,93,4
Nimmanapalle,59,5
MOOGANAPALLE,86,8
Karvetinagar,177,10
NENDRAGUNTA,153,10
GASANKI,155,7
NARASAPURAM,161,3
M  PAIPALLE,76,6
ARAGONDA,180,1
JANGALAPALLE,184,7
KUPPAM,59,3
PUNGANUR 1V,125,10
RAMAKUPPAM,135,9
MOTUKU,196,10
AGRAHARAM,138,8
Yerpedu,156,7
D.M.PURAM,66,7
DEVALCHERUVU,193,10
KUPPAM,150,3
PADIGALAKUPPAM,188,10
SIVARAMPURAM,99,9
YERRAVARIPALYAM,112,8
PUDIPATLA,77,4
SIDDAMPALLI,175,6
THIMMANAYANIPALLE,105,6
VELIGALLU,171,10
Varika suvuvari palli,148,7
YERPEDU,185,2
Gollapalli,101,2
Marripadu,168,3
Arimakulapalli,122,9
BALAGANGANAPALLE,72,10
PENUMURU,105,2
Pathikonda,58,10
Amilepalli,181,2
Renumakula Palli,78,5
PEDDAVALLAGATTURU,131,5
VENKATAPATHI NAGAR,157,6
K. ODDEPALLE,85,2
SANTHINAGAR,162,8
VAVILTHOTA,100,2
KOBAKA,159,9
RENIGUNTA(S),199,10
GADDAMVARIPALLE,156,10
UDAYAMANIKYAM,123,4
Pantapalli,130,7
BAIRUPALLE,136,8
Tharigonda,197,1
Nindra,163,8
ALAPAKAM,114,9
Somala,191,9
AGARAMANGALAM,66,1
KANNAVARAM,110,2
KURABALAKOTA,151,1
Ramasamudram,68,4
DUGGIPERI,135,6
Kosuvaripalli,198,1
CHAPIDIPALLE,76,2
PALAMANER (N),85,6
DEVALAMPETA,147,8
SUGALIMITTA,172,3
MUNGILIPATTU,84,3
LAKKANAPALLI,92,9
KALEPALLI,63,6
Gopidinne,99,10
BHEEMAVARM,87,5
PEDAKANTIPALLE,65,8
KATIPERI,96,5
GARNIMITTA,157,1
MCH TIRUPATHI MUNICIPALITY,65,1
K C PALLI,103,8
KRISHNAPURAM,60,7
Thelarallapalli,177,7
SANGASAMUDRAM,109,10
PARLAPALLE,68,5
T.PALYAM,50,2
CHINAGOTTIGALLU,188,7
THONDAVADA,95,6
Mallepadu,184,7
BAIREDDY PALLI,177,5
197 RAMAPURAM,56,6
Reddyvaripally,162,4
KAVANURU,87,1
Vejjupalli,159,7
NARAYANAVANAM II,79,9
KUPPAM EAST,195,3
RAMA RAO COLONY,117,8
Bommasamudram,135,4
CHELDIGANIPALLI,156,4
Thalaripalli,168,10
KAMATHAMUR,81,3
K.V.PURAM,99,9
SANGANAPALLE,143,8
GAJULAPALLUR,94,6
MITTAPALLI,187,7
V.KOT II,122,8
NADIMICHERLA,178,10
RANGASAMUDRAM,87,2
NARASA PURAM,107,5
Govindapalem,73,3
BEERANGI,71,1
PEYANAPALLI,88,5
Chiyavaram,77,7
MANGALAM-l,74,9
Machireddivaripalle,118,4
S.K.R.PURAM,79,2
PUNGANUR - VI,108,2
SATYA NARAYANA PURAM,102,5
PADIREDU,120,8
TIRUMALA(N),147,3
K PATNAM,139,5
B Kothakota,177,10
MOTUMALLELA,194,10
MANGALAPALYAM,180,2
RAMASAMUDRAM,173,1
MUCHIVOLU,130,7
Vijalapuram,56,4
NERABAILU,117,3
GOVT MATERNITY HOSPITAL TIRUPATHI,54,2
P T M,191,1
VEERNAMALA,80,5
Bodireddy Gari Palli,134,10
YEERAIAHAGARIPALLI,160,4
ANNURU,117,8
PP Unit Kuppam,77,2
SC Venkatapathi Nagar,55,3
M. N. KUPPAM,80,4
KOTAMANGAPURAM,185,9
ADAVIBUDUGURU,75,7
TIRUMAALA - II,100,6
VAYALPADU,76,2
KALIKIRI,186,6
CHINNAGOTTIGALLU,128,6
P.Kothakota,93,1
OGU,140,3
MADANAPALLI,59,10
SATHYAVEDU,174,6
NAGARI,174,4
BANGARUPALYAM,103,2
DISTRICT HOSPITAL,65,10
CHANDRAGIRI,146,3
PUNGANUR,166,7
PILER,130,10
Palamaner,137,6
CHAVARAMBAKAM VOYALPAD,97,8
M.VENKATAGIRI,190,10
ANGALLU,150,10
ADAVARAM,192,1
MUKKALATHURU,164,7
KUMBARLLAPALLE,155,2
VENGAMVARIPALLI,88,1
Peddauppara Palli,139,9
KRISHANAPURAM,169,3
PULIKALLU,158,9
Thamballa Palli,120,3
KARANI,183,1
Kasirala,156,8
SODAM,51,7
L.K.P. VOORU,93,8
THUGUNDRAM,101,2
KEELAGARAM,68,4
GANGAMAMBAPURAM,50,1
Ramakuppam,101,2
OOTUPALLE,81,8
GUDUPALLE,100,3
VALLIGATLA,64,9
NAYANUR,146,9
Kannamadugu,136,2
CHINTHAPARTHY,114,6
P.T.M,184,5
MUDIPALLE,106,4
M K PURAM,148,2
KALAMNAIDUPETA,159,10
PEDDAUPPARAPALLI,64,7
NETHAKUPPAM,120,8
MARADAWADA,99,8
KARAKANTAPURAM,198,3
GAJULAPALLLI,123,5
VIJALAPURAM,160,3
CHEEKALABAILU,150,7
PALLIKUPPAM,165,8
GANDRAJUKUPPAM,145,3
REDDYVARIPALLI,160,3
PALASAMUDRAM,87,3
KARTHIKEYANAGUNTA,99,3
RAYABEDU,188,5
VARIKASUVUVARIPALLE,111,5
Baireddypalli,117,8
Panapakam,196,9
KOLAMASANAPALLI,52,2
AKKURTHY,135,10
PALAMANDA,168,10
Pachikapalyam,170,4
P.KOTHAKOTA,78,5
URANDUR,93,9
Puttur,189,2
RAMARAO COLONY,60,7
PANTRAMPALLI,77,9
GUNDLASAGARAM,189,5
RANGAMPETA,159,10
PALAMANER (S),109,8
DIGUVAPALLE,183,3
SANTHAVELLORE,123,10
Chinna Raju Kuppam,180,2
R.T. RANDEV NAGAR,116,10
DODDIPALLI,98,3
THENABANDA,104,6
PALAKUR,82,9
PITCHULLAVARIPALLE,145,8
Punganur,186,6
GUNTIPALLE,182,3
MARELLA,116,2
THALAMBEDU,103,3
NALAGAMPALLE,120,2
C C GUNTA,156,2
PANNURU,83,3
KOTHAPETA - II,69,4
BANGARUPALEM,128,9
THURUPUPALLI,95,6
PUNGANUR-6,159,3
KARVETINAGARAM 2,132,3
Thotapalli,104,4
Mudipapanapalli,101,2
BEGGILIPALLE,141,3
MDIKURTHY,176,8
VARADAIAHPALEM - I,144,3
PENUGOLAKALA,182,5
NAGARI II,175,6
NAGARAJUKUPPAM,129,10
SETTIPALLE,193,2
K.V.B.PURAM,112,10
M.KOTUR,196,1
MUTHUKURU,155,8
IMA,79,7
GUDAREVUPALLE,131,6
KAMACHENAMAPALLE,165,1
SODAM,72,2
B.N.Kandriga,193,3
NENNURU,128,10
MATLACHENU,145,4
KONGANAPALLE,98,9
YELLAMANDA,112,2
Thoruru,182,6
CHIGURAVARAM,113,3
SINDHIREDDYPALLE,95,8
GOVINDAPALLI,184,10
PALLECHERUVU,81,9
THAMBALLAPALLI,61,7
Peddaupparapalli,93,8
NAGARI III,68,2
Kandukur,81,9
GOBBILLAKOTHUR,184,2
RAGIMANUPENTA,160,8
Vayalpadu West,170,4
VISANAKARRAVARIPALLE,85,10
Palasamudram,64,3
Visanakarravari palli,169,9
GANGAMMAGUNTA,173,9
BANDARLAPALLE,180,1
PILER - I,156,1
Kovanur,145,4
DASARAPALLE,163,10
Dasireddy Pally,199,1
MCH CHITTOOR MUNICIPALITY,157,6
Chinthaparthy,145,4
M.M.KOTHUR,188,7
IRUGUVAI,188,10
Gudipala,127,9
THIPEREDDYVARIPALLI,84,5
G D NELLORE,178,3
YERRABALLI,140,6
Mallanur,116,3
V. KOTA III,73,3
Burlapalli,92,10
Kukkarajupalli,125,6
KADAPANATHAM,131,8
POLAKALA,88,6
KANGUNDI,54,6
Peddamandyam,184,9
BALIJAKANDRIGA,88,7
Garnimitta,158,7
B.KOTHAKOTA I,59,2
VELKUR,190,9
MUDARAMDODDI,117,1
THUMBUR,61,7
SATHYAVEDU - I I,115,4
SOMPALLE,153,2
MANCHURU,125,2
Renigunta,184,1
Rallabuduguru,119,7
REDDYVARI PALLE,133,2
VALASAPALLI,169,8
PADIRI,111,3
KARVETINAGARAM,187,4
PILER - II,161,7
VELAMAPADU,131,4
Thugundram,138,2
S.S.PURAM,167,10
MORAM,85,3
GODUGUCHINTA,179,6
K.P. AGRAHARAM,197,7
BATHALAVALLAM,64,5
KAYAMPETA,130,10
GANGAVARAM,163,8
SIDDAVARAM,121,3
KALICHERLA,121,6
UFWC PALAMANER,132,6
VEPAGUNTA,66,9
SRIHARIPURAM,73,4
CHENCHUMAREDDYGARIPALLI,112,9
Gurramkonda-l,76,10
KANDURU,185,3
S R PURAM,155,1
YERRAMITTA,52,3
SIVAGIRI,181,3
PASALAVANDLAPALLI,141,2
THUMMALAVARIPALLE,180,8
VADAMALAPETA,75,1
P.Gollapalli,74,5
GUNDLURU,53,5
NAGALAPURAM II,158,8
KONA,192,10
VALLIVEDU,161,10
Empedu,50,8
GD.Kallur,81,6
GUNDUGALLU,172,8
KARANI,194,9
KAMALLA,117,5
K.V.B.Puram,108,8
MUDIVEDU,103,5
EDDUVARIPALLE,175,9
GUDURUPALLI,188,3
A.KOTHAPETA,73,3
Kandukuru,157,9
MATTAM,74,4
MALLANUR,156,10
SODIGANIPALLE,137,10
PAPEPALLI,95,9
R R PURAM,62,9
189.KOTHAPALLE,146,5
SAVE,81,9
MALLELA,104,5
VEMPALLI,62,6
CHERUKUVARIPALLE,52,10
TIRUMALA - I,119,2
Jakkidona,75,5
NELLIMANDA,109,7
Chinreddipalli,97,1
Thavalam,102,8
BANDARUPALLI,85,2
SATRAWADA,114,7
V.R.KANDRIGA,108,6
KOTAVOORU,176,4
NAGARI - I,124,4
E. REDDIGARIPALLE,56,4
Metllavaripalli,77,5
SN NAGAR,152,5
PUNGANUR-4,154,2
CHINTHAPALEM,109,4
Mangalam,52,7
ALLAMADUGU,94,3
BANDREVU,127,4
RKVB.PET,170,8
KADAPALLI,163,6
DAMARAPAKAM,144,4
Veernamala,56,4
KALAVAGUNTA,57,8
PAPANAIDUPETA,164,7
Royalpet,97,9
MODEL COLONY,151,10
YADAMARI,62,8
K V PALLI,104,4
KOTHERAVEDU,74,4
THAGGUVARIPALLE,159,7
O.G.KUPPAM,195,8
PALLAVOLU,92,1
Rangasamudram,61,3
Pulicherla,109,8
PUNGANUR-2,136,3
CIMANAYANAPALLI,148,1
Mallela,177,7
Taduru,165,9
DANDI KUPPAM,171,3
KEELAPATLA,146,6
VANAMALADINNE,65,4
C M PALLI,161,1
Paipalyam,170,8
B.R.PALLE,139,3
SOGADABALLA,106,3
THALAPULA,103,5
SATHAMBAKAM,182,4
MAHAL,104,3
Bommanacheruvu,137,4
P.GORPADU,64,5
MURAKAMBATTU,131,8
BOYALAGADDA,161,5
KANIPAKAM,139,4
MELUMAI,129,10
VENGAMPALLI,182,8
C.M.PALLE,170,2
DAMALCHERUVU,156,9
VINJAM,160,4
V.KOTA I,179,7
KOTHAPETA - I,197,1
AKKARAMPALLI,173,5
GD.Kuppambaduru,67,9
Thottambedu,71,1
Pedda kannali,197,8
UFWC SRIKALAHASTI,71,4
PATRAPALLI,100,4
KONGATTAM,89,2
ENUMALAVARIPALLE,133,6
G.D.Nellore,92,4
Pedda thippa samudram,94,3
Kurablakota,129,8
KUNTRAPAKAM,78,10
MAHASAMUDRAM,111,3
RAJAGOPALAPURAM,143,7
RAYALPETA,197,10
BUCHIREDDYGARI PALLE,97,10
Thalapula,164,2
Varadaiahpalem,137,2
VARADAIAHPALEM II,170,10
RAMACHANDRAPURAM,189,4
CHINNAPANDURU,50,3
VEPURIKOTA,74,8
GONUGURU,160,7
Koormaoddepalli,107,6
Pakala,85,8
BURAKAILAKOTA,185,7
64 PEDDURU,150,5
POTHABROLU,122,4
NIDIGUNTA,61,5
KANAKAPALLE,70,8
Chinnapanduru,81,6
PP Unit Madanapalli,101,6
THUMMAL GUNTA,110,9
PAIPALAM,64,6
Penchupadu,127,3
PUNGANUR-5,142,8
PUNGANUR-3,63,10
Thottambedu,110,8
T PUTTUR,130,7
PUDIPATLA,121,6
ERRAKOTAPALLI,140,9
Puthalapattu,111,5
YELLAMANDA,62,1
SEELAMVARIPALLE,185,6
ISUKANUTHAVARIPALLI,60,1
Nagalapuram,114,2
KANCHARAPALEM,54,9
Gurramkonda,109,7
ENUGONDAPALEM,131,5
CHAVARAM BAKAM,144,4
Malepadu,111,2
PALAMANGALAM,128,6
PACHIKAPALAM,164,7
Narayanavanam,178,7
THALLIAGRAHARAM,82,3
BUDIDAVEDU,123,3
MANGALAM - II,52,10
RALLABADUGURU,77,8
Chinna Thayaru,146,1
THUVVAPALLE,57,5
A L PURAM,75,8
VEERAPALLE,55,7
KOSALANAGARAM,191,5
Kasaram,198,9
Damalcheruvu,117,1
MUSALIKUNTA,131,8
ZILLELAMANDA,69,8
SADAKUPPAM,190,1
LINGESWAR NAGAR,122,3
KURMAI,62,8
T SANDRAVARIPALLI,132,5
Pitchatur,89,10
SC Appalal Gunta,129,9
Eswaarapuram,143,7
Tharigonda,164,7
Sri.Venkateshwara Ram Narayana Ruia Gen.Hospl.Tirupathi,118,8
NERNIPALLE,103,2
BODEVANDLAPALLI,131,3
Pedda Kanaparthi,91,10
DANDAPALLE,112,2
SOMLA,119,2
Gurramkonda-li,129,8
T GOLLAPALLI,59,6
KALIKIRI,133,3
CHUKKAVARIPALLI,114,6
CHAVATAGUNTA,196,2
T SETTYVARIPALLI,89,7
DASIREDDY PALLI,194,10
VITTALAM,179,1
ALLIKASAM,145,1
BANDAPALLE,50,2
PATHAPETA,176,10
NERABAILU,152,7
GOLLAPALLE,118,3
KONDALACHENU,98,8
KEELAPALA,178,6
Theertham,109,6
BASINIKONDA,92,8
S.V. NAGAR,124,10
THUKIVAKAM,67,9
LAKSHMAMBAPURAM,55,6
DORNAKAMBALA,136,4
Nariganipalli,133,8
T.SADUM,153,2
KOTALA,90,2
CHALAMANGALAM,139,6
IRUGULEM,188,1
BANDLAPALLI,87,5
KAMMACHERUVU,75,9
BODABANDLA,111,6
KOTTALA,114,3
UFWC PUTTUR,135,8
Vijayapuram,104,5
CHENDRAGIRI,183,2
SETTYPETA,164,5
KRISHNAPURAM,163,2
GAJENDRA NAGAR,104,2
Irala,121,1
THETTU,136,8
Pudi,117,1
MADDIAIAHGARIPALLE,69,6
PARAMESWARAMANGALAM,76,8
BOMMASAMUDRAM,173,3
SATHYAVEDU - I,145,5
BOMMANACHERUVU,176,1
RAGIGUNTA,69,1
GUTTAPALEM,56,10
MAHALRAJU PALLI,78,3
THIRUMALAIAHGARI PALLI,78,4
K DODDIPALLI,96,6
RKM.PURAM,106,8
M GOLLAPALLI,182,4
POLAVARAM,124,6
THELLAGUNDLAPALLE,92,7
M.MITTOOR,169,2
ARIMAKULA PALLI,132,10
KAJOOR,65,2
MOGARALA,91,7
S.N.KANDRIGA,147,9
PUNGANUR-1,194,4
MANGALAMPETA,97,4
KARAKAMBADI,52,2
Regallu,100,7
KARURU,65,7
SATYASAI,72,5
RENIGUNTA(N),99,8
BAKARAPETA,101,3
KALAVAPALLE,103,1
IRREKIPENTA,108,7
KOLAMASANAPALLE,163,1
CHANDRAMAKULAPALLI,78,8
RASS,188,5
GANDABOYANA PALLI,157,10
DEVALAMPETA,194,5
BOYANAPALLI,147,2
O.S.PALLE,126,8
BANGAREDDYPALLI,95,6
TADUKUPETA,143,1
K.K.PETA,169,1
Kalakada,189,2
Gangavaram,170,9
Chittor,99,4
DASUKUPPAM,188,3
GURUKUVARIPALLI,140,10
YERRAVARIPALEM,169,9
PADI PETA,156,5
BHASKAR PET,136,10
THIRUMALAKUPPAM,164,6
T.P.KOTA,156,6
KADIRAYANACHERUVU,158,9
THATIGUNTAPALAM,190,7
GATTU,118,10
KANDUKUR,175,7
KAMMAPALLE,57,5
KOTHAPALLI,126,8
KOTHAVARIPALLI,131,4
C T M,161,6
S.BANDAPALLE,124,6
BAKARAPETA,178,8
PENGARAGUNTA,153,10
Kanduru,86,8
PONGURUPALLE,96,5
SANTHIPURAM,97,2
B.N.KANDRIGA,81,2
SAGINEKUPPAM,107,4
MARRIKUNTAPALLI,126,10
Thangellapalli,160,3
CHEELLAPALLI,56,8
MAPAKSHI,174,4
Agraharam,57,5
Kotala,54,3
THALAPULAPALLI,108,3
Vadamalapet,109,9
PEDDAMANDYAM,53,1
VIJAYAPURAM,176,4
RAMAGIRI,182,4
Santhipuram,178,7
Poyya,168,7
SC Anuppalli,93,2
Arimakulapalli,83,9
AMBAKAM,159,9
Gudupalle,61,2
GAJULAMANDYAM,190,7
PATHIKONDA,92,7
NINDRA,105,5
V.Kota,54,3
KOLLABAYALLU,119,6
KAPUGANNERI,147,2
EMPEDU,153,2
GAJENDRA NAGAR,93,2
TEKUMANDA,74,3
AMUDALA,129,4
PEDDABANGARUNATHAM,193,5
DEVARAKONDA,174,6
BURLAPALLI,106,8
THONDAMANADU,195,9
Pedda thippa samudram,162,1
JANAKARIPALLE,56,10
KATHERAPALLE,104,9
Madireddypalli,176,2
GUDUPALLE,53,6
SBR.PURAM,64,6
GANDRAJUPALLI,149,8
RASAPALEM,183,8
Errakotapalli,176,9
P P Unit Tirupathi,154,2
VAYALPADU EAST,63,6
G.KATTAMANCHI,119,10
RANGAMPETA,66,10
KANLAGATTU,68,4
NARAYANAVANAM  I,83,9
VENGALATHUR,117,4
MADDINAYANIPALLE,130,5
MEDIKURTHY,171,10
E MATHYAM,136,8
CHINTHALAPATTEDA,68,5
CHOWDASAMUDRAM,162,10
N.R.Pet,51,10
Kammapalli,117,6
KALAKADA,62,8
SPINNINGMILLE,52,8
R.MALLAVARAM,141,9
Chembakur,179,4
Dusukuppam,51,4
THIRUCHANUR-li,72,7
MUPALLE,136,5
DASARLAPALLI,107,1
Penumuru,109,2
NARASINGAPURAM,187,2
KOPPEDU,51,8
M V PURAM,155,1
Kosuvaripalli,186,4
PERURU,128,1
N R PET,178,4
NOOTHANAKALVA,173,10
NELAPALLE,54,1
NADIGADDA,152,5
Thimmapuram,120,2
ATHURU,166,8
Thavanampalle,87,4
BAITAKODIAMBEDU,155,1
PICHATURU,68,8
PP Unit Chittor,175,2
M.R.PALLE,173,8
NELLIPATLA,184,9
Penchupadu,115,6
T CHAVATAPALLI,112,7
BATAVARIPALLE,116,1
BANDLAVANKA,154,8
SURAMALA,121,8
VEMAPURAM,74,3
Yadamarri,106,2
PEDDAPALAM,100,10
THAVANAMPALLI,54,9
THEERTHAM,120,1
SC Thummai Gunta,110,10
MANGALAPALLE,149,5
CHADALLA,184,6
Kangundi,198,9
GUNDLAPALLE,69,2
IRALA,100,2
ANNASWAMYVARIPALLE,92,1
P.P.BAILU,81,9
ALATHUR,72,1
GUNDLAMADUGU,54,5
KAREPAKAM,96,7
THIRUVANAMPALLI,138,1
KOVANUR,151,9
BADIKAYALA PALLE,129,10
ANNEMMAGARIPALLE,170,3
C.T.M,159,6
ARADIGUNTA,90,9
THIRUCHANUR-l,153,6
C. MALLAVARAM,134,4
PENUMALLAM,167,2
Papanaidupeta,140,6
USTHIKAYALAPENTA,57,3
Thumbakuppam,194,10
PATOOR,173,9
CHOWDEPALLI,185,7
MUDIGOLAM,154,10
VASANADU,171,7
PEDDAKONDAMARRI,98,3
OGU,194,9
MOOGAVARI GOLLA PALLI,62,6
B.KOTHAKOTA II,51,4
PULIGUNDRAM,188,9
NAMPALLE,62,5
PEDDAPANJANI,60,1
CHOWDEPALLE,98,4
Rompicherla,197,9
PUTHALAPATTU,127,3
S.MANGAPURAM,95,3
GH.Palala,92,5
Puttur-1,147,7
45 KOTHAPALLE,109,4
UGRANAMPALLE,71,4
K REDDIVARIPALLI,56,3
MODIYAMVARIPALLE,158,9
THUMBAKUPPAM,177,4
KOTANNAKANAPALLE,98,10
EKAMBARAKUPPAM,119,9
DIVITIVARIPALLE,178,7
BATHALAVARIKANDRIGA,191,10
PEDDASETTTYPALLE,59,3
Yellanivaripalli,135,3
Chittathur,186,9
Peddamallela,157,5
PERURU,118,5
Gundlapalli,109,7
THOTAKANAMA,181,9
DESAGANNUR,182,10
MODUGULAPALEM,61,7
SAMUDAYAM,139,5
KALANGI,55,10
PATHIGADA,103,9
Devalampeta,111,3
NARINI,111,4
BATTIKANDIGA,100,8
CHERLOPALLI,179,2
GOLLAPALLE,190,9
VARIGAPALLE,156,2
Thalapulanenivaripalli,94,9
MOLAKALACHERUVU,127,3
AGARAM,52,5
Peddapanjani,161,9
Punugupalli,82,5
DODDIPALLI,112,4
KATOOR,102,9
THUMSI,62,3
NANJAMPETA,126,5
GUNDLLAMAYANAPALLI,69,9
Kallur,61,7
KEERAMANDA,133,9
PASS,109,8
SINGASAMUDRAM,54,6
PEDDUR,178,9
YETAVAKILI,105,9
S.R.Puram,73,2
NAGALAPURAM I,82,9
Y. SANTHAGATE,141,4
Muduramapuram,73,10
MUDUPULAVANKA,173,5
Naravaripalli,106,10
KALLUPALLE,92,9
HANUMANTHAPURAM,104,2
Nimmanapalli,54,2
VEDHURLACHERUVU,159,7
PERUNALAPALLE,161,1
Mulakalacheruvu,53,8
BELUPALLI,180,5
N R PURAM,145,4
KOTRAKONA,191,3
MELUMDODDI,182,7
AVULAPALLI,56,4
KANDADU,80,1
Balakavaripalli,176,7
KUPPAM  WEST,63,3
Rompicherla,195,10
K V PURAM,116,3
Booragamandha,82,4
SC Rayala Cheruvu,165,1
Kota Agaram,67,7
GOVINDAREDDYPALLE,107,1
DESURU AGRAHARAM,65,10
PEDDAGOTTIGALLU,88,5
K. G. GARIPALLI,76,4
REGALLU,186,10
BUGGA AGRAHARAM,94,7
CHITHAPARA,151,8
GUDIPALA,172,8
Puttur-II,146,9
RAJEEV NAGAR COLONY,178,10
Nendra Gunta,56,6
PULICHERLA,197,6
ANJIMEDU,65,3
PATHAGUNTA,166,10
MATLAVARIPALLE,147,2
PUNGANUR - V,135,9
MADANAMBEDU,100,1
MALLAMGUNTA,93,4
POOJIGANIPALLI,77,5
Chembakur,199,7
THARANI,83,1
S K PETA,166,1
MIDDIKANDIGA,119,4
KOTABYLU,154,10
Nimmanapalle,61,3
MOOGANAPALLE,143,4
Karvetinagar,174,1
NENDRAGUNTA,135,2
GASANKI,97,9
NARASAPURAM,111,10
M  PAIPALLE,136,4
ARAGONDA,183,1
JANGALAPALLE,97,10
KUPPAM,121,8
PUNGANUR 1V,84,3
RAMAKUPPAM,132,2
MOTUKU,121,7
AGRAHARAM,111,7
Yerpedu,51,2
D.M.PURAM,199,5
DEVALCHERUVU,169,2
KUPPAM,86,9
PADIGALAKUPPAM,74,10
SIVARAMPURAM,181,3
YERRAVARIPALYAM,184,1
PUDIPATLA,120,7
SIDDAMPALLI,168,3
THIMMANAYANIPALLE,184,6
VELIGALLU,183,8
Varika suvuvari palli,156,3
YERPEDU,51,7
Gollapalli,111,9
Marripadu,175,2
Arimakulapalli,120,3
BALAGANGANAPALLE,139,4
PENUMURU,50,4
Pathikonda,125,9
Amilepalli,132,1
Renumakula Palli,68,8
PEDDAVALLAGATTURU,108,3
VENKATAPATHI NAGAR,180,10
K. ODDEPALLE,79,2
SANTHINAGAR,95,9
VAVILTHOTA,143,4
KOBAKA,164,6
RENIGUNTA(S),115,3
GADDAMVARIPALLE,128,9
UDAYAMANIKYAM,172,1
Pantapalli,174,7
BAIRUPALLE,64,9
Tharigonda,97,5
Nindra,59,1
ALAPAKAM,172,3
Somala,112,3
AGARAMANGALAM,156,4
KANNAVARAM,177,10
KURABALAKOTA,181,7
Ramasamudram,151,6
DUGGIPERI,75,7
Kosuvaripalli,83,6
CHAPIDIPALLE,116,4
PALAMANER (N),158,2
DEVALAMPETA,182,1
SUGALIMITTA,58,1
MUNGILIPATTU,123,7
LAKKANAPALLI,130,10
KALEPALLI,131,9
Gopidinne,55,9
BHEEMAVARM,154,5
PEDAKANTIPALLE,71,1
KATIPERI,176,8
GARNIMITTA,76,9
MCH TIRUPATHI MUNICIPALITY,105,4
K C PALLI,133,8
KRISHNAPURAM,154,10
Thelarallapalli,199,4
SANGASAMUDRAM,171,8
PARLAPALLE,136,10
T.PALYAM,114,3
CHINAGOTTIGALLU,192,7
THONDAVADA,149,5
Mallepadu,150,1
BAIREDDY PALLI,192,9
197 RAMAPURAM,70,10
Reddyvaripally,172,9
KAVANURU,192,2
Vejjupalli,77,10
NARAYANAVANAM II,50,4
KUPPAM EAST,186,3
RAMA RAO COLONY,165,4
Bommasamudram,121,3
CHELDIGANIPALLI,161,5
Thalaripalli,62,8
KAMATHAMUR,140,6
K.V.PURAM,190,6
SANGANAPALLE,142,2
GAJULAPALLUR,78,1
MITTAPALLI,66,8
V.KOT II,144,7
NADIMICHERLA,154,4
RANGASAMUDRAM,64,3
NARASA PURAM,114,9
Govindapalem,90,10
BEERANGI,77,9
PEYANAPALLI,117,7
Chiyavaram,196,7
MANGALAM-l,65,7
Machireddivaripalle,122,5
S.K.R.PURAM,180,7
PUNGANUR - VI,106,8
SATYA NARAYANA PURAM,110,5
PADIREDU,126,7
TIRUMALA(N),92,10
K PATNAM,69,2
B Kothakota,127,3
MOTUMALLELA,67,1
MANGALAPALYAM,69,6
RAMASAMUDRAM,173,5
MUCHIVOLU,70,3
Vijalapuram,161,3
NERABAILU,151,7
GOVT MATERNITY HOSPITAL TIRUPATHI,167,6
P T M,181,7
VEERNAMALA,134,5
Bodireddy Gari Palli,100,10
YEERAIAHAGARIPALLI,105,9
ANNURU,142,9
PP Unit Kuppam,181,5
SC Venkatapathi Nagar,161,1
M. N. KUPPAM,179,9
KOTAMANGAPURAM,167,7
ADAVIBUDUGURU,116,4
TIRUMAALA - II,90,6
