Health Facility Name,Number_Of_Beds,Rating
APHC Bharathu,76,9
APHC Lakhawar,89,1
Daharpur,187,10
Virupur,63,8
Chhotki Murari,62,10
Bauri,62,8
Jaru,85,10
Kandaul,108,5
Murgaon,195,1
Korma,104,6
MAI,141,4
APHC KAJISARAI,91,5
Tilkai,161,3
Mahmatpur 1,63,4
APHC BHELAWER,125,10
APHC Bandhuganj,116,7
Amain,163,10
Bisunganj,65,9
Saraiya Bazar,77,7
RAMDEO CHAK,172,2
Naima,96,1
Lakhawar,196,7
Ramdev chak,198,3
APHC NEHALPUR,184,10
APHC NOAWAN,93,10
APHC Dehuni,66,10
Saistabad,66,9
Dhabthu,114,7
Safepur,167,8
Marsua,138,8
Bajitpur,116,5
Gangapur,177,1
APHC UTRAPATTI,115,9
APHC Mandil,138,6
Emaliya,65,5
Hulashgang PHC,141,10
Dakara,102,5
Kokarasa,111,1
Sesamba,104,10
APHC ALINAGARPALI,173,9
Modanganj SC,65,5
Khudaudi,147,5
Karauna Halt,77,5
APHC DERHSAIYA,94,2
KUMARDIH,125,1
Ahiyasa,161,4
APHC BISTAUL,157,7
Parsa Bigha,142,8
Adarakhi Bigaha,104,9
SAIDPUR,199,3
Firozi,163,1
APHC SAGARPUR,54,2
Sheikhpura,96,3
APHC TEHTA,134,5
EAST KAKO,169,7
Chandaura,156,4
PHC Ratni Faridpur,84,5
Bhawani Chak,114,4
PHC Jehanabad,128,3
Narma,177,10
Uber,178,2
Asiyawa,62,3
Muriya Bigha,52,4
Jhunathi,120,10
APHC KASWAN,90,5
Indrapur,189,10
Mahmatpur 2,94,8
Masadh,65,10
APHC CHHATIYANA,162,2
Kohra,185,4
Keur,51,3
Dhana Dihari,120,10
Gingi,92,3
PHC Hulasganj,156,6
APHC Nandana,55,3
Dhodha,116,2
Bhagwanpur,116,4
Devara,190,3
Devdhara,89,2
Jehanabad sadar phc subcentre,183,1
Utarserthu,102,7
Tirra,143,9
Umata,155,3
Nawabganj,114,10
Jalalpur,124,1
APHC CHANPURA,88,4
APHC KALPA,83,3
Kurre,56,6
Sumera,179,5
Bhevad,184,5
Nawada,62,8
Kasai,83,7
Sugaon,98,9
WEST KAKO,148,4
Sakraudha,194,1
Pinjaura,156,6
Sarata,140,3
APHC Pandaul,103,7
Dhuriyari,86,9
PHC Modanganj,51,3
Ainawa,167,1
Kansua,88,4
Supi,51,2
APHC Sonawa,63,4
Bharthu,60,7
Dehuni,181,1
Baina,139,9
APHC NERTHUA,185,8
Machhil,189,6
Charui,56,8
Pinjaur,70,6
Makarpur,97,8
PHC Ghoshi,89,1
Gonwa,113,10
APHC Korra,66,9
Arahit,187,8
Maniyama,144,4
Ekkil,178,6
APHC Sukiyama,56,2
RH Ghoshi,102,5
Parawan,177,4
Bhimpura,94,3
Hati,191,6
Sevnan,105,9
Kinari,104,4
Pitambarpur,64,3
PHC Makhdumpur,180,5
Serthuwa,193,3
Mustichak,117,4
APHC SIKARIYA,89,5
APHC LAKHAPUR,183,6
APHC Shakurabad,174,2
Barheta,100,8
Kundila,127,5
Barawan 1,192,8
Nonhi,146,10
APHC DHARAUT,132,3
Sahobigha,145,6
Murhara,146,5
APHC Murgaon,195,6
Sohraiya,99,1
PHC Kako,171,7
Newari,89,2
Sadar Hospital Jehanabad,131,4
Bembai,120,4
Ratni Faridpur,77,9
Paigambarpur,50,4
Pokhwa,112,7
Chhotki Murari,53,2
Saidabad,115,6
Bibipur,165,4
APHC Bharathu,74,2
APHC Lakhawar,156,7
Daharpur,103,6
Virupur,67,3
Chhotki Murari,78,5
Bauri,116,8
Jaru,193,9
Kandaul,124,4
Murgaon,176,9
Korma,182,6
MAI,62,1
APHC KAJISARAI,102,9
Tilkai,107,2
Mahmatpur 1,61,2
APHC BHELAWER,61,1
APHC Bandhuganj,96,5
Amain,187,6
Bisunganj,177,9
Saraiya Bazar,133,8
RAMDEO CHAK,114,7
Naima,74,3
Lakhawar,82,10
Ramdev chak,177,6
APHC NEHALPUR,60,5
APHC NOAWAN,113,7
APHC Dehuni,138,3
Saistabad,187,3
Dhabthu,198,2
Safepur,104,5
Marsua,111,7
Bajitpur,61,1
Gangapur,118,3
APHC UTRAPATTI,105,7
APHC Mandil,112,7
Emaliya,129,10
Hulashgang PHC,158,4
Dakara,54,7
Kokarasa,196,6
Sesamba,138,5
APHC ALINAGARPALI,147,4
Modanganj SC,55,1
Khudaudi,182,10
Karauna Halt,181,7
APHC DERHSAIYA,88,3
KUMARDIH,156,6
Ahiyasa,183,9
APHC BISTAUL,186,1
Parsa Bigha,128,10
Adarakhi Bigaha,185,6
SAIDPUR,142,3
Firozi,170,7
APHC SAGARPUR,131,1
Sheikhpura,126,1
APHC TEHTA,150,9
EAST KAKO,100,4
Chandaura,112,8
PHC Ratni Faridpur,184,10
Bhawani Chak,162,2
PHC Jehanabad,168,5
Narma,62,5
Uber,197,5
Asiyawa,63,2
Muriya Bigha,81,9
Jhunathi,158,10
APHC KASWAN,126,8
Indrapur,140,5
Mahmatpur 2,155,5
Masadh,140,4
APHC CHHATIYANA,148,10
Kohra,94,8
Keur,66,10
Dhana Dihari,93,4
Gingi,196,10
PHC Hulasganj,171,2
APHC Nandana,196,8
Dhodha,190,6
Bhagwanpur,84,8
Devara,157,2
Devdhara,156,9
Jehanabad sadar phc subcentre,108,4
Utarserthu,55,3
Tirra,93,10
Umata,147,3
Nawabganj,82,3
Jalalpur,199,5
APHC CHANPURA,151,7
APHC KALPA,158,8
Kurre,146,8
Sumera,57,7
Bhevad,83,6
Nawada,92,9
Kasai,74,7
Sugaon,168,7
WEST KAKO,124,4
Sakraudha,164,2
Pinjaura,137,1
Sarata,157,8
APHC Pandaul,70,10
Dhuriyari,109,10
PHC Modanganj,61,2
Ainawa,130,4
Kansua,198,5
Supi,177,6
APHC Sonawa,135,9
Bharthu,150,9
Dehuni,80,6
Baina,52,3
APHC NERTHUA,109,2
Machhil,91,10
Charui,60,7
Pinjaur,91,10
Makarpur,50,10
PHC Ghoshi,71,5
Gonwa,102,8
APHC Korra,121,9
Arahit,156,4
Maniyama,114,10
Ekkil,183,3
APHC Sukiyama,179,2
RH Ghoshi,96,9
Parawan,94,7
Bhimpura,150,4
Hati,93,6
Sevnan,144,7
Kinari,173,3
Pitambarpur,155,5
PHC Makhdumpur,65,10
Serthuwa,83,3
Mustichak,179,5
APHC SIKARIYA,187,5
APHC LAKHAPUR,100,2
APHC Shakurabad,173,9
Barheta,79,2
Kundila,89,4
Barawan 1,153,9
Nonhi,66,8
APHC DHARAUT,191,7
Sahobigha,76,4
Murhara,151,2
APHC Murgaon,78,9
Sohraiya,75,3
PHC Kako,151,7
Newari,186,10
Sadar Hospital Jehanabad,94,1
Bembai,92,5
Ratni Faridpur,88,3
Paigambarpur,123,6
Pokhwa,67,1
Chhotki Murari,76,3
Saidabad,148,5
Bibipur,183,8
