Health Facility Name,Number_Of_Beds,Rating
Malambi MTHU,65,2
Abbrukatte,59,5
Chowdlu,83,8
Kambibane,103,3
Kuklur,196,5
Nidtha,151,5
Shanthalli-b,94,4
Surlabbi,199,6
VIRAJPET TH,196,3
Sampaje,119,6
Kutta C,59,6
Theralu,67,3
Birunani,115,3
Nalkeri,126,1
N.r.pattana -b,77,3
Sanivarasanthe CHC,171,10
Nellihudikeri,56,6
Huduguru,130,7
Garwale,169,7
Bhagamandala,82,1
Srimangala,96,3
Beckesodluru,118,9
Kallure,74,10
Chattalli B,133,8
Maldare,98,10
Birunani A,117,7
Madapura-b,111,9
Kottageri,161,2
Arji,149,4
Devarapura,188,9
Kodlipet,63,8
Karadigodu,166,8
Hathihole,102,2
Hebbale-i,71,7
Gejjehankodu,155,1
Yavakapadi,173,4
Madapura-C,96,9
Chettalli,140,6
Gummanakolli,187,7
Galibeedu,111,9
Hangallu,144,8
Siddapura CHC,197,10
Mathuru,82,1
Khanbilu,79,5
Pulieri,136,1
Shirangala-ii,125,2
Ponnampet,144,6
Murnadu,162,2
Kembukalli,83,3
Suntikoppa-A,131,6
Virajpet General Hospital,86,8
Bittangala,70,8
Kundacheri,145,2
Ganikoppal,157,1
Halligattu,86,2
Kagadikatte,133,2
Thithimati-B,180,6
Napoklu,123,1
A. Siddapura,73,5
MADIKERI urban Health Centre,148,3
Besoore,108,9
Kirgandoore,65,7
Murnad,90,1
Surlabi,107,8
Kannangala,87,8
Shirangala,76,8
Hosuru,82,9
Kadagadalu,65,9
Kolkeri,133,3
Nitoor,95,7
Maragodu,87,2
Suntikoppa-B,57,7
Kudige,126,7
Sampaje,147,5
Cheyyandane,165,7
Balambi,112,5
Arameri,130,6
Chattalli-form,164,7
Channayankote,89,5
Somwarapet SDH,65,3
Kodagaralli,80,9
Panya,166,6
Sampaje,175,8
Boothanakadu,188,5
Thorenoore,180,5
T.Shettigeri,101,8
Biligeri,150,6
Cheyyandane,61,2
Hakathur,189,9
Makanduru,178,5
Kutta A,173,6
Kodlipete-b,134,8
Kallahalla,53,3
Chennayanekotte,179,6
Kargunda,65,8
Siddapura CHC,111,6
Bembloore,116,10
Mekeri,175,6
Cherambane,92,8
Hudikeri B,67,9
Karmadu,141,10
Badagarakeri,145,9
Srimangala,126,5
Kutta CHC,59,5
Kakotuparambu,141,7
Shirangala-i,132,5
Balagunda,140,1
Kannangala,146,10
Badagabanangala,134,10
Arekadu,166,5
Neergunda,61,8
Halugunda,128,9
Hysodlur,116,7
Abyath mangala,142,6
Paloor,82,3
Peraje,57,10
Hodduru,110,7
Dundalli,169,4
Kirundadu,152,7
Kudrepaya,61,10
kanoor,112,7
Muggula,81,4
Suntikoppa,100,10
Cherangala,125,5
Gowdalli-a,52,6
Madenadu,177,5
Madapura,196,5
Cheyandane,190,6
Hudikeri A,83,3
Kadamakal,59,1
Gowdalli-b,104,10
Bettadalli,145,3
Kodlipete-a,157,8
Begure,60,9
Nelji,186,2
Cherambane,85,9
Tholureshettalli-b,62,10
Khushalanagar CHC,60,5
Beeloor,114,7
Bilugunda,171,7
Sanivarasanthe CHC,163,3
Guyya,88,6
Hebbale,194,2
Bettathur,53,3
Bhagamandala,72,2
Birunani B,183,9
VIRAJPET GH,199,9
Madalapura a,152,6
Ankanahalli,90,2
Kedakallu,132,2
Ganikoppal CHC,151,4
Kuttandi,92,8
Atturu,147,9
Bollumadu,80,8
Kakotuparambu,162,4
Kutta,154,4
Huloogoly,172,9
Maldare,59,10
Nagarhole,184,8
Kudige,125,2
Kaloor,66,5
Kanoor,88,1
Igooru,125,10
K.Badaga,87,2
Heggala,171,1
Kothuoru,187,9
Virajpet CHC,131,9
Kushalnagar,198,7
Kolagadalu,131,4
Shanthalli,130,7
Murnad,181,6
Kumaralli,52,8
N.R Patna,195,10
Makuta,157,5
Thithimathi,176,7
N.r.pattana -a,99,8
Mathigodu,105,5
Thakeri-i,57,3
Konanakatte,177,8
Gonimaroor,87,10
Biligeri,181,10
Karike,85,2
B.Shettigeri,127,7
Ayyangeri,119,7
Somwarapet CHC,75,2
Khushalanagar CHC,166,2
Napoklu,94,3
Napoklu,122,3
Kodlipete-c,129,1
Mayamudi,178,5
Nalvothakallu,129,5
Hebbale-ii,114,4
Shanthalli -a,156,10
Guddehosure,100,7
Kutta B,62,3
Bettageri,183,8
Ballamavati,96,9
Siddapur A,137,7
A.siddapura,109,2
Mukodlu,132,7
W Nemmale,68,8
Harangi-a,172,3
Harangi-b,152,4
Betolli,88,4
Ibnivalivadi,189,3
Polibetta,198,1
Parane,187,2
Hebbale,192,7
Chattalli A,172,3
Siddapur B,122,9
S.santhe,152,9
Polibetta CHC,93,6
Kedamullur,121,1
Yadure,154,9
Polibetta,103,9
Kurchi,113,6
Kakkabe,199,10
Hudikeri,153,1
Nadigunda,91,6
Thithimati-A,186,7
Devanoor,57,8
MADIKERI DH,100,4
Balele,132,5
Madapura-a,65,8
Kandangala,133,8
Biloor,58,1
Balyamandoor,142,7
Halery,85,8
Ammathi,139,3
SOMVARPET TH,85,4
7th hoskote,189,3
SOMVARPET TH,161,7
Mekuru,139,8
Tholureshettalli-a,190,8
Manchalli,66,4
Hosthota,121,9
Devanageri,96,8
Hachinadu,131,6
Kattemadu,155,5
Modure,119,10
Gowdalli,198,9
Hathuru,111,7
Balele,59,5
Malambi MTHU,151,4
Abbrukatte,75,2
Chowdlu,146,9
Kambibane,122,5
Kuklur,171,10
Nidtha,98,7
Shanthalli-b,124,6
Surlabbi,107,3
VIRAJPET TH,79,4
Sampaje,188,10
Kutta C,166,10
Theralu,187,9
Birunani,154,10
Nalkeri,193,3
N.r.pattana -b,110,1
Sanivarasanthe CHC,105,8
Nellihudikeri,122,7
Huduguru,153,2
Garwale,162,2
Bhagamandala,176,7
Srimangala,192,10
Beckesodluru,151,4
Kallure,122,1
Chattalli B,156,9
Maldare,55,3
Birunani A,187,8
Madapura-b,169,10
Kottageri,86,2
Arji,162,4
Devarapura,194,6
Kodlipet,106,1
Karadigodu,110,4
Hathihole,149,4
Hebbale-i,82,3
Gejjehankodu,117,2
Yavakapadi,133,4
Madapura-C,143,8
Chettalli,122,4
Gummanakolli,80,7
Galibeedu,116,6
Hangallu,170,1
Siddapura CHC,156,3
Mathuru,150,9
Khanbilu,123,9
Pulieri,129,4
Shirangala-ii,106,10
Ponnampet,182,3
Murnadu,57,1
Kembukalli,158,9
Suntikoppa-A,150,4
Virajpet General Hospital,68,9
Bittangala,79,6
Kundacheri,134,3
Ganikoppal,76,6
Halligattu,136,6
Kagadikatte,81,5
Thithimati-B,109,3
Napoklu,166,8
A. Siddapura,182,10
MADIKERI urban Health Centre,101,6
Besoore,135,8
Kirgandoore,194,5
Murnad,99,10
Surlabi,79,9
Kannangala,69,5
Shirangala,170,10
Hosuru,88,6
Kadagadalu,158,2
Kolkeri,181,7
Nitoor,178,7
Maragodu,156,8
Suntikoppa-B,80,1
Kudige,185,2
Sampaje,93,3
Cheyyandane,144,5
Balambi,162,10
Arameri,109,10
Chattalli-form,193,4
Channayankote,189,5
Somwarapet SDH,177,5
Kodagaralli,94,8
Panya,187,6
Sampaje,124,9
Boothanakadu,154,4
Thorenoore,164,2
T.Shettigeri,77,4
Biligeri,82,8
Cheyyandane,196,3
Hakathur,108,10
Makanduru,88,6
Kutta A,84,2
Kodlipete-b,166,8
Kallahalla,189,7
Chennayanekotte,59,5
Kargunda,79,6
Siddapura CHC,105,5
Bembloore,79,1
Mekeri,129,4
Cherambane,146,3
Hudikeri B,193,10
Karmadu,179,6
Badagarakeri,184,1
Srimangala,180,4
Kutta CHC,55,7
Kakotuparambu,95,1
Shirangala-i,131,9
Balagunda,168,2
Kannangala,129,3
Badagabanangala,113,10
Arekadu,107,8
Neergunda,159,2
Halugunda,179,9
Hysodlur,171,9
Abyath mangala,150,3
Paloor,147,9
Peraje,127,10
Hodduru,100,2
Dundalli,97,3
Kirundadu,125,8
Kudrepaya,116,6
kanoor,161,8
Muggula,88,10
Suntikoppa,122,3
Cherangala,59,5
Gowdalli-a,141,4
Madenadu,120,9
Madapura,81,4
Cheyandane,56,6
Hudikeri A,74,3
Kadamakal,192,6
Gowdalli-b,55,7
Bettadalli,180,2
Kodlipete-a,107,10
Begure,70,10
Nelji,153,1
Cherambane,141,3
Tholureshettalli-b,128,1
Khushalanagar CHC,176,1
Beeloor,54,3
Bilugunda,153,7
Sanivarasanthe CHC,104,5
Guyya,92,5
Hebbale,160,8
Bettathur,197,4
Bhagamandala,95,6
Birunani B,88,3
VIRAJPET GH,107,3
Madalapura a,86,10
Ankanahalli,119,4
Kedakallu,109,5
Ganikoppal CHC,154,7
Kuttandi,90,8
Atturu,64,2
Bollumadu,195,2
Kakotuparambu,178,8
Kutta,122,9
Huloogoly,122,1
Maldare,158,6
Nagarhole,157,9
Kudige,163,5
Kaloor,138,8
Kanoor,65,4
Igooru,92,8
K.Badaga,170,2
Heggala,62,3
Kothuoru,140,7
Virajpet CHC,107,8
Kushalnagar,157,9
Kolagadalu,70,9
Shanthalli,73,7
Murnad,128,4
Kumaralli,56,6
N.R Patna,152,2
Makuta,118,7
Thithimathi,157,2
N.r.pattana -a,122,2
Mathigodu,115,7
Thakeri-i,143,2
Konanakatte,163,2
Gonimaroor,98,5
Biligeri,178,3
Karike,122,9
B.Shettigeri,63,5
Ayyangeri,68,10
Somwarapet CHC,63,7
Khushalanagar CHC,136,1
Napoklu,142,5
Napoklu,128,9
Kodlipete-c,125,10
Mayamudi,158,9
Nalvothakallu,192,5
Hebbale-ii,106,7
Shanthalli -a,159,3
Guddehosure,178,5
Kutta B,117,5
Bettageri,86,4
Ballamavati,154,4
Siddapur A,113,7
A.siddapura,186,2
Mukodlu,67,3
W Nemmale,94,9
Harangi-a,73,2
Harangi-b,125,7
Betolli,171,7
Ibnivalivadi,141,5
Polibetta,106,4
Parane,83,1
Hebbale,180,2
Chattalli A,130,10
Siddapur B,56,8
S.santhe,171,2
Polibetta CHC,185,9
Kedamullur,97,10
Yadure,146,1
Polibetta,199,5
Kurchi,184,1
Kakkabe,179,6
Hudikeri,71,5
Nadigunda,138,5
Thithimati-A,163,3
Devanoor,103,3
MADIKERI DH,102,4
Balele,114,4
Madapura-a,182,2
Kandangala,96,4
Biloor,68,7
Balyamandoor,50,10
Halery,166,4
Ammathi,76,8
SOMVARPET TH,168,5
7th hoskote,74,4
SOMVARPET TH,132,6
Mekuru,192,5
Tholureshettalli-a,158,8
Manchalli,69,10
Hosthota,105,1
Devanageri,184,7
Hachinadu,62,9
Kattemadu,55,2
Modure,179,2
Gowdalli,77,9
Hathuru,98,9
Balele,178,10
