Health Facility Name,Number_Of_Beds,Rating
Raymindu PHSc,65,2
Lingdok PHSc,82,2
Syari PHSc,170,1
Rorethang PHSC,123,10
Tareythang PHSc,185,2
Pachak PHSc,186,5
Sumen PHSC,176,1
Pakyong PHC,116,7
Luing PHSc,150,10
Dikchu PHC,135,1
West Pedam PHSc,99,6
Samdong PHSc,143,6
Singtam District Hospital PHC,108,2
Sang PHSc,144,4
Tumin PHSc,188,1
Pubyiuk Naitam PHSc,77,10
Raley Khese PHSC,122,8
Tumblabung PHSC,54,6
Pademchey PHSc,61,5
Barapathing PHSc,174,2
Bhasmey PHSc,101,3
Rangpo PHC,173,1
Pakyong PHSc,55,9
Machong PHSc,176,10
Nandok PHSc,158,6
Changey PHSc,151,6
Machong PHC,52,6
Central Pedam PHSc,88,3
Sang PHC,70,6
Dangaythang PHSc,73,8
Rhenock CHC,111,7
Linkey PHSc,196,4
Khamdong PHSc,96,10
Majitar PHSc,147,9
Sumik Lingey PHSc,187,3
Sumin PHSC,158,9
South Regu PHSc,141,7
Middle Camp PHSC,164,7
Duga PHSc,135,7
Lamaten PHSc,108,3
Samdong PHC,172,10
Middle Camp PHSC,181,6
Aho PHSc,153,9
Tumlabong PHSC,119,7
Dikchu PHSC,183,10
North Regu PHSc,63,2
Sudunglakha PHSC,67,2
Makha PHSC,81,8
Ranka PHSc,195,10
Rangpo PHSc,140,6
Lingtam PHSc,93,3
Rhenok PHSC,134,4
Assamlingzay PHSc,99,1
GNATHANG PHSc,57,3
Basilakha PHSc,72,6
Penlong PHSc,78,2
Rongli PHC,149,8
Ranipool PHSc,190,8
Padamchen PHSc,77,4
Raley PHSC,138,8
Makha PHSC,143,6
Singtam  District Hospital,68,9
Aritar PHSC,162,2
Urban Family Welfare Center PHC,197,3
Mamring Taza Amba PHSc,106,2
Pangthang PHSc,114,9
Rolep PHSc,141,6
Urban Family Welfare Center,166,6
Bering PHSc,195,6
Martam PHSc,119,5
Sumaney Dara PHSc,148,9
Rongli PHSC,58,8
Shyagyong Rumtek PHSc,86,9
Raymindu PHSc,160,8
Lingdok PHSc,80,4
Syari PHSc,194,6
Rorethang PHSC,172,4
Tareythang PHSc,75,3
Pachak PHSc,177,2
Sumen PHSC,93,8
Pakyong PHC,196,3
Luing PHSc,74,3
Dikchu PHC,143,1
West Pedam PHSc,164,5
Samdong PHSc,175,3
Singtam District Hospital PHC,88,9
Sang PHSc,66,10
Tumin PHSc,164,3
Pubyiuk Naitam PHSc,58,1
Raley Khese PHSC,108,6
Tumblabung PHSC,52,4
Pademchey PHSc,141,2
Barapathing PHSc,138,6
Bhasmey PHSc,124,1
Rangpo PHC,90,7
Pakyong PHSc,153,5
Machong PHSc,133,2
Nandok PHSc,152,10
Changey PHSc,162,8
Machong PHC,105,1
Central Pedam PHSc,79,3
Sang PHC,88,8
Dangaythang PHSc,130,9
Rhenock CHC,195,2
Linkey PHSc,164,5
Khamdong PHSc,199,3
Majitar PHSc,176,4
Sumik Lingey PHSc,110,7
Sumin PHSC,168,3
South Regu PHSc,142,6
Middle Camp PHSC,164,1
Duga PHSc,73,3
Lamaten PHSc,149,6
Samdong PHC,165,9
Middle Camp PHSC,162,5
Aho PHSc,162,3
Tumlabong PHSC,143,3
Dikchu PHSC,57,6
North Regu PHSc,171,4
Sudunglakha PHSC,129,8
Makha PHSC,194,6
Ranka PHSc,134,9
Rangpo PHSc,70,5
Lingtam PHSc,141,1
Rhenok PHSC,134,1
Assamlingzay PHSc,162,7
GNATHANG PHSc,179,2
Basilakha PHSc,66,7
Penlong PHSc,123,9
Rongli PHC,61,6
Ranipool PHSc,87,7
Padamchen PHSc,119,8
Raley PHSC,57,1
Makha PHSC,58,2
Singtam  District Hospital,152,9
Aritar PHSC,122,9
Urban Family Welfare Center PHC,50,8
Mamring Taza Amba PHSc,183,5
Pangthang PHSc,83,6
Rolep PHSc,96,8
Urban Family Welfare Center,142,6
Bering PHSc,120,5
Martam PHSc,85,2
Sumaney Dara PHSc,79,3
Rongli PHSC,56,2
Shyagyong Rumtek PHSc,151,10
