Health Facility Name,Number_Of_Beds,Rating
Yachem,165,7
Boranamsang SC,139,3
Tangha SC,173,7
Namching SC,168,1
Yongnyah,84,7
Sakshi SC,191,1
Longleng DH,55,7
Tamlu,176,2
Longleng,147,8
Namsang,159,9
Yongshei SC,90,9
Tamlu PHC,90,10
Nian SC,130,5
Pongo Sc,155,1
Yongnyah,125,4
Yangching,195,9
Yachem,153,2
Sakshi,70,8
Yangching SC,81,7
Pongo,84,4
Yachem,117,5
Boranamsang SC,161,8
Tangha SC,128,8
Namching SC,75,1
Yongnyah,171,9
Sakshi SC,115,8
Longleng DH,98,3
Tamlu,118,5
Longleng,103,9
Namsang,60,2
Yongshei SC,86,6
Tamlu PHC,72,1
Nian SC,122,10
Pongo Sc,165,10
Yongnyah,69,8
Yangching,178,7
Yachem,187,8
Sakshi,165,8
Yangching SC,172,2
Pongo,68,1
