Health Facility Name,Number_Of_Beds,Rating
cottage hospital Neknoor,69,10
DMO Beed,115,9
Civil Dispensary Ambejogai,115,10
Mauj,151,9
Dhekanmoha,122,1
Wadwani,116,1
Sirasdevi,155,3
Takli,84,4
Sangvi Pathan,153,2
RH Chinchwan,164,3
Bangali Pimpla,62,9
Aamla,74,4
Kari,156,3
Pimpri Ghumari,105,5
Nagtala,143,3
Hiversinga,86,10
Hatola,175,7
Suleman Deola,153,2
RH Talkhed,88,8
Harinarayan Ashta,108,9
Bansarola,124,4
Nandurghat,55,9
Sheri Budruk,117,9
Lokhandi Savargaon,176,9
Suleman Deola,51,7
Loni,63,2
Wahali,139,8
Devdi,99,7
Talwada,197,7
Khokarmoha,151,2
Dadegaon,52,9
Yusuf Wadgaon,107,1
Pokhari,135,9
Kukkadgaon,148,7
Naigaon,192,5
Umapur,68,5
Jalgaon,193,2
Yevta,169,6
Salukwadi,153,8
Pangra,88,2
Wahali,174,6
Wadwani,108,9
Kalsamber,149,5
Sirsala,84,4
Tambva,92,9
Savargaon,98,9
Rui,162,6
Dahiphal Wadmauli,106,10
Belura,62,2
Ekdara,103,3
Nipani Jawalka,100,7
Kamkhed,137,9
Khandvi,120,9
Ghogaspargaon,53,3
Khandala,121,7
Massajog,122,5
Nalwandi,99,2
Matori,183,10
Bhopa,194,10
Umapur,152,10
Abegaon,76,3
Dongerkinhi,198,6
Ambewadgaon,72,9
Adas,106,9
RH Majalgaon,68,2
Bharaj,83,2
Warvati,81,6
Devulgaon Ghat,69,8
Nagapur Khurd,158,4
Chausala,79,8
WH Neknoor,154,7
Wantakli,169,4
Sub-District Hospital Georai,170,10
Paundul,67,7
Kusalamb,167,9
women Hospital  Neknoor,108,2
Aherchincholi,107,8
Jatnandur,199,6
Sonnhivra,152,3
Isthal,75,10
Brahmgao,134,6
Asola,170,8
Kotan,62,6
Madalmohi,94,9
Naholi,188,2
Shirur,192,4
Ukkadpimpri,117,5
Rakshasbhuvan,70,7
Murshadpur,147,9
Undri,93,2
Sangaon,162,5
Girvali,107,10
Savargaon,171,4
Kurla,152,4
Hiwraphadi,148,6
Govardhan,179,7
Shivni,86,5
Hingni,140,1
Belamba,132,9
Khuntephal,72,2
Parner,192,9
RH Ashti,76,8
Surdi,67,10
Wangi,183,3
Arvi,165,1
Chincholi Mali,81,6
Neknoor,72,9
Pimpladevi,90,1
Ashti,54,10
Bhawthana,116,9
Pachangri,115,1
Kawadgaon,190,4
Kolpimpri,63,4
Pardi,128,8
Ghatshil Pargaon,106,6
Nagapur,87,3
Jebapimpri,157,3
Shirurghat,118,1
Aaherwahegaon,53,4
Borodi,67,8
RH Dharur,199,6
Chikalbeed,110,5
Asardoha,81,5
Gunda,95,9
Bramnath Yelamb,66,6
Mohkhed,53,5
Marfala,149,6
pali,86,2
Gulaj,96,5
Dharur Gramin,183,5
Chinchala,174,10
Jategaon,120,1
RH Patoda,53,8
Kanadi Kh,146,8
Pimpalwandi,126,3
Kanherwadi,59,9
Khadkighat,82,8
Tadsonna,155,1
Dongar Pipmla,115,10
Wida,165,4
Takarvan,93,3
VidhyaKinhi,148,4
Parbhani Kesapuri,184,10
Lonighat,89,2
Nirgudi,95,5
Bhawthana,132,4
Chandansawargaon,153,7
Khuntephal,148,1
Nimgaon Choba,94,2
Gaukhel,132,3
Helamb,65,10
Kherda,103,8
Kaudgaon huda,192,3
RH Nandurghat,76,6
Kitti Adgaon,61,7
Pahadi Pargaon,116,9
Muggaon,141,10
Pendgaon,68,9
Hol,158,1
Yelambghat,98,10
Pohner,189,9
Therla,180,9
Ujani,84,6
Rajpimpri,175,9
Tintarvani,143,4
Gangamasla,91,9
Warapgaon,190,1
Kadiwadgaon,159,2
Belkhandi,192,5
Tamba Rajuri,180,7
Sadola,197,4
Shindi,159,8
Khalapuri,125,4
Rajegaon,58,2
Karkhel Khurd,193,4
Patsara,188,6
Kumbhefal,74,9
Aswalamba,147,5
Nagpimpri,95,3
Nathapur,132,1
Rampuri,115,2
Mandva Pathan,129,9
Choramba,82,1
Chikhli,129,9
Pohner,131,7
Antarvali,70,6
Dadahari Wadgaon,159,8
Rajegaon,153,5
Rui Nalkhol,133,1
Sautada,157,3
Jategaon,100,8
Sakud,173,2
Mohkhed,61,7
Pathrud,81,5
Pimpri Ghata,50,9
Manjarsumbha,115,9
Patoda,138,5
Gomalwada,176,3
SUB-District Hospital Parali,190,2
Salimba,91,3
Kada,50,10
Somnath Borgaon,145,5
Borkhed,116,4
Pimpala,66,10
Pimpalner,173,9
Limbaganesh,90,3
Kannapur,59,7
Pathrud,182,3
Chaklamba,127,10
Ambilwadgaon,174,10
Longaon,84,1
Savargaon,123,3
Ukhanda Chakla,127,3
Anjandoh,107,2
Charhata,52,8
Pokhari,77,4
Harki Nimgaon,172,2
Dabi,131,7
Sirasmarg,147,2
Daithan,185,8
Khalegaon,128,10
Kitti Adgaon,110,9
Gangamasala,172,6
Wangi,191,1
Takarwan,161,5
Borgaon,61,8
Nalwandi,145,5
Dongerkinhi,129,3
Shiral,189,2
Dighol Aamba,134,7
Bardapur,133,10
Raimoha,155,8
Daula Wadgaon,99,2
Mangarul,82,7
Telgaon,70,7
Gadhe Pimpalgaon,166,9
Dindrud,154,7
Vaghora,50,8
Rajuri Navgan,135,8
Ladegaon,93,6
Apegaon,111,5
Kanadimali,174,1
Padali,132,9
Malegaon,121,3
Saradgaon,53,1
Purshotampuri,196,5
Sakshal Pimpri,83,2
Rakshaswadi,116,7
Dhanegaon,149,4
Upali,116,2
salegaon,88,1
Kathoda,178,9
Rakshasbhuvan,184,7
Kuppa,97,6
Pus,197,4
Doethan,161,4
Nandalgaon,79,5
Hivarwadi,106,3
Patti Wadgaon,112,3
Ladewadgaon,72,6
Domri,69,7
Gaikwad Jalgaon,182,8
Kinhi,61,3
Amalner,145,4
Ujni,161,6
Umari,133,7
Limba Ganesh,92,8
Bardapur,118,4
Khilad,122,6
Khalapuri,73,8
Waghala,162,6
Jawalgaon,129,4
Mahalasjavla,129,3
Nagapur,123,10
Dharmapuri,113,10
Sadola,107,6
Dhanora,90,1
Dhamangaon,132,7
Hivara,57,10
Dhanora,173,5
Dhamangao,123,9
Pachegaon,182,7
Amalner,108,4
Antharwanpimpri,75,2
Yelda,128,5
Takalsing,160,6
Swami Ramanand Teerth Rural Medical College & Hospital,148,5
Raheri,110,8
Bagpimpalgaon,142,9
Pargaon Ghumra,134,9
"District Hospital,Beed",70,9
Nipani Jawalka,163,8
Paithan,100,6
Banegaon,196,1
Devla,119,5
Bodhegaon,74,8
Dongargan,166,8
Sub-District Hospital Kaij,75,6
Fulsangvi,182,3
Kekatpangri,128,3
Anjanwati,65,1
Nandagaul,70,4
Yusuf Wadgaon,141,4
Sakshal Pimpri,63,9
Morgaon,128,7
Raimoha,122,5
Hanumant Pimpri,118,3
Satrapotra,51,7
Aapegaon,121,8
Moha,100,1
Adas,171,5
Bhabhulgaon,123,1
Daskhed,193,3
Khadkat,55,8
Gardevadi,111,9
Ardhamasala,166,4
Mogra,159,5
Gadhi,98,3
Dharmapuri,50,4
Talegaon,126,2
Dhondarai,75,7
Bid Sangvi,138,9
Jiwachiwadi,75,6
Kharat Aadgaon,192,4
Mategaon,83,8
Pimpalner,58,1
Sarani Aanandgaon,127,7
Hirapur,158,9
Bhogalwadi,150,3
Wida,162,3
Manzari,182,5
Majalgaon Gramin,111,10
Kuppa,133,2
Pangri,78,1
Shirur,64,5
Loni,92,8
Kolgaon,118,4
Kumbhephal,134,6
Takalsing,193,9
Ghatnandur,105,1
Mahasangvi,172,7
Georai Gramin,65,10
Kada,98,3
Madalmohi,153,4
Revki,54,9
Radi,161,9
Nitrud,107,5
Manjarath,108,9
Devala,166,10
cottage hospital Neknoor,136,2
DMO Beed,137,1
Civil Dispensary Ambejogai,101,2
Mauj,61,5
Dhekanmoha,52,8
Wadwani,196,4
Sirasdevi,179,4
Takli,114,6
Sangvi Pathan,50,1
RH Chinchwan,171,10
Bangali Pimpla,187,8
Aamla,94,1
Kari,120,8
Pimpri Ghumari,94,4
Nagtala,89,4
Hiversinga,63,7
Hatola,165,4
Suleman Deola,169,9
RH Talkhed,89,9
Harinarayan Ashta,66,7
Bansarola,155,4
Nandurghat,190,9
Sheri Budruk,124,6
Lokhandi Savargaon,192,4
Suleman Deola,115,3
Loni,197,8
Wahali,115,6
Devdi,72,4
Talwada,159,2
Khokarmoha,161,7
Dadegaon,124,1
Yusuf Wadgaon,169,5
Pokhari,182,4
Kukkadgaon,76,4
Naigaon,152,3
Umapur,82,2
Jalgaon,107,5
Yevta,113,5
Salukwadi,53,4
Pangra,149,3
Wahali,194,1
Wadwani,96,9
Kalsamber,170,6
Sirsala,78,5
Tambva,194,3
Savargaon,136,4
Rui,60,5
Dahiphal Wadmauli,190,4
Belura,78,9
Ekdara,137,7
Nipani Jawalka,191,8
Kamkhed,186,8
Khandvi,167,1
Ghogaspargaon,197,9
Khandala,96,1
Massajog,121,5
Nalwandi,98,9
Matori,164,5
Bhopa,58,1
Umapur,134,7
Abegaon,112,7
Dongerkinhi,126,10
Ambewadgaon,100,2
Adas,185,5
RH Majalgaon,145,7
Bharaj,188,6
Warvati,136,10
Devulgaon Ghat,107,2
Nagapur Khurd,122,4
Chausala,132,7
WH Neknoor,150,1
Wantakli,152,10
Sub-District Hospital Georai,98,1
Paundul,195,3
Kusalamb,89,7
women Hospital  Neknoor,88,5
Aherchincholi,136,5
Jatnandur,99,4
Sonnhivra,59,3
Isthal,58,10
Brahmgao,198,5
Asola,193,2
Kotan,169,8
Madalmohi,154,6
Naholi,99,7
Shirur,89,9
Ukkadpimpri,121,1
Rakshasbhuvan,175,4
Murshadpur,112,8
Undri,81,3
Sangaon,93,1
Girvali,143,7
Savargaon,198,8
Kurla,92,8
Hiwraphadi,55,8
Govardhan,179,4
Shivni,199,10
Hingni,181,9
Belamba,111,9
Khuntephal,115,8
Parner,93,9
RH Ashti,56,9
Surdi,62,4
Wangi,144,4
Arvi,63,5
Chincholi Mali,183,7
Neknoor,181,7
Pimpladevi,108,2
Ashti,176,1
Bhawthana,196,10
Pachangri,61,3
Kawadgaon,130,9
Kolpimpri,56,6
Pardi,176,7
Ghatshil Pargaon,187,5
Nagapur,182,8
Jebapimpri,152,8
Shirurghat,77,10
Aaherwahegaon,135,1
Borodi,192,1
RH Dharur,128,2
Chikalbeed,50,10
Asardoha,178,5
Gunda,73,7
Bramnath Yelamb,94,8
Mohkhed,181,5
Marfala,122,4
pali,187,9
Gulaj,181,3
Dharur Gramin,168,8
Chinchala,102,10
Jategaon,184,5
RH Patoda,140,6
Kanadi Kh,158,6
Pimpalwandi,56,2
Kanherwadi,101,6
Khadkighat,170,8
Tadsonna,73,10
Dongar Pipmla,128,10
Wida,156,8
Takarvan,107,6
VidhyaKinhi,59,8
Parbhani Kesapuri,65,3
Lonighat,90,9
Nirgudi,148,3
Bhawthana,62,2
Chandansawargaon,85,10
Khuntephal,105,9
Nimgaon Choba,97,2
Gaukhel,192,6
Helamb,142,2
Kherda,112,7
Kaudgaon huda,111,4
RH Nandurghat,95,4
Kitti Adgaon,157,7
Pahadi Pargaon,66,9
Muggaon,84,2
Pendgaon,118,2
Hol,161,1
Yelambghat,101,7
Pohner,131,1
Therla,102,7
Ujani,146,8
Rajpimpri,125,10
Tintarvani,156,5
Gangamasla,108,4
Warapgaon,116,8
Kadiwadgaon,102,9
Belkhandi,101,1
Tamba Rajuri,60,6
Sadola,68,10
Shindi,171,4
Khalapuri,95,6
Rajegaon,142,2
Karkhel Khurd,97,10
Patsara,125,7
Kumbhefal,169,9
Aswalamba,152,5
Nagpimpri,134,1
Nathapur,70,8
Rampuri,196,3
Mandva Pathan,195,7
Choramba,56,6
Chikhli,72,6
Pohner,100,4
Antarvali,176,9
Dadahari Wadgaon,117,3
Rajegaon,186,7
Rui Nalkhol,158,7
Sautada,134,8
Jategaon,195,2
Sakud,90,10
Mohkhed,61,2
Pathrud,147,3
Pimpri Ghata,154,2
Manjarsumbha,65,9
Patoda,143,7
Gomalwada,59,9
SUB-District Hospital Parali,133,8
Salimba,197,3
Kada,59,2
Somnath Borgaon,52,2
Borkhed,58,4
Pimpala,156,1
Pimpalner,100,2
Limbaganesh,64,7
Kannapur,181,4
Pathrud,147,6
Chaklamba,69,6
Ambilwadgaon,86,7
Longaon,55,3
Savargaon,190,9
Ukhanda Chakla,142,4
Anjandoh,55,8
Charhata,57,3
Pokhari,172,5
Harki Nimgaon,184,5
Dabi,81,10
Sirasmarg,194,6
Daithan,176,3
Khalegaon,69,5
Kitti Adgaon,127,8
Gangamasala,113,9
Wangi,175,3
Takarwan,173,4
Borgaon,152,7
Nalwandi,148,1
Dongerkinhi,182,7
Shiral,63,1
Dighol Aamba,113,10
Bardapur,103,10
Raimoha,163,9
Daula Wadgaon,154,1
Mangarul,199,8
Telgaon,106,7
Gadhe Pimpalgaon,132,2
Dindrud,52,2
Vaghora,105,1
Rajuri Navgan,74,5
Ladegaon,63,3
Apegaon,61,4
Kanadimali,125,7
Padali,97,5
Malegaon,147,8
Saradgaon,155,5
Purshotampuri,170,5
Sakshal Pimpri,198,1
Rakshaswadi,69,7
Dhanegaon,69,3
Upali,145,9
salegaon,51,5
Kathoda,170,4
Rakshasbhuvan,129,10
Kuppa,50,1
Pus,95,9
Doethan,119,1
Nandalgaon,148,1
Hivarwadi,66,2
Patti Wadgaon,165,5
Ladewadgaon,190,5
Domri,82,7
Gaikwad Jalgaon,155,3
Kinhi,108,9
Amalner,143,7
Ujni,89,10
Umari,109,7
Limba Ganesh,174,3
Bardapur,81,4
Khilad,179,8
Khalapuri,104,5
Waghala,161,2
Jawalgaon,194,6
Mahalasjavla,150,6
Nagapur,148,8
Dharmapuri,172,7
Sadola,68,10
Dhanora,98,10
Dhamangaon,114,8
Hivara,77,4
Dhanora,129,7
Dhamangao,136,1
Pachegaon,193,8
Amalner,110,7
Antharwanpimpri,77,5
Yelda,128,6
Takalsing,93,4
Swami Ramanand Teerth Rural Medical College & Hospital,132,6
Raheri,183,4
Bagpimpalgaon,179,1
Pargaon Ghumra,96,1
"District Hospital,Beed",197,1
Nipani Jawalka,199,2
Paithan,54,6
Banegaon,88,10
Devla,172,3
Bodhegaon,104,9
Dongargan,91,2
Sub-District Hospital Kaij,58,8
Fulsangvi,122,3
Kekatpangri,193,9
Anjanwati,194,4
Nandagaul,77,1
Yusuf Wadgaon,184,4
Sakshal Pimpri,191,4
Morgaon,128,5
Raimoha,139,4
Hanumant Pimpri,107,9
Satrapotra,194,10
Aapegaon,50,3
Moha,173,10
Adas,67,6
Bhabhulgaon,130,4
Daskhed,86,5
Khadkat,170,2
Gardevadi,192,5
Ardhamasala,151,7
Mogra,174,6
Gadhi,124,10
Dharmapuri,91,2
Talegaon,85,10
Dhondarai,55,1
Bid Sangvi,163,9
Jiwachiwadi,60,5
Kharat Aadgaon,108,10
Mategaon,94,5
Pimpalner,121,10
Sarani Aanandgaon,156,8
Hirapur,193,3
Bhogalwadi,96,10
Wida,91,2
Manzari,66,2
Majalgaon Gramin,120,10
Kuppa,110,7
Pangri,93,8
Shirur,90,5
Loni,169,6
Kolgaon,56,8
Kumbhephal,179,10
Takalsing,149,8
Ghatnandur,197,9
Mahasangvi,103,9
Georai Gramin,96,1
Kada,199,5
Madalmohi,81,8
Revki,166,3
Radi,165,6
Nitrud,86,9
Manjarath,170,1
Devala,182,10
