Health Facility Name,Number_Of_Beds,Rating
CHC PATTAN,112,9
AD PALHALAN,157,6
NTPHC MAMOOSA,104,4
MAC NEHALPORA,75,7
S/C CHUKAR,121,6
Phc Panzalla,57,9
NTPHC Balhama,79,10
NTPHC Shitloo,101,8
Sc Rebban,195,5
SC Hadipora,93,8
ScTragpora,98,2
Sc Nadihal,156,4
Sc chakle,179,6
Sc Binner,156,9
Sc khushipora,103,10
Sc Vankra,177,6
Sc wulhutra,106,9
Sc Braman,193,8
SC Khamoh,130,4
PHC Rohama,155,6
Sc Brandub,198,10
SC Muqamsheed Mir,184,1
SC BOTINGOO,193,1
NTPHC WARPORA,143,8
SC HIB DANGERPORA,108,7
SC ADIPORA,126,6
PHC LADOORA,114,6
SC WAGUB,113,4
SC LALAD,135,4
SC NOWPORA,102,7
SC NOWHAMAM,88,2
SC HARTAR,182,9
SC Batgran,93,8
SC Navarunda,65,4
SC Zamborpattan,125,5
SC Sukhdar,73,6
SC Thajal,139,1
SC Jabda,146,1
SC Uroosa,167,9
SC Garkote B Kallan,196,9
SC Nambla C,99,5
SC Busgran,94,5
Khanpeth,171,9
SC Goom Ahmad Pora,119,6
SC Krishama,169,7
SC Gingal,174,1
PHC MOHRA,93,3
SC Gogal Dara,84,6
NTPHC  KAMALKOTE,97,10
SC Katibugh,128,2
PHC DUROO,125,1
Badrali,76,3
SC Balkote,77,9
SC Mothal,89,1
SC DANGERPORA,135,4
PHC Khore,139,9
SC Bandiballa,184,4
SC Chookar,86,6
Pakipora,170,7
MAC Hadipora,74,8
MAC Nadihal,153,6
NTPHCNAMBLA,118,5
SC Chooranda,77,9
SC Rasraypora,64,5
SC Waripora,149,9
Archanderhama,194,1
AD BATPORA,174,9
SC Ogmuna,157,4
Chenable,112,3
CHC SOPORE,116,10
Mattipora,56,10
SC WATLAB,101,5
Wedipora,197,7
SC HARWAN,74,7
AD WARPORA,114,3
Nowshehra,70,1
SC Mangloora,169,1
SC Nambla,66,7
SC Pinyura,114,7
Harinara,55,9
NTPHC ISHAM,192,4
SC Bune Shahran,100,6
SC TRUMBGUND,152,5
Dever,150,10
PHC MULGAM,66,2
PHC DANI SYDAN,170,9
Lachipora,101,10
SC BADAMBAGH,145,7
SC Wagub,90,3
Nowlari,70,8
Maidanan,119,1
SC Drooru,68,9
Andergam,58,10
SC Nambalnara,113,2
SC Dachi,115,5
SC Rawatpora,64,7
MAC Gohallan,176,8
PHC TARZOO,96,3
MCH SOPORE,92,8
SC SAGIPORA,183,1
PHC Bijhama,68,2
SC WADOORA,152,10
PHC SERIWARPORA,183,10
SC Badderkote,163,7
Limber,87,7
SC Gawalta,161,2
AD RAMPORA RAJPORA,166,7
AD BABA RESHI,190,3
SC Harnow,132,5
SHC Singpora,127,2
PHC SULTAN DAKI,135,4
SC K VILLAGE,186,1
SC Rambailgarh,87,4
SC YEMBERZALWARI,113,6
CHC TANGMARG,111,6
Zehanpora,103,6
PHC HARDABOORA,59,5
AD BOTINGOO,61,3
SC Hardshoora,191,6
SC Paran Pillan,83,1
SC SEER,52,2
SC Malwa,156,5
Mayan,113,4
PHC Wanigam,95,6
SC Khaipora,129,8
CHC Uri,196,4
Gath Gopallan,59,3
PHC BOMIA,147,10
PHC G K Qasim,183,1
SC Gohaltengpora,179,7
SC HATHLANGOO,168,5
SC Mandyari,108,2
AD DOABGAH,51,3
Noorkhah,103,5
AD ACHABHAL,53,10
SC Dhobiwan,118,6
AD Palhalan,144,8
CHC Pattan,189,9
NTPHC GARKORTE,84,2
MUQAM SHAHEED MIR,192,2
AD Shitloo,52,2
Bernate,90,2
PHC Warikha,90,4
Salam Abad Uri,144,7
SC Sherpora,163,7
SC ARAMPORA,158,3
PHC TUJJER SHARIEF,168,1
MAC Leinmarg,149,5
AD Mamossa,51,8
SC SANGRAMA,87,5
PHC Boniyar,69,7
MAC Choolan,74,7
SC Lalpora,76,3
Trikanjan,99,9
PHC GULMARG,119,2
Agrikalan,113,7
Salamabad,192,1
Hamray,173,1
Pehlipora,60,4
PHC KUNZAR,142,2
SC K COLONY,84,10
SC Bandi,196,10
MAC NEHALPORA,104,1
SC Drang,106,8
PHC HARDUSHIVA,154,7
SC BRATH KALAN,149,8
PHC HARIWATNOO,127,6
CHC PATTAN,157,9
AD PALHALAN,100,4
NTPHC MAMOOSA,57,7
MAC NEHALPORA,154,1
S/C CHUKAR,180,1
Phc Panzalla,167,5
NTPHC Balhama,121,7
NTPHC Shitloo,60,7
Sc Rebban,90,7
SC Hadipora,141,7
ScTragpora,143,4
Sc Nadihal,160,9
Sc chakle,186,9
Sc Binner,67,3
Sc khushipora,168,8
Sc Vankra,89,1
Sc wulhutra,163,2
Sc Braman,145,7
SC Khamoh,136,9
PHC Rohama,161,8
Sc Brandub,73,3
SC Muqamsheed Mir,171,7
SC BOTINGOO,171,3
NTPHC WARPORA,186,4
SC HIB DANGERPORA,151,7
SC ADIPORA,191,2
PHC LADOORA,152,8
SC WAGUB,78,6
SC LALAD,142,10
SC NOWPORA,67,1
SC NOWHAMAM,126,10
SC HARTAR,50,7
SC Batgran,100,2
SC Navarunda,146,6
SC Zamborpattan,135,3
SC Sukhdar,139,2
SC Thajal,104,7
SC Jabda,64,5
SC Uroosa,83,9
SC Garkote B Kallan,155,8
SC Nambla C,144,9
SC Busgran,124,4
Khanpeth,79,6
SC Goom Ahmad Pora,119,10
SC Krishama,178,5
SC Gingal,99,7
PHC MOHRA,104,4
SC Gogal Dara,131,6
NTPHC  KAMALKOTE,68,6
SC Katibugh,179,6
PHC DUROO,51,3
Badrali,103,1
SC Balkote,72,8
SC Mothal,118,3
SC DANGERPORA,105,2
PHC Khore,62,6
SC Bandiballa,93,4
SC Chookar,119,1
Pakipora,174,4
MAC Hadipora,100,7
MAC Nadihal,81,9
NTPHCNAMBLA,90,4
SC Chooranda,148,9
SC Rasraypora,130,8
SC Waripora,114,1
Archanderhama,148,2
AD BATPORA,125,5
SC Ogmuna,186,9
Chenable,155,5
CHC SOPORE,188,9
Mattipora,85,10
SC WATLAB,158,4
Wedipora,74,9
SC HARWAN,127,8
AD WARPORA,84,7
Nowshehra,163,3
SC Mangloora,127,4
SC Nambla,153,7
SC Pinyura,113,9
Harinara,126,9
NTPHC ISHAM,165,8
SC Bune Shahran,184,5
SC TRUMBGUND,118,10
Dever,95,3
PHC MULGAM,173,1
PHC DANI SYDAN,82,4
Lachipora,59,7
SC BADAMBAGH,141,3
SC Wagub,117,9
Nowlari,113,8
Maidanan,143,10
SC Drooru,127,3
Andergam,164,10
SC Nambalnara,110,4
SC Dachi,54,1
SC Rawatpora,56,2
MAC Gohallan,60,7
PHC TARZOO,123,8
MCH SOPORE,172,3
SC SAGIPORA,120,10
PHC Bijhama,130,6
SC WADOORA,183,1
PHC SERIWARPORA,77,8
SC Badderkote,186,5
Limber,142,9
SC Gawalta,107,7
AD RAMPORA RAJPORA,56,6
AD BABA RESHI,123,5
SC Harnow,152,8
SHC Singpora,60,1
PHC SULTAN DAKI,87,10
SC K VILLAGE,132,8
SC Rambailgarh,198,4
SC YEMBERZALWARI,81,1
CHC TANGMARG,115,5
Zehanpora,161,9
PHC HARDABOORA,139,2
AD BOTINGOO,135,4
SC Hardshoora,96,2
SC Paran Pillan,146,5
SC SEER,70,2
SC Malwa,163,1
Mayan,128,10
PHC Wanigam,116,9
SC Khaipora,54,1
CHC Uri,137,3
Gath Gopallan,148,10
PHC BOMIA,82,2
PHC G K Qasim,168,3
SC Gohaltengpora,175,10
SC HATHLANGOO,136,8
SC Mandyari,124,10
AD DOABGAH,136,6
Noorkhah,161,5
AD ACHABHAL,56,4
SC Dhobiwan,156,10
AD Palhalan,176,8
CHC Pattan,199,8
NTPHC GARKORTE,78,10
MUQAM SHAHEED MIR,114,1
AD Shitloo,101,4
Bernate,86,6
PHC Warikha,183,10
Salam Abad Uri,106,6
SC Sherpora,138,5
SC ARAMPORA,159,7
PHC TUJJER SHARIEF,122,8
MAC Leinmarg,145,9
AD Mamossa,99,10
SC SANGRAMA,92,2
PHC Boniyar,197,6
MAC Choolan,171,5
SC Lalpora,153,2
Trikanjan,195,2
PHC GULMARG,104,2
Agrikalan,84,10
Salamabad,62,9
Hamray,68,7
Pehlipora,94,7
PHC KUNZAR,164,7
SC K COLONY,146,10
SC Bandi,91,9
MAC NEHALPORA,64,3
SC Drang,79,10
PHC HARDUSHIVA,197,5
SC BRATH KALAN,134,1
PHC HARIWATNOO,158,5
