Health Facility Name,Number_Of_Beds,Rating
Kharagpur Sub Divisional Hospital,144,9
Ghatal Sub Divisional Hospital,180,1
Midnapore Medical Collage & Hospital,133,4
"M.R.BANGUR T.B. SANATORIUM, DIGRI",178,2
Nayagram,81,10
Magura SC,81,2
Sahara SC,179,9
Khemasuli PHC,186,2
Panchkhuri SC,131,4
Jamboni SC,173,1
Chandabila SC,165,9
Sonakhali RH,183,6
Dantan RH,169,6
Pinglash SC,140,9
Charubala PHC,138,7
Sitalda SC,101,4
Chandabila SC,184,3
Balichua SC,175,9
Duan SC,106,8
Digha SC,166,9
Laxmipur SC,88,3
Rupnarayanpur SC,142,7
Pindrakuli SC,74,2
Jogardanga SC,158,9
Naldihi SC,71,6
Chatla SC,85,3
Bankibazar SC,115,7
Mohanpur SC,93,9
ShyamSundarPur SC,146,8
Agar SC,171,2
CKT Main SC,54,8
Gopiballavpur SC,149,5
Sarasvedia SC,99,6
Junbalda SC,162,6
Aguiboni SC,167,10
Laghata SC,86,6
Palash Chabri SC,188,10
Tilantapara SC,196,6
Sundargeria SC,194,6
Dhanyagachi SC,115,9
Hossenpur SC,187,6
Nayagram SC,74,8
Bala SC,84,4
Daspur SC,173,6
Kanpur Baglata SC,186,8
Alampur PHC,143,3
Morchi SC,135,9
Nischintapur PHC,133,3
Tararui SC,161,1
Banka SC,66,8
Andhari (M) SC,98,5
Bonisole SC,148,6
Gokulpur SC,174,8
Makrampur SC,165,10
Lodhasuli SC,58,4
Anthrokhi SC,110,10
Kuleswari SC,151,3
Khukurdaha PHC,63,10
Ghoshpur SC,81,5
Baita SC,131,1
Bhurungi PHC,133,5
Vedakui SC,109,1
Sandapara SC,161,3
Balpai SC,127,7
Kanthaldiha SC,123,9
Kapgari SC,88,7
Bardanga SC,124,4
Shyamnagar SC,56,5
Kharkasuli SC,172,9
Dhanghori SC,115,7
Haribhanga SC,139,2
Tungadhua SC,144,2
Banharisinghapur Sub-Centre,97,9
Patharchakri SC,140,1
Bhemua SC,170,1
Dhamtore SC,66,10
Goaldanga SC,89,2
Kharikamathani RH,121,1
Lalgarh SC,59,5
Ghuchisole SC,175,1
Mainan  SC,98,3
Khajuri SC,173,7
Nilda SC,164,10
Menkapur SC,134,7
Jenkapur SC,168,4
Enthela SC,169,3
Nadna SC,116,10
Jhikuria Bati Taki SC,196,9
Tentulia SC,165,8
Gokulpur PHC,171,10
Dhengasole SC,183,6
Sekendari PHC,197,4
Changual BPHC,112,1
Sonakonia SC,81,5
Barakura SC,124,1
Rampura SC,157,7
Khurshi SC,193,3
Pasang PHC,182,2
Pathra SC,185,3
Shyamchak SC,112,1
Basudebpur SC,194,8
Dholkat SC,152,7
Gidhni SC,142,7
Darra SC,149,3
Babuidanga PHC,162,4
Harekrishnapur SC,163,2
Bamansarisa SC,69,5
Belut SC,171,5
Dhaboni SC,136,7
Harda SC,176,6
Purnagram SC,145,8
Arun SC,112,5
Mannya SC,183,10
Chhototara PHC,113,5
Konoiary SC,117,10
Barkola SC,52,2
Tamajuri SC,140,4
Amba PHC,86,2
Maljamuna SC,192,3
Parihati SC,87,6
Ramgarh PHC,164,10
Moula SC,99,7
Naihati SC,120,8
Malincha SC,136,5
Satyapur PHC,194,7
Bhusulia SC,127,9
Demoli SC,129,3
Vidyasagar Block Primary Health Centre,158,4
Kharikamathani SC,102,1
Dhadki SC,160,1
Matkatpur SC,65,6
Mehedipur SC,139,6
Golar SC,72,5
Nimki Mohar SC,85,9
Narma SC,90,9
Panchkhuri SC,80,4
Panchrukhi SC,187,10
Babudumro SC,63,1
Beliaberah SC,165,2
Makrampur PHC,145,4
Charakdanga SC,139,1
Khelar SC,93,2
Nunia SC,83,3
Simana SC,72,1
Dhabani SC,61,8
Debra 5/2 GP SC,109,8
Nohari PHC,151,8
Hindalbarh SC,196,6
Sonamukhi SC,172,1
Sorrong SC,61,8
Daxin barh SC,188,1
Kantageria SC,137,7
Narayanpur SC,199,9
Petbindhi SC,178,9
Amba SC,140,2
Balidiha SC,69,10
Piasala SC,106,1
Kanchdahari SC,51,3
Mulgram Sub-Centre,140,10
Talpukuria SC,110,6
Bhathandia SC,147,7
Chandri SC,101,6
Santrapur SC,190,3
Barakalanki PHC,118,9
Sardiha SC,165,2
Tapsia RH,74,10
Laghata PHC,113,1
Bathantore SC,50,4
Dhalbelun SC,139,6
Belatikuri SC,89,6
Chorchita SC,87,6
Hatihalka SC,115,2
Panchgechia SC,150,5
Baradabcha SC,76,7
Bhainagar SC,144,9
Baramesia SC,142,8
Birsingha Sub-Centre,136,8
Satyapur SC,126,6
Kantapahari SC,122,6
Dahi SC,180,4
Bhwanipur SC,57,8
Karkai SC,79,10
Dubrajpur SC,66,4
Mangalbandi SC,195,6
Kalaikundu SC,95,4
Daichakuria SC,61,6
Chakmukunda SC,79,2
Malighati SC,171,8
Sabra Anchal SC,194,2
Murakati SC,124,5
Dhansole SC,129,3
Khirati SC,155,9
Radhakantapur SC,186,2
Khirai SC,103,7
Chichira SC,194,6
Mohanpur SC,103,4
Chaipat (West) SC,181,5
Gobradan SC,66,3
Chandanpur SC,176,8
Rajnagar PHC,111,6
Sasaboni SC,65,1
Babuidanga SC,159,2
Joypur SC,129,6
Pasang SC,176,10
Tentulmuri SC,132,7
Dharampur SC,51,8
Khetua SC,53,10
Pathra PHC,143,1
Dingal SC,124,3
Sitapur SC,94,10
Keosa SC,98,9
Kadra SC,176,3
Gopinathpur SC,63,7
Balarampur Sub-Centre,125,7
Raskundu SC,88,10
Borad SC,115,10
Dhalhara PHC,103,10
Lalgarh PHC,157,10
Barbasi SC,198,1
Jara PHC,186,9
Kukrakhupi  SC,128,6
Sijua SC,164,3
Uttar Barh SC,151,3
Ranarani SC,159,5
Benadiha SC,136,8
Babuibasa SC,156,1
Rambha SC,178,9
Matiberua SC,86,7
Manikpara PHC,182,4
Pathri SC,92,8
Tapsia SC,183,5
Saharda SC,65,7
Hasimpur SC,52,2
Sitanathpur SC,176,3
Panikotor SC,50,6
Kesia SC,162,6
Keoutkhalisa SC,73,10
Nota PHC,127,8
Dwarigeria SC,63,7
Mohaboni PHC,65,1
Jalharisankarkara SC,188,1
Lepsa (Pachra) SC,120,6
Dasagram SC,61,8
Uchitpur PHC,86,2
Guyadanga SC,144,9
Khelar PHC,69,6
Baghageria SC,130,4
Pirkata PHC,165,5
Mahuli SC,103,6
Rashikpur SC,85,2
Koria SC,87,6
Chaksadi Sub-Centre,51,6
Pathra SC,137,10
Panchgeria SC,83,2
Kontai SC,56,8
Pachiar SC,199,9
Dingal PHC,113,7
Bara Muida SC,133,2
Hijli SC,179,6
Moulara SC,161,7
Chholaberia SC,99,9
Banspahari SC,120,4
Bansda SC,155,4
Jirapara SC,76,4
Kalamijore SC,139,6
Rajganj SC,109,3
Baharasole SC,178,2
Daulatchak Sub-Centre,79,9
Anar SC,186,3
Sultanpur SC,113,4
Radhanagar SC,196,2
Madpur SC,100,7
Akmura SC,72,4
Mahisda SC,115,10
Bardanga SC,179,7
Sankoti SC,168,4
Bajpara SC,79,10
Harma SC,152,5
Andharisole SC,183,5
Charubala SC,191,9
Bakhrabad SC,178,10
Silarajnagar Sub-Centre,81,4
Malbandi SC,143,1
Amrakuchi SC,54,8
Palageriaya SC,150,4
Goura SC,188,5
Bramhanbasan SC,158,6
Uttaribil SC,174,6
Bagda Mohanpur RH,167,3
Marh SC,120,4
Harinakhuri SC,127,7
Baramatkatpur SC,113,8
Kiamacha SC,96,8
Sasra SC,134,7
Rantua SC,69,5
Dharimba SC,142,5
Birbira SC,103,4
Sibda SC,183,1
Sonakhali SC,117,10
Kantadorja SC,91,6
Shyamsundarpur SC,128,2
Mguria SC,163,5
Kalyanpur SC,67,4
Metyal SC,197,9
Naya SC,178,2
Nohari SC,61,7
Pursuri SC,62,4
Agra SC,148,8
Dhuturkundia SC,83,3
Chakmakrampur SC,159,2
Gochhati SC,183,4
Shyamnagar SC,102,3
Kanimohuli SC,55,5
Keleara SC,164,8
Sabang RH,60,6
Mukshedpur SC,160,2
Nalbona SC,87,3
Nepura SC,58,9
Debogram SC,74,10
Sarasbedia SC,54,1
Narayanchak SC,55,8
Lauria SC,109,10
Odulchuan PHC,71,5
Jalchak PHC,118,8
Ruinan SC,111,7
Jamirapal SC,80,10
Tulsiboni SC,179,8
Debhog SC,59,4
Hijli SC,52,8
Lowada SC,169,10
Dumuria SC,110,1
Kapasita SC,142,9
Jalchak SC,57,8
Khanamohan SC,54,7
Chaulkuri SC,181,9
Dhuipara SC,108,3
Salboni RH,77,3
Ramkrishnapur SC,51,7
Maheshpur SC,90,9
Dhiral Baligeria SC,193,3
Kutki SC,194,3
Mangrul PHC SC,184,3
Amlaboni SC,160,10
Gokulpur SC,93,2
Godapiasal PHC SC,124,8
Kusmasuli SC,116,2
Jagannathpur SC,197,10
Balibandh SC,164,3
Puan PHC,111,5
Telant SC,129,9
Kharika PHC,159,1
Deuli SC,137,10
Harma PHC,94,4
Natuk Public Health Centre,196,9
Gobindapur SC,126,2
Mansuka Sub-Centre,101,2
Dhourjamua SC,143,7
Ellahiganj SC,115,6
Kuthikonarpur Sub-Centre,56,3
Majlishpur SC,55,8
Reripur SC,180,3
Basantapur SC,196,2
Ruknimara SC,177,8
Barakalshibhanga SC,124,5
Brahankhalisa SC,95,5
Jamua SC,60,10
Chotojharia SC,168,4
Basanchhora SC,157,9
Andharia SC,170,4
Amsole SC,174,10
Barapancharole SC,171,2
Gobindanagar SC,68,4
Debra Rural Hospital,135,10
Sautia PHC,80,6
Surpura SC,66,8
Gotsanda SC,94,3
Panchberia SC,199,9
Bajuara SC,141,10
Panchkhuri PHC,159,2
Madhabpur SC,162,8
Bhadrakali SC,146,5
Kankaboti SC,67,6
Monoharpur SC,137,8
Dharsa SC,52,2
Chaitanyapur SC,154,3
Sabra Dhaneswarpur PHC,72,10
Jhankra SC,133,4
Gomukpota SC,101,1
Hirapari SC,116,1
Jamda SC,117,1
Hatimari SC,153,6
Chakadoba SC,155,4
Trilochanpur SC,178,5
Akchara SC,129,6
Boorai SC,89,5
Belpahari SC,98,3
Tentulia PHC,153,6
Gonua SC,160,2
Mugbasan SC,137,2
Kalaikunda SC,98,5
Makrampur PHC,58,3
JHARGRAM DISTRICT HOSPITAL,173,8
Patharkumkumi SC,186,10
Kantagarh SC,171,10
Balbandighi SC,109,9
Kaijuri SC,95,6
Naratha SC,191,5
Sarkisamath SC,150,1
Basanchak SC,136,8
Khajra SC,87,2
Makli SC,70,4
Adasimla SC,61,2
Adalpur SC,50,9
Mayta SC,75,5
Maharajpur Sub-Centre,187,3
Parbatipur PHC,96,6
Bhangagar SC,178,8
Benai SC,158,3
Malibandi SC,64,9
Dharamasagar SC,180,2
Baligeria SC,186,2
Ghoratoria SC,138,7
Paparara PHC,164,4
Mundamari SC,72,5
Nagda SC,152,10
Daldali SC,171,6
Dharampur PHC,123,8
Balivasa SC,127,3
Ajodhyanagar SC,73,8
Antala SC,76,7
Ergoda SC,183,2
Khirpai RH,151,2
Jadupur Sub-Centre,185,2
Krishnapur SC,114,8
Charda SC,146,8
Rela SC,165,3
Madnahari SC,151,8
Dharampur -R  SC,108,7
Khasbarh Sub-Centre,160,7
Dandipur Sub-Centre,135,2
Chhutargeria SC,174,4
Narajole SC,58,1
Gadighat SC,145,6
Ghorapincha SC,180,6
Chandrakona RH,161,10
Jara GP Office SC,86,3
Boalia SC,187,5
Gopegarh SC,108,5
Kankra SC,193,1
Ratneswarbati Sub-Centre,119,2
Ramgarh SC,52,5
Sabra Maktab SC,190,8
Pathra PHC,159,6
Gopinathpur SC,170,1
Ramchandrapur SC,106,1
Ujan SC,143,9
Anandapur SC,133,10
Jamsole SC,93,1
Nedabahara SC,170,9
Singarui SC,127,5
Upar Patina SC,175,2
Krorda SC,135,9
Kamalapur SC,53,7
Rabidaspur SC,164,4
Lapuria SC,184,2
Kashijora SC,85,3
Barakalankai SC,70,6
Bhuta SC,107,10
Bhagabantapur PHC,92,6
Takurthan SC,127,4
Malkuri SC,103,1
Keranichati SC,145,1
Gopinathpur SC,127,4
Nayanjora SC,106,8
Dubrajpur SC,188,7
Tilaboni SC,58,9
Pingboni SC,107,7
Mahabankati SC,122,8
Bhalukkhulia SC,192,4
Madpur SC,59,4
Bhatur SC,84,5
Tutranga SC,149,4
Moulara SC,149,7
Madhupur SC,191,5
Rajnagar SC,146,9
Akalpoush SC,146,10
Bankata SC,62,1
Kanchantala SC,193,3
Jamirapal PHC,186,6
Manglui SC,67,10
Chamarbandh SC,108,2
Pakurseni SC,110,10
Shyamsundarpur SC,190,1
Punapat SC,186,2
Louriadam SC,77,5
Ramjibanpur PHC,77,1
Paparara SC,184,8
Khatkura SC,159,10
Bakcha SC,190,10
Anandapur PHC,159,4
Keshrambha SC,167,4
Dhabageri SC,55,2
Ledagamar SC,56,7
Kasipur SC,128,10
Sahaspur SC,176,4
Khepal SC,153,6
Fulberia SC,64,4
Debra RH SC,182,2
Shyamsundarpur-I SC,107,1
Golasuli SC,83,3
Chhotoposa SC,133,1
Maliara Sundarpur SC,110,1
Turka SC,157,10
Boalia PHC,171,1
Kearchand SC,146,2
Andhari (N) SC,121,2
Sasinda SC,86,7
Baghuasole SC,165,10
Bhagabanchak SC,168,5
Kadodiha SC,92,2
Natuk Sub-Centre,139,7
Ambigeria SC,185,6
Krishnapur SC,66,4
Arabari SC,135,9
Teghari SC,92,8
Kalmapukhuria SC,119,9
Chandabila SC,155,10
Basantapur SC,145,6
Andharia PHC,178,10
Dwarigeria RH,178,9
Pindrui SC,61,1
Souri SC,138,7
Neguria SC,99,2
Amrulia SC,166,6
Kotepada SC,67,10
Rampur SC,78,8
Balla SC,181,3
Satsole SC,194,9
Bhadutola SC,63,6
Khudmarai SC,138,1
Patharhuri PHC,69,2
Kalyanpur SC,74,6
Joka SC,132,3
Irhpala Sub-Centre,138,8
Arangabad SC,130,7
Pingla SC,149,7
Fatesingpur SC,154,2
Hiradihi SC,178,10
Jugisole SC,147,2
Laudaha SC,198,2
Balarampur SC,135,7
Bhangagarh RH,58,5
Baishnabmore SC,138,6
Hoomgarh SC,74,4
Purba Bhurkundi SC,199,2
Doriajodhya SC,194,5
Agarbandh SC,72,4
Sankoa SC,93,10
Radhanagari SC,185,10
Gotsanda PHC,52,7
Jalsara Sub-Centre,53,7
Tengia SC,159,1
Keotpara SC,129,1
Pachaspani SC,125,9
Dhadika SC,82,10
Muniada SC,175,6
Barangi SC,192,7
Kanasole SC,131,1
Singai Jamuna SC,184,6
Gholai SC,157,4
Rajma SC,84,6
Mamudpur SC,136,9
Kusumda SC,102,6
Mohanpur (Jhargram) RH,96,4
Dangarsai SC,90,5
Garhbeta RH,156,9
Shymchandpur SC,54,8
Kadra SC,139,1
Tentulia SC,144,3
Bishnupur SC,138,8
Charkaboni SC,84,3
Ulta SC,158,9
Golgram SC,169,8
Kashidanga SC,66,3
Bishnupur SC,182,5
Dherua SC,119,4
Jahalda SC,136,8
Satbankura SC,178,2
Ramchandrapur SC,105,7
Kewakole SC,113,5
Harishpur SC,64,5
Gopmahal Sub-Centre,86,9
Nandarampukur SC,173,6
Nehar SC,119,5
Kewakole RH,123,5
Deulbarh SC,85,4
Pukhuria SC,145,7
Renjura SC,66,6
Sabra Dhneswarpur SC,53,4
Silda PHC,162,10
Uriasai SC,131,7
Pratappur Sub-Centre,162,10
Dharampur SC,140,4
Betkundri SC,109,6
Bural SC,150,3
Antri SC,182,9
Harirhat SC,154,2
Jolgoda SC,55,3
Beladarania SC,166,10
Parbotipur SC,126,7
Hizli SC,190,5
Sovapur SC,104,10
Muraboni SC,116,1
Loginowari SC,85,9
Dudhkomra SC,139,10
Paikambi SC,148,4
Bharatpur SC,59,7
Joyramchak SC,166,5
Sreebora SC,127,5
Srimantapur Sub-Centre,53,2
Rathipur Sub-Centre,72,10
Mahatapnagar SC,184,1
Bhamal SC,142,1
Belti SC,188,6
Netai SC,103,5
Banksole SC,79,8
Chak Sultan SC,162,7
Bhelaidiha SC,91,6
Keshpur SC,117,6
Janardanpur SC,142,3
Dhobadahi SC,100,7
Erhgoda PHC,186,2
Tungur SC,109,2
Upalda SC,175,7
Dabadari SC,195,4
Sautia SC,87,3
Mandalkupi SC,78,8
Changual SC,125,2
Kharbandhi SC,179,5
Kultikri PHC,141,3
Patharpara SC,175,1
Metala SC,55,3
Dharenda SC,126,8
Ramnagar SC,101,2
Langamara SC,153,5
Bara Akna SC,78,5
Mahapal SC,125,4
Khanjapur SC,190,4
Beucha SC,183,10
Dirghagram Sub-Centre,191,1
Rajpara SC,185,2
Panchkonia SC,168,1
Ramkrishnapur PHC,172,7
Kultikri SC,176,4
Nayabasat SC,127,7
Mahatapur SC,167,3
Khandroi RH,168,9
Puyan SC,152,8
Dhalhara SC,171,7
Krishnanagar SC,190,2
Chhurimara SC,146,3
Turia SC,173,8
Hijli RH,76,5
Domohani SC,51,1
Goaltore SC,112,3
Ganthabila SC,68,8
Durlavganj SC,142,6
Amarda SC,94,7
Masantapukur SC,173,2
Satpati SC,72,1
Kadasole SC,79,3
Amjore SC,101,10
Puichara SC,78,6
Radhanagar SC,56,9
Keshpur RH,121,9
Murari SC,65,4
Kesorrekha SC,84,2
Salboni SC,100,2
Khairullachak SC,115,5
Dengakohima SC,191,2
Upardanga SC,103,4
Kenckapur SC,166,8
Mohar PHC,153,1
Sekendary SC,133,1
Kadra SC,89,1
Dingal SC,197,2
Sahari SC,73,6
Haridrapat SC,67,3
Nabkola SC,183,7
Shyamsundarpur-II SC,168,4
Sarisabasa SC,53,8
Ashurhata SC,96,3
Garhmal SC,143,8
Chandabila PHC,57,6
Mohar SC,131,8
Jara SC,82,6
Kanaisole SC,93,10
Sundraguri SC,68,8
Rajnagar SC,175,10
Dharampur SC,102,5
Talda SC,169,4
Baghasti SC,92,10
Chichira PHC,197,7
Srinagar SC,132,10
Sirisboni SC,94,6
Rohini SC,75,5
Kuldiha SC,145,9
Gohami SC,102,10
Dharimol SC,54,4
Chhototara SC,187,1
Anandapur SC,181,3
Duria SC,51,6
Uchitpur SC,83,1
Supapursuri SC,111,1
Baligeriya SC,143,8
Chakganesh SC,133,3
Kotai SC,139,2
Patharhuri SC,151,5
Bagnabard SC,68,9
Bandarbani SC,64,1
Rameswarpur SC,119,4
Belda RH,56,9
Barabagra SC,187,6
Pachakali SC,57,3
Khemasuli SC,171,9
Bakra SC,113,2
Palaidanga SC,56,8
Gamunda SC,52,7
Kalaberia SC,117,7
Trilochanpur PHC,85,8
Laxmanpur Sub-Centre,103,4
Routhmoni SC,99,3
Khandrui SC,168,3
Chakismailpur SC,77,7
Alampur SC,182,8
Sankhabhanga SC,150,2
Lokepith SC,119,10
Narangadighi SC,113,4
Kuila SC,119,2
Sasra PHC,197,4
Ghanarampur SC,80,2
Dewan SC,101,7
Kapgari PHC,149,2
Dantiara Sub-Centre,100,6
Sarisakhola SC,197,1
Ramkrishnapur SC,166,8
Chiapara SC,69,9
Panchra SC,97,9
Basantapur SC,120,10
Jote Kanuramgarh SC,148,5
Jamtalora SC,121,1
Julkapur SC,85,9
Binpur RH,72,9
Narazole PHC,199,4
Khukurdaha SC,90,9
Nota SC,112,10
Bhogpur SC,54,7
Beharichak SC,164,10
Satkui SC,90,9
Bagda SC,137,3
Sanyapara SC,68,2
Kasba SC,183,4
Baligeria PHC,57,4
Gobindapur SC,73,3
Maligram SC,138,4
Susinda SC,127,5
Bishnupur SC,66,4
Ekbalpur SC,193,5
Mangrul SC,122,10
Khasbarh Public Health Centre,152,9
Bhimpur PHC SC,186,3
Chaipat (East) SC,96,3
Sabalmara SC,92,10
Bagchhari SC,92,8
Srirampur SC,96,4
Radhanagar Sub-Centre,198,9
Baramura SC,73,6
Andharia SC,122,1
Pankalia SC,188,5
Morapada SC,107,7
Mokrampur SC,185,5
Kankrajhore SC,109,9
Dumuria SC,54,8
Bhagabantapur SC,79,1
Ramjibanpur SC,193,8
Arrah SC,151,9
Joteghanashyam (West) SC,152,7
Khalina SC,68,2
Sutchhara SC,127,9
Paikmajita SC,181,2
Bahara SC,117,6
Bamundiha SC,126,4
Sripur Sub-Centre,145,4
Kankra Sibram PHC,187,6
Lalat SC,141,9
Negripada SC,87,7
Deypara(Chandra) BPHC,189,1
Amanpur SC,101,1
Joteghanashyam (East) SC,192,2
Kalagram SC,104,7
Keshiary RH,69,10
Mangrul PHC,107,2
Handlaghat SC,176,1
Bhandaria SC,178,6
Purusottampur SC,107,2
Chandur HQ SC,139,2
Sultannagar SC,173,2
Godabazar SC,57,9
Joypur SC,118,3
Panitunia SC,74,4
Kankaboti SC,60,2
Amkopa SC,124,5
Gopali SC,170,2
Radhaballavpur Sub-Centre,158,6
Bilkua SC,142,3
Markunda SC,69,10
Talkui SC,55,2
Biswanathpur SC,94,3
Sultanpur Sub-Centre,197,1
Daspur RH,132,9
Dhansole PHC,60,1
Dahijuri SC,131,2
Panna Sub-Centre,169,8
Gobindanagar SC,112,5
Ichhaipur SC,182,8
Tarki SC,74,5
Chubka SC,59,4
Charkapara SC,127,10
Alampur SC,105,9
Madanmohanchak SC,158,5
Amratala SC,79,6
Nalbona SC,95,6
Chilkigarh SC,145,8
Chhatinasole SC,186,9
Saljhati SC,149,6
Dubghal SC,55,5
Kantore SC,68,7
Borsole SC,177,1
Jaynagar Sub-Centre,62,7
Kharkusma SC,170,1
Sinua SC,119,10
Nadaria SC,188,2
Salikotha SC,102,1
Baramara SC,50,7
Jagul SC,120,6
Kushbasan SC,145,4
Chaipat PHC,169,8
Lalitpur SC,120,9
Koredanga SC,151,5
Ganasrisha SC,50,6
Garanga SC,131,5
Khirpai SC,180,6
Kashijhora SC,52,8
Tanua SC,108,8
Gholsai Sub-Centre,97,4
Toria SC,51,10
Harimara SC,60,1
Silda SC,127,3
Belarh SC,110,5
Kotai SC,117,10
Kiaboni SC,146,4
Bahadurpur SC,60,5
Tariapunji SC,193,9
Pingla RH,179,10
Suknatore SC,70,1
Dadpur SC,143,5
Chunpara SC,166,6
Gurma SC,160,2
Belpahari RH,86,4
Salanga (Indrabazar) SC,171,3
Khunkhunia SC,162,2
Kharika SC,181,5
Bhurungi SC,155,7
Dubra SC,56,9
Sukjora SC,105,3
Dakhinsole SC,131,10
Chubka PHC,197,8
Palash Pai SC,106,10
Siromoni SC,118,3
Bhimpur PHC,127,7
Bhattagram SC,59,2
Kunarpur SC,179,9
Akanda SC,143,4
Karnagarh SC,173,8
Radhanagar PHC,148,6
Tokinagar SC,142,10
Bhabanipur SC,86,9
Khasla SC,111,10
Barakhakri SC,168,3
Chandrapur SC,81,4
Pirakata PHC SC,134,1
Khudmorai SC,188,1
Gopinathpur SC,92,6
Keshiary SC,86,6
Maheshpur SC,84,10
Sanmura SC,63,5
Deypara SC,124,3
Ragra SC,110,7
Mirrupur SC,77,6
Makarbinda SC,115,10
Chilkigarh BPHC,124,10
Samsara SC,95,8
Gopiballavpur RH,118,7
Banspat SC,114,4
Gohalura SC,169,10
Khajrabari PHC,182,3
Ramkrishnapur SC,55,3
Godapiasal PHC,86,8
Kalikapur SC,89,9
Malpar SC,114,3
Jagannathchak SC,97,9
Lalitgang SC,114,3
Lauriadam PHC,67,8
Jhentla SC,83,9
Uddhabpur SC,171,3
Sankhari Bazar SC,132,9
Krishnapur SC,173,6
Bishnupur SC,114,4
Nachipur SC,63,6
Kechanda SC,97,1
Kanko SC,131,10
Harirampur SC,154,8
Saria SC,79,9
Basanchora PHC,121,9
Bansda SC,137,8
Binpur SC,104,1
Odalchua SC,135,5
Chakbajit SC,87,3
Raghunathchak SC,197,1
Bhasra SC,92,5
Kuhura SC,175,2
Charaigram SC,72,8
Radhamohanpur SC,131,8
Mandal Puskarini SC,65,1
Gama SC,135,4
Ramchandrapur PHC,142,6
Akabpur Sub-Centre,139,3
Chotonakdona SC,189,10
Jharboni SC,157,10
Jagannathpur SC,60,6
Kanimohuli SC,159,1
Chakmalta SC,180,1
Bamal SC,119,2
Bhola Belduar SC,107,8
Sirsi SC,123,4
Hazraberh SC,132,5
Nayabasat PHC,142,10
Sandhipur PHC,166,8
Nayabasan SC,185,4
Rani Chak SC,175,10
Dumurgeria SC,128,10
Suniakone SC,153,6
Neradeul SC,171,10
Sabang SC,133,6
Danrra SC,119,8
Kadamtala SC,167,2
Ramgarh SC,78,5
Palsandapur SC,113,9
Amlagora SC,53,8
Bahurupa SC,198,6
Nischintapur SC,180,6
Damadorpur SC,185,9
Laxmi Kundu SC,163,5
Chandri PHC,84,6
Maligram East SC,121,1
Ganasarisha PHC,185,3
Sarasbedia SC,145,10
Birbandi SC,161,6
Manikpara SC,59,7
Damodarpur SC,175,7
Dharampur SC,188,3
Radhaballavpur SC,88,1
Sandhipur SC,85,6
Kharagpur Sub Divisional Hospital,197,1
Ghatal Sub Divisional Hospital,90,1
Midnapore Medical Collage & Hospital,131,4
"M.R.BANGUR T.B. SANATORIUM, DIGRI",184,1
Nayagram,123,8
Magura SC,132,7
Sahara SC,190,10
Khemasuli PHC,183,3
Panchkhuri SC,199,9
Jamboni SC,191,3
Chandabila SC,64,6
Sonakhali RH,134,4
Dantan RH,104,5
Pinglash SC,62,8
Charubala PHC,165,8
Sitalda SC,85,4
Chandabila SC,53,3
Balichua SC,158,3
Duan SC,162,9
Digha SC,78,3
Laxmipur SC,118,8
Rupnarayanpur SC,56,6
Pindrakuli SC,136,9
Jogardanga SC,189,2
Naldihi SC,91,6
Chatla SC,122,5
Bankibazar SC,121,6
Mohanpur SC,179,7
ShyamSundarPur SC,155,6
Agar SC,86,4
CKT Main SC,185,5
Gopiballavpur SC,92,4
Sarasvedia SC,195,2
Junbalda SC,179,10
Aguiboni SC,148,3
Laghata SC,63,2
Palash Chabri SC,155,10
Tilantapara SC,134,4
Sundargeria SC,98,2
Dhanyagachi SC,142,8
Hossenpur SC,186,2
Nayagram SC,67,8
Bala SC,141,3
Daspur SC,113,4
Kanpur Baglata SC,63,8
Alampur PHC,186,7
Morchi SC,119,8
Nischintapur PHC,101,10
Tararui SC,64,10
Banka SC,54,10
Andhari (M) SC,167,3
Bonisole SC,147,1
Gokulpur SC,190,8
Makrampur SC,79,6
Lodhasuli SC,67,9
Anthrokhi SC,191,8
Kuleswari SC,68,6
Khukurdaha PHC,148,3
Ghoshpur SC,139,6
Baita SC,186,3
Bhurungi PHC,90,1
Vedakui SC,57,4
Sandapara SC,84,7
Balpai SC,186,9
Kanthaldiha SC,158,6
Kapgari SC,177,4
Bardanga SC,116,5
Shyamnagar SC,164,5
Kharkasuli SC,102,6
Dhanghori SC,112,3
Haribhanga SC,196,4
Tungadhua SC,134,8
Banharisinghapur Sub-Centre,124,4
Patharchakri SC,57,10
Bhemua SC,181,1
Dhamtore SC,86,4
Goaldanga SC,173,5
Kharikamathani RH,170,5
Lalgarh SC,199,4
Ghuchisole SC,87,10
Mainan  SC,163,10
Khajuri SC,125,10
Nilda SC,169,1
Menkapur SC,67,1
Jenkapur SC,172,5
Enthela SC,152,8
Nadna SC,191,8
Jhikuria Bati Taki SC,165,3
Tentulia SC,125,5
Gokulpur PHC,140,4
Dhengasole SC,193,3
Sekendari PHC,110,8
Changual BPHC,194,5
Sonakonia SC,111,5
Barakura SC,87,6
Rampura SC,58,10
Khurshi SC,53,8
Pasang PHC,96,5
Pathra SC,181,9
Shyamchak SC,51,3
Basudebpur SC,83,8
Dholkat SC,85,10
Gidhni SC,160,9
Darra SC,146,1
Babuidanga PHC,108,4
Harekrishnapur SC,111,2
Bamansarisa SC,55,5
Belut SC,162,8
Dhaboni SC,65,1
Harda SC,103,3
Purnagram SC,108,2
Arun SC,184,7
Mannya SC,86,3
Chhototara PHC,100,8
Konoiary SC,102,5
Barkola SC,151,6
Tamajuri SC,181,10
Amba PHC,178,4
Maljamuna SC,115,8
Parihati SC,162,3
Ramgarh PHC,181,1
Moula SC,66,5
Naihati SC,171,4
Malincha SC,160,10
Satyapur PHC,79,10
Bhusulia SC,175,3
Demoli SC,152,10
Vidyasagar Block Primary Health Centre,171,2
Kharikamathani SC,194,9
Dhadki SC,154,7
Matkatpur SC,68,5
Mehedipur SC,148,8
Golar SC,154,8
Nimki Mohar SC,77,7
Narma SC,105,4
Panchkhuri SC,149,2
Panchrukhi SC,141,4
Babudumro SC,56,1
Beliaberah SC,81,3
Makrampur PHC,119,10
Charakdanga SC,110,8
Khelar SC,160,3
Nunia SC,57,6
Simana SC,98,1
Dhabani SC,71,8
Debra 5/2 GP SC,145,9
Nohari PHC,65,5
Hindalbarh SC,84,4
Sonamukhi SC,86,10
Sorrong SC,56,4
Daxin barh SC,100,1
Kantageria SC,162,2
Narayanpur SC,166,5
Petbindhi SC,174,10
Amba SC,57,8
Balidiha SC,157,4
Piasala SC,96,6
Kanchdahari SC,71,3
Mulgram Sub-Centre,130,3
Talpukuria SC,177,3
Bhathandia SC,172,9
Chandri SC,77,4
Santrapur SC,66,3
Barakalanki PHC,55,8
Sardiha SC,116,4
Tapsia RH,197,2
Laghata PHC,139,3
Bathantore SC,123,5
Dhalbelun SC,130,2
Belatikuri SC,165,5
Chorchita SC,129,8
Hatihalka SC,155,4
Panchgechia SC,60,4
Baradabcha SC,131,7
Bhainagar SC,108,6
Baramesia SC,146,3
Birsingha Sub-Centre,160,2
Satyapur SC,105,3
Kantapahari SC,185,7
Dahi SC,113,10
Bhwanipur SC,126,8
Karkai SC,92,6
Dubrajpur SC,165,9
Mangalbandi SC,177,3
Kalaikundu SC,145,1
Daichakuria SC,133,7
Chakmukunda SC,105,1
Malighati SC,70,9
Sabra Anchal SC,175,1
Murakati SC,55,7
Dhansole SC,93,3
Khirati SC,76,5
Radhakantapur SC,159,1
Khirai SC,149,2
Chichira SC,182,7
Mohanpur SC,87,8
Chaipat (West) SC,183,4
Gobradan SC,186,9
Chandanpur SC,89,10
Rajnagar PHC,145,8
Sasaboni SC,55,10
Babuidanga SC,154,10
Joypur SC,158,7
Pasang SC,127,2
Tentulmuri SC,171,1
Dharampur SC,55,7
Khetua SC,182,7
Pathra PHC,195,9
Dingal SC,160,8
Sitapur SC,151,6
Keosa SC,185,6
Kadra SC,71,5
Gopinathpur SC,76,4
Balarampur Sub-Centre,177,9
Raskundu SC,103,2
Borad SC,183,4
Dhalhara PHC,59,1
Lalgarh PHC,71,6
Barbasi SC,152,3
Jara PHC,89,3
Kukrakhupi  SC,90,5
Sijua SC,112,1
Uttar Barh SC,190,5
Ranarani SC,113,5
Benadiha SC,158,5
Babuibasa SC,187,9
Rambha SC,172,2
Matiberua SC,108,5
Manikpara PHC,170,6
Pathri SC,126,10
Tapsia SC,175,6
Saharda SC,65,1
Hasimpur SC,147,9
Sitanathpur SC,55,5
Panikotor SC,128,4
Kesia SC,51,9
Keoutkhalisa SC,135,5
Nota PHC,92,3
Dwarigeria SC,128,9
Mohaboni PHC,135,10
Jalharisankarkara SC,92,10
Lepsa (Pachra) SC,93,4
Dasagram SC,75,6
Uchitpur PHC,131,10
Guyadanga SC,87,7
Khelar PHC,178,3
Baghageria SC,100,2
Pirkata PHC,181,4
Mahuli SC,175,2
Rashikpur SC,90,9
Koria SC,65,7
Chaksadi Sub-Centre,65,2
Pathra SC,90,10
Panchgeria SC,145,5
Kontai SC,122,2
Pachiar SC,93,8
Dingal PHC,196,9
Bara Muida SC,173,5
Hijli SC,55,5
Moulara SC,164,7
Chholaberia SC,148,4
Banspahari SC,174,7
Bansda SC,139,3
Jirapara SC,91,1
Kalamijore SC,104,6
Rajganj SC,68,4
Baharasole SC,180,1
Daulatchak Sub-Centre,169,7
Anar SC,54,8
Sultanpur SC,72,2
Radhanagar SC,69,4
Madpur SC,113,8
Akmura SC,122,7
Mahisda SC,58,8
Bardanga SC,178,7
Sankoti SC,110,10
Bajpara SC,109,3
Harma SC,121,1
Andharisole SC,150,10
Charubala SC,74,9
Bakhrabad SC,64,6
Silarajnagar Sub-Centre,182,1
Malbandi SC,66,2
Amrakuchi SC,191,9
Palageriaya SC,136,8
Goura SC,123,6
Bramhanbasan SC,100,6
Uttaribil SC,105,7
Bagda Mohanpur RH,75,10
Marh SC,123,9
Harinakhuri SC,160,5
Baramatkatpur SC,189,5
Kiamacha SC,54,5
Sasra SC,152,8
Rantua SC,193,2
Dharimba SC,163,5
Birbira SC,170,2
Sibda SC,177,8
Sonakhali SC,133,10
Kantadorja SC,155,6
Shyamsundarpur SC,197,1
Mguria SC,128,7
Kalyanpur SC,131,2
Metyal SC,61,4
Naya SC,105,9
Nohari SC,141,8
Pursuri SC,84,9
Agra SC,83,2
Dhuturkundia SC,131,9
Chakmakrampur SC,105,2
Gochhati SC,172,4
Shyamnagar SC,177,9
Kanimohuli SC,198,4
Keleara SC,97,9
Sabang RH,55,10
Mukshedpur SC,177,7
Nalbona SC,154,1
Nepura SC,186,10
Debogram SC,194,9
Sarasbedia SC,151,3
Narayanchak SC,91,2
Lauria SC,102,8
Odulchuan PHC,136,5
Jalchak PHC,119,10
Ruinan SC,64,7
Jamirapal SC,110,5
Tulsiboni SC,87,4
Debhog SC,124,5
Hijli SC,161,2
Lowada SC,192,6
Dumuria SC,99,5
Kapasita SC,132,9
Jalchak SC,111,3
Khanamohan SC,196,7
Chaulkuri SC,114,3
Dhuipara SC,62,1
Salboni RH,146,10
Ramkrishnapur SC,195,1
Maheshpur SC,126,2
Dhiral Baligeria SC,193,7
Kutki SC,149,3
Mangrul PHC SC,125,3
Amlaboni SC,123,1
Gokulpur SC,165,1
Godapiasal PHC SC,64,8
Kusmasuli SC,80,6
Jagannathpur SC,115,4
Balibandh SC,117,7
Puan PHC,191,6
Telant SC,78,2
Kharika PHC,150,8
Deuli SC,146,1
Harma PHC,99,9
Natuk Public Health Centre,126,6
Gobindapur SC,110,8
Mansuka Sub-Centre,119,7
Dhourjamua SC,96,5
Ellahiganj SC,166,2
Kuthikonarpur Sub-Centre,129,9
Majlishpur SC,114,9
Reripur SC,180,9
Basantapur SC,70,10
Ruknimara SC,54,9
Barakalshibhanga SC,61,8
Brahankhalisa SC,170,6
Jamua SC,184,4
Chotojharia SC,96,10
Basanchhora SC,131,9
Andharia SC,77,4
Amsole SC,178,9
Barapancharole SC,174,1
Gobindanagar SC,98,8
Debra Rural Hospital,83,8
Sautia PHC,111,10
Surpura SC,181,1
Gotsanda SC,62,10
Panchberia SC,128,9
Bajuara SC,57,2
Panchkhuri PHC,132,4
Madhabpur SC,169,9
Bhadrakali SC,116,7
Kankaboti SC,59,2
Monoharpur SC,122,8
Dharsa SC,89,5
Chaitanyapur SC,103,6
Sabra Dhaneswarpur PHC,123,9
Jhankra SC,111,6
Gomukpota SC,56,2
Hirapari SC,73,10
Jamda SC,196,7
Hatimari SC,68,7
Chakadoba SC,159,1
Trilochanpur SC,194,6
Akchara SC,169,10
Boorai SC,102,8
Belpahari SC,197,9
Tentulia PHC,100,3
Gonua SC,91,10
Mugbasan SC,90,5
Kalaikunda SC,163,5
Makrampur PHC,187,7
JHARGRAM DISTRICT HOSPITAL,162,6
Patharkumkumi SC,180,2
Kantagarh SC,173,4
Balbandighi SC,92,9
Kaijuri SC,106,1
Naratha SC,149,6
Sarkisamath SC,180,8
Basanchak SC,189,10
Khajra SC,61,1
Makli SC,74,8
Adasimla SC,93,10
Adalpur SC,80,2
Mayta SC,122,10
Maharajpur Sub-Centre,122,5
Parbatipur PHC,121,4
Bhangagar SC,94,5
Benai SC,115,4
Malibandi SC,98,8
Dharamasagar SC,68,4
Baligeria SC,90,6
Ghoratoria SC,135,2
Paparara PHC,71,4
Mundamari SC,85,6
Nagda SC,160,6
Daldali SC,111,2
Dharampur PHC,150,1
Balivasa SC,160,3
Ajodhyanagar SC,137,10
Antala SC,118,2
Ergoda SC,197,10
Khirpai RH,169,10
Jadupur Sub-Centre,73,2
Krishnapur SC,83,6
Charda SC,88,8
Rela SC,126,10
Madnahari SC,77,4
Dharampur -R  SC,92,1
Khasbarh Sub-Centre,138,5
Dandipur Sub-Centre,103,10
Chhutargeria SC,103,4
Narajole SC,172,9
Gadighat SC,136,1
Ghorapincha SC,154,2
Chandrakona RH,71,10
Jara GP Office SC,185,10
Boalia SC,66,9
Gopegarh SC,199,10
Kankra SC,155,4
Ratneswarbati Sub-Centre,147,2
Ramgarh SC,112,7
Sabra Maktab SC,75,9
Pathra PHC,100,5
Gopinathpur SC,103,1
Ramchandrapur SC,104,1
Ujan SC,185,3
Anandapur SC,164,8
Jamsole SC,111,4
Nedabahara SC,69,3
Singarui SC,104,7
Upar Patina SC,170,10
Krorda SC,53,8
Kamalapur SC,182,8
Rabidaspur SC,170,6
Lapuria SC,189,9
Kashijora SC,86,1
Barakalankai SC,176,8
Bhuta SC,179,2
Bhagabantapur PHC,177,4
Takurthan SC,198,7
Malkuri SC,155,2
Keranichati SC,100,5
Gopinathpur SC,54,8
Nayanjora SC,135,10
Dubrajpur SC,50,7
Tilaboni SC,158,6
Pingboni SC,167,3
Mahabankati SC,119,7
Bhalukkhulia SC,165,5
Madpur SC,157,8
Bhatur SC,64,10
Tutranga SC,191,4
Moulara SC,149,2
Madhupur SC,124,7
Rajnagar SC,94,10
Akalpoush SC,146,10
Bankata SC,87,4
Kanchantala SC,87,10
Jamirapal PHC,167,10
Manglui SC,107,3
Chamarbandh SC,179,9
Pakurseni SC,160,10
Shyamsundarpur SC,65,6
Punapat SC,126,4
Louriadam SC,104,1
Ramjibanpur PHC,173,7
Paparara SC,192,9
Khatkura SC,74,2
Bakcha SC,80,2
Anandapur PHC,73,1
Keshrambha SC,168,1
Dhabageri SC,146,3
Ledagamar SC,100,8
Kasipur SC,115,9
Sahaspur SC,160,6
Khepal SC,155,7
Fulberia SC,88,10
Debra RH SC,69,10
Shyamsundarpur-I SC,54,5
Golasuli SC,150,8
Chhotoposa SC,94,3
Maliara Sundarpur SC,194,2
Turka SC,118,10
Boalia PHC,187,6
Kearchand SC,104,8
Andhari (N) SC,135,9
Sasinda SC,179,3
Baghuasole SC,84,5
Bhagabanchak SC,179,5
Kadodiha SC,55,1
Natuk Sub-Centre,154,9
Ambigeria SC,141,4
Krishnapur SC,130,2
Arabari SC,70,8
Teghari SC,95,4
Kalmapukhuria SC,75,3
Chandabila SC,184,1
Basantapur SC,91,7
Andharia PHC,108,9
Dwarigeria RH,119,4
Pindrui SC,59,2
Souri SC,98,3
Neguria SC,75,10
Amrulia SC,78,1
Kotepada SC,105,4
Rampur SC,95,2
Balla SC,120,3
Satsole SC,71,3
Bhadutola SC,170,2
Khudmarai SC,106,2
Patharhuri PHC,136,2
Kalyanpur SC,146,10
Joka SC,109,1
Irhpala Sub-Centre,101,7
Arangabad SC,87,7
Pingla SC,176,5
Fatesingpur SC,101,9
Hiradihi SC,165,8
Jugisole SC,184,4
Laudaha SC,145,3
Balarampur SC,70,3
Bhangagarh RH,78,7
Baishnabmore SC,152,6
Hoomgarh SC,143,9
Purba Bhurkundi SC,159,8
Doriajodhya SC,157,5
Agarbandh SC,167,9
Sankoa SC,192,1
Radhanagari SC,107,8
Gotsanda PHC,124,4
Jalsara Sub-Centre,76,8
Tengia SC,92,7
Keotpara SC,114,10
Pachaspani SC,123,2
Dhadika SC,104,6
Muniada SC,68,9
Barangi SC,133,10
Kanasole SC,128,1
Singai Jamuna SC,175,1
Gholai SC,103,10
Rajma SC,119,8
Mamudpur SC,140,7
Kusumda SC,83,9
Mohanpur (Jhargram) RH,96,3
Dangarsai SC,177,4
Garhbeta RH,92,6
Shymchandpur SC,160,3
Kadra SC,112,4
Tentulia SC,51,9
Bishnupur SC,110,7
Charkaboni SC,168,1
Ulta SC,80,2
Golgram SC,73,10
Kashidanga SC,183,1
Bishnupur SC,75,5
Dherua SC,66,6
Jahalda SC,57,5
Satbankura SC,84,5
Ramchandrapur SC,86,8
Kewakole SC,116,2
Harishpur SC,180,5
Gopmahal Sub-Centre,58,2
Nandarampukur SC,79,4
Nehar SC,148,8
Kewakole RH,85,2
Deulbarh SC,141,2
Pukhuria SC,177,3
Renjura SC,95,8
Sabra Dhneswarpur SC,171,4
Silda PHC,86,1
Uriasai SC,84,10
Pratappur Sub-Centre,187,7
Dharampur SC,99,5
Betkundri SC,94,10
Bural SC,59,8
Antri SC,182,2
Harirhat SC,147,9
Jolgoda SC,63,2
Beladarania SC,130,4
Parbotipur SC,78,3
Hizli SC,188,3
Sovapur SC,177,3
Muraboni SC,105,3
Loginowari SC,177,8
Dudhkomra SC,156,2
Paikambi SC,118,5
Bharatpur SC,87,1
Joyramchak SC,88,3
Sreebora SC,50,9
Srimantapur Sub-Centre,96,1
Rathipur Sub-Centre,53,5
Mahatapnagar SC,84,8
Bhamal SC,95,3
Belti SC,191,5
Netai SC,81,2
Banksole SC,191,5
Chak Sultan SC,64,1
Bhelaidiha SC,179,8
Keshpur SC,150,2
Janardanpur SC,130,7
Dhobadahi SC,110,4
Erhgoda PHC,116,10
Tungur SC,99,9
Upalda SC,138,3
Dabadari SC,90,9
Sautia SC,128,1
Mandalkupi SC,185,6
Changual SC,83,5
Kharbandhi SC,98,8
Kultikri PHC,161,8
Patharpara SC,54,3
Metala SC,126,1
Dharenda SC,185,9
Ramnagar SC,54,2
Langamara SC,172,9
Bara Akna SC,115,6
Mahapal SC,79,8
Khanjapur SC,185,1
Beucha SC,117,6
Dirghagram Sub-Centre,97,10
Rajpara SC,159,7
Panchkonia SC,53,10
Ramkrishnapur PHC,95,10
Kultikri SC,135,9
Nayabasat SC,188,10
Mahatapur SC,79,5
Khandroi RH,117,7
Puyan SC,55,7
Dhalhara SC,173,4
Krishnanagar SC,73,3
Chhurimara SC,85,7
Turia SC,140,10
Hijli RH,85,7
Domohani SC,132,3
Goaltore SC,82,3
Ganthabila SC,148,6
Durlavganj SC,68,3
Amarda SC,192,9
Masantapukur SC,196,10
Satpati SC,163,4
Kadasole SC,117,7
Amjore SC,168,4
Puichara SC,57,9
Radhanagar SC,142,5
Keshpur RH,109,7
Murari SC,66,4
Kesorrekha SC,149,4
Salboni SC,134,3
Khairullachak SC,113,9
Dengakohima SC,173,8
Upardanga SC,128,3
Kenckapur SC,188,5
Mohar PHC,105,3
Sekendary SC,54,6
Kadra SC,69,8
Dingal SC,63,10
Sahari SC,93,4
Haridrapat SC,97,5
Nabkola SC,54,3
Shyamsundarpur-II SC,190,10
Sarisabasa SC,160,7
Ashurhata SC,83,4
Garhmal SC,162,5
Chandabila PHC,113,10
Mohar SC,77,6
Jara SC,113,7
Kanaisole SC,53,5
Sundraguri SC,55,4
Rajnagar SC,66,8
Dharampur SC,182,7
Talda SC,51,10
Baghasti SC,81,4
Chichira PHC,150,10
Srinagar SC,126,8
Sirisboni SC,55,1
Rohini SC,81,8
Kuldiha SC,192,4
Gohami SC,181,4
Dharimol SC,94,9
Chhototara SC,150,8
Anandapur SC,84,4
Duria SC,61,9
Uchitpur SC,53,6
Supapursuri SC,65,6
Baligeriya SC,128,6
Chakganesh SC,95,9
Kotai SC,99,10
Patharhuri SC,105,3
Bagnabard SC,149,2
Bandarbani SC,124,2
Rameswarpur SC,137,3
Belda RH,190,10
Barabagra SC,179,6
Pachakali SC,150,4
Khemasuli SC,176,9
Bakra SC,169,4
Palaidanga SC,84,9
Gamunda SC,185,10
Kalaberia SC,64,2
Trilochanpur PHC,111,6
Laxmanpur Sub-Centre,120,4
Routhmoni SC,142,1
Khandrui SC,166,2
Chakismailpur SC,93,2
Alampur SC,195,6
Sankhabhanga SC,56,10
Lokepith SC,194,1
Narangadighi SC,189,9
Kuila SC,196,4
Sasra PHC,185,1
Ghanarampur SC,173,4
Dewan SC,58,4
Kapgari PHC,191,10
Dantiara Sub-Centre,186,6
Sarisakhola SC,197,1
Ramkrishnapur SC,192,3
Chiapara SC,56,9
Panchra SC,169,8
Basantapur SC,66,5
Jote Kanuramgarh SC,124,3
Jamtalora SC,136,6
Julkapur SC,106,8
Binpur RH,187,7
Narazole PHC,154,5
Khukurdaha SC,98,10
Nota SC,85,9
Bhogpur SC,195,4
Beharichak SC,51,7
Satkui SC,149,10
Bagda SC,95,4
Sanyapara SC,137,8
Kasba SC,81,7
Baligeria PHC,158,8
Gobindapur SC,94,5
Maligram SC,176,5
Susinda SC,90,3
Bishnupur SC,112,7
Ekbalpur SC,97,5
Mangrul SC,97,2
Khasbarh Public Health Centre,63,6
Bhimpur PHC SC,133,1
Chaipat (East) SC,89,3
Sabalmara SC,92,7
Bagchhari SC,167,3
Srirampur SC,174,10
Radhanagar Sub-Centre,108,6
Baramura SC,63,9
Andharia SC,174,2
Pankalia SC,119,7
Morapada SC,112,8
Mokrampur SC,52,5
Kankrajhore SC,165,2
Dumuria SC,81,3
Bhagabantapur SC,71,5
Ramjibanpur SC,118,1
Arrah SC,169,1
Joteghanashyam (West) SC,121,2
Khalina SC,93,5
Sutchhara SC,72,8
Paikmajita SC,142,4
Bahara SC,176,6
Bamundiha SC,194,7
Sripur Sub-Centre,56,1
Kankra Sibram PHC,196,3
Lalat SC,176,3
Negripada SC,56,5
Deypara(Chandra) BPHC,119,6
Amanpur SC,103,7
Joteghanashyam (East) SC,130,8
Kalagram SC,182,2
Keshiary RH,88,4
Mangrul PHC,183,1
Handlaghat SC,60,6
Bhandaria SC,185,9
Purusottampur SC,56,9
Chandur HQ SC,52,10
Sultannagar SC,179,5
Godabazar SC,134,1
Joypur SC,167,2
Panitunia SC,81,8
Kankaboti SC,70,5
Amkopa SC,61,2
Gopali SC,133,4
Radhaballavpur Sub-Centre,181,7
Bilkua SC,145,5
Markunda SC,120,2
Talkui SC,100,2
Biswanathpur SC,150,9
Sultanpur Sub-Centre,162,6
Daspur RH,65,3
Dhansole PHC,173,3
Dahijuri SC,99,6
Panna Sub-Centre,168,5
Gobindanagar SC,126,7
Ichhaipur SC,173,7
Tarki SC,128,4
Chubka SC,121,7
Charkapara SC,60,1
Alampur SC,160,5
Madanmohanchak SC,124,7
Amratala SC,62,7
Nalbona SC,87,6
Chilkigarh SC,191,5
Chhatinasole SC,50,2
Saljhati SC,149,2
Dubghal SC,152,3
Kantore SC,163,8
Borsole SC,71,4
Jaynagar Sub-Centre,109,8
Kharkusma SC,74,4
Sinua SC,103,9
Nadaria SC,51,5
Salikotha SC,106,3
Baramara SC,192,6
Jagul SC,188,8
Kushbasan SC,73,10
Chaipat PHC,77,6
Lalitpur SC,71,6
Koredanga SC,103,4
Ganasrisha SC,139,2
Garanga SC,95,8
Khirpai SC,141,6
Kashijhora SC,121,7
Tanua SC,156,2
Gholsai Sub-Centre,95,6
Toria SC,157,10
Harimara SC,169,8
Silda SC,52,7
Belarh SC,93,9
Kotai SC,58,6
Kiaboni SC,120,1
Bahadurpur SC,103,7
Tariapunji SC,72,4
Pingla RH,58,5
Suknatore SC,84,10
Dadpur SC,196,4
Chunpara SC,151,9
Gurma SC,186,4
Belpahari RH,169,8
Salanga (Indrabazar) SC,110,2
Khunkhunia SC,90,4
Kharika SC,141,6
Bhurungi SC,170,7
Dubra SC,120,9
Sukjora SC,148,9
Dakhinsole SC,142,6
Chubka PHC,106,9
Palash Pai SC,82,10
Siromoni SC,76,4
Bhimpur PHC,96,7
Bhattagram SC,163,4
Kunarpur SC,124,7
Akanda SC,80,3
Karnagarh SC,97,8
Radhanagar PHC,153,2
Tokinagar SC,110,4
Bhabanipur SC,101,8
Khasla SC,131,5
Barakhakri SC,64,8
Chandrapur SC,163,8
Pirakata PHC SC,100,1
Khudmorai SC,183,6
Gopinathpur SC,175,7
Keshiary SC,102,4
Maheshpur SC,181,4
Sanmura SC,119,2
Deypara SC,68,3
Ragra SC,168,8
Mirrupur SC,60,3
Makarbinda SC,102,1
Chilkigarh BPHC,64,9
Samsara SC,67,2
Gopiballavpur RH,188,6
Banspat SC,189,8
Gohalura SC,102,6
Khajrabari PHC,110,10
Ramkrishnapur SC,111,1
Godapiasal PHC,58,8
Kalikapur SC,158,2
Malpar SC,130,1
Jagannathchak SC,179,9
Lalitgang SC,113,10
Lauriadam PHC,67,3
Jhentla SC,160,9
Uddhabpur SC,82,8
Sankhari Bazar SC,92,2
Krishnapur SC,187,8
Bishnupur SC,146,5
Nachipur SC,72,8
Kechanda SC,155,2
Kanko SC,83,8
Harirampur SC,182,10
Saria SC,104,7
Basanchora PHC,66,3
Bansda SC,113,4
Binpur SC,117,6
Odalchua SC,151,1
Chakbajit SC,132,8
Raghunathchak SC,150,5
Bhasra SC,177,3
Kuhura SC,67,3
Charaigram SC,63,7
Radhamohanpur SC,86,7
Mandal Puskarini SC,93,9
Gama SC,100,2
Ramchandrapur PHC,151,1
Akabpur Sub-Centre,196,8
Chotonakdona SC,169,1
Jharboni SC,97,4
Jagannathpur SC,59,5
Kanimohuli SC,56,7
Chakmalta SC,113,5
Bamal SC,116,10
Bhola Belduar SC,154,9
Sirsi SC,148,4
Hazraberh SC,105,10
Nayabasat PHC,92,1
Sandhipur PHC,159,10
Nayabasan SC,151,10
Rani Chak SC,187,6
Dumurgeria SC,109,4
Suniakone SC,74,9
Neradeul SC,106,8
Sabang SC,167,9
Danrra SC,92,9
Kadamtala SC,99,7
Ramgarh SC,138,2
Palsandapur SC,144,4
Amlagora SC,173,8
Bahurupa SC,151,9
Nischintapur SC,62,9
Damadorpur SC,196,9
Laxmi Kundu SC,135,7
Chandri PHC,72,1
Maligram East SC,188,3
Ganasarisha PHC,121,9
Sarasbedia SC,187,1
Birbandi SC,190,5
Manikpara SC,84,5
Damodarpur SC,160,5
Dharampur SC,174,5
Radhaballavpur SC,124,4
Sandhipur SC,78,9
