Health Facility Name,Number_Of_Beds,Rating
PHC Pessing,175,2
SC Kamba (Notional),101,10
SC Bagra (Notional),96,2
SC Kaying (Notional),78,9
SC Daring (Notional),131,1
SC Damda Oglek,112,3
SC Likabali (Notional),149,4
PHC Kangku (Notional),119,5
SC Aalo (Notional),135,5
PHC Sibe (Notional),104,7
SC Mechuka (Notional),102,5
c,97,9
SC Tirbin (Notional),102,3
SC Nikte (Notional),187,8
SC Pessing (Notional),185,10
SC Kombo (Notional),158,7
SC Liromoba (Notional),108,3
SC Monigong (Notional),54,5
PHC Pidi (Notional),140,8
SC Yomcha (Notional),110,1
SC Darak (Notional),187,9
SC Gensi (Notional),75,3
SC Tato (Notional),50,8
PHC Pessing,88,8
SC Kamba (Notional),116,5
SC Bagra (Notional),148,2
SC Kaying (Notional),183,2
SC Daring (Notional),92,4
SC Damda Oglek,190,4
SC Likabali (Notional),143,1
PHC Kangku (Notional),143,7
SC Aalo (Notional),107,8
PHC Sibe (Notional),85,10
SC Mechuka (Notional),167,8
c,169,6
SC Tirbin (Notional),66,3
SC Nikte (Notional),162,3
SC Pessing (Notional),63,7
SC Kombo (Notional),129,10
SC Liromoba (Notional),193,7
SC Monigong (Notional),173,4
PHC Pidi (Notional),153,9
SC Yomcha (Notional),76,3
SC Darak (Notional),112,8
SC Gensi (Notional),182,4
SC Tato (Notional),125,10
