Health Facility Name,Number_Of_Beds,Rating
CHC Premnagar,185,2
SHC Tara,51,10
SHC Arjunpur,154,9
SHC Mendra,77,6
SHC Nawatola,66,7
PHC Umapur,116,5
SHC Dhartipara,136,9
PHC Biharpur,169,6
SHC Bhatgaon,193,7
PHC Gorpani,166,8
SHC Sonpur,64,3
SHC Gotgaon,199,4
SHC Bakna,147,8
PHC Kamalpur,84,8
SHC Gangikot,53,10
SHC Devnagar,154,5
SHC Pasta,128,2
SHC Devipur,83,10
SHC Parshurampur,194,8
CHC Pratappur,61,5
SHC Dhumadand,178,7
PHC Tara,186,9
SHC Indarpur,134,8
PHC Pampapur,165,10
SHC Odgi,58,3
SHC Kapsara,76,1
SHC Mayapur(SARGUJA),69,1
SHC Raghunathpur,59,10
SHC Maja,52,9
SHC Bedmi,161,3
PHC Batra,120,4
SHC Vindhiyachal,149,8
PHC Bhaiyathan,53,10
CHC Bhatgoan,97,8
SHC Shivprasad Nagar,142,6
SHC Bundia,93,5
SHC Runiyadih,50,8
SHC Sumerpur,161,6
PHC Ajabnagar,159,9
SHC Masga,152,2
PHC Bhatgaon,134,5
SHC Bhanwarahi,175,10
SHC Kamalpur,190,6
SHC Khaira,85,2
SHC Bak,108,2
PHC Songra,179,7
SHC Lanchi,137,2
PHC Kandrai,51,8
SHC Telgaon,152,4
SHC Manpur,118,5
SHC Kailashpur,142,8
SHC Jarhi,82,1
SHC Maheshpur,106,2
SHC Satyanagar,136,7
SHC Umeshwarpur,149,5
PHC Ramanujnagar,173,7
CHC Odgi,53,3
SHC Matigadha,186,8
SHC Tarkeshwarpur,67,1
SHC Barpara,161,3
SHC Agustpur,180,4
SHC Sawarawa,81,9
SHC Raie,195,7
SHC Karsi,106,1
PHC Pendri,167,10
SHC Manjira,57,7
SHC Bhuneshwerpur,79,4
PHC Lanjit,136,3
SHC Ajabnagar,100,8
SHC Salka,104,3
SHC Pasal,166,6
SHC Saraipara,161,1
SHC Jajawal,165,2
SHC Kewra(SARGUJA),61,8
SHC Dendri,134,1
SHC Dawankara,166,10
SHC Chungadi,120,5
SHC Dharsendi,102,1
SHC Ketka,126,10
SHC Chhatrang,54,3
SHC Ramnagar,169,5
SHC Gopalpur,79,8
SHC Narola,89,1
SHC Bojha,76,8
SHC Sivnandanpur,102,9
SHC Barbaspur,132,2
PHC Chandarpur,124,2
PHC Karanji,60,2
PHC Basdei,98,2
PHC Karsi,102,2
SHC Khadgaonkala,166,1
PHC Chendra,91,5
SHC Korea,160,2
SHC Sudamanagar,119,2
SHC Vishunpur,125,4
PHC Dharampur,88,5
SHC Sundarganj,111,10
SHC Joor,102,7
SHC Silfili,54,4
SHC Karwa,112,5
SHC Durgapur,50,2
PHC Sonpur,113,3
SHC Pahadgaon,174,8
SHC Lanjit,122,8
SHC Patrapali,86,8
SHC Kamalpur,130,1
SHC Sattipara,129,1
PHC Kalyanpur,194,8
SHC Kharsura,84,4
SHC Chandarpur,53,6
SHC Telaikacchar,126,2
SHC Banja,59,5
SHC Nawaparakala,172,8
PHC Devnagar,118,5
SHC Surta,162,5
SHC Paldha,172,10
SHC Chapda,54,8
SHC Kerta,60,3
SHC Chandannagar,177,3
SHC Latori,141,8
SHC Mayurdhaki,99,6
SHC Mani,78,9
PHC Salka,160,7
PHC Rewti,179,7
SHC Sundarpur,154,2
SHC Salka,86,3
PHC Chungadi,165,4
SHC Narayanpur,82,8
SHC Patna,65,4
SHC Umeshpur,85,4
PHC Latori,164,10
PHC Chandramedha,135,7
SHC Nakna,60,3
SHC Khod,163,6
PHC Silota,190,5
SHC Pandari,190,6
SHC Pachira,64,5
SHC Kurowa,77,10
SHC Badsara,146,5
SHC Fulkona,79,8
SHC Ramanujnagar,135,5
SHC New Minse,120,3
SHC Nawadih,125,1
CHC Bhatgaon,174,6
CHC Surajpur,68,6
SHC Durti,130,7
SHC Khopa,63,10
SHC Girwarganj,172,1
CHC Bhaiyathan,181,1
SHC Khajuri,124,3
SHC Mohanpur,113,2
SHC Kotya,120,10
CHC Bishrampur,199,1
SHC Pakni,113,1
SHC Madneshwerpur,136,1
SHC Nareshpur,111,2
SHC Tulsi,76,6
SHC Jhhansi,181,6
SHC Maheshpur,108,1
SHC Batra,106,3
SHC Sakalpur,190,1
SHC Kaskela,96,10
SHC Nayakarkoli,98,7
SHC Champaknagar,175,2
SHC Sirsi,80,10
SHC Moharsop,121,6
PHC Moharsop,51,9
SHC Jainagar,157,9
SHC Dawna,126,5
SHC Kotal,83,6
SHC Bhediya,65,6
SHC Salka,146,6
SHC Kalyanpur,113,4
PHC Parshurampur,151,1
SHC Mohali,65,2
SHC Rameshweram,182,5
SHC Harihapur,91,6
SHC Chendra,165,10
SHC Akhora,150,10
SHC Jagarnathpur,108,1
SHC Chandrapur,154,10
SHC Biharpur,107,7
SHC Karanji,109,5
SHC Pathakpur,92,3
SHC Senduri,107,5
CHC Ramanujnagar,81,10
SHC Ajirma,167,1
SHC Karampur,163,10
SHC Pakni,149,5
SHC Harratikra,80,2
SHC Khunsu,135,9
SHC Sarhari,52,9
SHC Kot,122,10
PHC Khond,52,7
SHC Ramkola,102,4
PHC Dharsedi,67,10
SHC Bakirma,121,7
SHC Bhakura,61,8
SHC Surajpur,73,9
SHC Kanchanpur,121,8
SHC Basadai,117,6
SHC Govindpur,133,7
SHC Madanpur,67,5
SHC Chhindiya,143,7
SHC Ganeshpur,157,6
SHC Aamgaon,112,7
SHC Sonpur,129,10
SHC Baikona,84,8
SHC Kedarpur,159,6
SHC Semrakala,79,6
SHC Keshavnagar,110,9
SHC Dandkarwa,181,3
SHC Pratappur,106,5
SHC Mahgaie,67,1
SHC Umjhar,107,5
SHC Pirha,198,9
PHC Ganehspur,54,7
PHC Bhadhi,78,5
PHC Bhandi,69,3
SHC Darhora,104,5
PHC Banja,133,9
PHC Ketka,51,3
PHC Umeshwarpur,117,9
SHC Podi,114,8
SHC Amgaon,167,6
SHC Mahuli,165,1
SHC Badwar,92,1
SHC Gangoti,156,1
PHC Chandarpur,197,9
PHC Mahangai,188,5
SHC Bharda,186,10
SHC Tiwragudi,138,8
SHC Sarma,60,10
SHC Thadpathar,168,4
SHC Podi,191,9
SHC Gowardhanpur,193,3
SHC Krishnapur,142,10
SHC Sonwahi,175,10
SHC Gangapur,178,6
SHC Bakalo,85,10
SHC Vishrampur,114,5
SHC Dharampur,183,1
SHC Premnagar,179,9
SHC Anrokha,142,9
SHC Kusmusi,86,4
SHC Kandrai,184,3
SHC Chandramedha,162,9
SHC Bhaiyathan,128,3
SHC Baijnathapur (L),174,3
PHC Ramkola,191,3
SHC Vrindawan,64,1
SHC Songra,155,6
SHC Rewti,130,1
SHC Ramtirth,191,10
SHC Parwatipur,159,2
SHC Pampapur,148,9
SHC Uchdih,120,9
SHC Jamdei,129,9
SHC Darripara,192,7
SHC Bhandi,191,10
SHC  Kenwara,166,10
CHC Premnagar,144,3
SHC Tara,92,3
SHC Arjunpur,130,8
SHC Mendra,155,4
SHC Nawatola,154,9
PHC Umapur,83,5
SHC Dhartipara,100,7
PHC Biharpur,57,3
SHC Bhatgaon,180,7
PHC Gorpani,183,2
SHC Sonpur,154,2
SHC Gotgaon,174,6
SHC Bakna,145,9
PHC Kamalpur,159,2
SHC Gangikot,144,8
SHC Devnagar,189,3
SHC Pasta,110,5
SHC Devipur,165,5
SHC Parshurampur,87,4
CHC Pratappur,171,6
SHC Dhumadand,116,10
PHC Tara,104,2
SHC Indarpur,137,6
PHC Pampapur,67,10
SHC Odgi,181,8
SHC Kapsara,73,6
SHC Mayapur(SARGUJA),128,9
SHC Raghunathpur,174,3
SHC Maja,116,1
SHC Bedmi,190,3
PHC Batra,67,2
SHC Vindhiyachal,131,2
PHC Bhaiyathan,187,6
CHC Bhatgoan,159,4
SHC Shivprasad Nagar,126,5
SHC Bundia,157,9
SHC Runiyadih,159,1
SHC Sumerpur,186,5
PHC Ajabnagar,97,5
SHC Masga,61,4
PHC Bhatgaon,144,2
SHC Bhanwarahi,121,9
SHC Kamalpur,178,6
SHC Khaira,101,1
SHC Bak,85,3
PHC Songra,55,6
SHC Lanchi,176,9
PHC Kandrai,160,4
SHC Telgaon,65,4
SHC Manpur,83,1
SHC Kailashpur,123,3
SHC Jarhi,53,5
SHC Maheshpur,77,10
SHC Satyanagar,112,5
SHC Umeshwarpur,193,10
PHC Ramanujnagar,62,3
CHC Odgi,117,9
SHC Matigadha,156,2
SHC Tarkeshwarpur,107,1
SHC Barpara,175,1
SHC Agustpur,148,9
SHC Sawarawa,61,6
SHC Raie,134,4
SHC Karsi,103,3
PHC Pendri,177,4
SHC Manjira,92,5
SHC Bhuneshwerpur,74,6
PHC Lanjit,188,1
SHC Ajabnagar,140,1
SHC Salka,68,10
SHC Pasal,191,5
SHC Saraipara,137,6
SHC Jajawal,84,1
SHC Kewra(SARGUJA),126,10
SHC Dendri,184,3
SHC Dawankara,69,9
SHC Chungadi,76,3
SHC Dharsendi,133,1
SHC Ketka,111,3
SHC Chhatrang,93,4
SHC Ramnagar,180,4
SHC Gopalpur,158,3
SHC Narola,159,9
SHC Bojha,73,3
SHC Sivnandanpur,52,10
SHC Barbaspur,178,6
PHC Chandarpur,148,1
PHC Karanji,147,3
PHC Basdei,115,10
PHC Karsi,111,10
SHC Khadgaonkala,57,3
PHC Chendra,168,1
SHC Korea,56,9
SHC Sudamanagar,116,2
SHC Vishunpur,180,1
PHC Dharampur,180,4
SHC Sundarganj,67,4
SHC Joor,193,2
SHC Silfili,180,10
SHC Karwa,186,8
SHC Durgapur,143,7
PHC Sonpur,88,4
SHC Pahadgaon,195,1
SHC Lanjit,86,1
SHC Patrapali,77,3
SHC Kamalpur,153,1
SHC Sattipara,66,8
PHC Kalyanpur,180,2
SHC Kharsura,179,7
SHC Chandarpur,183,10
SHC Telaikacchar,191,2
SHC Banja,164,7
SHC Nawaparakala,112,2
PHC Devnagar,132,3
SHC Surta,144,9
SHC Paldha,134,9
SHC Chapda,74,10
SHC Kerta,199,10
SHC Chandannagar,145,10
SHC Latori,58,3
SHC Mayurdhaki,135,9
SHC Mani,108,8
PHC Salka,78,4
PHC Rewti,185,1
SHC Sundarpur,162,1
SHC Salka,82,10
PHC Chungadi,119,9
SHC Narayanpur,141,4
SHC Patna,189,9
SHC Umeshpur,140,5
PHC Latori,185,7
PHC Chandramedha,144,7
SHC Nakna,117,8
SHC Khod,132,3
PHC Silota,195,9
SHC Pandari,120,9
SHC Pachira,91,3
SHC Kurowa,125,10
SHC Badsara,82,9
SHC Fulkona,85,1
SHC Ramanujnagar,73,9
SHC New Minse,122,9
SHC Nawadih,165,8
CHC Bhatgaon,189,2
CHC Surajpur,105,2
SHC Durti,52,2
SHC Khopa,155,6
SHC Girwarganj,177,9
CHC Bhaiyathan,69,8
SHC Khajuri,134,8
SHC Mohanpur,113,8
SHC Kotya,63,9
CHC Bishrampur,176,8
SHC Pakni,66,5
SHC Madneshwerpur,126,9
SHC Nareshpur,145,2
SHC Tulsi,145,2
SHC Jhhansi,107,6
SHC Maheshpur,95,1
SHC Batra,97,1
SHC Sakalpur,186,5
SHC Kaskela,65,3
SHC Nayakarkoli,160,2
SHC Champaknagar,56,2
SHC Sirsi,152,10
SHC Moharsop,133,1
PHC Moharsop,57,10
SHC Jainagar,136,8
SHC Dawna,112,7
SHC Kotal,95,1
SHC Bhediya,118,9
SHC Salka,143,5
SHC Kalyanpur,123,2
PHC Parshurampur,78,2
SHC Mohali,56,2
SHC Rameshweram,103,7
SHC Harihapur,156,4
SHC Chendra,103,2
SHC Akhora,56,9
SHC Jagarnathpur,56,7
SHC Chandrapur,123,2
SHC Biharpur,72,2
SHC Karanji,125,4
SHC Pathakpur,166,4
SHC Senduri,131,3
CHC Ramanujnagar,133,1
SHC Ajirma,141,3
SHC Karampur,176,2
SHC Pakni,64,10
SHC Harratikra,161,4
SHC Khunsu,138,4
SHC Sarhari,101,4
SHC Kot,91,1
PHC Khond,94,5
SHC Ramkola,97,1
PHC Dharsedi,184,3
SHC Bakirma,170,7
SHC Bhakura,69,9
SHC Surajpur,135,10
SHC Kanchanpur,171,1
SHC Basadai,178,5
SHC Govindpur,112,5
SHC Madanpur,72,4
SHC Chhindiya,179,2
SHC Ganeshpur,54,7
SHC Aamgaon,65,2
SHC Sonpur,84,4
SHC Baikona,147,10
SHC Kedarpur,67,5
SHC Semrakala,145,10
SHC Keshavnagar,130,8
SHC Dandkarwa,145,8
SHC Pratappur,120,10
SHC Mahgaie,108,1
SHC Umjhar,101,1
SHC Pirha,95,8
PHC Ganehspur,90,4
PHC Bhadhi,160,7
PHC Bhandi,194,9
SHC Darhora,187,4
PHC Banja,75,3
PHC Ketka,90,3
PHC Umeshwarpur,103,6
SHC Podi,199,10
SHC Amgaon,52,5
SHC Mahuli,136,10
SHC Badwar,80,10
SHC Gangoti,186,10
PHC Chandarpur,111,9
PHC Mahangai,199,9
SHC Bharda,115,10
SHC Tiwragudi,93,8
SHC Sarma,170,9
SHC Thadpathar,111,1
SHC Podi,143,4
SHC Gowardhanpur,147,6
SHC Krishnapur,149,8
SHC Sonwahi,174,10
SHC Gangapur,71,5
SHC Bakalo,168,3
SHC Vishrampur,146,2
SHC Dharampur,69,1
SHC Premnagar,102,3
SHC Anrokha,137,3
SHC Kusmusi,191,1
SHC Kandrai,140,9
SHC Chandramedha,185,8
SHC Bhaiyathan,142,4
SHC Baijnathapur (L),136,6
PHC Ramkola,166,6
SHC Vrindawan,145,8
SHC Songra,183,1
SHC Rewti,168,4
SHC Ramtirth,137,6
SHC Parwatipur,187,8
SHC Pampapur,164,2
SHC Uchdih,82,2
SHC Jamdei,191,8
SHC Darripara,103,10
SHC Bhandi,52,3
SHC  Kenwara,93,10
