Health Facility Name,Number_Of_Beds,Rating
Asothar PHC,117,2
Mawai,130,5
Dugrayi,173,5
Basanti khera,108,6
Mathurapur,128,5
Dawatpur,128,7
Mananva,99,6
ItailiNew,120,8
Chandapur,54,10
Tasahi Bujug,156,2
Mananva,160,7
raypur muwari,137,6
Saton Peet,101,9
Joniha,121,1
Devlan,111,8
Kishanpur,135,10
Sultan garh,112,5
Sarki,83,7
Kaseruva,81,7
Haswa,51,6
Makarandpur,133,5
Mandouna,115,5
Ati  Jajmoyiya,66,3
Karsawan,159,5
Ikari,197,2
Bighanpur,77,8
Amilihapal,93,5
Gaurakala,84,4
Basohani,160,6
District Women Hospital Fatehpur,153,7
Malaka,82,1
Kuli,181,9
Bhamadpur,86,3
Adaiyya,131,2
Azampur Gahava,181,2
Babai,174,7
Gopalganj East,196,3
Jhangeernagar,101,2
"Chandpur-1,2",175,6
pahadpur,103,5
Korra Sadat,64,6
Onti,175,4
Latifpur,137,7
Khajuha-2,133,1
Koda,76,1
-,170,5
Kankpur,69,4
Madokipur,181,8
Hansupur,144,2
Lateefpur- APHC,97,10
Jagatpur-Ganda,140,7
Bahadurpur khaga,172,1
Barmatpur,194,4
Tyoja,155,8
Padhara,184,8
CHC Jahanabad,96,10
Shahjahanpur,106,3
Sikrodi,162,8
Chitisapur,154,8
Saton  Dharampur,77,5
Kichhauchha,105,2
Beragadiwa,142,6
gaura,118,7
Rithvan,90,5
Korayi 2,100,3
Malaka,55,3
Makanpur,64,3
Shivrajpur,172,5
Ghorha,168,8
manapur,153,10
Dalipur,177,4
Mathaiyapur,135,6
Sultanpur ghosh,94,1
Tikari,187,5
Raypur Bhasrol,175,8
Dampur- APHC,98,1
Sewramau,84,5
Rari,73,2
Ashapur,59,10
Ayah,116,3
Chakki,143,7
Shahjadpur khaga,73,2
Bijayipur,164,3
Shukulpur,95,7
Gaurakala,170,1
Chack mughal,69,1
Sithiyani,174,3
Lalauli N,167,1
Jahanbad,103,6
Shekhpur,192,4
Bahrampur,164,2
Mathaiyapur,81,3
Khajuha-2,133,6
Kapil,87,5
Aphoi,140,9
Bhaisahi,85,6
Gharvasipur,117,5
Ashothar main centre,184,5
Mawai,122,2
Jakhni,141,9
Rampur Imatpur,137,4
Jafarganj- APHC,171,4
Sarki,182,6
Kansakhera,154,1
Husainganj,76,1
Gamhari,142,5
Selavan,163,6
Aoramha,183,10
Latifpur,143,8
Gadra,63,9
Kumbhipur,91,6
Kunwarpur,198,3
Ranipur,93,5
Umra,101,2
Jamrawan,74,8
Deomai-1,182,4
Janta,141,6
Kasiyapur,149,10
Sarahan Bujug,50,9
Mo. pur gauti,100,8
New  Katoghan,126,7
Korayi 2,86,7
Senipur,186,3
Parsidhpur,171,2
Mohan Kheda,57,2
Maohar,65,6
Kottiya,61,10
Eraya Masayak,199,10
Aladatpur,141,6
Naraeni,91,1
Chhiwali,129,5
Aladatpur,93,8
nizamutthinpur,177,6
Tane,53,7
Tikar,192,5
Cakhedi,185,3
Bhadva,156,1
Damapur,123,6
Tarapur,87,10
Mawai,169,4
Simaura,161,4
etamatpur,180,4
Sangaon,79,9
Alamganj,82,10
Usraina,101,3
Fatehabad,130,6
Allipur,90,5
Mewalibujurg,192,10
Vijaypur Centerl,130,7
PHC Teliyani,158,5
Moh kala,179,1
Musafa,82,4
Savat,103,4
Naraeni,88,6
Karmon,117,5
Lohari,121,2
Etaili,141,10
Bijoli,123,1
Bamhrauli,79,6
Lohari,116,5
Lateefpur,186,10
Kandhiya,89,7
Puredan,188,3
PCH Bhitaura,94,4
Devree bujurg,125,1
Mewalibujurg,137,5
Simauri,198,3
Jahanabad,162,4
Khajuha,163,7
Rampur Pachbita,51,2
Raribujurg,152,3
Fatehabad,112,5
Eraya sadat,110,6
Chack mughal,182,3
Suswan Khurd,191,4
Aurai,83,3
Sakhiyanv,65,10
Dada Amauli,69,1
Khesahan,164,4
Korakanak,124,1
Sahili,141,8
Semri,65,1
Jahanbad,121,8
Ashothar Kila,99,1
Tenduva,118,8
Basva,154,6
Ashothar main centre,101,3
Husainganj,144,5
Jukara,173,3
Chakki New,107,6
Jajmoyiya-2,128,4
Kevatmai,130,10
chhiulaha,56,10
Karayi 1,171,1
Basafara,52,6
CHC AMAULI,107,3
Haswa,125,1
Baery,56,1
CHC Khaga,199,6
Haswa,96,1
Gangrawal,183,5
Husainganj,117,6
Jafarganj-2,199,7
Andmau,181,2
Tikari manauti,193,6
Taliyani,85,6
Maujmabad,180,3
Pojepur,100,8
Mathurapur,76,4
Ghaghaura,93,5
Allipur,70,9
Korra Sadat,169,10
New  Gadra,132,8
Urauli,63,7
Besadi,130,2
Barmatpur,64,4
Khakharu,158,3
aambi,181,10
Dari Bujurg,122,9
Nagri Sawasth kendra,69,4
Japhrabad,87,1
Dampur,185,2
Bavara,99,8
CHC Hathgam,127,6
Rampur Pachbita,125,10
Gazipur,190,10
Missi,69,4
Alampur,141,9
PHC Gopalganj,51,6
Rithvan,91,4
Harijan pur,73,2
Datauli,104,4
Mavai,84,4
Mutaur,124,1
Dhata 1,162,8
Lalauli,118,10
Makanpur,95,3
Chhimi,93,7
Badagaon -APHC,122,2
Jajmoyiya-1,167,8
Mahna,83,5
Guneer,174,2
Panayi,184,4
Dewmai,177,8
Shivpuri,90,6
Bara,127,1
Deomai-2,162,6
Kandhi,100,2
Sakdhanpur,100,5
Jakhni,184,4
Bhalewa,112,3
Gopalganj West0,75,1
Basohani,141,6
Sahili,174,6
Jarara,162,9
Shah,58,5
Badaganw,181,6
Muranv,79,9
Sarsai,164,4
Saton  Dharampur,122,4
APHC Bhaisauli,149,2
Pauli,197,4
Panayi,106,1
Ekdala,170,10
BIajani,119,7
Ramvan,81,1
Bhadwa- APHC,182,5
Pakhauli,117,6
Ruhellapur,158,5
Kasba sohan,140,1
Bahua,61,7
PHC Bhitaura,77,3
Budavan,153,4
Tikari,140,4
Bahroli,137,1
Hasanapur,162,5
Chichani,179,3
Rarikhurd,61,2
Shakha,106,7
Mohan Kheda,155,6
Mohammadbad,111,8
Senipur,156,9
Chhiwlaha,95,9
Muttaur N,115,6
Saton Dharampur - APHC,116,5
Kothiya,151,2
Alamganj- APHC,152,8
Korsam,139,5
Khadara,138,4
Chiulaha- APHC,85,2
Bahera sadat,166,8
Katoghan,133,3
Pojepur,90,2
Haiwatpur,194,4
Koat,71,5
Belai,124,5
Eraya Masayak,122,5
Koraiyya,171,8
Ashothar Kila,128,5
Dhata 2,108,8
Koda,173,5
Sakhiyanv,72,10
Umargahna,95,2
Lahgi,117,10
Naraicha,116,4
Khaerai,97,1
Asani,194,9
Rasoolpur Vaesapur,109,7
Gajikheda,61,5
Ikari,135,8
Deedh,163,5
Kandhi,92,5
Hasaupur,193,5
Bahua,118,5
Akbarpur choraey,127,1
Madhawpur,144,4
Kirti Kheda,154,6
Naubasta,171,4
Didharuva-1,194,8
Ati  Kisanpur,90,10
Dhamna khud,123,4
Jam,152,4
Bilanda,98,10
Sidhanw,134,10
Khatauli,163,10
Silmi,110,9
PHC Deomai,90,5
Kalana,110,8
Kajipur,192,4
Khatauli -APHC,198,6
Kusumbhi,62,9
Khasmau,191,5
kasimpur,139,3
Sarkandi N,192,4
Hardo,152,8
Elai,155,8
Ati  Khakharu,88,7
Kot,194,1
Ati  Chandpur,133,3
--,176,3
Kheshan,181,1
Chitisapur,51,4
Kotla,126,4
Dariyamau,114,5
PHC Dhata,119,6
Mohammadpur Kala,158,1
Aung,90,6
Chillee,127,2
Sithaura,67,3
Kusumbhi,66,4
Dapsora,93,3
Bakhrana,148,1
PHC Bijayipur,126,5
Barigawan,58,5
Bhaisauli,87,1
Mahraha,52,10
Bilanda,56,2
Rashulpur,181,1
Asani,104,6
Akilabad,177,3
Sujawalpur,105,10
Jarauli,110,5
Usraina,64,4
Laghora,161,6
Thariyav,136,3
Dedasai,199,3
Gajipur -APHC,171,3
Ajamatpur,88,3
Jamrawan,198,2
Lahuree Sarai,54,8
Ramvan,62,7
Kondar,77,6
Deomai-1,92,2
Fatehpur Tekari,197,3
mauwara,146,8
Amoun,125,3
Bharha,65,9
Lahuree Sarai,81,5
Gopalganj-Aung,132,4
Pattishah,58,3
PHC Khajuha,194,8
Kalana,57,5
Hasanpur kasar,138,4
Saroli,93,6
Semri,154,2
District Male Hospital Fatehpur,64,9
Amoli 1,105,5
Rampur Imatpur,154,4
Sarkandi,72,9
Malvon,104,3
Nauganw,58,4
Bijauli,80,1
Bahroli,137,7
Devara,61,7
Bijauli,96,4
Murkuta,101,10
Padhara,142,10
Tikar,135,8
Beragadiwa,152,3
Amaura,123,4
Andmau,195,10
Bhadokipur,166,9
Tarapur,149,5
Sangaon,168,3
Jafarganj,143,7
Malwan,118,6
Sarany Khalin,79,5
Kandhiya,77,9
Gajipur,53,3
Tikara,134,6
Majhilgoun,148,6
Gauti,87,9
Hasolekheda,107,7
Korayi 1,179,10
Lahurisaya,132,5
Mandrav,61,1
Sawant,76,3
Haiwatpur,136,5
Khutajhal,60,4
Bilauna,80,6
Jagatpur-Ganda,184,9
Bahrampur,56,2
Mohmmadpur,173,4
Simaura,160,1
Deomai-2,199,9
Adauli,76,10
Naracha,72,5
Lalpur,155,9
Kasrav,185,7
Kanshpur,93,9
Thariyav,144,1
Kusumbha,171,6
Deegh,189,6
Parsetha,158,9
Bhaisahi,51,2
Salhapur,63,2
Kharsedva,61,2
Bhalewa,138,1
Pauli,88,9
Mohammadpur Kala,102,10
Moh kala,81,3
Burdhava,81,3
Dugrayi,91,3
Agaral,116,3
Kusimbhi-APHC,167,10
Bhadauhan,159,10
Nauganw,62,9
Jahageer Nagar,117,5
Jarara,56,4
Damapur,181,2
Muranv,73,5
Kaseruva,75,10
CHC Jahanabad,114,9
Bhadva,114,1
PHC Asothar,191,5
Rahsoopur,183,7
Mavai- APHC,61,3
Husainganj,163,1
Allipur bhadar,115,8
Saton Peet,174,9
Mirai,197,10
BIajani,57,9
Barai-Khurd,51,1
Simauri,157,8
Ati  Didhruva,96,6
Barai-Khurd,83,4
Phulwamau,131,9
Revadi Bujurg,164,4
Banrasi,198,7
Jafarganj,179,2
Shahjhanpur,86,1
Aoranisafi,114,6
Aurai,90,4
main center hathgaon,143,6
Khaga,131,6
Churiyani,131,8
Naroli,133,10
Sijauli,78,8
Taliyani,100,2
Cakhedi,124,1
Maujmabad,105,6
Bhitaura,166,3
Nagra,147,5
Bakewar,178,5
Rasoolpur Vaesapur,100,1
Tenduli,79,7
Chichni,155,2
Dalipur,165,9
Bhitaura,159,5
Alampurgeriya,152,8
Asothar PHC,130,1
Mawai,167,8
Dugrayi,188,8
Basanti khera,56,4
Mathurapur,106,4
Dawatpur,184,8
Mananva,186,3
ItailiNew,190,8
Chandapur,171,9
Tasahi Bujug,101,5
Mananva,191,4
raypur muwari,159,2
Saton Peet,104,10
Joniha,183,1
Devlan,77,6
Kishanpur,164,5
Sultan garh,82,7
Sarki,164,4
Kaseruva,183,4
Haswa,127,10
Makarandpur,151,7
Mandouna,98,6
Ati  Jajmoyiya,110,8
Karsawan,178,7
Ikari,85,10
Bighanpur,104,2
Amilihapal,78,5
Gaurakala,89,8
Basohani,186,4
District Women Hospital Fatehpur,191,7
Malaka,53,8
Kuli,192,2
Bhamadpur,141,9
Adaiyya,87,1
Azampur Gahava,74,9
Babai,191,5
Gopalganj East,128,7
Jhangeernagar,123,4
"Chandpur-1,2",94,3
pahadpur,156,10
Korra Sadat,118,1
Onti,127,2
Latifpur,180,10
Khajuha-2,89,3
Koda,138,8
-,136,3
Kankpur,122,5
Madokipur,158,3
Hansupur,160,6
Lateefpur- APHC,139,1
Jagatpur-Ganda,131,5
Bahadurpur khaga,59,10
Barmatpur,91,6
Tyoja,163,9
Padhara,179,10
CHC Jahanabad,165,3
Shahjahanpur,50,9
Sikrodi,156,1
Chitisapur,171,5
Saton  Dharampur,92,2
Kichhauchha,113,1
Beragadiwa,170,3
gaura,135,7
Rithvan,62,8
Korayi 2,50,4
Malaka,108,9
Makanpur,118,7
Shivrajpur,170,7
Ghorha,170,2
manapur,177,9
Dalipur,54,9
Mathaiyapur,172,7
Sultanpur ghosh,170,10
Tikari,88,4
Raypur Bhasrol,102,3
Dampur- APHC,164,6
Sewramau,65,7
Rari,146,2
Ashapur,56,10
Ayah,166,2
Chakki,95,8
Shahjadpur khaga,154,10
Bijayipur,66,6
Shukulpur,70,1
Gaurakala,190,6
Chack mughal,109,3
Sithiyani,134,4
Lalauli N,105,1
Jahanbad,134,9
Shekhpur,66,7
Bahrampur,116,5
Mathaiyapur,191,9
Khajuha-2,183,10
Kapil,127,7
Aphoi,181,2
Bhaisahi,137,3
Gharvasipur,53,3
Ashothar main centre,144,10
Mawai,91,3
Jakhni,169,10
Rampur Imatpur,178,1
Jafarganj- APHC,57,2
Sarki,165,1
Kansakhera,106,1
Husainganj,64,9
Gamhari,84,6
Selavan,94,7
Aoramha,153,2
Latifpur,198,9
Gadra,188,6
Kumbhipur,186,9
Kunwarpur,147,8
Ranipur,180,8
Umra,156,1
Jamrawan,120,9
Deomai-1,62,10
Janta,148,10
Kasiyapur,130,1
Sarahan Bujug,148,6
Mo. pur gauti,182,1
New  Katoghan,105,8
Korayi 2,68,6
Senipur,103,8
Parsidhpur,198,6
Mohan Kheda,117,7
Maohar,63,1
Kottiya,154,9
Eraya Masayak,62,6
Aladatpur,69,10
Naraeni,195,1
Chhiwali,97,10
Aladatpur,88,9
nizamutthinpur,148,10
Tane,186,4
Tikar,164,5
Cakhedi,67,2
Bhadva,130,6
Damapur,58,7
Tarapur,118,3
Mawai,78,1
Simaura,156,3
etamatpur,71,9
Sangaon,96,4
Alamganj,145,9
Usraina,157,5
Fatehabad,170,5
Allipur,192,2
Mewalibujurg,75,2
Vijaypur Centerl,124,2
PHC Teliyani,50,4
Moh kala,144,6
Musafa,172,9
Savat,197,1
Naraeni,78,2
Karmon,127,6
Lohari,101,10
Etaili,199,6
Bijoli,86,9
Bamhrauli,126,1
Lohari,53,3
Lateefpur,198,1
Kandhiya,78,9
Puredan,142,8
PCH Bhitaura,86,4
Devree bujurg,78,7
Mewalibujurg,78,6
Simauri,117,2
Jahanabad,106,4
Khajuha,90,9
Rampur Pachbita,169,7
Raribujurg,113,9
Fatehabad,65,5
Eraya sadat,122,10
Chack mughal,156,4
Suswan Khurd,52,3
Aurai,186,10
Sakhiyanv,86,1
Dada Amauli,81,6
Khesahan,92,2
Korakanak,185,4
Sahili,53,5
Semri,110,4
Jahanbad,189,6
Ashothar Kila,185,3
Tenduva,95,4
Basva,71,1
Ashothar main centre,104,4
Husainganj,100,9
Jukara,91,6
Chakki New,138,5
Jajmoyiya-2,191,1
Kevatmai,51,7
chhiulaha,199,7
Karayi 1,186,9
Basafara,53,10
CHC AMAULI,153,4
Haswa,138,4
Baery,95,3
CHC Khaga,149,4
Haswa,88,10
Gangrawal,178,8
Husainganj,192,5
Jafarganj-2,67,2
Andmau,199,5
Tikari manauti,115,1
Taliyani,126,5
Maujmabad,148,3
Pojepur,111,4
Mathurapur,119,9
Ghaghaura,96,4
Allipur,152,2
Korra Sadat,98,6
New  Gadra,86,9
Urauli,179,6
Besadi,97,8
Barmatpur,120,6
Khakharu,146,3
aambi,109,5
Dari Bujurg,125,6
Nagri Sawasth kendra,94,9
Japhrabad,134,8
Dampur,91,1
Bavara,122,6
CHC Hathgam,199,4
Rampur Pachbita,75,8
Gazipur,118,1
Missi,198,8
Alampur,107,9
PHC Gopalganj,85,3
Rithvan,168,2
Harijan pur,174,7
Datauli,108,8
Mavai,198,9
Mutaur,123,7
Dhata 1,184,9
Lalauli,151,2
Makanpur,89,3
Chhimi,116,4
Badagaon -APHC,198,5
Jajmoyiya-1,80,1
Mahna,129,5
Guneer,66,9
Panayi,102,6
Dewmai,199,6
Shivpuri,126,10
Bara,112,2
Deomai-2,101,9
Kandhi,136,2
Sakdhanpur,83,4
Jakhni,58,9
Bhalewa,105,3
Gopalganj West0,155,9
Basohani,73,5
Sahili,126,1
Jarara,55,3
Shah,168,4
Badaganw,144,9
Muranv,124,2
Sarsai,188,4
Saton  Dharampur,116,8
APHC Bhaisauli,171,8
Pauli,139,6
Panayi,145,9
Ekdala,168,3
BIajani,51,9
Ramvan,78,4
Bhadwa- APHC,131,7
Pakhauli,149,4
Ruhellapur,133,6
Kasba sohan,194,9
Bahua,60,2
PHC Bhitaura,73,1
Budavan,138,3
Tikari,52,6
Bahroli,100,4
Hasanapur,124,7
Chichani,154,6
Rarikhurd,100,6
Shakha,112,9
Mohan Kheda,124,3
Mohammadbad,138,2
Senipur,95,8
Chhiwlaha,117,6
Muttaur N,74,5
Saton Dharampur - APHC,73,9
Kothiya,168,4
Alamganj- APHC,168,5
Korsam,98,5
Khadara,160,10
Chiulaha- APHC,71,1
Bahera sadat,123,2
Katoghan,126,5
Pojepur,94,5
Haiwatpur,54,7
Koat,95,9
Belai,196,10
Eraya Masayak,173,7
Koraiyya,57,10
Ashothar Kila,121,6
Dhata 2,91,2
Koda,97,3
Sakhiyanv,153,7
Umargahna,92,4
Lahgi,83,8
Naraicha,114,2
Khaerai,158,7
Asani,160,8
Rasoolpur Vaesapur,103,1
Gajikheda,104,7
Ikari,152,9
Deedh,103,8
Kandhi,181,5
Hasaupur,113,1
Bahua,154,10
Akbarpur choraey,75,8
Madhawpur,61,7
Kirti Kheda,159,10
Naubasta,163,5
Didharuva-1,108,9
Ati  Kisanpur,163,4
Dhamna khud,173,4
Jam,177,1
Bilanda,117,6
Sidhanw,88,9
Khatauli,134,2
Silmi,79,6
PHC Deomai,165,4
Kalana,52,10
Kajipur,198,2
Khatauli -APHC,105,5
Kusumbhi,54,8
Khasmau,62,5
kasimpur,119,8
Sarkandi N,94,8
Hardo,161,10
Elai,109,7
Ati  Khakharu,109,5
Kot,75,10
Ati  Chandpur,163,6
--,193,6
Kheshan,87,7
Chitisapur,190,9
Kotla,98,5
Dariyamau,197,7
PHC Dhata,173,9
Mohammadpur Kala,190,8
Aung,169,7
Chillee,166,10
Sithaura,111,2
Kusumbhi,113,3
Dapsora,100,3
Bakhrana,151,9
PHC Bijayipur,168,5
Barigawan,149,2
Bhaisauli,86,6
Mahraha,173,2
Bilanda,132,1
Rashulpur,197,10
Asani,70,8
Akilabad,86,1
Sujawalpur,133,7
Jarauli,111,5
Usraina,146,7
Laghora,192,2
Thariyav,129,7
Dedasai,103,5
Gajipur -APHC,173,2
Ajamatpur,57,2
Jamrawan,128,7
Lahuree Sarai,55,3
Ramvan,51,7
Kondar,161,9
Deomai-1,108,8
Fatehpur Tekari,187,4
mauwara,131,8
Amoun,113,4
Bharha,186,10
Lahuree Sarai,85,4
Gopalganj-Aung,124,4
Pattishah,188,9
PHC Khajuha,82,10
Kalana,132,3
Hasanpur kasar,181,6
Saroli,176,5
Semri,181,7
District Male Hospital Fatehpur,130,5
Amoli 1,64,1
Rampur Imatpur,104,3
Sarkandi,177,10
Malvon,139,10
Nauganw,71,7
Bijauli,97,2
Bahroli,130,3
Devara,87,2
Bijauli,54,9
Murkuta,55,2
Padhara,56,8
Tikar,130,4
Beragadiwa,193,1
Amaura,173,4
Andmau,112,8
Bhadokipur,73,1
Tarapur,132,2
Sangaon,89,10
Jafarganj,57,2
Malwan,91,1
Sarany Khalin,160,9
Kandhiya,152,4
Gajipur,147,10
Tikara,81,1
Majhilgoun,158,8
Gauti,67,1
Hasolekheda,80,7
Korayi 1,186,7
Lahurisaya,181,6
Mandrav,122,8
Sawant,93,8
Haiwatpur,151,10
Khutajhal,183,1
Bilauna,187,2
Jagatpur-Ganda,78,7
Bahrampur,164,4
Mohmmadpur,199,3
Simaura,168,7
Deomai-2,117,4
Adauli,76,4
Naracha,66,9
Lalpur,159,8
Kasrav,172,5
Kanshpur,88,9
Thariyav,73,9
Kusumbha,84,2
Deegh,143,1
Parsetha,121,10
Bhaisahi,188,6
Salhapur,106,7
Kharsedva,158,5
Bhalewa,77,8
Pauli,75,2
Mohammadpur Kala,59,3
Moh kala,73,3
Burdhava,97,6
Dugrayi,56,9
Agaral,131,10
Kusimbhi-APHC,156,6
Bhadauhan,73,4
Nauganw,108,4
Jahageer Nagar,169,7
Jarara,124,1
Damapur,88,5
Muranv,193,1
Kaseruva,198,9
CHC Jahanabad,154,9
Bhadva,72,4
PHC Asothar,190,4
Rahsoopur,55,5
Mavai- APHC,182,4
Husainganj,78,6
Allipur bhadar,55,5
Saton Peet,183,2
Mirai,166,7
BIajani,185,8
Barai-Khurd,180,8
Simauri,198,9
Ati  Didhruva,138,10
Barai-Khurd,188,3
Phulwamau,173,7
Revadi Bujurg,154,2
Banrasi,97,3
Jafarganj,170,8
Shahjhanpur,122,4
Aoranisafi,164,6
Aurai,175,4
main center hathgaon,118,4
Khaga,174,2
Churiyani,58,2
Naroli,101,4
Sijauli,109,6
Taliyani,82,4
Cakhedi,154,5
Maujmabad,155,7
Bhitaura,117,5
Nagra,76,3
Bakewar,129,3
Rasoolpur Vaesapur,138,9
Tenduli,176,9
Chichni,137,7
Dalipur,66,7
Bhitaura,133,10
Alampurgeriya,127,2
