Health Facility Name,Number_Of_Beds,Rating
Mahila Hospital,98,8
CHC Mansoorganj,106,5
CHC Laxmipur,67,2
CHC Adda Bazar,181,7
Main Center,80,9
CHC Brizamanganj,100,2
UPHC,137,6
Badahara Kanhai,157,10
Nautanwa,189,7
Drhata,114,9
Mahdeva Dubey,162,8
Main Centre-A,105,2
Nebuiya,120,8
Bhagwanpur,105,8
Basahiya Khurd,51,5
Laxmipur,93,8
Katahari,88,5
Visunpura,155,5
Rampur Baldiha,50,10
Rampur Khurd,170,3
karamahi,71,10
Hathigadhawa,67,2
Belwa Teekar,107,2
ManCenter,87,5
Pharenda-Mahdeva Dubey,115,10
Darauli,192,2
Devpur,198,4
Bauliya Raja,113,8
Mohnapur,159,7
Lokvidyapeeth Nagar,52,5
Krit Pipra,180,3
Ratanpur Khurd,167,3
Surpar,134,6
Lal pur,134,7
Shyamdeurawa,100,5
Sinduriya,159,7
Talhi,153,6
Piparpati Tiwari,73,4
Charigawa,56,8
Bagapar,117,7
Sampitha,170,5
Pakari Siswa,150,10
Siswaniya,124,3
Khajurgawa,132,5
Lakhima Tharua,55,1
Esriwar,53,2
Pipra Rasulpur,197,2
Belawa Chauthari,102,1
Doma,166,10
Phoolmanaha,87,2
Khoriya,196,8
Lejar Mahdeva,62,3
Horilapur,86,3
Kohdawal,165,10
Paisiya Babu,198,9
Jaishree,191,9
Chhitahi Khurd,88,8
Mithaura-Chauk,110,3
Ballokhas,84,7
Nichlaul-Jahda,182,2
Nandana,152,6
Ratanpurawa,185,8
Matihanwa,190,10
Maulaganj,143,10
Dubaulia,56,4
Baithwaliya,50,10
Andhya,82,1
Semra raja,162,1
Harpur Mahanth,175,2
CHC Dhani,64,1
Khakhadiya,136,9
Sidhwari,179,8
Baisar,53,6
Babhani Bujurg,73,9
Uditpur,56,2
Paniyara Main Center,82,10
Mohaddinpur,149,2
Khanpur,175,8
Jhamat,81,6
Manikaura,141,3
Gangi Bazar,151,6
Kolhui,189,4
Ahirauli,108,9
Bhuwani,125,3
Baspar Nutan,196,10
Keshauli,112,9
Bargahpur,132,7
Primary Health Center,62,1
Pipra,98,1
Chaumukha,73,9
Thakur Nagar,128,4
Balahikhor,102,9
MenCenter Anand Nagar,138,2
Jara,104,8
Main Center,178,7
CHC Ratanpur,55,1
Laxmi Deurawa,156,7
Ramnagar,80,7
Hardi Dali,70,7
Thuthibari,145,5
Bhothiahi,101,6
Beeja par,148,10
Ramnagar,91,2
Nadua Bazar,145,9
Narkataha,147,3
Chhapwa,65,9
Bairiya,87,3
Sonaura Bujurg,133,4
Kohargaddi,160,1
Gujraulia,66,2
CHC Nautanwa,185,7
Ramnagar,128,7
Sbaya,137,7
Basantpur,110,1
Shitala Pur,182,7
Madhonagar,92,3
Bandi,148,9
Bargadva,163,4
Shahapur Jangal,162,4
ShyamDeurawa,51,9
Ballo Khas,114,7
Sabaya Dhal,168,3
Dharmauli,89,7
Harpur pakadi,199,4
Khutha Bazar,172,6
Satgur,143,7
Barwa Khurd,196,5
Belawa,89,1
Soh Gaura,87,7
Gerui Khurd,72,7
Kohdawal,198,4
Chhapiya,179,9
Shahabad,114,3
Partawal,119,3
Naikot,158,4
Durgapur,99,6
Maharajganj-Bagapar,167,8
Mansoorganj,85,2
Bajhi,105,4
Mehdiya,104,1
Budhadeh Kala,153,1
Gadaura,72,2
Dinguri,80,9
Babupaisiya,189,9
Mahdeva Basdila,96,5
Bhitauli,191,9
Dagrupur,80,7
Son Piparee,153,5
Baspar Misra,146,8
Lohepar,194,2
Ranipur,162,4
Pachrukiya,96,5
Banjarha,166,10
Chiuthhwan,157,5
Bandoh,88,2
Patkhauli,116,1
Pakari Ramhauli,169,6
Khlika garh,122,10
Madhukar Mahdewa,184,2
Dhanewa,151,3
Mahdeiya,179,2
Harpur Tiwari,152,3
Pakari amahawa,62,7
Amrutiya,102,6
Siswa Munshi,134,2
Muduli,68,4
Partawal Main centre,186,6
Mujuri,171,5
Nichlaul,122,5
Ghughuli-Khushhalnagar (Medinipur),175,6
Pikari Sisawa,159,6
Dhamur,140,10
Pakadi Vishunpur,193,2
Mahuawa,101,7
Sohrauna Tiwari,130,1
Bahaduri-Phoolmanha,130,4
Gopala,155,8
Siswa-Rudala Pur,121,8
Sawarejee,62,1
Nipaniya,77,7
Hosila Pur,100,1
Basahiya Bujurg,79,7
Panewa panei,60,9
Manikapur,50,5
Hata Bela,153,5
Sohagibarawa,178,2
Pakari Bharat Khand,128,1
Mahua Adda,79,2
Ratanpur-Bargadwa,167,5
Karauta,111,8
Dharmpur,100,5
Bariyarpur,89,7
Shitalapur,65,9
Pakari Yar Bujurg,151,3
Dharaichi,152,10
Sekhuani,93,10
Pakadiyar,160,10
Lejar Mahdeva,113,3
Suchitpur,95,10
Purandarpur,81,5
Sekhui,160,10
Badahara Baraipar,55,7
Purandarpur,65,9
Parasabeni,126,4
Patregwa,121,8
Lakhima,143,4
Raipur,53,9
Natawa,95,4
Khesrari,115,8
Marahatha,92,8
Jangle Gulharia,100,5
Paniyara-Laxmipur,109,9
Katara,154,1
PHC Nausagara,197,4
Shitlapur,105,3
Baraipar,68,5
Laxmipur-Purandarpur,136,9
Belwa,110,7
Semara Maharaj,129,2
Rudrali,68,9
Dhanaha Nayak,140,4
Mohanapur,63,2
Ellahabas,54,9
Haraiya Raghuveer,116,10
Prithvi Pala Garh,176,2
Mathura Nagar,92,7
Dubauli,89,5
Paniyara,105,3
Community Health Center,131,9
Mahdewa,69,6
Badgo,198,10
Bairawa Cahndanpur,107,9
Harpur Mahant,154,6
Jagdaur,192,6
Mahuawa Mahuai,101,6
Gadaura,91,2
Kamharia,60,4
Mohnapur,99,7
Sahjanwa Babu,72,7
Rudlapur,185,10
ManCenter,60,10
Kaparauli,97,2
Rajaura Khurd,53,7
Barwakala,65,4
Barigaon,116,7
Mithaura,185,4
Pursotampur,60,6
Harakhpura,140,5
Katarari,193,6
Badhya,64,8
Neta Suruhwa,174,4
Karmaha,130,4
Laxmipur Ekdanga,124,6
Gharampur,78,6
Garui,128,7
Gangi Bazar,126,8
Baaspar,133,2
Adda Bazar,174,4
Bahduri,55,1
Ghughli Bujurg,68,10
Mangalpur,99,3
Sonauli,160,9
Rammhauli,123,6
Rampurwa,54,10
Mirza pur Pakadi,105,1
Rajwal,84,2
Bargadwa Ayodhya,99,10
Budhideehi Bazar,174,4
Odawaliya,68,8
Bauliya Babu,84,9
Belsadh,195,3
Main center,93,9
Main Center,132,3
Mithaura,176,5
Soniya,82,6
Gopala,55,1
Siswa,147,7
CHC Siswa,105,5
Chauk,101,7
Lohepar,110,8
Bhagirathpur,156,2
Paraskhad,137,4
Laxmipur Deurawa,161,2
Dasrathpur,90,3
Sonchiraia,58,7
Baidauli,129,5
Munderi,78,8
Barwa Bhoj,173,6
Chiutaha,189,5
Singhpur Tharauli,54,4
Mithaura,123,1
Main Center,196,5
Semari,195,4
Garui Khurd,66,10
Sondhi,111,6
Harpur,72,1
BelBhariya,195,9
Nautnwa,107,5
Harpur Tiwari,78,8
Bardadh,168,2
Chaupariya (Sardiha),70,6
Khaicha,144,10
Girgitiya,93,10
Bandi,113,9
Bhagwanpur,66,3
Bankati,70,10
Baswar,78,8
Kamasin Khurd,76,2
Hardi,70,4
Parsauni,68,5
Raghunathpur,87,3
Narayan Pur,151,7
Rampur Khurd,91,3
Shivpuri,118,10
Parasa khurd,195,6
Khushhal nagar,196,1
Bizapar,71,8
Mogalaha,68,3
Nausagar,196,3
MangalPur,125,8
Sauraha,199,4
Dharmauli,172,8
Bhagatar,172,9
Hariharpur,182,8
Rampur,51,6
Sohas,165,5
Main Centre-B Jogiya,86,8
Badwar,101,7
Salamatgarh,63,9
Chc Pharenda,105,9
Taraini,141,4
Gharampur,146,4
Khosta,141,5
Pharenda Bujurg,50,1
Munderi,168,3
Chehri,101,9
Mahuawa Sukla,92,9
Rajdhani,154,5
ManCenter,77,9
Bandi,168,9
Mishraulia,160,9
Bariyar Pur,168,9
District Combind Hospital Maharajganj,193,7
Madhubani,120,4
Bhawanipur,99,6
Ringauli,95,1
Vishun Pur,153,6
Jngal Gulhariya,142,10
Devghatti,191,5
Chaupariya,199,7
Pokharbinda,140,2
Sikandrajeetpur,176,10
Gopalapur Sahu,185,3
Raypur,72,5
RMC Siswa,110,8
Mahuawa,161,10
Laxmipur Ekdama,106,4
Jahada,116,2
Matihaniya,125,2
Balua,51,5
Maulaganj,190,4
Nichlaul,59,1
Baragadawa Ramsahay,52,7
Kolhui,87,4
Gopala,155,6
Khajuriya,173,10
Chautarawa,146,6
Bahuar,178,1
Karmaha,126,1
Semari,104,1
Karmahi,78,8
Belwa Tiwari,157,3
Mahila Hospital,184,4
CHC Mansoorganj,169,8
CHC Laxmipur,196,1
CHC Adda Bazar,189,7
Main Center,188,10
CHC Brizamanganj,134,1
UPHC,95,9
Badahara Kanhai,136,2
Nautanwa,192,6
Drhata,61,9
Mahdeva Dubey,175,10
Main Centre-A,140,10
Nebuiya,64,7
Bhagwanpur,77,7
Basahiya Khurd,154,4
Laxmipur,158,4
Katahari,198,8
Visunpura,177,6
Rampur Baldiha,72,9
Rampur Khurd,52,10
karamahi,92,8
Hathigadhawa,129,7
Belwa Teekar,99,10
ManCenter,114,7
Pharenda-Mahdeva Dubey,137,3
Darauli,100,5
Devpur,160,3
Bauliya Raja,79,7
Mohnapur,166,5
Lokvidyapeeth Nagar,169,10
Krit Pipra,83,1
Ratanpur Khurd,137,10
Surpar,140,10
Lal pur,196,2
Shyamdeurawa,91,2
Sinduriya,139,1
Talhi,110,6
Piparpati Tiwari,87,5
Charigawa,114,6
Bagapar,181,2
Sampitha,132,2
Pakari Siswa,54,1
Siswaniya,116,2
Khajurgawa,162,3
Lakhima Tharua,197,9
Esriwar,65,7
Pipra Rasulpur,180,6
Belawa Chauthari,187,4
Doma,139,5
Phoolmanaha,142,8
Khoriya,144,8
Lejar Mahdeva,127,1
Horilapur,154,5
Kohdawal,135,2
Paisiya Babu,125,1
Jaishree,199,9
Chhitahi Khurd,78,10
Mithaura-Chauk,108,10
Ballokhas,64,3
Nichlaul-Jahda,165,9
Nandana,149,10
Ratanpurawa,135,1
Matihanwa,152,4
Maulaganj,184,8
Dubaulia,187,5
Baithwaliya,54,2
Andhya,91,6
Semra raja,73,5
Harpur Mahanth,115,4
CHC Dhani,50,3
Khakhadiya,115,7
Sidhwari,154,7
Baisar,100,4
Babhani Bujurg,90,9
Uditpur,144,1
Paniyara Main Center,169,7
Mohaddinpur,58,3
Khanpur,169,9
Jhamat,110,9
Manikaura,78,2
Gangi Bazar,196,9
Kolhui,138,4
Ahirauli,62,8
Bhuwani,115,6
Baspar Nutan,64,4
Keshauli,174,3
Bargahpur,70,7
Primary Health Center,159,7
Pipra,107,3
Chaumukha,179,2
Thakur Nagar,156,9
Balahikhor,58,3
MenCenter Anand Nagar,153,2
Jara,93,5
Main Center,149,3
CHC Ratanpur,65,10
Laxmi Deurawa,56,4
Ramnagar,70,8
Hardi Dali,169,3
Thuthibari,53,2
Bhothiahi,81,7
Beeja par,152,5
Ramnagar,109,4
Nadua Bazar,175,3
Narkataha,168,8
Chhapwa,170,1
Bairiya,182,10
Sonaura Bujurg,165,5
Kohargaddi,185,10
Gujraulia,144,10
CHC Nautanwa,199,3
Ramnagar,155,9
Sbaya,184,6
Basantpur,137,9
Shitala Pur,94,2
Madhonagar,166,6
Bandi,90,3
Bargadva,69,3
Shahapur Jangal,103,8
ShyamDeurawa,83,9
Ballo Khas,65,3
Sabaya Dhal,189,3
Dharmauli,56,5
Harpur pakadi,184,1
Khutha Bazar,168,6
Satgur,87,8
Barwa Khurd,177,5
Belawa,162,7
Soh Gaura,87,10
Gerui Khurd,161,5
Kohdawal,101,10
Chhapiya,72,2
Shahabad,191,7
Partawal,132,2
Naikot,126,1
Durgapur,71,5
Maharajganj-Bagapar,56,5
Mansoorganj,85,8
Bajhi,146,4
Mehdiya,87,6
Budhadeh Kala,186,2
Gadaura,190,1
Dinguri,165,9
Babupaisiya,69,2
Mahdeva Basdila,123,1
Bhitauli,63,9
Dagrupur,188,7
Son Piparee,95,4
Baspar Misra,77,5
Lohepar,83,4
Ranipur,51,10
Pachrukiya,185,1
Banjarha,111,5
Chiuthhwan,61,1
Bandoh,134,8
Patkhauli,69,5
Pakari Ramhauli,173,4
Khlika garh,134,4
Madhukar Mahdewa,160,10
Dhanewa,101,7
Mahdeiya,68,3
Harpur Tiwari,88,1
Pakari amahawa,189,9
Amrutiya,54,5
Siswa Munshi,185,10
Muduli,147,4
Partawal Main centre,115,5
Mujuri,174,10
Nichlaul,103,10
Ghughuli-Khushhalnagar (Medinipur),185,9
Pikari Sisawa,135,5
Dhamur,83,3
Pakadi Vishunpur,106,7
Mahuawa,55,5
Sohrauna Tiwari,134,10
Bahaduri-Phoolmanha,101,10
Gopala,76,6
Siswa-Rudala Pur,124,6
Sawarejee,161,10
Nipaniya,120,1
Hosila Pur,133,4
Basahiya Bujurg,111,7
Panewa panei,64,10
Manikapur,122,1
Hata Bela,166,3
Sohagibarawa,155,7
Pakari Bharat Khand,127,8
Mahua Adda,199,8
Ratanpur-Bargadwa,85,4
Karauta,146,1
Dharmpur,175,10
Bariyarpur,189,10
Shitalapur,129,6
Pakari Yar Bujurg,189,3
Dharaichi,182,4
Sekhuani,168,8
Pakadiyar,183,1
Lejar Mahdeva,134,2
Suchitpur,110,7
Purandarpur,81,8
Sekhui,184,5
Badahara Baraipar,146,1
Purandarpur,115,9
Parasabeni,187,5
Patregwa,161,8
Lakhima,161,4
Raipur,70,8
Natawa,155,3
Khesrari,167,8
Marahatha,111,2
Jangle Gulharia,66,4
Paniyara-Laxmipur,104,4
Katara,165,6
PHC Nausagara,188,8
Shitlapur,179,3
Baraipar,145,6
Laxmipur-Purandarpur,191,3
Belwa,152,2
Semara Maharaj,90,1
Rudrali,139,7
Dhanaha Nayak,124,7
Mohanapur,133,1
Ellahabas,190,8
Haraiya Raghuveer,94,7
Prithvi Pala Garh,119,2
Mathura Nagar,139,9
Dubauli,154,5
Paniyara,54,10
Community Health Center,172,6
Mahdewa,117,4
Badgo,177,5
Bairawa Cahndanpur,66,2
Harpur Mahant,82,9
Jagdaur,170,6
Mahuawa Mahuai,75,3
Gadaura,97,7
Kamharia,185,7
Mohnapur,110,2
Sahjanwa Babu,85,9
Rudlapur,65,9
ManCenter,193,3
Kaparauli,66,9
Rajaura Khurd,114,2
Barwakala,94,4
Barigaon,106,7
Mithaura,139,3
Pursotampur,64,2
Harakhpura,58,3
Katarari,59,4
Badhya,92,9
Neta Suruhwa,138,1
Karmaha,92,3
Laxmipur Ekdanga,154,4
Gharampur,106,10
Garui,156,8
Gangi Bazar,58,3
Baaspar,195,6
Adda Bazar,180,2
Bahduri,53,3
Ghughli Bujurg,190,10
Mangalpur,140,2
Sonauli,129,3
Rammhauli,120,10
Rampurwa,52,5
Mirza pur Pakadi,199,10
Rajwal,59,10
Bargadwa Ayodhya,188,2
Budhideehi Bazar,107,2
Odawaliya,64,5
Bauliya Babu,132,3
Belsadh,180,4
Main center,197,10
Main Center,153,10
Mithaura,89,10
Soniya,84,5
Gopala,165,2
Siswa,104,2
CHC Siswa,187,5
Chauk,173,9
Lohepar,107,9
Bhagirathpur,71,5
Paraskhad,67,3
Laxmipur Deurawa,173,5
Dasrathpur,129,4
Sonchiraia,57,3
Baidauli,77,6
Munderi,138,1
Barwa Bhoj,108,8
Chiutaha,156,8
Singhpur Tharauli,177,1
Mithaura,140,5
Main Center,77,4
Semari,196,8
Garui Khurd,87,1
Sondhi,199,10
Harpur,194,10
BelBhariya,176,3
Nautnwa,130,8
Harpur Tiwari,70,10
Bardadh,72,2
Chaupariya (Sardiha),59,10
Khaicha,54,4
Girgitiya,153,10
Bandi,147,4
Bhagwanpur,151,4
Bankati,141,2
Baswar,115,10
Kamasin Khurd,159,9
Hardi,114,6
Parsauni,89,8
Raghunathpur,95,9
Narayan Pur,91,7
Rampur Khurd,194,8
Shivpuri,176,6
Parasa khurd,92,3
Khushhal nagar,122,10
Bizapar,66,1
Mogalaha,156,3
Nausagar,178,5
MangalPur,78,2
Sauraha,114,5
Dharmauli,106,2
Bhagatar,149,3
Hariharpur,194,8
Rampur,191,6
Sohas,124,1
Main Centre-B Jogiya,174,7
Badwar,180,4
Salamatgarh,107,2
Chc Pharenda,144,4
Taraini,122,1
Gharampur,109,9
Khosta,145,8
Pharenda Bujurg,156,9
Munderi,140,7
Chehri,52,2
Mahuawa Sukla,183,10
Rajdhani,137,6
ManCenter,58,4
Bandi,75,8
Mishraulia,126,5
Bariyar Pur,110,2
District Combind Hospital Maharajganj,188,2
Madhubani,144,3
Bhawanipur,93,6
Ringauli,193,3
Vishun Pur,101,1
Jngal Gulhariya,131,8
Devghatti,93,9
Chaupariya,168,8
Pokharbinda,110,3
Sikandrajeetpur,163,6
Gopalapur Sahu,138,1
Raypur,109,4
RMC Siswa,172,8
Mahuawa,115,1
Laxmipur Ekdama,182,9
Jahada,172,6
Matihaniya,60,4
Balua,58,9
Maulaganj,86,1
Nichlaul,141,4
Baragadawa Ramsahay,58,7
Kolhui,102,2
Gopala,133,4
Khajuriya,121,3
Chautarawa,65,1
Bahuar,190,5
Karmaha,174,10
Semari,194,1
Karmahi,135,3
Belwa Tiwari,198,9
