Health Facility Name,Number_Of_Beds,Rating
HSC JAMSOTI,95,6
CHC BARKATHA,160,3
HSC DIGWAR,59,6
HSC HOLANG,131,6
CHC CHURCHU,134,10
PHC BADAM,81,8
CHC BISHUNGARH,179,4
HSC ICHAK HQ,177,5
HSC Kariyatpur,198,8
HSC CHURCHU HQ,101,7
HSC Danua,178,10
HSC GOVINDPUR,168,1
HSC UCHCHAGHANA,93,8
HSC BONGA,80,10
HSC CHAUPARAN HQ,126,4
HSC PADMA,92,6
HSC NARKI,82,1
HSC DHAB,192,3
HSC BELTU,110,3
CHC KATKAMSANDI,129,9
HSC CHALKUSHA,188,2
HSC JITPUR,184,8
HSC GARU KURHA,57,9
HSC DARIYA,96,10
HSC DANDH,169,5
HSC Hewai,70,10
CHC KEREDARI,154,3
HSC HARLI,192,3
HSC MEDKURI,125,4
HSC BHAGHAR,177,5
HSC Pundoul,139,2
HSC Duragarha,62,3
HSC MORANGI,96,10
HSC SILWAR,88,8
HSC ANGO,52,3
HSC DANTOKHURD,74,8
HSC Danua,120,9
HSC DEVKULI,184,6
HSC LARA,133,5
HCS CHALKARI,186,6
HSC JAGDISHPUR,168,10
HSC ORIA,132,2
HSC Arabhusai,57,10
HSC CHANDWAR,92,3
CHC HAZARIBAG SADAR,82,5
HSC MANGARPADA,127,1
HSC BUNDU,96,3
HSC Pasai,56,7
HSC RABODH,93,5
HSC Hathkauna,126,9
HSC KEREDARI HQ,104,7
HCS Chaikala,59,4
HSC Pagar,85,3
HSC BUNDU,145,10
HSC BARHI HQ,58,7
HSC CHANO,122,5
HSC KEWAL,199,4
NOTIONAL District HQ,171,6
HSC BISHUNGARH HQ,194,2
CHC BARHI,194,9
SADAR HOSPITAL,94,7
HSC RAMPUR,184,10
PHC CHAMPADIH,126,7
PHC CHALKUSHA,65,2
HSC MANDAI,178,1
PHC HARLI,90,2
HSC MERU,118,8
HSC BARAI,182,4
HSC CHAUBEY,78,7
HSC PABARA,114,2
HSC KHARIO,173,1
HSC DUMAR,164,3
HSC Oriya,152,1
PHC CHARHI,84,1
HSC TATIJHARIYA,183,1
HSC HARHAD,66,4
HSC CHAINPUR,108,10
HSC KARMA,114,3
HSC TILRA,115,3
HSC SELHARA,127,10
HSC NAPOKHURD,142,3
HSC GORHAR,102,4
HSC MANGO,71,6
HSC Manatu,106,4
HSC GARRI,124,3
HSC Dewariya,93,8
HSC DANDI,52,7
HSC PACHRA,182,10
HSC ACHALJAMO,60,3
HSC KANDAWER,155,10
HSC SIKARI,61,10
HSC BHUSHANDIH,116,5
HSC KAJARI,73,8
HSC SINDUR,104,2
HSC BARKATHA HQ,156,4
PHC Bankharo,126,10
PHC GAORAIYAKARMA,173,2
HSC JHURJHURI,75,8
HSC GONDALPURA,73,5
HSC CHICHIKALA,143,10
HSC SULTANA,52,2
HSC Babhanavai,175,1
HSC LUPUNG,180,4
HSC Barka Khurd,52,7
HSC BELSAGARA,131,9
CHC BARKAGAON,104,7
HSC Choutha,97,2
HSC PUNDRI,191,5
HSC Gouri Karma,93,8
HSC DARU,51,8
HSC HINDEGIR,168,3
PHC SULTANA,171,8
HSC KATKAMSANDI HQ,128,9
HSC KUSUMBHA,91,7
HSC Kathautia,105,7
HSC JARGA,164,8
HSC BANASO,95,7
HSC KAPKA,74,9
HSC SALGA,87,8
HSC BARIYATH,191,4
HSC CHAMPADIH,116,9
HSC MAHESHARA,194,6
PHC ANGO,84,7
HSC KOLHU,90,5
HSC Allonza,152,6
HSC HAZARIDHAMNA,142,1
HSC AMBAJIT,164,2
HSC Panchmadhav,59,1
NOTIONAL HQ,146,8
HSC CHARHI,72,4
HSC PALANDU,160,7
CHC CHAUPARAN,97,10
HSC HESALONG,117,3
CHC ICHAK,95,2
HSC GOPADA,172,10
HSC GARWA,113,5
HSC MIRJAPUR,97,5
PHC PADMA,150,8
HSC BANKHARO,194,7
NOTIONAL HQ,180,3
HSC Thuthi,163,2
PHC DARU,192,4
HSC CHUGLAMO,72,8
HSC BHARAJO,189,3
HSC JAMSOTI,149,7
CHC BARKATHA,111,1
HSC DIGWAR,128,6
HSC HOLANG,130,2
CHC CHURCHU,58,3
PHC BADAM,161,8
CHC BISHUNGARH,80,3
HSC ICHAK HQ,121,4
HSC Kariyatpur,135,4
HSC CHURCHU HQ,148,1
HSC Danua,184,10
HSC GOVINDPUR,118,10
HSC UCHCHAGHANA,129,8
HSC BONGA,118,3
HSC CHAUPARAN HQ,171,9
HSC PADMA,68,4
HSC NARKI,188,8
HSC DHAB,66,6
HSC BELTU,63,5
CHC KATKAMSANDI,155,6
HSC CHALKUSHA,129,5
HSC JITPUR,157,8
HSC GARU KURHA,70,4
HSC DARIYA,52,10
HSC DANDH,171,2
HSC Hewai,170,2
CHC KEREDARI,181,2
HSC HARLI,75,2
HSC MEDKURI,158,5
HSC BHAGHAR,91,1
HSC Pundoul,82,4
HSC Duragarha,124,9
HSC MORANGI,105,8
HSC SILWAR,134,8
HSC ANGO,192,9
HSC DANTOKHURD,125,7
HSC Danua,111,8
HSC DEVKULI,120,7
HSC LARA,107,4
HCS CHALKARI,132,10
HSC JAGDISHPUR,89,10
HSC ORIA,94,8
HSC Arabhusai,199,2
HSC CHANDWAR,155,3
CHC HAZARIBAG SADAR,132,3
HSC MANGARPADA,76,8
HSC BUNDU,165,9
HSC Pasai,98,2
HSC RABODH,68,9
HSC Hathkauna,145,6
HSC KEREDARI HQ,177,5
HCS Chaikala,111,1
HSC Pagar,71,6
HSC BUNDU,151,10
HSC BARHI HQ,146,7
HSC CHANO,119,10
HSC KEWAL,171,9
NOTIONAL District HQ,76,4
HSC BISHUNGARH HQ,190,3
CHC BARHI,195,5
SADAR HOSPITAL,157,2
HSC RAMPUR,64,8
PHC CHAMPADIH,154,10
PHC CHALKUSHA,174,10
HSC MANDAI,75,7
PHC HARLI,107,9
HSC MERU,98,8
HSC BARAI,157,5
HSC CHAUBEY,154,3
HSC PABARA,160,2
HSC KHARIO,157,1
HSC DUMAR,93,5
HSC Oriya,74,2
PHC CHARHI,185,10
HSC TATIJHARIYA,142,2
HSC HARHAD,107,5
HSC CHAINPUR,176,4
HSC KARMA,62,2
HSC TILRA,106,10
HSC SELHARA,91,8
HSC NAPOKHURD,103,1
HSC GORHAR,144,6
HSC MANGO,141,10
HSC Manatu,111,4
HSC GARRI,179,6
HSC Dewariya,88,7
HSC DANDI,53,3
HSC PACHRA,171,3
HSC ACHALJAMO,190,5
HSC KANDAWER,129,10
HSC SIKARI,102,10
HSC BHUSHANDIH,116,10
HSC KAJARI,169,6
HSC SINDUR,134,4
HSC BARKATHA HQ,94,4
PHC Bankharo,146,3
PHC GAORAIYAKARMA,161,5
HSC JHURJHURI,74,6
HSC GONDALPURA,50,4
HSC CHICHIKALA,130,4
HSC SULTANA,198,3
HSC Babhanavai,107,1
HSC LUPUNG,111,6
HSC Barka Khurd,102,1
HSC BELSAGARA,102,8
CHC BARKAGAON,154,8
HSC Choutha,162,3
HSC PUNDRI,189,5
HSC Gouri Karma,185,8
HSC DARU,94,4
HSC HINDEGIR,124,3
PHC SULTANA,59,9
HSC KATKAMSANDI HQ,148,4
HSC KUSUMBHA,154,5
HSC Kathautia,196,6
HSC JARGA,130,8
HSC BANASO,70,6
HSC KAPKA,136,2
HSC SALGA,109,4
HSC BARIYATH,108,6
HSC CHAMPADIH,119,3
HSC MAHESHARA,101,7
PHC ANGO,183,9
HSC KOLHU,186,6
HSC Allonza,175,3
HSC HAZARIDHAMNA,110,5
HSC AMBAJIT,101,8
HSC Panchmadhav,106,10
NOTIONAL HQ,193,2
HSC CHARHI,96,9
HSC PALANDU,164,4
CHC CHAUPARAN,169,7
HSC HESALONG,185,5
CHC ICHAK,177,7
HSC GOPADA,59,2
HSC GARWA,60,9
HSC MIRJAPUR,111,2
PHC PADMA,59,10
HSC BANKHARO,189,9
NOTIONAL HQ,80,6
HSC Thuthi,66,2
PHC DARU,140,7
HSC CHUGLAMO,106,10
HSC BHARAJO,184,5
