Health Facility Name,Number_Of_Beds,Rating
Kalamsar,116,2
Rasnol,185,4
Shili,130,2
Vehrakhadi,73,2
Sundalpura,129,6
Boriavi,179,3
Tarapur,86,5
Bamanva,55,3
Bharoda,132,10
Udel,163,6
Vadod,83,4
Pansora,79,4
Bhalej,72,3
Budhej,50,1
Ajarpura,99,6
Umreth,127,6
Kunjrav,187,1
Rohini,173,5
Sayma,165,6
Bakrol,78,7
KARAMSAD,160,1
Vatadara,154,4
Govt.hosp. Petlad.,67,3
Thamna,76,1
Navli,177,9
Khada,118,2
Chikhodara,178,7
Dhuvaran,164,4
Ode,167,10
Kalamsar,136,9
Rasnol,178,9
Shili,198,7
Vehrakhadi,143,4
Sundalpura,53,10
Boriavi,115,4
Tarapur,195,1
Bamanva,173,8
Bharoda,176,9
Udel,84,3
Vadod,92,1
Pansora,159,6
Bhalej,116,5
Budhej,152,8
Ajarpura,67,7
Umreth,82,2
Kunjrav,144,10
Rohini,179,2
Sayma,119,10
Bakrol,121,10
KARAMSAD,151,4
Vatadara,172,9
Govt.hosp. Petlad.,94,7
Thamna,55,6
Navli,158,6
Khada,151,9
Chikhodara,96,10
Dhuvaran,121,2
Ode,159,5
