Health Facility Name,Number_Of_Beds,Rating
Baghot,190,7
Meghot Hala,62,6
Kanina,86,8
PHC Bayal,157,5
RCH Kolyan,148,6
Chhapra,148,5
PHC Bamanwas,199,8
Barda,95,10
Bazar,174,3
Malra,138,6
Prithipura,109,6
Kanti,163,1
Lehroda,85,4
Bachhod,117,5
Bewal,109,1
Golwa,179,7
Rewasa,111,5
PHC Madhogarh,117,6
Kamania,126,5
Bhurjat,169,9
Ganwari Jat,100,1
Bucholi,134,7
Bocharia,185,4
Talot,132,2
NIMBIRA,147,1
SDH Mahendragarh,93,1
Pota,92,2
Pali,163,9
Gudha,182,5
Gujarwas,161,6
PHC Rampura,121,4
PHC Nangal Choudhary,183,8
Bawania,84,5
Deroli Ahir,146,1
PHC Chhilro,183,6
BERI,89,10
Bhojawas,191,4
Bassai,108,10
Sihor,61,5
Malra Bass,183,2
BAIRAWAS,68,1
Akoda,82,2
Sohari,91,1
Rambas,141,10
Kalwari,52,6
JATWAS,70,9
Neerpur,158,4
PHC Bachhod,158,3
Bayal,194,2
Atali Begpur,141,2
Nangal Dargu,62,10
Fatnai,75,7
Koriawas,111,9
Bhungarka,136,2
PHC Sehlang,179,3
Karira,94,9
Sesoth,107,1
Nasibpur,114,5
Bawana,180,9
Raghunath Pura,101,9
PHC Mandhana,170,6
Bargaon,103,9
Mohanpur,84,5
Shampura,126,5
Totaheri,89,10
NANGAL SIROHI,196,9
Hudina,180,6
Sigra,129,10
PHC Sihma,55,1
Said Alipur,172,6
Goad,162,1
Talwana,89,4
Khaspur,84,8
Nangal Kalia,174,2
Mandi,108,6
Khairana,111,8
Siana,183,10
PHC Atali,190,9
Uninda,113,10
Sundrah,137,2
PHC Balaha Kalan,149,4
Kharoli,104,9
PHC Nangal Sirohi,63,5
Maroli,92,7
Niamatpur,140,7
UPHC Moh. Mahal,113,1
Sehlang,154,10
Dhani Bhathotha,135,8
Dohar Kalan,90,5
Budhwal,165,3
Patharwa,173,8
Sihma,80,6
PHC Kanina,106,2
PPC Narnaul,190,4
Patikara,101,5
RCH Moh. Mahal,171,5
Kurahwata,93,9
Bhushan Kalan,110,2
kunjpura,56,4
Tigra,104,2
Nangal Choudhary,171,7
Nangal Katha,54,5
Bhankhri,127,9
Partal,108,8
GH Narnaul,138,4
PHC Dochana,138,10
Kakrala,199,3
Kultajpur,126,8
NIHALAWAS,115,10
Thanwas,156,2
Buchawas,180,7
SIHOR,198,4
Dhanunda,98,2
Nanwan,141,10
DULOTH,78,1
PHC Sirohi Bahali,116,1
Nangal Harnath,94,4
PHC Dhanaunda,132,10
Dewas,193,2
UPHC Kolyan,69,5
Satnali 2,84,5
Pathera,161,8
PHC Mundia Kehra,71,6
Sureti Jakhar,158,9
AGIHAR,60,10
PHC Antri,171,9
Khudana,64,2
Atali Mandi,125,9
Kanina Mandi,193,6
Dharsoon,82,10
Bhojawas,175,1
Mandhana,146,3
Balaha Kalan,136,7
Bighopur,92,6
Datal,94,6
Madhogarh,100,4
Kathodra,167,8
PHC Bhojawas,96,9
Bihali,123,10
PHC Pali,60,5
PHC Satnali,56,5
PHC Budhwal,79,3
SC MOKHUTA,194,8
Dublana,143,10
Majra Kalan,183,3
Chelawas,100,1
Dochana,52,10
PPC Mahendragarh,113,7
Satnali 1,187,2
Chak Malikpur,150,4
Nizampur,91,1
Jakhni,93,8
Dongra Ahir,58,7
zerpur,169,1
Mohalra,144,9
PALH,75,7
Garhi Ruthal,109,6
Navedi,98,3
Atali,147,4
KOTHAL KALAN,59,7
Sirohi Bahali,193,3
Bashirpur,110,7
Baghot,88,7
Meghot Hala,145,7
Kanina,132,8
PHC Bayal,79,4
RCH Kolyan,180,4
Chhapra,52,4
PHC Bamanwas,60,5
Barda,143,10
Bazar,57,3
Malra,156,8
Prithipura,153,7
Kanti,162,10
Lehroda,118,6
Bachhod,130,3
Bewal,99,5
Golwa,61,1
Rewasa,81,1
PHC Madhogarh,159,1
Kamania,184,10
Bhurjat,116,10
Ganwari Jat,148,1
Bucholi,170,10
Bocharia,150,4
Talot,190,5
NIMBIRA,56,8
SDH Mahendragarh,93,4
Pota,171,2
Pali,143,7
Gudha,167,9
Gujarwas,84,2
PHC Rampura,88,10
PHC Nangal Choudhary,93,10
Bawania,93,1
Deroli Ahir,90,2
PHC Chhilro,149,10
BERI,140,6
Bhojawas,158,6
Bassai,58,2
Sihor,105,1
Malra Bass,92,2
BAIRAWAS,168,8
Akoda,68,10
Sohari,52,6
Rambas,189,5
Kalwari,61,6
JATWAS,56,4
Neerpur,178,3
PHC Bachhod,146,7
Bayal,184,3
Atali Begpur,75,8
Nangal Dargu,195,1
Fatnai,55,10
Koriawas,164,5
Bhungarka,112,4
PHC Sehlang,197,3
Karira,62,4
Sesoth,116,4
Nasibpur,161,6
Bawana,78,3
Raghunath Pura,78,8
PHC Mandhana,119,7
Bargaon,70,6
Mohanpur,135,8
Shampura,89,10
Totaheri,109,9
NANGAL SIROHI,107,10
Hudina,171,8
Sigra,50,8
PHC Sihma,156,3
Said Alipur,156,7
Goad,140,1
Talwana,101,6
Khaspur,109,2
Nangal Kalia,105,2
Mandi,67,6
Khairana,79,7
Siana,89,3
PHC Atali,163,6
Uninda,173,4
Sundrah,199,5
PHC Balaha Kalan,175,4
Kharoli,158,8
PHC Nangal Sirohi,180,7
Maroli,126,9
Niamatpur,100,10
UPHC Moh. Mahal,150,5
Sehlang,96,4
Dhani Bhathotha,168,3
Dohar Kalan,113,6
Budhwal,109,2
Patharwa,192,9
Sihma,142,10
PHC Kanina,89,5
PPC Narnaul,109,2
Patikara,145,10
RCH Moh. Mahal,79,9
Kurahwata,169,8
Bhushan Kalan,145,2
kunjpura,78,5
Tigra,188,4
Nangal Choudhary,196,2
Nangal Katha,71,7
Bhankhri,88,4
Partal,79,2
GH Narnaul,59,7
PHC Dochana,52,10
Kakrala,80,1
Kultajpur,183,6
NIHALAWAS,175,7
Thanwas,145,2
Buchawas,165,5
SIHOR,129,6
Dhanunda,100,4
Nanwan,118,4
DULOTH,115,4
PHC Sirohi Bahali,141,5
Nangal Harnath,161,10
PHC Dhanaunda,97,5
Dewas,118,2
UPHC Kolyan,161,6
Satnali 2,185,7
Pathera,187,4
PHC Mundia Kehra,58,5
Sureti Jakhar,190,3
AGIHAR,138,1
PHC Antri,144,5
Khudana,99,9
Atali Mandi,185,8
Kanina Mandi,108,9
Dharsoon,53,7
Bhojawas,124,1
Mandhana,166,5
Balaha Kalan,140,5
Bighopur,198,1
Datal,114,7
Madhogarh,195,4
Kathodra,157,1
PHC Bhojawas,120,6
Bihali,66,2
PHC Pali,186,8
PHC Satnali,162,9
PHC Budhwal,78,1
SC MOKHUTA,122,7
Dublana,98,3
Majra Kalan,60,1
Chelawas,74,7
Dochana,137,7
PPC Mahendragarh,161,3
Satnali 1,154,7
Chak Malikpur,89,10
Nizampur,60,5
Jakhni,151,6
Dongra Ahir,141,7
zerpur,106,3
Mohalra,129,4
PALH,103,2
Garhi Ruthal,193,6
Navedi,83,5
Atali,72,6
KOTHAL KALAN,176,1
Sirohi Bahali,108,4
Bashirpur,164,1
