Health Facility Name,Number_Of_Beds,Rating
PHC Astgaon,112,5
PHC Dadh Bk,188,7
PHC Dorhale,190,1
PHC Kolhar Bk,143,5
PHC Savalivihir Bk,114,10
PHC Wakadi,140,3
RH Rahata,197,2
RH Loni,183,7
RH Puntamba,86,2
Subcentre Astgaon,167,6
Subcentre Rajuri,59,9
GAIKWAD JALGAON,194,10
Wadgaon Landga,185,8
DMO Ahmednagar,91,7
Khadkewadake,193,1
Pimpalgaon Khand,117,1
Amarapur,105,6
Sangamner Kh.,131,6
Shevgaon,60,2
Shenit Kh.,174,10
Wadgaon Gupta,194,6
Tondoli,128,7
Ghotan,136,9
Rakshi,56,1
Ladjalgaon,132,7
Naygaon,192,9
Nilwande,71,2
Nagardevale,148,7
Murme,170,9
Dedgaon,117,2
Kelirhumanwadi,127,8
Ganucha Tanda,56,7
Jawala,134,8
Kharadgaon,163,6
Bota,78,6
Gardani,132,3
Mhatarpimpri,87,9
R H Akole,95,1
Tambhere,61,4
R.H.Taklidhokheshwar,99,9
Kanhoor Pathar,178,2
Dahifal,192,8
Warwandi,167,9
Suregaon,178,9
Palawe Bu.,123,10
Usthaldumala,184,5
Rahimpur,76,5
Sandve,93,2
Banpimpri,175,4
Dadh Bk.,66,9
R.H.Rahata,173,8
Golegaon,105,7
Korhale,52,2
Bhangaon,112,2
Dhorale,158,6
Galnimb,125,1
Jawala,64,10
Dhandarphal Bu.,162,1
Limpangaon,79,6
Vitha,119,7
Pimpalgaon kauda,78,9
Wangdari,197,10
Ambhol,176,9
Pokhari,87,4
Shinganwade,192,3
R.H. Bodhegaon,186,7
Sonai,182,8
Hatgaon,162,8
Wakdi,96,1
Hanumantgaon,102,4
Warudi Pathar,145,1
Khokar,173,8
NimgaonGangarda,184,1
Shelad,136,1
Takalimanur,158,6
Palaspur,183,6
Padhegaon,199,6
H.P.5 Kedgaon,149,3
Pachpatta,95,7
Chor Kauthe,72,10
Jawale Baleshwar,55,1
Karegaon,112,9
Mali Babhulgaon,86,3
Kasar Pimpalgaon,128,5
Tirde,66,3
Malunja Khu.,74,5
Rashin,73,4
Wankute,149,7
Malegaon,176,5
Khampimpri,87,5
Arangaon,53,10
Bhojdari,84,8
Karanji,84,1
Taharabad,114,6
Dhumalwadi,80,10
Maka,179,4
Shirasgaon,87,9
Karpadi,143,7
Sarole Pathar,109,9
Landewadi,95,7
Shendi,112,10
Maldad,91,2
Sangvi,83,1
Chichondi,120,5
Manjari,173,2
Randha Bu.,157,5
Rawanda,79,5
Katrad,163,7
Bodhegaon,78,6
Ghulewadi,191,1
Puntamba,191,7
Miri,188,10
Ghodegaon,116,7
Mandavgan,127,1
Kharwandi Kasar,101,7
Dahigaon Bolka,158,3
Mahi,196,9
Shindodi,126,4
S.D.H. Karjat,55,1
Visapur,113,9
Sawali Vihir Kh.,87,8
Loni Masadpur,133,7
Sangavi Bhusar,54,9
Karandi,74,9
Shirpunje Bk,149,7
Padali,174,3
Devgaon,55,3
Sakirwadi,118,7
Sawargaonchal,63,5
Pachwadi,190,2
Bhose,72,1
Chandekasare,110,10
Dhorja,80,7
Jawalke,109,4
Walan,92,6
Nandurpathar,66,4
Dhotre  Bu.,71,5
Sawali vihir bu.,174,8
Waranghushi,125,8
Khamba,142,7
Loni Vyanknath,131,8
Chapadgaon,77,5
Kasare,193,6
Khamgaon,180,5
kelikotul,112,3
Dhotre,198,1
Dahigaon Bolka,105,9
Bhandardara,123,2
Chapadgaon,199,10
Kolhar,85,10
Sonai,70,1
Walki,57,4
Nimgaon Khairi,165,7
Sanwatsar,178,8
R.H. Taharabad,144,4
Mahanduri,62,10
Belwandi Bk.,189,1
Benawadi,63,5
Kusadgaon,141,9
Mhaladevi,152,4
Tamaswadi,91,6
R.H. Rahuri,123,7
Mehekari,198,2
Devathan,160,9
Shirasgaon,95,9
Jakhangaon,175,3
Devgaon,171,6
Nandur,69,1
Bramhangaon,55,9
Rui,109,4
Lohgaon,141,6
Ghodegaon,124,10
H.P.3 Mukundnagar,125,4
Guravpimpri,81,10
Midsangavi,128,10
Thakur Pimpalgaon,198,6
Chumbhali,63,8
Pedgaon,95,3
Hiwargaon Pawasa,158,9
Galnimb,115,10
Pangari,57,4
Deulgaon Siddhi,53,4
Nighoj,180,10
Panodi,91,9
Musalwadi,181,1
Deulgaon,60,6
Pimparkhed,138,10
Salabatpur,100,5
Kambi,130,9
Mandwa,62,9
Ghyapatwadi,127,2
Chasnali,66,3
Jategaon,134,4
Ambidumala,84,9
Wadgaon Pan,93,1
Ashwi Bk.,149,3
Saikhindi,150,4
Takli kazi,110,2
Kharwandi,95,3
Manjur,192,2
Jeur Kumbhari,129,1
Nimgaon Bu.,181,8
Jawkhedkhalsa,50,5
Ambijalgaon,135,9
Ambi,95,4
Ekdara,111,7
Wari,89,3
Walunj,146,8
Dehare,163,5
Patoda,78,1
Pimpalgaon Pisa,159,2
Dhandarphal Kh,99,4
Jeur,170,3
Manori,171,10
Chanda,180,9
Adgaon Bu.,173,4
Khanapur,56,2
Ghargaon,149,5
Umbare,64,1
Mukindpur,135,1
Badule Bu.,133,5
Kakdi,146,10
Kokangaon,70,10
Rahuri Factory,68,2
Wadala Mahadev,112,7
Belapur Bk.,137,5
Lingdev,79,3
Dadh Bu.,68,1
Mhase,136,4
Nannaj Dumala,175,10
RH Chichondipatil,120,7
Dhamangaon Par,191,7
Ranjangaon,133,2
Malichinchora,137,3
Tarwadi,99,5
kamargaon,148,10
Darewadi,166,10
Koradgaon,124,9
Pratappur,96,1
Bherdapur,98,2
Kauthe,107,1
Kharekarjune,81,7
Umbare,174,3
R.H. Jamkhed,157,10
Takalimiya,159,4
Kukana,112,3
Chinchpurpangul,169,9
Ashwi Kh.,120,7
Kuldharan,55,8
Nimon,146,4
Takli,94,3
Jamgaon,163,9
Tergaon,165,5
Nandur,67,2
Dongargan,122,9
Pokhardi,98,2
Suregaon,88,1
Khadakwadi,180,4
Baradgaon Sudrik,86,4
Akhatwade,191,7
Avhane Bu.,73,4
Jatdevale,158,3
Sakegaon,117,7
Ukkadgaon,72,5
Bhagur,130,8
Pagori Pimpalgaon,92,8
H.P.1 Tophkhana,161,3
Khetewadi,189,6
Barababhali,171,2
Sanegav,194,3
Manik Daundi,100,2
Hiwargaon,58,4
Takli,79,9
Bhenda Bu.,126,9
Mhaisgaon,161,9
Guha,188,8
Bhokar,184,6
Dhawalpuri,89,2
Chanda,72,3
Nimbalak,122,1
Kanhegaon,147,2
Devgaon,188,3
Devdaithan,115,3
Astgaon,116,6
Nawalewadi,108,1
R.H. Sangamner,135,2
Pathare,197,6
Maktapur,128,2
Pimpalgaon Ujjaini,153,9
R.H. Wambori,193,6
Hangewadi,138,6
Nimgaon,187,7
Haregaon,166,7
Shiur,123,7
Loni Vyanknath,66,2
Mulanagar,193,4
Takali,197,10
Tinchari,89,9
Ghanegaon,80,2
Dhalwadi,192,8
Rajuri,157,1
R.H. Shrigonda,74,9
Moha,197,10
Gevrai,171,2
khandabe Khu.,168,8
Kuldharan,144,1
Takali Lonar,111,10
Gundegaon,102,7
Padhegaon,52,10
Durgapur,147,9
Babhulwandi,106,6
Taklikadewalit,86,9
Abitkhind,97,5
Samrad,141,6
Sugaon Bu.,176,1
Telkudgaon,101,9
Balamtakali,133,1
Rui Chhatrapati,187,4
Digras,88,5
Welhale,77,8
Undirgaon,149,10
Walwad,100,2
Dahigaon Ne.,72,4
Wadzire,125,2
Padoshi,63,8
Palwe Kh.,106,8
Dhawalgaon,160,1
Shingve,98,9
Kolhar Ku.,186,2
Kanoli,164,4
Akhegaon,132,1
Umbargaon,75,5
Malunja,56,8
warkhed,145,3
Ashoknagar,183,3
Talegaon,141,10
Digras,160,8
Chikhali,116,1
Hiwargaon Pathar,89,6
Khadaki,106,10
Narayan Gavhan,120,9
Lohgaon,167,3
Chandanapuri,177,8
Kohane,139,7
Bhanas Hiwara,101,8
Shingawe,117,3
Madhewadgaon,92,5
Gogalgaon,105,6
Ranjangaon Deshmukh,85,1
Randha,126,9
Karjule Pathar,165,3
Batewadi,187,10
Mohoj Bu.,147,4
Hatgaon,180,9
Kaprewadi,102,3
Nannaj,109,10
Ganji Bhoyare,132,9
Pargaon,80,5
Dhorjalgaon She.,52,6
Ajanuj,177,9
Wadule Kh.,91,8
Nimgaon Daku,95,5
R. H. Newasa,183,10
Nimgaon Khalu,94,2
Siddhatek,170,2
Kaudgon,106,5
Patewadi,178,2
Bhalawani,66,6
Shinganapur,71,4
Adhalgaon,131,4
Salabatpur,98,5
R.H. Shevgaon,77,2
Sade,150,9
Loni Mavala,166,5
Gunjalwadi,143,8
Manikdaundi,154,4
Tisgaon,150,6
Rajuri,85,2
Sawarkute,179,1
Kombhali,178,10
Sawargaon Ghule,61,9
Shirsathwadi,185,5
Kolhar Bk.,117,3
Tambhole,62,6
Kukkadwedhe,116,2
Mhankal Wadgaon,90,9
Bhatkudgav,131,3
Bhutawada,141,2
H.P.4 Nagapur,70,10
Khed,86,1
Sawali vihir khu.,148,9
Ekrukhe,148,4
Dhamori,197,7
Samanapur,153,7
Wakadi,70,4
Pohegaon,64,2
Taklimiya,164,5
Kolgaon,107,1
Khadakwadi,158,5
Devgaon,165,7
Songaon,136,7
Mandave Bu.,157,8
Dorhale,158,4
JaygudeAkhada,191,9
Kokamthan,54,9
Malewadi,64,1
Kharwandi kasar,147,4
Devrai,120,4
Murshatpur,70,2
Belwandi Bk.,82,9
Rui Chhattishi,125,8
Indori,157,7
Bhatkudgav,137,6
Nimgaon Jali,131,7
Deswandi,171,2
Jawale Kadlag,169,4
Jalke Kh.,196,4
Takali Khatgaon,83,6
Babhaleshwar,59,9
Bota,127,10
Dhandewadi,63,10
Dhorjalgaonne,165,3
Mohojdewade,117,8
Adhalgaon,145,10
Wadgaon,94,9
R H Kotul,189,2
Sarola,160,7
Dharangaon,191,2
Dhorjalgaon She.,97,2
Hiwre Korda,104,2
Durgaon,112,5
Rumbhodi,83,1
Malthan,60,4
Pimpalgaon Unda,189,6
Nimgaon Jali,68,2
Bhenda Khu.,150,5
Belapur Kh.,81,8
Gondardi,198,5
Akolner,62,2
Baragaon Nandur,102,8
Kolhar Bu.,87,8
Mohari,58,3
R.H. Puntamba,97,5
Chandegaon,179,5
Devthan,179,10
Shibalapur,179,9
Manoharpur,120,4
Chas,145,8
Hanga,199,1
Padli Darya,135,4
Usthal Dumala,54,5
Chikhali,70,1
Shiral,164,2
Kamlapur,191,7
Halgaon,77,10
Sukewadi,147,6
Koregaon,69,3
S.D.H.Pathardi,79,5
Rui Chhattishi,144,1
Udawane,93,1
Ralegan,177,7
Virgaon,102,10
Khirdi,122,5
Konoshi,88,1
H.P.6 Jijamata,133,10
Chapadgaon,181,4
Kombhalne,178,1
Nipani Wadgaon,175,9
Deshmukhwadi,183,3
Paritwadi,139,4
Pandharewadi,196,5
Pmipalgaon Tappa,123,10
Kharda,153,6
Alkuti,190,2
Nagapur,69,5
Mirajgaon,120,6
Ranjangaon,57,3
Suregaon,73,9
Chincholi Gurav,181,7
Kautaha,76,4
Alhanwadi,190,2
Bhojde,63,6
H.P.2 Mahatma Phule,165,4
Khamgaon,165,2
Pemgiri,75,8
Hiradgaon,60,9
R H Rajur,72,4
Kanadgaon,159,6
Rajapur,76,5
Chitali,55,9
Dule Chandgaon,121,10
Alkuti,199,6
walki,118,7
Velapur,98,1
Mutkhel,130,1
Pinpalgaon Rotha,115,1
AHMC Late Balasaheb Deshpande Hospital & Maternity Home,135,1
Wambori,124,8
Samangaon,59,6
Malwadgaon,136,2
Chimbhala,129,8
Gogalgaon,84,9
Shrigonda Factory,56,5
Kumbhari,87,10
Belpimpalgaon,175,5
Pokhari Baleshwar,177,3
Chas,72,5
Jambhali,77,5
Chandanapuri,132,9
Chapadgaon,108,10
Bramhanwada,93,5
Karajgaon,80,2
Wankuta,88,4
Kashti,127,1
Astagaon,88,4
Mehekari,79,4
Newasa bk,67,4
Bholewadi,176,3
Khadki kh.,190,3
Chitali,195,3
Belapur Bk.,182,8
Mungi,199,5
Takalibhan,144,1
Karjule Harya,56,9
Jawalebaleshwar,107,1
Chincholi,66,8
Belapur,132,3
Bramhani,136,6
Manjari,61,1
Arangaon,59,6
Devi Bhoyare,68,5
malharwadi,107,1
Nighoj,198,8
Nimgaon Wagha,60,2
Ganore,64,3
Pachanai,93,10
Jambhale,183,8
Satral,180,6
R.H. Shrirampur,190,6
Yeli,89,3
Undirgaon,192,6
Bhalwani,109,8
Hasnapur,159,1
Khandgaon,83,2
Kohane,86,7
Bhalgaon,110,8
Shirapur,98,2
Zole,145,7
Aradgaon,82,8
Dehare,71,1
Pimprinirmal,119,4
Derde Korhale,150,3
Kokangaon,155,10
Ukkalgaon,109,9
Takali,69,2
Gadewadi,166,1
H.P.7 Civil Hospital,198,2
Nimon,174,5
Rajapur,163,9
Sawargaon Par,165,1
Ranegaon,161,5
Padli Ale,138,8
Khanapur,58,10
Dewalali prawara,91,2
Dhamangaon Awari,65,1
Chichale,86,7
Ranjankhol,169,9
Damanwan,112,6
Ladgaon,150,8
Kotul,53,7
Pimpargaon Matha,98,4
Dahithne Gunjal,139,2
Kolpewadi,80,6
Barhanpur,176,5
Shedgaon,176,10
Ghargaon,59,10
Bodkhe,153,4
Vitha,127,6
Pimparne,92,7
Pachegaon,120,10
Konale,153,7
Lakh,80,3
Ghogargaon,50,7
Ghodegaon,132,6
Ambhore,110,6
PimpalgaonMalwi,167,10
Lohsar,180,6
Devtakali,135,10
Nannaj,187,4
Takalibhan,84,10
Ranjangaon,107,5
Nibral,52,3
Palshi,159,5
Ashwi Bu.,117,9
Chas,72,9
Nimbavi,74,6
Patharwala,199,6
Maveshi,100,2
madhi Bu.,156,5
Kurund,53,3
Shendi,96,10
Gondegaon,72,2
Pathare,152,2
Tahakari,186,5
Taklikhandeshwari,179,2
Shilegaon,99,2
Hiwarebajar,129,9
Chilewadi,104,1
Bhatodi,52,9
Shahar Takali,112,5
R H Parner,112,9
Khirvire,60,3
Pimpalgaon Pisa,138,6
Supa,171,2
Kharshinde,199,4
Wadala,108,6
Walavane,105,9
R H Samsherpur,61,2
SawargaonTal,84,3
R.H. Ghodegaon,111,5
Ambit,65,1
Jorve,121,5
Pimpri Kolandar,190,8
Pimparkane,133,8
Pimpalgaon Depa,140,3
Guha,189,2
Palsunde,165,2
R.H. Loni,196,9
Godegaon,128,2
Pategaon,133,2
Naur,85,7
Shinganapur,53,3
Newasa Kh.,191,2
Waki,58,10
Karanji,123,1
Wadner,77,1
Wasunde,95,7
Rampurwadi,81,2
R.H. Sakur,99,4
Shiradhon,83,8
Wakodi,97,7
Ghargaon,118,3
Sanwatsar,187,4
Babhulgaon Dumala,77,3
Mandavgan,148,7
Sakat,135,9
Wari,160,8
Mhaladevi,65,7
Dhamori Bu.,70,9
Devgaon,147,5
Nimgaon Bhojapur,120,1
Pimpalgaon Nakwinda,152,1
Majlechincholi,119,9
Kangar Bu.,159,2
Khandala,199,1
Padalne,167,4
Mungasewadi,166,8
Erandgaon Dhas,101,10
Gondhawani,50,9
Malwadgaon,156,8
Pohegaon Bk.,98,6
R.H. Kopargaon,145,7
Chilekhanwadi,108,1
Khedle Parmanand,152,1
Shinde,108,7
Sakuri,194,7
Goregaon,104,3
Ralegan Therpala,149,2
Ratnapur,171,6
Kanhurpathar,122,8
Ghoti,68,4
"District Hospital, Ahmednagar",118,9
Bhambora,120,6
Nimaj,180,2
Alsunde,141,4
Changdevnagar,188,9
Chinchpur,114,6
Athwad,178,8
Punewadi,70,1
Katlapur,147,9
Shingave Tukai,101,1
Kadus,120,9
Toka,106,2
Yeshgaon,145,3
Kalamb,182,5
Kendal Bu.,95,4
Ralegan Shiddhi,149,8
Jalgaon,170,10
Chinchpurjade,93,3
Yelapane,163,9
Enatapur,137,6
Fatyabad,145,5
Kalas Bu,173,4
Dev Daithan,86,3
Burhannagar,69,8
Karandi,150,1
Miri,136,7
PHC Astgaon,52,8
PHC Dadh Bk,95,10
PHC Dorhale,91,8
PHC Kolhar Bk,171,9
PHC Savalivihir Bk,61,9
PHC Wakadi,110,3
RH Rahata,126,7
RH Loni,160,6
RH Puntamba,117,8
Subcentre Astgaon,65,6
Subcentre Rajuri,64,9
GAIKWAD JALGAON,143,2
Wadgaon Landga,77,2
DMO Ahmednagar,127,8
Khadkewadake,158,9
Pimpalgaon Khand,84,6
Amarapur,82,3
Sangamner Kh.,110,5
Shevgaon,86,1
Shenit Kh.,86,2
Wadgaon Gupta,66,2
Tondoli,100,10
Ghotan,182,10
Rakshi,164,3
Ladjalgaon,199,4
Naygaon,145,2
Nilwande,165,7
Nagardevale,174,5
Murme,182,9
Dedgaon,179,6
Kelirhumanwadi,78,7
Ganucha Tanda,70,5
Jawala,78,1
Kharadgaon,167,9
Bota,126,9
Gardani,158,6
Mhatarpimpri,115,5
R H Akole,125,4
Tambhere,80,7
R.H.Taklidhokheshwar,168,2
Kanhoor Pathar,147,3
Dahifal,158,1
Warwandi,157,4
Suregaon,179,4
Palawe Bu.,168,4
Usthaldumala,107,4
Rahimpur,179,6
Sandve,91,7
Banpimpri,65,1
Dadh Bk.,61,2
R.H.Rahata,93,1
Golegaon,94,4
Korhale,66,2
Bhangaon,104,8
Dhorale,97,1
Galnimb,161,6
Jawala,80,2
Dhandarphal Bu.,105,2
Limpangaon,91,1
Vitha,91,2
Pimpalgaon kauda,128,10
Wangdari,83,8
Ambhol,57,3
Pokhari,164,4
Shinganwade,182,1
R.H. Bodhegaon,92,1
Sonai,168,8
Hatgaon,94,4
Wakdi,127,8
Hanumantgaon,198,5
Warudi Pathar,189,2
Khokar,107,5
NimgaonGangarda,174,1
Shelad,97,5
Takalimanur,70,5
Palaspur,133,4
Padhegaon,75,9
H.P.5 Kedgaon,67,9
Pachpatta,76,4
Chor Kauthe,150,7
Jawale Baleshwar,189,9
Karegaon,60,9
Mali Babhulgaon,177,1
Kasar Pimpalgaon,60,3
Tirde,193,3
Malunja Khu.,186,1
Rashin,187,10
Wankute,119,5
Malegaon,82,1
Khampimpri,160,10
Arangaon,119,9
Bhojdari,91,8
Karanji,194,3
Taharabad,149,2
Dhumalwadi,165,7
Maka,108,9
Shirasgaon,63,9
Karpadi,64,6
Sarole Pathar,100,1
Landewadi,119,5
Shendi,85,9
Maldad,150,5
Sangvi,132,4
Chichondi,146,7
Manjari,182,1
Randha Bu.,132,2
Rawanda,143,9
Katrad,163,1
Bodhegaon,122,2
Ghulewadi,119,4
Puntamba,75,7
Miri,148,10
Ghodegaon,97,5
Mandavgan,109,7
Kharwandi Kasar,61,1
Dahigaon Bolka,163,3
Mahi,141,6
Shindodi,117,1
S.D.H. Karjat,76,5
Visapur,81,1
Sawali Vihir Kh.,88,7
Loni Masadpur,110,10
Sangavi Bhusar,102,9
Karandi,142,6
Shirpunje Bk,109,1
Padali,73,1
Devgaon,87,6
Sakirwadi,140,5
Sawargaonchal,179,2
Pachwadi,62,4
Bhose,81,5
Chandekasare,194,8
Dhorja,117,3
Jawalke,68,5
Walan,113,1
Nandurpathar,157,3
Dhotre  Bu.,158,1
Sawali vihir bu.,148,6
Waranghushi,138,7
Khamba,135,6
Loni Vyanknath,85,10
Chapadgaon,158,10
Kasare,100,8
Khamgaon,118,7
kelikotul,175,3
Dhotre,92,5
Dahigaon Bolka,145,7
Bhandardara,74,6
Chapadgaon,124,5
Kolhar,163,7
Sonai,151,10
Walki,122,7
Nimgaon Khairi,172,9
Sanwatsar,194,9
R.H. Taharabad,64,3
Mahanduri,51,6
Belwandi Bk.,62,1
Benawadi,77,7
Kusadgaon,78,8
Mhaladevi,89,7
Tamaswadi,119,8
R.H. Rahuri,117,1
Mehekari,66,1
Devathan,110,1
Shirasgaon,80,3
Jakhangaon,158,8
Devgaon,95,6
Nandur,131,5
Bramhangaon,145,3
Rui,99,10
Lohgaon,93,5
Ghodegaon,115,8
H.P.3 Mukundnagar,103,10
Guravpimpri,64,5
Midsangavi,199,4
Thakur Pimpalgaon,52,6
Chumbhali,123,10
Pedgaon,192,5
Hiwargaon Pawasa,108,10
Galnimb,164,7
Pangari,129,5
Deulgaon Siddhi,146,10
Nighoj,158,10
Panodi,103,1
Musalwadi,96,8
Deulgaon,70,9
Pimparkhed,151,7
Salabatpur,115,1
Kambi,51,2
Mandwa,143,4
Ghyapatwadi,115,7
Chasnali,197,1
Jategaon,141,2
Ambidumala,137,9
Wadgaon Pan,91,6
Ashwi Bk.,100,10
Saikhindi,119,1
Takli kazi,72,6
Kharwandi,81,7
Manjur,115,6
Jeur Kumbhari,166,2
Nimgaon Bu.,198,9
Jawkhedkhalsa,179,1
Ambijalgaon,139,5
Ambi,198,2
Ekdara,168,6
Wari,138,8
Walunj,108,3
Dehare,187,8
Patoda,99,6
Pimpalgaon Pisa,130,1
Dhandarphal Kh,186,1
Jeur,120,3
Manori,191,10
Chanda,157,2
Adgaon Bu.,74,10
Khanapur,124,3
Ghargaon,153,7
Umbare,168,10
Mukindpur,51,5
Badule Bu.,136,5
Kakdi,97,9
Kokangaon,74,7
Rahuri Factory,176,1
Wadala Mahadev,173,10
Belapur Bk.,66,3
Lingdev,196,4
Dadh Bu.,94,5
Mhase,190,8
Nannaj Dumala,88,3
RH Chichondipatil,131,2
Dhamangaon Par,137,9
Ranjangaon,138,10
Malichinchora,97,1
Tarwadi,106,6
kamargaon,100,4
Darewadi,57,7
Koradgaon,93,4
Pratappur,146,6
Bherdapur,66,5
Kauthe,115,5
Kharekarjune,166,10
Umbare,78,10
R.H. Jamkhed,141,1
Takalimiya,94,5
Kukana,151,5
Chinchpurpangul,130,2
Ashwi Kh.,55,4
Kuldharan,90,7
Nimon,103,8
Takli,96,8
Jamgaon,71,9
Tergaon,132,3
Nandur,69,9
Dongargan,183,6
Pokhardi,63,1
Suregaon,58,5
Khadakwadi,75,8
Baradgaon Sudrik,67,6
Akhatwade,170,4
Avhane Bu.,68,5
Jatdevale,73,2
Sakegaon,80,1
Ukkadgaon,105,10
Bhagur,140,10
Pagori Pimpalgaon,127,1
H.P.1 Tophkhana,180,3
Khetewadi,123,9
Barababhali,136,8
Sanegav,155,9
Manik Daundi,87,3
Hiwargaon,129,9
Takli,111,4
Bhenda Bu.,97,9
Mhaisgaon,138,7
Guha,188,9
Bhokar,174,2
Dhawalpuri,128,4
Chanda,131,8
Nimbalak,69,2
Kanhegaon,102,10
Devgaon,104,5
Devdaithan,134,8
Astgaon,118,9
Nawalewadi,120,10
R.H. Sangamner,128,1
Pathare,173,4
Maktapur,140,8
Pimpalgaon Ujjaini,168,7
R.H. Wambori,159,4
Hangewadi,90,2
Nimgaon,120,6
Haregaon,104,2
Shiur,152,6
Loni Vyanknath,117,10
Mulanagar,109,7
Takali,59,8
Tinchari,97,6
Ghanegaon,88,2
Dhalwadi,72,8
Rajuri,81,4
R.H. Shrigonda,59,1
Moha,163,6
Gevrai,107,2
khandabe Khu.,122,5
Kuldharan,94,6
Takali Lonar,113,7
Gundegaon,197,6
Padhegaon,52,6
Durgapur,97,8
Babhulwandi,90,9
Taklikadewalit,120,9
Abitkhind,123,8
Samrad,59,1
Sugaon Bu.,83,7
Telkudgaon,198,5
Balamtakali,161,6
Rui Chhatrapati,190,10
Digras,69,1
Welhale,162,2
Undirgaon,150,10
Walwad,112,1
Dahigaon Ne.,164,7
Wadzire,176,6
Padoshi,104,6
Palwe Kh.,129,6
Dhawalgaon,134,5
Shingve,62,4
Kolhar Ku.,52,10
Kanoli,172,1
Akhegaon,59,6
Umbargaon,149,7
Malunja,155,3
warkhed,85,4
Ashoknagar,191,3
Talegaon,78,9
Digras,148,1
Chikhali,188,7
Hiwargaon Pathar,107,6
Khadaki,140,9
Narayan Gavhan,171,5
Lohgaon,126,9
Chandanapuri,114,7
Kohane,178,7
Bhanas Hiwara,53,1
Shingawe,181,8
Madhewadgaon,71,3
Gogalgaon,188,1
Ranjangaon Deshmukh,144,10
Randha,112,8
Karjule Pathar,170,4
Batewadi,73,1
Mohoj Bu.,153,1
Hatgaon,130,2
Kaprewadi,196,8
Nannaj,177,5
Ganji Bhoyare,119,7
Pargaon,65,2
Dhorjalgaon She.,172,4
Ajanuj,72,7
Wadule Kh.,87,3
Nimgaon Daku,130,9
R. H. Newasa,184,6
Nimgaon Khalu,103,6
Siddhatek,73,9
Kaudgon,94,10
Patewadi,148,3
Bhalawani,57,9
Shinganapur,187,4
Adhalgaon,161,10
Salabatpur,108,2
R.H. Shevgaon,59,1
Sade,147,5
Loni Mavala,191,6
Gunjalwadi,94,8
Manikdaundi,90,8
Tisgaon,64,4
Rajuri,148,1
Sawarkute,161,4
Kombhali,169,6
Sawargaon Ghule,101,1
Shirsathwadi,179,10
Kolhar Bk.,153,2
Tambhole,164,4
Kukkadwedhe,71,6
Mhankal Wadgaon,176,5
Bhatkudgav,148,8
Bhutawada,154,4
H.P.4 Nagapur,69,4
Khed,192,3
Sawali vihir khu.,124,9
Ekrukhe,53,10
Dhamori,87,9
Samanapur,79,9
Wakadi,150,4
Pohegaon,150,6
Taklimiya,173,3
Kolgaon,128,4
Khadakwadi,149,7
Devgaon,161,8
Songaon,56,3
Mandave Bu.,130,9
Dorhale,116,6
JaygudeAkhada,187,4
Kokamthan,94,4
Malewadi,193,1
Kharwandi kasar,155,8
Devrai,121,4
Murshatpur,178,1
Belwandi Bk.,170,1
Rui Chhattishi,163,3
Indori,141,3
Bhatkudgav,175,5
Nimgaon Jali,61,4
Deswandi,192,2
Jawale Kadlag,185,3
Jalke Kh.,59,8
Takali Khatgaon,95,9
Babhaleshwar,142,4
Bota,176,10
Dhandewadi,168,9
Dhorjalgaonne,134,7
Mohojdewade,86,9
Adhalgaon,185,2
Wadgaon,180,2
R H Kotul,92,1
Sarola,71,8
Dharangaon,102,1
Dhorjalgaon She.,53,5
Hiwre Korda,143,1
Durgaon,51,5
Rumbhodi,81,10
Malthan,119,1
Pimpalgaon Unda,180,5
Nimgaon Jali,160,5
Bhenda Khu.,181,2
Belapur Kh.,143,4
Gondardi,128,5
Akolner,114,6
Baragaon Nandur,71,5
Kolhar Bu.,55,9
Mohari,117,6
R.H. Puntamba,165,4
Chandegaon,100,2
Devthan,196,7
Shibalapur,67,1
Manoharpur,123,2
Chas,166,8
Hanga,109,8
Padli Darya,78,3
Usthal Dumala,77,6
Chikhali,102,3
Shiral,181,6
Kamlapur,71,2
Halgaon,186,10
Sukewadi,77,8
Koregaon,87,8
S.D.H.Pathardi,57,7
Rui Chhattishi,84,9
Udawane,153,2
Ralegan,58,3
Virgaon,53,2
Khirdi,94,3
Konoshi,57,4
H.P.6 Jijamata,142,3
Chapadgaon,63,5
Kombhalne,119,3
Nipani Wadgaon,97,7
Deshmukhwadi,188,4
Paritwadi,75,1
Pandharewadi,89,2
Pmipalgaon Tappa,175,6
Kharda,156,8
Alkuti,65,7
Nagapur,170,9
Mirajgaon,189,4
Ranjangaon,126,4
Suregaon,60,10
Chincholi Gurav,128,2
Kautaha,184,7
Alhanwadi,64,9
Bhojde,186,5
H.P.2 Mahatma Phule,151,1
Khamgaon,143,4
Pemgiri,173,3
Hiradgaon,181,4
R H Rajur,73,3
Kanadgaon,125,8
Rajapur,102,6
Chitali,89,3
Dule Chandgaon,194,10
Alkuti,68,6
walki,70,3
Velapur,191,9
Mutkhel,181,6
Pinpalgaon Rotha,126,5
AHMC Late Balasaheb Deshpande Hospital & Maternity Home,173,4
Wambori,171,7
Samangaon,120,6
Malwadgaon,56,8
Chimbhala,186,3
Gogalgaon,136,6
Shrigonda Factory,137,10
Kumbhari,69,5
Belpimpalgaon,190,1
Pokhari Baleshwar,181,10
Chas,175,5
Jambhali,197,8
Chandanapuri,131,10
Chapadgaon,123,5
Bramhanwada,122,6
Karajgaon,126,9
Wankuta,193,5
Kashti,197,10
Astagaon,81,1
Mehekari,178,1
Newasa bk,156,1
Bholewadi,177,5
Khadki kh.,70,2
Chitali,131,5
Belapur Bk.,164,9
Mungi,103,3
Takalibhan,54,3
Karjule Harya,139,6
Jawalebaleshwar,54,1
Chincholi,67,4
Belapur,91,3
Bramhani,85,9
Manjari,172,8
Arangaon,124,4
Devi Bhoyare,169,3
malharwadi,182,4
Nighoj,121,1
Nimgaon Wagha,190,2
Ganore,138,9
Pachanai,56,1
Jambhale,127,10
Satral,86,7
R.H. Shrirampur,167,3
Yeli,68,3
Undirgaon,151,6
Bhalwani,130,8
Hasnapur,138,3
Khandgaon,68,1
Kohane,137,3
Bhalgaon,199,4
Shirapur,101,9
Zole,134,2
Aradgaon,166,7
Dehare,161,7
Pimprinirmal,76,5
Derde Korhale,164,3
Kokangaon,110,7
Ukkalgaon,140,7
Takali,198,10
Gadewadi,112,3
H.P.7 Civil Hospital,168,2
Nimon,59,3
Rajapur,97,9
Sawargaon Par,129,4
Ranegaon,58,5
Padli Ale,195,10
Khanapur,82,2
Dewalali prawara,158,1
Dhamangaon Awari,112,5
Chichale,177,5
Ranjankhol,100,7
Damanwan,87,6
Ladgaon,154,6
Kotul,87,4
Pimpargaon Matha,169,2
Dahithne Gunjal,157,7
Kolpewadi,71,8
Barhanpur,116,1
Shedgaon,186,1
Ghargaon,113,1
Bodkhe,162,5
Vitha,93,8
Pimparne,141,7
Pachegaon,90,8
Konale,107,10
Lakh,194,9
Ghogargaon,151,3
Ghodegaon,67,7
Ambhore,192,5
PimpalgaonMalwi,125,8
Lohsar,135,4
Devtakali,177,2
Nannaj,125,2
Takalibhan,120,2
Ranjangaon,56,2
Nibral,186,5
Palshi,160,9
Ashwi Bu.,107,7
Chas,129,9
Nimbavi,69,3
Patharwala,77,2
Maveshi,53,1
madhi Bu.,153,6
Kurund,144,7
Shendi,62,4
Gondegaon,60,2
Pathare,118,7
Tahakari,95,7
Taklikhandeshwari,149,5
Shilegaon,124,4
Hiwarebajar,95,9
Chilewadi,167,9
Bhatodi,179,5
Shahar Takali,86,5
R H Parner,129,1
Khirvire,106,3
Pimpalgaon Pisa,122,7
Supa,112,5
Kharshinde,121,3
Wadala,64,1
Walavane,68,7
R H Samsherpur,53,1
SawargaonTal,51,4
R.H. Ghodegaon,170,8
Ambit,122,9
Jorve,197,9
Pimpri Kolandar,172,7
Pimparkane,185,6
Pimpalgaon Depa,103,6
Guha,96,2
Palsunde,84,1
R.H. Loni,51,3
Godegaon,66,6
Pategaon,147,4
Naur,82,7
Shinganapur,79,6
Newasa Kh.,192,2
Waki,51,9
Karanji,58,4
Wadner,154,6
Wasunde,90,6
Rampurwadi,122,9
R.H. Sakur,73,10
Shiradhon,169,3
Wakodi,159,9
Ghargaon,140,8
Sanwatsar,166,7
Babhulgaon Dumala,197,2
Mandavgan,103,5
Sakat,64,9
Wari,149,6
Mhaladevi,170,2
Dhamori Bu.,106,8
Devgaon,190,5
Nimgaon Bhojapur,112,8
Pimpalgaon Nakwinda,69,5
Majlechincholi,158,8
Kangar Bu.,147,4
Khandala,104,6
Padalne,117,5
Mungasewadi,60,2
Erandgaon Dhas,138,4
Gondhawani,64,8
Malwadgaon,55,5
Pohegaon Bk.,175,9
R.H. Kopargaon,94,3
Chilekhanwadi,191,3
Khedle Parmanand,153,10
Shinde,59,9
Sakuri,100,7
Goregaon,187,7
Ralegan Therpala,168,10
Ratnapur,158,1
Kanhurpathar,198,7
Ghoti,175,8
"District Hospital, Ahmednagar",170,7
Bhambora,121,9
Nimaj,113,3
Alsunde,67,1
Changdevnagar,175,3
Chinchpur,129,8
Athwad,173,10
Punewadi,69,8
Katlapur,75,7
Shingave Tukai,72,2
Kadus,64,9
Toka,198,4
Yeshgaon,173,5
Kalamb,148,1
Kendal Bu.,80,6
Ralegan Shiddhi,123,9
Jalgaon,66,8
Chinchpurjade,79,6
Yelapane,106,10
Enatapur,169,4
Fatyabad,53,6
Kalas Bu,60,6
Dev Daithan,153,5
Burhannagar,80,8
Karandi,159,1
Miri,83,4
