Health Facility Name,Number_Of_Beds,Rating
NOTIONAL Kundalpura,94,1
Bopia,93,6
Shyamgarh,127,7
Sawaipura,51,3
Jharinda,119,3
Khatkar,167,1
Daulatpura,67,5
Bibipur Bara,59,2
Fatehpur,123,3
Thithawata Peeran,135,10
Jhalra,175,5
Beerodi Chhoti,94,9
Pardoli Badi,167,1
Derawali,158,2
Poonani,64,5
Dadiyarampura,184,1
Shyampur,66,5
Panlawa,195,9
Nayabas,114,2
NOTIONAL Kanwat,192,4
Gothra Bhookran,50,2
Ralawata,85,10
Kaswali,150,1
NOTIONAL Nagwa,190,2
Booja,104,5
Shimarla Jageer,160,8
NOTIONAL Nimeda,63,10
NOTIONAL Losal,109,10
Jalalsar,52,1
Gangiyasar,130,1
Rajnagar,127,4
Divrala,116,1
Mangej Singh ki Dhani Bhajangarh,134,9
Miyan Ki Dhani,199,4
Dhanani,79,4
Kasarda,109,8
Bathoth,197,2
Dhani Ahiran Tan Pritampuri,113,1
Dhani  Baijnath,178,3
Pujari Ka Bas,107,1
Chandeli Ka Bas,106,10
Dantla,98,6
PHC Ganeshwar,98,3
NOTIONAL Patoda,84,4
Bhadawasi,135,9
Poshani,126,10
Almas,124,9
Piprali,167,4
Jeenwas,153,8
Harjanpura,115,3
Rampura Thoi,104,2
Mandoly,95,9
Dayra,74,7
Deravali,115,2
NOTIONAL Jojawarnagar,97,6
NOTIONAL Ladhee Ka Bas,61,4
Rajanpura,118,8
NOTIONAL Beri,151,9
Dhandhela,156,1
Tunwa,53,5
Rajpura,134,8
NOTIONAL Mahroli,155,5
Jhunka Bas,182,6
Jassi Ka Bas,165,1
Bamanvas Sajanpura,198,8
Rampura,72,4
Pachaar,125,4
Bhagoth,120,3
Mohanpura,114,9
Palthana,100,1
Chuwas,177,6
Dhai Sadhusingh Ki,176,3
Jail Dispensary Sikar,109,10
Shesam,159,3
Aloda,151,1
Ajmeri,72,7
NOTIONAL Tajsar,180,8
Shapura,99,7
Naya Bas,139,6
Kishanpura,155,6
Holiya Ka Vas,63,9
Shyampura,104,9
Gopinathpura,166,7
Ghaseepura,74,7
Ladpur,60,10
NOTIONAL Piprali,83,3
Bhuvala,100,7
Ganeshpura,66,7
Chhajna,100,5
"S K Hospital, Sikar",60,3
Khordi,68,7
Salodra,144,8
Goras,58,7
Jaitusar,54,3
Lakha Ki Nangal,121,2
NOTIONAL Kasi Ka Bas,115,3
Narsas,131,10
Chala,110,7
Bhawanipura,75,10
Dhani Pooniyan,195,5
Basri Kalan,99,4
Bari,68,7
Kaliyabas,60,7
Magra,69,6
Dookiya,136,5
NOTIONAL Bhudoli,177,8
Luharwas,52,9
Ajeetgarh,152,6
Kolira,73,6
Nethwa,138,6
Kairpur,78,8
Tihawali,100,5
Reta,121,5
Nathoosar,125,7
Sutod,102,5
Napawali,140,4
NOTIONAL Nechwa,76,3
Dhalyavas,167,2
NOTIONAL Hood,193,7
Beniyo Ka Bas,183,3
NOTIONAL Dantru,138,8
Shekhisar,178,7
NOTIONAL Chokri,106,10
NOTIONAL Hathi Deh,60,7
Kanthli,92,9
Sanwaloda Dhaylan,187,5
Devgarh,84,7
Chalasi,168,4
Todi Madhopura,157,8
Likhama Ka Bas,150,7
NOTIONAL Pachaar,189,3
NOTIONAL Batranau,182,6
Mau,118,8
Persrampura,75,7
Bhudoli,61,6
Brajsingh Pura,115,5
Hemrajpura,125,5
Kachhwa,124,7
Gadhi Khanpur,158,8
Rinu,151,1
Police Dispensary Sikar,132,5
Arjunpura,147,7
Kola Ki Nangal,99,9
Bajroli,130,8
Badi Dhani Gadhteknate,158,4
Katrathal,137,1
Takhlsar,181,9
Royal,92,3
Udaipura,60,3
Bairas,135,3
Singhasan,54,10
sitaram pura,176,8
Cheeplata,145,4
Shahpura,186,3
Nagal,152,2
Geelo Ki Dhani,97,1
Rewasi,82,4
Devipura,104,9
Dasroli,135,10
Chacheewad Bada,94,1
Tilokpura,113,5
Hathi Deh,155,3
Ladhee Ka Bas,148,2
NOTIONAL Dantaramgarh,123,4
Gungara,182,10
NOTIONAL Rajpura,179,2
Shyorana Ka Bas,174,8
NOTIONAL Singhasan,79,5
Meai,136,4
Karanga Chhota,76,6
Sabalpura,185,6
Patoda,192,8
NOTIONAL Deesnaoun,125,8
Mahro Ki Dhani,130,4
Devlanada,101,2
Nathawata Pura,57,7
Mangarh,147,6
Kaharon Ki Dhani,128,4
Samotaka Bas,153,9
NOTIONAL Palasara,185,10
Sanwalpura Tanwran,104,5
Gowati,150,4
Jatala,196,2
NOTIONAL Guhala,114,4
Basri,140,1
Jethwa ka bas,98,6
Malikpur,92,6
Vaidya Ki Dhani,158,1
Narda,184,9
Jagmalpura,175,8
Salwari,65,2
NOTIONAL Kochor,85,7
NOTIONAL Aabhawas,60,6
NOTIONAL Bamanvas Sajanpura,191,5
NOTIONAL Bajor,162,3
NOTIONAL Mirjawas,169,4
Chokri,86,9
Manda,174,1
Nimeda,109,6
Sherpura,174,2
Kudli,142,3
Chala Ki Dhani,168,4
Jhitla,62,4
NOTIONAL Jugrajpura,111,3
Bajyawas,182,5
Bhakharwasi,85,1
Jugalpura,172,1
Garandwa,63,3
Shyampura,160,10
Bhaaoji ki Dhani,98,3
Palasala,74,7
NOTIONAL Garinda,164,3
Saledipura,63,8
NOTIONAL Garoda,60,3
Gyanpura,93,4
Jaleu,109,2
NOTIONAL Jhingar Chotti,86,10
Basni,150,9
Kailash,109,2
Bharupura,137,2
Madhopura,144,9
Molyasi,66,10
Raipur Patan,107,9
Dhakasi,88,9
Khakholi,192,4
Majipura,85,2
Maganpura,142,8
Jajod,197,3
Shiot Chhoti,74,2
Patan,156,2
Dinarpura,196,5
Bagariyavas,180,10
NOTIONAL Umara,76,4
GHUDHA KHURD,150,1
Chainpura,185,4
Hulda Ka Bas,105,4
Sirohi,70,9
Beswa,80,2
Bhivanpura,196,4
Prithvipura,70,9
Anokhu,92,4
Pura Choti,107,7
Kala Kheda,158,7
Hetamsar,116,3
NOTIONAL Dhabawali,195,7
Suthoth,81,7
Mundwara,164,9
NOTIONAL Kayamsar,54,4
Mahroli,80,9
Karjo,140,10
Yalsar,144,2
Mandawra,191,1
Puranpura,126,6
Kudan,195,1
NOTIONAL Dhodh,103,10
Palsana,178,1
Bujiyala,129,9
Juliyasar,110,10
Shola,99,5
Natha Ka Nangal,178,9
Singravat,51,9
Garh Taknet,159,9
Mirjawas,193,2
Khotia,129,1
Vijaypura,87,2
Dayal Ki Nangal,133,10
Tiwari Ki Dhani,172,6
Dalatpura,150,4
Purohit Ka Bass,88,9
Radha Kishanpura,116,3
Dasa Ki Dhani,197,1
Tihay,86,9
Jajod,174,5
Kishorpura,143,10
Panchoo Kharkhara,112,1
Kandlau,67,2
Kotri Shimarla,97,6
Goriya,54,8
Lamiyan,164,7
Hamerpura Khurd,167,6
Godia Bada,152,1
Sub Jail Dispensary Sikar,118,3
Sujanpura,180,3
Kayamsar,105,4
Rad Ki Dhani,116,5
Dalpat Pura,50,3
Athbigha,71,8
Raju Ki Guwar,178,4
Dhani Kirparam,77,7
Bandawala Tan Gopalgarh,134,3
Chokha Ka Bas,75,2
Khud,154,4
Charanwas,81,7
Jhun Ka Bas,191,4
Ratan Nagar,164,8
Bahadurpura,108,10
Rajpura,170,4
Dokan,97,7
Kalyanpura,56,8
Ramgarh Sethan,73,4
Buchyasi,73,8
Santoshpura,176,2
Doongarwas,144,1
Jurathara,75,10
Theekariya,95,10
Sigdola Chhota,64,10
Nayorana,86,5
NOTIONAL Kharsadu,103,10
Shishu,71,1
Sankhu,156,6
Rahnawa,125,4
Surera,171,6
Pauda Ki Dhani,158,1
Dabri,149,4
NOTIONAL Reengus,157,8
Pura Badi,156,9
Thethliya,158,9
NOTIONAL Palsana,62,10
Hapas,93,8
NOTIONAL Goriya,104,4
Khanari,132,1
Ghasseepura,192,2
Narodara,198,5
Badalwas,93,2
Samer,115,8
Tatera,109,5
Ranasar,119,6
Charanwas Gyandhyan Ka Bas,99,2
Bhikanwasi,157,3
Maksoodpura,60,4
Harsawabara,131,3
Ganwali,78,9
Palas,183,9
Biraniya,192,10
Jheerana,80,5
Khuri,67,1
Lakhnee,174,3
Palri,148,8
Bidsar,130,10
Kuli,55,3
Gurara,144,10
Dhokar,126,5
Tiro Ki Chhoti,150,8
Nasanwa,184,6
Rajpura,66,6
Bandawala Bhopalpura,103,7
Thikaria,98,2
Doodhwalon Ka Bas,143,5
Byor,130,9
NOTIONAL Lamiyan,129,10
Jaswantpura,138,6
Chak,171,6
Gopalpura,67,7
Ganoda,66,6
Charanwas,183,4
TB Clinic Sikar,165,5
Patwari Ka Bas,93,4
Kishorpura,134,3
Nangal,114,1
Balupura,68,1
Medha Ki Dhani,96,4
Lalasi,92,2
Rajpura,74,1
Chacheewad Chhota,196,8
NOTIONAL Gowati,186,2
Sanwalpura Tanwran,183,9
Khiroti,90,6
Mawanda Kla,146,6
NOTIONAL Dujod,73,10
NOTIONAL Bhadwari,132,1
Mangrasee,161,6
Bhojpur,149,6
Gokul Ka Bas,175,10
Losal,149,7
NOTIONAL Suthoth,102,4
NOTIONAL Dokan,105,7
Bega Ki Nangal,83,1
NOTIONAL Rorubari,149,4
Bharupura,131,5
Mrdatu Chhoti,192,10
Athwas,129,10
Javan Singh Ki Dhani,108,3
Mawanda Khurd,88,4
Bhoya,69,4
Bajor,59,1
Kotri Luharwas,172,8
Hameerpura Kla,82,6
Bathoth,156,9
udan sari,199,9
Banathala,163,2
Rooppura,64,8
Ghata,85,7
Shivsinghpura,88,8
Bhagoo Mil Ka Bas,50,5
Fatehpura,152,1
Bheema,117,1
NOTIONAL Bay,87,8
Ramsingh Pura,51,1
Shekhiwas,106,7
Karad,119,9
Burja Ki Dhani,190,10
Sakrai,126,10
NOTIONAL Paritampuri,106,2
NOTIONAL Gungara,118,1
Balod Chhoti,154,8
Rajpura,95,3
Kolwa,90,8
Dholasaree,86,5
Paritampuri,171,3
NOTIONAL Jharali,151,4
Rao ki dhani,150,3
NOTIONAL Dasroli,104,9
Jeevansingh Ki Dhani,75,5
Roopawas,185,7
Balwar,108,5
Jalalpur,136,10
Sanwalpura,165,6
Ralawata,137,4
Paniharwas,199,10
Mohanpura,174,9
Ghana,68,10
Dhaadhan,52,4
Dugoli,142,10
Haripura,171,4
Hanspur,160,10
Gordhanpura,90,5
Madni,64,1
NOTIONAL Kirdoli,52,2
Jairampura,159,9
Savli,60,4
Chudala,110,6
Nadi Johdi,127,8
Pithalpuri,189,8
Bheenchri,51,2
Mothooka,111,4
Arniya,84,10
NOTIONAL Mangluna,105,1
Hardas Ka Bas,178,3
Lawand,55,5
Akwa,71,7
NOTIONAL Hanspur,101,5
Jojawarnagar,137,8
Karanpura,51,10
Godawas,71,9
Mordonga,114,8
Biharipur,66,6
Bhagwan Pura,84,2
Jugalpura,186,3
Sarwade,167,8
Khatushayamji,58,10
Singodara,156,5
Goariya,148,8
Bagdoda,77,1
Tajsar,72,8
Purohito Ka Bas,85,9
Blrampura,172,9
Sanwali,109,4
Bhareeja,126,1
RamNager,176,4
Dewas,50,4
Dharkabass,163,8
Bhooranpura,65,8
NOTIONAL Shishu,184,6
Shyampura,100,10
Gotra Thgelan,162,2
Batranau,163,3
Bhopatpura,150,2
Aspura,153,10
Nechwa,187,7
Sri Madhopur,112,4
Kalyanpura,144,9
Phootala,146,9
Jana,136,6
Dhani Chooroli,174,7
Nehro ki dhani,78,6
Nausal,141,2
Sakray,79,2
Dadiya,142,7
Hardayalpura,57,9
Ganwari,149,5
Tiwari Ka Bas,115,3
Raising Ki Dhani,52,8
Sola,124,9
Bhorado Ka Bas,168,8
Sewdara,95,3
Tarpura,83,2
Hardaka Wali,146,1
gudha kala,52,2
NOTIONAL Thoi,99,5
Jharali,60,1
Jaitpura,115,3
Garoda,177,10
Thorasi,85,6
Ganeshwar,142,2
Reengus,62,4
Nagwa,108,3
Khuri Bari,80,6
Anatpura,58,9
Barsinghpura,193,1
Baral,55,3
NOTIONAL Banuda,168,4
Khurampura,135,10
Swarooppura,103,2
Kasi Ka Bas,149,8
Phagalwa,199,5
Bhojmead,125,7
Trilokpura,162,7
Chainpura,182,3
dulhepura,127,1
Nehro Ki Dhani,191,3
Abhaypura,159,9
Rosawa,83,5
NOTIONAL Rasidpura,166,2
Beedasar,96,9
Mardatoo Bari,72,5
Chidasara,151,10
Kochor,136,9
Khanipura,154,3
Neemki,179,5
Devipura,163,6
Fadanpura,66,10
Ghirania Bada,189,10
Ramsisar,117,5
Loharwara,141,2
Kariro Ki Dhani,158,9
Sherpura,81,9
Kerawali,197,10
Kirdoli,148,8
Thadi,110,8
NOTIONAL Mau,132,4
NOTIONAL Danta,119,5
Nani,73,6
Bhgasara,97,5
Bavdi,66,1
Kundalpura,78,5
Rol Sahabsar,165,4
NOTIONAL Tatera,199,10
NOTIONAL Jurathara,133,1
Thoi,115,4
Roroo Chhoti,71,6
NOTIONAL Jasraser,74,4
Khejar wala Johda,57,10
Nalot,112,3
Hanuman Nagar,195,4
Kanchanpur,179,8
Udansar,51,2
Gudarwas,130,8
Pipliya Nagar,140,5
Khatundra,114,4
Nangal Bhim,188,1
Gadreta,147,5
Kankra,72,6
Prithvipura,94,3
Kothari,119,1
Theemoli,88,6
Govindpura,66,8
Nabipura,55,6
Hatyaj,199,9
Ganeri,177,9
Motlawas,183,8
Bheelunda,51,1
Ranoli,93,5
Kanwarpura,138,8
Harsh,199,3
Deesnaoun,126,3
NOTIONAL Sangrwa,120,8
Balaji Nagar,96,3
Kharsadu,79,3
Jetpura,101,7
Kishanpura,84,5
Mundru,64,8
Kushal Pura,156,3
Tiwari Ki dhani N2,70,7
Guhala,55,2
Kumasjatan,151,3
NOTIONAL Jeelo,160,5
Ratanpura,166,9
NOTIONAL Cheeplata,181,1
Khandelsar,166,4
Bodlasi,61,4
Kalyanpura,189,1
NOTIONAL Ganeri,127,7
Kumas Jageer,75,5
Kedi,98,4
khusalpura,139,3
Chandpura,179,10
NOTIONAL Palri,186,9
Chudoli,121,8
Dakali,164,1
NOTIONAL Chala,151,3
Rasidpura,166,3
NOTIONAL Lisariya,87,6
Bidoli,124,9
Beri,164,1
Palwas,134,1
Gordhanpura,72,5
Sargoth,149,10
Dubda Mokalwas,195,7
Sanwaloda Ladkhani,159,10
Kishanpura,70,6
Shimli,142,2
Antri,63,2
Hasampur,82,4
Manda Surera,138,10
NOTIONAL Kotri Luharwas,146,4
Nangali,93,2
GUMANA KA BASS,119,4
Phagtavsingh wali,180,8
Baduser,171,1
Jyotiba Nagar,92,1
Kanwat,50,9
Kheerwa,118,4
Jeenmata,154,2
NOTIONAL Panlawa,66,7
Jugalpura,187,8
Jhajhar,111,8
Hathora,127,6
Swed Badi,154,8
Ghassu,156,5
Roopgarh May Rehat,182,5
Kanwar Ki Nangal,197,10
Bankayawali Johari,170,5
Alakhpura Godaran,159,5
Rorubari,58,4
Palasara,82,10
Kundala,123,2
Malakali,195,5
Hameerpura,193,3
Bharni,61,3
NOTIONAL Garhbhopaji,124,3
Gogawas,53,5
NOTIONAL Hasampur,185,4
Neem Ka Thana,75,5
NOTIONAL Sargoth,170,6
Ramsinghpura,140,5
Jatwas,150,6
Choodi Miyann,143,10
Dangi Ka Bas,81,9
Udaipura,169,1
NOTIONAL Blara,85,5
NOTIONAL Rol Sahabsar,84,8
Bhadwari,142,7
NOTIONAL Fatehpura,108,1
Shobh Kalakhet,143,3
Mudiyawas,181,2
Surani,51,10
Dadli,164,4
Bherupura Jagir,60,1
Akhepura,121,9
NOTIONAL Khachriyawas,102,10
Jitala,95,8
Kanwarpura,194,4
Mahawa,199,3
Ramjeepura,82,9
Jasoopura,160,4
Bhagova,175,2
Raipur Jagir,136,5
Jhingar Chotti,164,1
Haripura,159,4
Swed Choti,146,1
Kalakota,66,6
Chak Mitai,185,2
NOTIONAL Bibipur Bara,180,2
Bassi,132,7
Shehot Badi,74,3
Guwar,183,1
NOTIONAL Jajod,104,2
NOTIONAL Kheerwa,109,7
Laxmangarh,170,2
Kheri Radan,171,3
NOTIONAL Jeenmata,184,1
Peepli,129,5
NOTIONAL Mundru,79,7
Thehat,155,1
Tapilya,199,5
NOTIONAL Harsawabara,89,1
Rulyana Mali,65,5
Narsra,68,8
Rampura,68,7
Bagri,63,2
Mukandpura,56,4
Malkheda,50,8
NOTIONAL Divrala,65,10
Khajuriya,59,3
Aagwadi,132,6
Dantru,153,7
City Dispensary No 2 Sikar,185,2
Sundarpura,157,9
Amarpura,112,9
Losal Choti,93,4
Binjasi,137,8
NOTIONAL Kasli,128,1
Ghadel Nagar,68,7
Fakerpura,116,5
Ramu Ka Bass,106,1
NOTIONAL Theekariya,152,3
Sanwalpur Shekhawatan,117,7
Ramchandrawali,68,6
Jeoli,95,9
Khori Brahmanan,144,4
Badhadar,173,2
Mangluna,116,8
Jalund,53,5
Srimadhopur Rural,153,5
Deenwa Jatan,99,5
NOTIONAL Jajod,105,1
Sulyawas,179,7
NOTIONAL Nagal,102,3
Dhani Gumansingh,182,6
Deepawas,164,6
NOTIONAL Mandota,125,7
Sigdola Bara,89,1
Geedawala,57,4
Khora,71,8
NOTIONAL Khatushayamji,124,3
Gudha,123,3
Shivnagar,197,5
Ladhana,135,6
Dantaramgarh,133,2
Mothyivali,144,10
NOTIONAL Khud,159,5
Chhaja Ki Nangal,65,5
Bubana,184,6
Dheerajpura,178,3
Paroda,101,3
NOTIONAL Sutod,147,2
Kotri Dhaylan,59,4
Bhairupura,152,4
Dulehpura,196,9
Hanuman Nagar,160,3
Khandela,141,6
Bhagega,91,3
NOTIONAL Sri Madhopur,115,10
Aabhawas,149,6
NOTIONAL Ramgarh Sethan,170,6
Lisariya,116,3
Lakhipura,185,6
Garhbhopaji,154,8
Rulyanipathi,133,5
Kotra,77,9
Sujawas,162,2
Natedwas,139,8
Pira wali,83,2
Mokalwas,107,2
NOTIONAL Shyamgarh,108,5
Jasraser,151,2
Neemkathana Grameen,117,2
Purana Bas,154,2
Dhabawali,69,7
Laxman Ka Was,173,5
Sothaliya,185,4
Neemod,110,6
Khedi Datujala,178,5
Alakhpura Bogan,168,10
Raipura,96,9
Simarla,154,6
Heerwas,181,2
Garinda,152,8
Meeran,145,6
Dariba,114,2
Dheengpur,138,9
Kali Kheda,85,10
Gumanpura,93,8
Deenwa Ladkhani,130,9
Koliwala,196,8
Jugrajpura,79,3
Ragunathgarh,58,6
NOTIONAL Biraniya,167,6
Neem Ka Thana,190,2
Gokulpura,93,5
Charanbas Nada,99,3
NOTIONAL Dabla,112,4
Hood,157,7
Banuda,53,3
Bhookron Ka Bas,143,1
Khachriyawas,64,1
Bhojasar Bada,66,3
Chomu Purohitan,181,8
Umara,158,7
Rajputo Ki Dhani,137,3
Dabla,160,2
NOTIONAL Mawanda Khurd,129,7
Lapuwa,61,8
Blara,117,5
NOTIONAL Dhaadhan,197,1
Bihar,143,3
Rookansar,79,6
Ramsingh Ki Dhani,112,3
Lamba Ki Dhani,174,4
Ranipura,193,4
Kasli,64,9
Rulana,170,8
NOTIONAL Rewasa Tirth,173,3
NOTIONAL Khandela,72,2
Raipur Jagir,62,10
Khatipura,76,7
Dhani Chatardas,63,7
Rooppura Udalvas,101,8
NOTIONAL Dalpat Pura,149,5
Vijaypura,123,8
Rewasa Tirth,107,1
Ramlyawas,139,5
NOTIONAL Phagalwa,146,9
Hirwala,102,3
NOTIONAL Ranoli,81,7
Kheenwasar,197,6
NOTIONAL Laxmangarh,92,3
Sukhsingh Ka Bas,178,3
Danta,186,5
Nayabas,105,7
Doodwa,189,10
Makari,196,5
Saidala Bhagwanpura,137,9
Syoram Ka Bas,162,5
Bau,150,2
Ajeetgarh,199,1
Tiro Ki Bari,160,3
Sanwaloda Prohitan,127,4
Jeelo,176,2
Chainpura,128,3
Mandota,117,8
Sirohi,83,4
Ghatamdaswali,174,3
Navlai,98,6
NOTIONAL Roopgarh May Rehat,83,10
Toda,79,8
Sangrwa,133,7
Narsingh Puri,91,9
Bosana,191,7
Chhapar,128,5
NOTIONAL Tihawali,77,2
Tashar Chhoti,186,7
Nojee Ki Dhani,168,9
Dadunda,107,8
Basari Khurd,179,2
Bay,192,4
Sewa,158,2
Phamnala,191,7
Bhagatpura,107,10
Poladas,50,6
Rampura Thoi,131,5
Dab Panora,102,9
Mawanda RS,107,7
Bairas,108,8
NOTIONAL Beswa,139,9
Hudera,163,4
Ajabpura,157,6
Dujod,154,3
Balana Johda,185,1
Sujana,114,7
NOTIONAL Kolira,60,3
Kerpura,106,6
Kachreda,131,10
Jerthi,142,9
Samee,155,10
Bhuma Bada,70,1
Govindsingh wali,127,3
Karadka,158,4
Bathoth,195,9
Dhani Ahiran,84,7
Ballupura,52,6
Bheerana,131,7
NOTIONAL Kudan,198,9
Karnga Bada,107,1
Dudhwa,57,1
Alaphsar,134,9
Khadra,92,2
NOTIONAL Patan,175,8
City Dispensary No 1 Sikar,82,5
Tarpura,172,8
Balod Bhakhra,123,5
Swami Ki Dhani,82,6
Mandela Bara,154,8
Ajeetpura,139,10
Malnagar,88,1
Madho Ka Bas,54,2
Parasrampura,85,1
SHIV NAGAR,75,8
Mandusiya,168,9
NOTIONAL Bhagoth,96,1
Dehrajori Wali,125,1
Kirdoli Bari,94,7
Govindpura,64,9
Sanglia,179,8
Ladia,77,1
Toda,175,6
NOTIONAL Raipur Patan,170,7
Nimeda,129,8
NOTIONAL Fatehpur,129,6
Khuri Chhoti,110,1
Sihori,159,6
Modyadi,120,7
Khori Dungar,172,3
Hanumanpura,76,1
Rulyani,150,1
Nare,197,8
Charanwas,175,1
Dalmas,75,9
Rajas,84,2
Mandoli,132,1
Beerodi Bari,126,2
Goriya Chhota,101,9
Dhodh,122,3
Fatehpura Bhomiya,171,6
Koor Bara,80,10
Dotasara,122,4
Deepawas,92,5
NOTIONAL Jaleu,198,3
Seepur,168,1
NOTIONAL Kundalpura,113,10
Bopia,51,6
Shyamgarh,130,6
Sawaipura,174,4
Jharinda,59,9
Khatkar,104,5
Daulatpura,89,9
Bibipur Bara,107,10
Fatehpur,159,10
Thithawata Peeran,187,10
Jhalra,69,7
Beerodi Chhoti,117,7
Pardoli Badi,56,5
Derawali,150,9
Poonani,71,10
Dadiyarampura,58,2
Shyampur,58,2
Panlawa,87,5
Nayabas,113,5
NOTIONAL Kanwat,96,9
Gothra Bhookran,88,7
Ralawata,163,10
Kaswali,195,6
NOTIONAL Nagwa,63,1
Booja,106,1
Shimarla Jageer,85,1
NOTIONAL Nimeda,109,1
NOTIONAL Losal,110,2
Jalalsar,63,10
Gangiyasar,90,1
Rajnagar,170,1
Divrala,102,1
Mangej Singh ki Dhani Bhajangarh,74,10
Miyan Ki Dhani,122,2
Dhanani,69,4
Kasarda,100,8
Bathoth,197,1
Dhani Ahiran Tan Pritampuri,81,2
Dhani  Baijnath,59,2
Pujari Ka Bas,137,1
Chandeli Ka Bas,158,2
Dantla,142,10
PHC Ganeshwar,164,2
NOTIONAL Patoda,198,3
Bhadawasi,55,4
Poshani,101,1
Almas,83,2
Piprali,124,7
Jeenwas,111,4
Harjanpura,172,5
Rampura Thoi,97,8
Mandoly,67,10
Dayra,94,7
Deravali,65,7
NOTIONAL Jojawarnagar,132,4
NOTIONAL Ladhee Ka Bas,190,8
Rajanpura,143,9
NOTIONAL Beri,163,8
Dhandhela,71,2
Tunwa,118,5
Rajpura,68,6
NOTIONAL Mahroli,112,7
Jhunka Bas,186,8
Jassi Ka Bas,187,1
Bamanvas Sajanpura,195,3
Rampura,199,7
Pachaar,132,8
Bhagoth,74,4
Mohanpura,129,2
Palthana,156,4
Chuwas,130,2
Dhai Sadhusingh Ki,78,1
Jail Dispensary Sikar,179,3
Shesam,167,9
Aloda,147,1
Ajmeri,112,3
NOTIONAL Tajsar,50,2
Shapura,151,9
Naya Bas,53,8
Kishanpura,158,10
Holiya Ka Vas,69,10
Shyampura,112,4
Gopinathpura,192,9
Ghaseepura,121,10
Ladpur,108,1
NOTIONAL Piprali,156,9
Bhuvala,136,1
Ganeshpura,196,4
Chhajna,130,3
"S K Hospital, Sikar",120,8
Khordi,149,4
Salodra,126,3
Goras,121,1
Jaitusar,73,1
Lakha Ki Nangal,81,4
NOTIONAL Kasi Ka Bas,77,6
Narsas,83,8
Chala,56,5
Bhawanipura,110,8
Dhani Pooniyan,106,3
Basri Kalan,55,5
Bari,165,5
Kaliyabas,100,3
Magra,179,10
Dookiya,185,8
NOTIONAL Bhudoli,105,2
Luharwas,121,1
Ajeetgarh,94,4
Kolira,74,9
Nethwa,164,7
Kairpur,179,7
Tihawali,140,5
Reta,103,5
Nathoosar,89,9
Sutod,76,7
Napawali,87,1
NOTIONAL Nechwa,113,4
Dhalyavas,57,10
NOTIONAL Hood,72,9
Beniyo Ka Bas,62,7
NOTIONAL Dantru,92,1
Shekhisar,122,5
NOTIONAL Chokri,140,6
NOTIONAL Hathi Deh,159,4
Kanthli,160,4
Sanwaloda Dhaylan,158,7
Devgarh,160,8
Chalasi,79,1
Todi Madhopura,95,5
Likhama Ka Bas,135,3
NOTIONAL Pachaar,109,3
NOTIONAL Batranau,177,6
Mau,101,3
Persrampura,81,1
Bhudoli,161,6
Brajsingh Pura,92,4
Hemrajpura,182,6
Kachhwa,116,3
Gadhi Khanpur,155,7
Rinu,65,1
Police Dispensary Sikar,168,3
Arjunpura,76,9
Kola Ki Nangal,197,6
Bajroli,120,7
Badi Dhani Gadhteknate,183,1
Katrathal,173,9
Takhlsar,134,6
Royal,151,8
Udaipura,91,7
Bairas,116,2
Singhasan,179,6
sitaram pura,137,5
Cheeplata,174,4
Shahpura,66,1
Nagal,194,6
Geelo Ki Dhani,123,2
Rewasi,98,9
Devipura,155,1
Dasroli,93,3
Chacheewad Bada,96,1
Tilokpura,103,9
Hathi Deh,112,8
Ladhee Ka Bas,127,7
NOTIONAL Dantaramgarh,79,10
Gungara,189,7
NOTIONAL Rajpura,148,6
Shyorana Ka Bas,87,5
NOTIONAL Singhasan,113,9
Meai,172,6
Karanga Chhota,101,5
Sabalpura,105,10
Patoda,184,5
NOTIONAL Deesnaoun,98,7
Mahro Ki Dhani,90,9
Devlanada,140,6
Nathawata Pura,120,6
Mangarh,114,5
Kaharon Ki Dhani,154,5
Samotaka Bas,118,3
NOTIONAL Palasara,104,1
Sanwalpura Tanwran,75,3
Gowati,132,6
Jatala,151,7
NOTIONAL Guhala,89,7
Basri,173,2
Jethwa ka bas,115,3
Malikpur,186,1
Vaidya Ki Dhani,73,8
Narda,139,1
Jagmalpura,138,3
Salwari,170,9
NOTIONAL Kochor,96,1
NOTIONAL Aabhawas,170,9
NOTIONAL Bamanvas Sajanpura,147,10
NOTIONAL Bajor,121,1
NOTIONAL Mirjawas,117,5
Chokri,82,5
Manda,75,1
Nimeda,77,9
Sherpura,110,6
Kudli,96,7
Chala Ki Dhani,96,8
Jhitla,186,8
NOTIONAL Jugrajpura,84,2
Bajyawas,63,5
Bhakharwasi,54,4
Jugalpura,146,8
Garandwa,74,5
Shyampura,62,10
Bhaaoji ki Dhani,144,2
Palasala,86,7
NOTIONAL Garinda,139,7
Saledipura,161,9
NOTIONAL Garoda,119,6
Gyanpura,108,7
Jaleu,154,3
NOTIONAL Jhingar Chotti,149,8
Basni,155,1
Kailash,197,10
Bharupura,93,9
Madhopura,69,1
Molyasi,185,1
Raipur Patan,167,6
Dhakasi,143,8
Khakholi,164,10
Majipura,52,2
Maganpura,119,8
Jajod,128,5
Shiot Chhoti,178,3
Patan,124,2
Dinarpura,119,8
Bagariyavas,58,5
NOTIONAL Umara,152,1
GHUDHA KHURD,54,4
Chainpura,176,2
Hulda Ka Bas,104,9
Sirohi,193,7
Beswa,77,3
Bhivanpura,134,1
Prithvipura,100,10
Anokhu,148,6
Pura Choti,161,10
Kala Kheda,122,9
Hetamsar,173,10
NOTIONAL Dhabawali,101,5
Suthoth,154,5
Mundwara,86,5
NOTIONAL Kayamsar,160,5
Mahroli,171,2
Karjo,194,7
Yalsar,90,1
Mandawra,168,1
Puranpura,119,7
Kudan,132,1
NOTIONAL Dhodh,168,5
Palsana,91,7
Bujiyala,163,6
Juliyasar,184,3
Shola,155,10
Natha Ka Nangal,161,9
Singravat,168,3
Garh Taknet,54,5
Mirjawas,53,2
Khotia,94,3
Vijaypura,109,7
Dayal Ki Nangal,67,10
Tiwari Ki Dhani,129,2
Dalatpura,53,1
Purohit Ka Bass,85,2
Radha Kishanpura,145,4
Dasa Ki Dhani,113,7
Tihay,125,7
Jajod,118,8
Kishorpura,64,10
Panchoo Kharkhara,145,3
Kandlau,144,4
Kotri Shimarla,102,4
Goriya,121,8
Lamiyan,134,2
Hamerpura Khurd,175,5
Godia Bada,146,5
Sub Jail Dispensary Sikar,82,7
Sujanpura,106,2
Kayamsar,93,8
Rad Ki Dhani,153,2
Dalpat Pura,118,9
Athbigha,181,6
Raju Ki Guwar,198,2
Dhani Kirparam,171,8
Bandawala Tan Gopalgarh,147,5
Chokha Ka Bas,183,8
Khud,100,4
Charanwas,53,1
Jhun Ka Bas,117,2
Ratan Nagar,174,10
Bahadurpura,71,4
Rajpura,68,1
Dokan,168,10
Kalyanpura,90,9
Ramgarh Sethan,56,8
Buchyasi,171,1
Santoshpura,156,4
Doongarwas,184,6
Jurathara,151,4
Theekariya,133,6
Sigdola Chhota,153,9
Nayorana,69,3
NOTIONAL Kharsadu,135,6
Shishu,118,7
Sankhu,164,9
Rahnawa,129,10
Surera,78,5
Pauda Ki Dhani,192,8
Dabri,136,3
NOTIONAL Reengus,177,7
Pura Badi,107,4
Thethliya,117,2
NOTIONAL Palsana,132,8
Hapas,99,10
NOTIONAL Goriya,112,3
Khanari,115,6
Ghasseepura,190,2
Narodara,66,10
Badalwas,64,6
Samer,164,3
Tatera,179,1
Ranasar,183,8
Charanwas Gyandhyan Ka Bas,183,10
Bhikanwasi,56,8
Maksoodpura,168,3
Harsawabara,183,6
Ganwali,188,4
Palas,182,10
Biraniya,59,4
Jheerana,130,4
Khuri,102,10
Lakhnee,57,8
Palri,114,1
Bidsar,106,5
Kuli,188,3
Gurara,165,4
Dhokar,126,1
Tiro Ki Chhoti,129,2
Nasanwa,168,6
Rajpura,196,9
Bandawala Bhopalpura,111,1
Thikaria,133,3
Doodhwalon Ka Bas,51,6
Byor,65,6
NOTIONAL Lamiyan,109,6
Jaswantpura,128,8
Chak,191,3
Gopalpura,172,7
Ganoda,81,4
Charanwas,182,6
TB Clinic Sikar,74,6
Patwari Ka Bas,64,7
Kishorpura,63,3
Nangal,108,5
Balupura,61,6
Medha Ki Dhani,133,8
Lalasi,127,1
Rajpura,90,7
Chacheewad Chhota,176,5
NOTIONAL Gowati,170,6
Sanwalpura Tanwran,129,10
Khiroti,67,1
Mawanda Kla,120,1
NOTIONAL Dujod,74,10
NOTIONAL Bhadwari,71,6
Mangrasee,189,7
Bhojpur,117,5
Gokul Ka Bas,120,1
Losal,160,8
NOTIONAL Suthoth,185,6
NOTIONAL Dokan,85,2
Bega Ki Nangal,118,5
NOTIONAL Rorubari,156,9
Bharupura,127,5
Mrdatu Chhoti,142,7
Athwas,50,3
Javan Singh Ki Dhani,57,8
Mawanda Khurd,166,8
Bhoya,143,1
Bajor,188,4
Kotri Luharwas,110,8
Hameerpura Kla,138,5
Bathoth,50,9
udan sari,132,10
Banathala,165,2
Rooppura,168,4
Ghata,135,6
Shivsinghpura,182,8
Bhagoo Mil Ka Bas,63,2
Fatehpura,70,5
Bheema,85,4
NOTIONAL Bay,140,1
Ramsingh Pura,165,5
Shekhiwas,109,4
Karad,124,3
Burja Ki Dhani,136,4
Sakrai,199,4
NOTIONAL Paritampuri,53,6
NOTIONAL Gungara,69,3
Balod Chhoti,149,3
Rajpura,157,9
Kolwa,84,1
Dholasaree,136,10
Paritampuri,78,2
NOTIONAL Jharali,99,4
Rao ki dhani,131,10
NOTIONAL Dasroli,97,2
Jeevansingh Ki Dhani,118,9
Roopawas,83,5
Balwar,148,1
Jalalpur,104,9
Sanwalpura,72,3
Ralawata,70,8
Paniharwas,113,5
Mohanpura,143,5
Ghana,55,10
Dhaadhan,93,5
Dugoli,96,5
Haripura,122,3
Hanspur,129,2
Gordhanpura,172,9
Madni,101,7
NOTIONAL Kirdoli,106,2
Jairampura,53,9
Savli,178,4
Chudala,95,3
Nadi Johdi,170,7
Pithalpuri,101,9
Bheenchri,123,6
Mothooka,83,1
Arniya,98,4
NOTIONAL Mangluna,160,4
Hardas Ka Bas,51,10
Lawand,178,3
Akwa,197,9
NOTIONAL Hanspur,185,4
Jojawarnagar,89,5
Karanpura,161,4
Godawas,187,8
Mordonga,115,2
Biharipur,114,2
Bhagwan Pura,156,2
Jugalpura,62,6
Sarwade,159,10
Khatushayamji,198,6
Singodara,76,5
Goariya,168,3
Bagdoda,139,5
Tajsar,148,8
Purohito Ka Bas,116,8
Blrampura,55,6
Sanwali,139,3
Bhareeja,172,9
RamNager,113,5
Dewas,147,8
Dharkabass,89,7
Bhooranpura,182,6
NOTIONAL Shishu,55,6
Shyampura,176,5
Gotra Thgelan,100,3
Batranau,72,10
Bhopatpura,77,2
Aspura,82,6
Nechwa,115,8
Sri Madhopur,77,9
Kalyanpura,108,4
Phootala,103,9
Jana,112,10
Dhani Chooroli,52,10
Nehro ki dhani,74,6
Nausal,101,8
Sakray,112,1
Dadiya,138,6
Hardayalpura,144,9
Ganwari,121,8
Tiwari Ka Bas,78,10
Raising Ki Dhani,118,3
Sola,62,10
Bhorado Ka Bas,169,4
Sewdara,85,6
Tarpura,98,8
Hardaka Wali,167,2
gudha kala,57,5
NOTIONAL Thoi,163,6
Jharali,86,2
Jaitpura,113,8
Garoda,116,2
Thorasi,116,3
Ganeshwar,136,8
Reengus,89,1
Nagwa,199,9
Khuri Bari,142,3
Anatpura,120,5
Barsinghpura,97,10
Baral,60,7
NOTIONAL Banuda,109,5
Khurampura,185,5
Swarooppura,181,2
Kasi Ka Bas,182,8
Phagalwa,103,6
Bhojmead,197,1
Trilokpura,96,3
Chainpura,90,8
dulhepura,188,2
Nehro Ki Dhani,193,8
Abhaypura,170,3
Rosawa,92,5
NOTIONAL Rasidpura,98,4
Beedasar,136,4
Mardatoo Bari,126,9
Chidasara,138,10
Kochor,180,4
Khanipura,75,8
Neemki,171,3
Devipura,91,4
Fadanpura,163,1
Ghirania Bada,73,5
Ramsisar,115,2
Loharwara,185,3
Kariro Ki Dhani,108,9
Sherpura,106,7
Kerawali,81,6
Kirdoli,182,5
Thadi,172,9
NOTIONAL Mau,121,10
NOTIONAL Danta,149,1
Nani,65,5
Bhgasara,146,2
Bavdi,148,6
Kundalpura,71,4
Rol Sahabsar,117,9
NOTIONAL Tatera,67,7
NOTIONAL Jurathara,77,10
Thoi,102,8
Roroo Chhoti,50,1
NOTIONAL Jasraser,137,3
Khejar wala Johda,130,6
Nalot,108,10
Hanuman Nagar,50,7
Kanchanpur,102,8
Udansar,137,6
Gudarwas,78,6
Pipliya Nagar,64,1
Khatundra,127,3
Nangal Bhim,169,6
Gadreta,189,4
Kankra,140,8
Prithvipura,76,3
Kothari,52,1
Theemoli,162,2
Govindpura,53,10
Nabipura,60,5
Hatyaj,103,10
Ganeri,114,2
Motlawas,86,3
Bheelunda,97,9
Ranoli,154,3
Kanwarpura,137,1
Harsh,71,5
Deesnaoun,129,5
NOTIONAL Sangrwa,195,5
Balaji Nagar,127,8
Kharsadu,77,8
Jetpura,61,8
Kishanpura,140,9
Mundru,182,7
Kushal Pura,66,3
Tiwari Ki dhani N2,189,2
Guhala,123,1
Kumasjatan,124,5
NOTIONAL Jeelo,147,8
Ratanpura,95,5
NOTIONAL Cheeplata,151,8
Khandelsar,90,4
Bodlasi,112,7
Kalyanpura,68,10
NOTIONAL Ganeri,50,8
Kumas Jageer,120,2
Kedi,109,1
khusalpura,164,8
Chandpura,178,4
NOTIONAL Palri,180,9
Chudoli,101,4
Dakali,65,6
NOTIONAL Chala,145,5
Rasidpura,165,7
NOTIONAL Lisariya,149,8
Bidoli,136,10
Beri,155,9
Palwas,63,7
Gordhanpura,96,2
Sargoth,145,9
Dubda Mokalwas,173,5
Sanwaloda Ladkhani,161,3
Kishanpura,137,9
Shimli,124,1
Antri,183,10
Hasampur,183,8
Manda Surera,105,2
NOTIONAL Kotri Luharwas,78,1
Nangali,186,6
GUMANA KA BASS,177,3
Phagtavsingh wali,148,8
Baduser,171,7
Jyotiba Nagar,80,6
Kanwat,63,9
Kheerwa,165,5
Jeenmata,69,3
NOTIONAL Panlawa,176,8
Jugalpura,190,7
Jhajhar,121,10
Hathora,120,9
Swed Badi,187,6
Ghassu,184,4
Roopgarh May Rehat,146,4
Kanwar Ki Nangal,142,3
Bankayawali Johari,158,4
Alakhpura Godaran,59,10
Rorubari,51,1
Palasara,170,5
Kundala,120,5
Malakali,154,7
Hameerpura,190,5
Bharni,165,8
NOTIONAL Garhbhopaji,139,2
Gogawas,168,8
NOTIONAL Hasampur,129,8
Neem Ka Thana,72,7
NOTIONAL Sargoth,126,7
Ramsinghpura,179,7
Jatwas,113,4
Choodi Miyann,175,7
Dangi Ka Bas,125,4
Udaipura,170,1
NOTIONAL Blara,96,3
NOTIONAL Rol Sahabsar,103,3
Bhadwari,181,9
NOTIONAL Fatehpura,63,7
Shobh Kalakhet,124,9
Mudiyawas,73,10
Surani,104,3
Dadli,122,9
Bherupura Jagir,176,5
Akhepura,116,4
NOTIONAL Khachriyawas,174,9
Jitala,117,1
Kanwarpura,198,7
Mahawa,126,9
Ramjeepura,83,3
Jasoopura,126,2
Bhagova,199,4
Raipur Jagir,133,1
Jhingar Chotti,73,3
Haripura,154,6
Swed Choti,57,6
Kalakota,193,9
Chak Mitai,161,4
NOTIONAL Bibipur Bara,196,7
Bassi,88,2
Shehot Badi,112,10
Guwar,140,7
NOTIONAL Jajod,114,9
NOTIONAL Kheerwa,60,5
Laxmangarh,187,9
Kheri Radan,168,10
NOTIONAL Jeenmata,154,1
Peepli,194,4
NOTIONAL Mundru,187,3
Thehat,194,9
Tapilya,140,5
NOTIONAL Harsawabara,92,9
Rulyana Mali,73,5
Narsra,131,6
Rampura,161,6
Bagri,187,3
Mukandpura,102,9
Malkheda,94,1
NOTIONAL Divrala,139,7
Khajuriya,115,3
Aagwadi,104,6
Dantru,135,7
City Dispensary No 2 Sikar,132,6
Sundarpura,166,2
Amarpura,98,2
Losal Choti,177,3
Binjasi,116,6
NOTIONAL Kasli,109,5
Ghadel Nagar,153,4
Fakerpura,80,2
Ramu Ka Bass,69,10
NOTIONAL Theekariya,63,10
Sanwalpur Shekhawatan,136,10
Ramchandrawali,128,4
Jeoli,125,8
Khori Brahmanan,75,8
Badhadar,123,8
Mangluna,111,5
Jalund,80,1
Srimadhopur Rural,66,10
Deenwa Jatan,199,10
NOTIONAL Jajod,154,5
Sulyawas,122,7
NOTIONAL Nagal,127,4
Dhani Gumansingh,124,8
Deepawas,94,2
NOTIONAL Mandota,198,6
Sigdola Bara,173,3
Geedawala,68,1
Khora,129,7
NOTIONAL Khatushayamji,89,4
Gudha,134,2
Shivnagar,125,4
Ladhana,102,5
Dantaramgarh,139,1
Mothyivali,92,3
NOTIONAL Khud,159,7
Chhaja Ki Nangal,158,6
Bubana,139,4
Dheerajpura,93,10
Paroda,170,4
NOTIONAL Sutod,106,9
Kotri Dhaylan,180,8
Bhairupura,101,4
Dulehpura,142,9
Hanuman Nagar,116,7
Khandela,142,9
Bhagega,166,7
NOTIONAL Sri Madhopur,111,10
Aabhawas,110,3
NOTIONAL Ramgarh Sethan,117,3
Lisariya,123,8
Lakhipura,89,10
Garhbhopaji,184,1
Rulyanipathi,175,2
Kotra,195,9
Sujawas,124,8
Natedwas,79,6
Pira wali,124,8
Mokalwas,93,4
NOTIONAL Shyamgarh,130,8
Jasraser,126,10
Neemkathana Grameen,137,3
Purana Bas,188,10
Dhabawali,93,4
Laxman Ka Was,165,9
Sothaliya,135,2
Neemod,105,9
Khedi Datujala,105,1
Alakhpura Bogan,198,5
Raipura,168,10
Simarla,194,1
Heerwas,191,1
Garinda,106,10
Meeran,148,3
Dariba,108,1
Dheengpur,100,4
Kali Kheda,188,6
Gumanpura,137,3
Deenwa Ladkhani,163,1
Koliwala,74,1
Jugrajpura,83,3
Ragunathgarh,80,9
NOTIONAL Biraniya,75,1
Neem Ka Thana,57,10
Gokulpura,92,1
Charanbas Nada,173,9
NOTIONAL Dabla,72,8
Hood,166,1
Banuda,197,1
Bhookron Ka Bas,77,4
Khachriyawas,56,7
Bhojasar Bada,130,1
Chomu Purohitan,199,8
Umara,112,6
Rajputo Ki Dhani,139,10
Dabla,189,6
NOTIONAL Mawanda Khurd,94,3
Lapuwa,194,9
Blara,141,10
NOTIONAL Dhaadhan,153,6
Bihar,194,8
Rookansar,73,5
Ramsingh Ki Dhani,117,7
Lamba Ki Dhani,53,4
Ranipura,185,2
Kasli,152,3
Rulana,102,3
NOTIONAL Rewasa Tirth,144,5
NOTIONAL Khandela,196,7
Raipur Jagir,163,2
Khatipura,80,8
Dhani Chatardas,67,1
Rooppura Udalvas,172,2
NOTIONAL Dalpat Pura,159,2
Vijaypura,176,2
Rewasa Tirth,78,5
Ramlyawas,90,9
NOTIONAL Phagalwa,145,9
Hirwala,159,3
NOTIONAL Ranoli,89,6
Kheenwasar,199,8
NOTIONAL Laxmangarh,155,3
Sukhsingh Ka Bas,115,7
Danta,87,5
Nayabas,186,5
Doodwa,119,8
Makari,125,8
Saidala Bhagwanpura,118,9
Syoram Ka Bas,105,8
Bau,127,6
Ajeetgarh,58,9
Tiro Ki Bari,97,2
Sanwaloda Prohitan,83,4
Jeelo,110,6
Chainpura,98,2
Mandota,110,9
Sirohi,138,1
Ghatamdaswali,55,1
Navlai,167,10
NOTIONAL Roopgarh May Rehat,70,2
Toda,149,4
Sangrwa,118,9
Narsingh Puri,66,3
Bosana,196,10
Chhapar,188,4
NOTIONAL Tihawali,111,8
Tashar Chhoti,53,3
Nojee Ki Dhani,169,2
Dadunda,113,10
Basari Khurd,113,7
Bay,56,2
Sewa,154,2
Phamnala,98,3
Bhagatpura,125,10
Poladas,198,2
Rampura Thoi,150,1
Dab Panora,77,3
Mawanda RS,176,6
Bairas,66,9
NOTIONAL Beswa,68,8
Hudera,122,3
Ajabpura,60,6
Dujod,84,10
Balana Johda,54,5
Sujana,179,9
NOTIONAL Kolira,117,4
Kerpura,158,3
Kachreda,190,3
Jerthi,174,3
Samee,179,5
Bhuma Bada,173,10
Govindsingh wali,65,1
Karadka,134,3
Bathoth,144,2
Dhani Ahiran,182,5
Ballupura,147,5
Bheerana,112,3
NOTIONAL Kudan,130,10
Karnga Bada,70,10
Dudhwa,101,9
Alaphsar,188,9
Khadra,134,8
NOTIONAL Patan,79,2
City Dispensary No 1 Sikar,69,4
Tarpura,148,9
Balod Bhakhra,174,5
Swami Ki Dhani,73,7
Mandela Bara,55,10
Ajeetpura,163,6
Malnagar,164,1
Madho Ka Bas,87,2
Parasrampura,78,4
SHIV NAGAR,77,7
Mandusiya,124,1
NOTIONAL Bhagoth,136,5
Dehrajori Wali,123,7
Kirdoli Bari,65,7
Govindpura,108,9
Sanglia,127,3
Ladia,160,7
Toda,182,5
NOTIONAL Raipur Patan,134,9
Nimeda,68,1
NOTIONAL Fatehpur,53,2
Khuri Chhoti,162,1
Sihori,127,8
Modyadi,116,10
Khori Dungar,135,3
Hanumanpura,167,6
Rulyani,199,3
Nare,126,1
Charanwas,119,3
Dalmas,141,3
Rajas,88,10
Mandoli,189,8
Beerodi Bari,122,2
Goriya Chhota,175,1
Dhodh,121,4
Fatehpura Bhomiya,196,6
Koor Bara,160,3
Dotasara,117,6
Deepawas,157,10
NOTIONAL Jaleu,93,9
Seepur,135,9
