Health Facility Name,Number_Of_Beds,Rating
Basauli,160,5
Urban Primary Health Center,156,2
Kotwa Dham,141,7
Meduwa,103,10
Mansara,151,9
Nakta,50,2
Khadehara,97,10
Lakshbar,129,1
Dadra,113,5
Katiyara,182,5
Barauli Malik,116,6
PPC Masauli,196,2
Basa,194,7
Adra,199,4
Tikaria,122,1
Surwari,141,1
Kisundaspur,86,2
Ghunghter,110,5
Sithaur,162,6
Dharauli,68,3
Bibipur,184,2
Jasanwara,155,3
NPHC Bhikharpur,55,7
Shahpur,136,7
Bhikhra,152,3
Dhadhauri,193,7
Ahmadpur,106,1
Nawlakarsanda,58,8
Chirra,150,7
Masuli,133,7
Bhairampur,165,6
Jeewal,72,1
Mujeebpur,191,2
NPHC Kotwadham,114,10
Sharefabad,129,10
Khaira,142,10
Adra,153,7
Madras,168,6
Shivnam,149,9
Niraumau,165,5
Chandauli,190,6
Mithwara,99,6
Rasauli,50,10
Shailikiratpur,140,1
NPHC Sharifabad,103,6
NPHC Subeha,162,6
Muradabad,84,10
Gaisapur,144,7
Lalpur Rajpur,148,2
Dudi,121,1
Israuli,155,2
Baddoopur,110,9
Ashona,58,8
Rariya,193,8
Newala karsanda,169,9
Kotwakala,136,5
Haidarganj,196,8
Ahmadpur,137,7
Harchandpur,80,7
Bariya,77,4
Julia Banaras,169,8
Bahrauli,98,2
Birauliya,58,4
Sheshpur Damodar,119,10
Meerpur,72,1
Barua,70,1
Mahulara,156,2
PHC-Dariyabad,113,2
Kasba,52,1
Saleynagar,93,4
Umrapur,153,8
Kithaiyya,77,6
Gaganpur Sansara,116,6
Kasba,128,9
Dilauna,177,8
Kandwapur,129,4
Makanpur,80,3
Athara,56,2
Kiwadi,169,10
Gerawa,198,6
Yakootganj,136,6
Sehali,76,3
Kola,139,7
Asandhara,115,9
Kodar,116,6
Ghunghtair 1,134,8
Chamrauli,63,3
Gaura,102,2
Medhiya,173,7
Athra,168,3
Majeetha,190,3
Bhitaulikala,177,7
Balchht,178,6
Maholia,150,7
NPHC Motikpur,95,6
Surjanpur,178,5
Amilhara,96,2
Gauragajni,140,6
Kasba Ichauli 2,58,6
Aurangabad,162,5
Naharwal,94,9
Tikra,198,4
Nardhi,139,3
Jauri Nawbasta,51,3
Rampur Bhawanipur,158,10
Chhandwal,196,2
Nindura,172,6
Hajratpur,183,8
Rampur Katra,165,6
NPHC Sarai Barai,90,8
Sadullapur,148,1
Chandwal,105,5
Dahila,60,2
NPHC Makanpur,134,7
Kursi,148,3
Shafipur,166,2
Chhilgawa,98,7
Ismailpur,168,3
Kushfar,135,10
Dhanauli,191,9
Preewa,101,7
Asandra,54,9
NPHC Khajuri,79,8
Ranimau,125,1
Lakhupur,181,3
Kithaiya,166,3
Ansari,196,4
NPHC Fatehganj,118,6
Gadhi Rakhmau,126,9
Teliyani,147,9
Raria,82,8
Ghura,139,5
Saindar,170,9
Udhuli,139,7
Lodhipur,94,9
Kewlapur,118,2
Bhanmau,70,1
Mauthari,102,7
NPHC Safdarganj,198,10
Sihali,115,8
Vishunpur,189,9
Banjariya,142,6
Semrawa,166,6
Bhavanipur,161,9
Masoodpur,177,6
Suratganj,174,5
Suratganj,138,9
Sharifabad,88,6
Chamrauli,64,1
PHC Dewa,143,7
Shahpur Vaksolia,61,4
Aladadpur,197,6
Khutauli,65,7
Kaboolpur,52,10
Lahi,167,5
Sarahi,101,3
Kajiyapur,169,9
Surjanpur,169,3
Pecharua,94,1
Amar Sanda,149,7
Jakariya,127,6
Khewali,51,9
Kotwa Sadak,75,10
Godiya,119,10
Manjhara,141,4
Kheta Sarai,192,10
Beer Kithai,123,7
Nyochana,112,10
Belhara,87,3
Tandwa,110,6
Sipahidapatpur,155,9
Dhekhpur,84,10
Dewa CHC,164,6
Thalwara,146,1
Majhara,133,1
Khajuriha,98,10
Tindola,176,1
Shekpur,135,4
Hadha,113,8
Darhara,158,6
Para,157,9
Siddhaur- Asandhara,74,7
Badeedeh,99,10
NPHC Mohd.Pur Khala,165,6
Gangapur Sansara,126,3
PHC-Harakh,99,5
Barauli,142,8
Ramnagar,172,5
Dhaukhariya,185,1
Sarai Barai,95,7
Ghaghsi,161,3
CHC Fatehpur,90,3
Galamau,113,10
Para Khandauli,183,9
Aalapur,170,8
Bhatuamau,116,4
Belkhara,50,4
Lalpur Guman,111,7
Belkhara,133,9
NPHC Belkhara,197,6
Gangauli,112,7
Banwa,118,4
Belhari,164,9
Aurangabad,88,4
Renduwa Palhri,93,4
Bahruli,139,4
Bhyra,195,10
Ladharapur,129,2
Sarai Meer,181,7
fatepur,96,4
Rotigawn,177,9
Husainabad,160,6
Trilokpur,98,10
Dhadhuri,101,5
Karpiya,92,2
Dhema,97,9
Nawabpur,165,3
Jasmanda,189,5
Fattapur,193,4
Kabulpur,85,10
Naipura,139,3
Tediya,153,6
Sraimeer,184,9
Meerapur,58,2
Kayampur,170,3
manorath pur,196,3
Chulha Banni,101,1
NPHC Tera,143,9
Majhgawa Sharif,133,6
PHC-Ghunghtair,53,5
Tikarhuwa,69,6
Sadrudeenpur,130,6
NPHC Trilokpur,125,4
Dhanauli,130,2
Tikra,175,5
Ranimau,157,3
Maanpur,62,5
Tikapur,143,4
Gadiya,106,5
Khanwaha,133,9
Jewari Naubasta,193,9
NPHC Kheta Sarai,65,9
Lakhupur,101,5
Safdarganj,162,2
Pokhara,119,1
NPHC Ramnagar,109,8
Khalsapur,146,3
Raharmau,114,5
Dhamsad,80,5
Pokhra,172,10
Pariwa,189,2
Dnapur Shukl,193,5
Saidar,183,3
Raniganj,197,7
Sursanda,147,7
Manjhar,55,1
Saray barai,99,2
Asohana,192,3
Kusphar,80,2
Amolikala,93,3
Mohanpur,159,10
Siddhaur,140,8
Chiyara,79,1
Muderi,102,10
Turkani,60,2
Mati,116,3
NPHC Tikaraman,50,8
NPHC Dahila,145,8
Kuda,66,6
Sarsawa,155,7
Belhari,73,9
Sethmau,121,2
Patulavi,133,10
Bajgahnee,85,1
NPHC Saraigop,95,6
CHC R.S.Ghat,112,1
NPHC Patkanpurwa,134,10
Khijna,68,10
Dundpur,119,10
Kila Belhari,188,1
Devgahna,86,8
Masauli,132,5
Kurkhila,122,5
Gajipur 1,89,3
Suryapur Khapraila,108,9
Motikpur,174,4
Anoopganj,89,9
Durgapur Naubasta,102,9
Ghunghtair,126,4
Kamela,161,5
Shahpur Baksoliya,68,4
NPHC Sadrudeenpur,122,1
Palhari,115,7
PHC-Trivediganj,106,3
Suryapur,109,4
NPHC Kotwa Sadak,96,7
Kurauli,175,2
Pratapganj,54,6
Sraigopi,197,7
NPHC Gobraha,140,2
Barahiya,139,3
Kasba ichauli 2,147,3
Salehnagar,139,2
Badhaideeh,66,2
Bhanpur,78,7
Sisauna,119,5
Jargawa,168,7
Bhikharpur,153,2
Ahirgawn,140,2
Sandauli,199,8
Shabpur,155,5
NPHC Belhara,124,2
Srwan Tiktha,110,8
Mighara,129,9
Trilokpur-1,172,5
Kudha,161,4
Khijirpur,116,5
Usmaanpur,140,8
Belhara,61,7
Kopwa,165,5
Bahuta,145,9
Kasba Ichauli 1,105,2
Hakkami,171,10
Amhiya,161,1
Tikaitnagar,109,6
Subeha,168,4
Bhikharpur,153,5
Aseni,187,8
Dedhia,144,7
Aliyabad,178,10
PHC-Badagawn,108,10
Dulhabanni,80,1
Tikrahuwa,136,5
Meennagar,73,7
Manodharpur,112,1
Vijhala,192,9
Haiderganj,189,4
Sailak Jalalpur,162,3
NPHC Majhgawa Sharif,92,2
Sirsa,58,1
Hkami,117,10
Surypur Khapraila,177,4
Sadullapur,118,9
Bindaura,140,3
Markamau,92,1
Cheda,137,10
Dulhdepur,126,4
Mailaraiganj,166,5
Malookpur,118,4
Gadhia,143,4
Alapur,124,10
Mediya,85,10
Chidwari,194,6
Ujarwara,122,1
Bajgahni,56,2
Asdamau,127,2
Khijna 1,68,8
Kanwa,163,6
PHC-Jatabarauli,50,3
Ganeshpur,54,7
Ramnagar-Badosarai,122,5
Bhagauli,66,10
Chandura,158,7
Maraucha,113,2
Meerpur,97,2
Rahimabad,114,7
Hasnapur,164,1
Mohd.pur Khala,195,5
Maulabad,126,4
Baburigawan,84,4
Banarki,173,10
District Male Hospital Barabanki,112,8
NPHC Udwatpur,163,3
Zameen Husainabad,175,8
Tiwaripur,192,10
CHC Haidergarh,187,1
Badosarai,159,1
Makanpur,68,6
NPHC Cheda,180,6
Jagsaida,73,4
Tikaria,101,1
Madanpur,100,4
NPHC Mittai,137,9
Payarepur Saraiya,112,1
Gwari,173,4
Bichhalaka,177,5
Dahila,112,3
Ukhadi,188,6
Khashipur,147,10
Shaili Kirat,153,8
Sipahidayatpur,157,1
Khajuri,196,2
Achkamau,188,9
NPHC Bhitauli,62,7
Katurikala,160,6
Barethi,179,1
Rasoolpur,150,3
Baragawn,99,10
Kursi,91,3
Mahmudabad,191,10
Rasoolpur,191,3
Fatehganj,183,1
Mohsand,80,7
Sanuli,168,4
Sahadatganj,170,7
Deeha,139,6
Lalganj,199,10
NPHC Ramuapur,137,8
HARAKH SATRIKH,74,10
Kasbaichuliya-1,138,4
Banki,166,3
Ghunghtair 2,168,10
NPHC Udhauli,111,6
Rohna Meerapur,192,10
Udhauli,63,2
Shespur Damodar,95,7
NPHC Thalwara,93,3
Kotwadham,144,7
Shahri Islampur,70,3
NPHC Dadra,181,4
Barawa,78,2
Tanda,60,8
Badagawn,171,6
Mahadewa,51,1
Ibrahimabad,77,10
Daniyaalpur,122,1
Darawan,115,9
Hasanpur,187,3
Bahadurpur,82,9
PHC-Tikaitnagar,180,1
Bhayara,187,4
Aladatpur,115,7
Silauta,163,6
Bhitauli,54,1
Jahagirabad,57,2
Baraiya,51,9
Sarai Parsanda,124,2
Rasoolpur,120,1
Baddupur,67,2
Sharifabad,130,5
Jhanjhara,71,3
Saidkhanpur,84,3
Chaubisi,189,4
Izzatpur,167,2
Chilgawa,199,9
Gobraha,104,6
Semrawa,84,10
Mailaraigaj,87,4
Chauri,198,1
Pyarepur Sraiya,64,4
Kathurikala,166,5
Shivnaam,95,6
Jargawa,188,6
Yakutganj,139,10
Sarayn netamau,193,3
Mansara,127,6
CHC Badagawn,168,5
Mohiuddinpur,78,2
Safipur,154,3
Kamoli,130,6
Saraigop,50,4
Vatiya,157,8
CHC Suratganj,177,3
Sarsawan,77,7
Garri,140,8
Tikariya,194,5
Bhanauli,178,10
CHC Sirauli Gauspur,78,2
Ukhdi,199,6
Raghavpur,150,9
Qyampur,169,6
NPHC Sudhiamau,195,4
Murarpur,118,3
Kirsiya,184,8
Jagsenda,177,9
Hetmapur,73,7
Jeewal,183,9
Badel,99,2
Mau,54,5
Malauli,182,4
Tikariya,163,8
PHC Siddhaur,79,9
Dewa-Tindola,59,8
Kursi 2,120,1
Kotwa Kala,198,7
Patulki,145,3
Chakiya,153,10
Hazratpur,194,6
Bainatikahar,50,4
Medua,106,10
Teergawn,150,5
Khijna,125,5
Devkaliya,185,4
Drawa,187,10
Mirzapur,187,5
Dhausar,94,4
Baburegawn,129,9
Tikaitganj,189,10
Khutauli,87,4
Deokalia,101,4
Sarai Netamau,164,9
Ramuapur,177,4
Bhaisuriya,104,8
Lahi,147,5
Dodi,127,4
Sarai Dunauli,196,5
NPHC Mahadewa,133,5
Motikpur,194,8
NPHC Shahawar,55,6
Sarahi,92,7
Sanauli,50,8
Bhadrash,71,9
Bhaisuriya,145,3
Sirkona,53,9
Anwari,84,10
Vainatekarhar,174,10
NPHC Saidanpur,183,10
Zameen Husenabad,153,2
Bichhla,81,7
Sardaha,152,5
Dashrathpur,197,5
Sudiyamau,180,9
Silhaur,64,1
Ranjeetpur,193,6
Saidanpur,83,3
Fataapur Kala,126,7
Kanhipur,103,10
Raghwapur,132,10
District Women Hospital Barabanki,85,8
Bhagauli,63,4
Trivediganj F.P,50,10
Birauli,94,10
Chirra,61,8
Gehndwal,197,4
watiya,86,6
NPHC kursi,63,6
Chhidwahi,69,10
Khetasrai,179,1
Kintoor,172,8
Bhatuwamau,58,6
Parvatpur,171,6
Meen Nagar,58,2
Krisiya,125,7
Dewgawn,94,8
Mittai,141,7
Gulriha,153,10
Sarwan Tikha,161,4
Behta,156,8
Ganhari,62,1
Rasoolpanah,136,5
Basauli,80,3
Urban Primary Health Center,110,1
Kotwa Dham,137,8
Meduwa,88,9
Mansara,123,3
Nakta,132,4
Khadehara,53,2
Lakshbar,193,5
Dadra,188,3
Katiyara,186,3
Barauli Malik,59,1
PPC Masauli,104,9
Basa,191,9
Adra,65,6
Tikaria,142,4
Surwari,184,6
Kisundaspur,169,1
Ghunghter,127,9
Sithaur,147,10
Dharauli,192,5
Bibipur,114,6
Jasanwara,197,5
NPHC Bhikharpur,150,5
Shahpur,173,2
Bhikhra,167,2
Dhadhauri,188,1
Ahmadpur,177,5
Nawlakarsanda,78,6
Chirra,91,4
Masuli,65,9
Bhairampur,171,9
Jeewal,105,6
Mujeebpur,112,4
NPHC Kotwadham,166,1
Sharefabad,61,1
Khaira,74,9
Adra,197,9
Madras,176,1
Shivnam,159,4
Niraumau,52,6
Chandauli,178,1
Mithwara,173,6
Rasauli,50,1
Shailikiratpur,113,2
NPHC Sharifabad,129,8
NPHC Subeha,195,5
Muradabad,77,5
Gaisapur,191,9
Lalpur Rajpur,144,6
Dudi,100,8
Israuli,180,2
Baddoopur,72,9
Ashona,186,9
Rariya,146,9
Newala karsanda,164,1
Kotwakala,72,6
Haidarganj,102,2
Ahmadpur,105,1
Harchandpur,194,7
Bariya,86,9
Julia Banaras,171,7
Bahrauli,174,9
Birauliya,133,2
Sheshpur Damodar,88,10
Meerpur,177,7
Barua,129,6
Mahulara,131,10
PHC-Dariyabad,94,9
Kasba,168,7
Saleynagar,180,9
Umrapur,80,9
Kithaiyya,126,2
Gaganpur Sansara,175,4
Kasba,50,2
Dilauna,53,10
Kandwapur,63,3
Makanpur,132,4
Athara,166,9
Kiwadi,55,3
Gerawa,191,10
Yakootganj,174,5
Sehali,104,8
Kola,101,4
Asandhara,99,5
Kodar,86,7
Ghunghtair 1,96,6
Chamrauli,66,10
Gaura,196,10
Medhiya,58,10
Athra,60,6
Majeetha,55,10
Bhitaulikala,152,3
Balchht,101,6
Maholia,55,6
NPHC Motikpur,114,8
Surjanpur,51,9
Amilhara,132,10
Gauragajni,76,9
Kasba Ichauli 2,51,4
Aurangabad,129,1
Naharwal,181,9
Tikra,177,3
Nardhi,145,8
Jauri Nawbasta,163,7
Rampur Bhawanipur,117,1
Chhandwal,182,1
Nindura,161,8
Hajratpur,92,4
Rampur Katra,150,6
NPHC Sarai Barai,183,2
Sadullapur,94,9
Chandwal,115,10
Dahila,158,8
NPHC Makanpur,195,10
Kursi,142,10
Shafipur,190,6
Chhilgawa,85,1
Ismailpur,191,9
Kushfar,120,9
Dhanauli,98,7
Preewa,170,10
Asandra,120,5
NPHC Khajuri,64,10
Ranimau,103,10
Lakhupur,58,6
Kithaiya,181,8
Ansari,199,5
NPHC Fatehganj,105,5
Gadhi Rakhmau,174,8
Teliyani,185,10
Raria,111,4
Ghura,193,3
Saindar,164,6
Udhuli,54,2
Lodhipur,135,4
Kewlapur,185,1
Bhanmau,197,1
Mauthari,77,6
NPHC Safdarganj,151,7
Sihali,107,3
Vishunpur,105,3
Banjariya,60,1
Semrawa,93,4
Bhavanipur,87,2
Masoodpur,154,9
Suratganj,199,5
Suratganj,72,6
Sharifabad,85,5
Chamrauli,71,7
PHC Dewa,109,4
Shahpur Vaksolia,109,4
Aladadpur,77,5
Khutauli,140,4
Kaboolpur,174,2
Lahi,157,10
Sarahi,144,10
Kajiyapur,87,8
Surjanpur,100,8
Pecharua,178,2
Amar Sanda,91,6
Jakariya,92,4
Khewali,178,2
Kotwa Sadak,118,3
Godiya,60,2
Manjhara,86,4
Kheta Sarai,136,3
Beer Kithai,139,8
Nyochana,130,3
Belhara,194,2
Tandwa,178,2
Sipahidapatpur,54,7
Dhekhpur,81,4
Dewa CHC,53,5
Thalwara,186,3
Majhara,130,5
Khajuriha,131,4
Tindola,61,4
Shekpur,57,8
Hadha,169,10
Darhara,66,9
Para,183,2
Siddhaur- Asandhara,50,8
Badeedeh,120,3
NPHC Mohd.Pur Khala,79,3
Gangapur Sansara,104,9
PHC-Harakh,189,7
Barauli,125,6
Ramnagar,56,8
Dhaukhariya,199,6
Sarai Barai,55,9
Ghaghsi,149,6
CHC Fatehpur,154,10
Galamau,140,2
Para Khandauli,52,1
Aalapur,116,2
Bhatuamau,164,7
Belkhara,80,10
Lalpur Guman,77,7
Belkhara,110,10
NPHC Belkhara,176,6
Gangauli,91,4
Banwa,85,5
Belhari,124,2
Aurangabad,107,4
Renduwa Palhri,73,6
Bahruli,95,10
Bhyra,83,9
Ladharapur,123,8
Sarai Meer,106,8
fatepur,131,7
Rotigawn,168,9
Husainabad,87,1
Trilokpur,136,8
Dhadhuri,51,3
Karpiya,121,10
Dhema,103,1
Nawabpur,151,6
Jasmanda,66,6
Fattapur,158,9
Kabulpur,79,10
Naipura,133,4
Tediya,69,6
Sraimeer,67,10
Meerapur,143,5
Kayampur,128,7
manorath pur,163,4
Chulha Banni,51,4
NPHC Tera,172,2
Majhgawa Sharif,66,7
PHC-Ghunghtair,128,5
Tikarhuwa,138,4
Sadrudeenpur,149,10
NPHC Trilokpur,192,9
Dhanauli,168,1
Tikra,127,9
Ranimau,130,3
Maanpur,157,8
Tikapur,126,2
Gadiya,187,1
Khanwaha,111,10
Jewari Naubasta,126,7
NPHC Kheta Sarai,196,3
Lakhupur,70,9
Safdarganj,197,10
Pokhara,174,3
NPHC Ramnagar,61,9
Khalsapur,159,4
Raharmau,145,9
Dhamsad,125,7
Pokhra,157,2
Pariwa,187,4
Dnapur Shukl,59,9
Saidar,137,7
Raniganj,169,6
Sursanda,76,9
Manjhar,172,3
Saray barai,116,6
Asohana,187,1
Kusphar,70,9
Amolikala,171,1
Mohanpur,153,4
Siddhaur,155,2
Chiyara,107,5
Muderi,154,2
Turkani,103,3
Mati,194,4
NPHC Tikaraman,188,4
NPHC Dahila,199,10
Kuda,138,7
Sarsawa,171,10
Belhari,157,4
Sethmau,140,5
Patulavi,182,7
Bajgahnee,181,1
NPHC Saraigop,180,2
CHC R.S.Ghat,76,6
NPHC Patkanpurwa,189,10
Khijna,130,7
Dundpur,82,6
Kila Belhari,134,1
Devgahna,54,8
Masauli,53,4
Kurkhila,126,4
Gajipur 1,179,9
Suryapur Khapraila,127,2
Motikpur,68,9
Anoopganj,57,3
Durgapur Naubasta,54,3
Ghunghtair,80,8
Kamela,117,4
Shahpur Baksoliya,199,7
NPHC Sadrudeenpur,99,9
Palhari,129,4
PHC-Trivediganj,51,5
Suryapur,194,5
NPHC Kotwa Sadak,182,10
Kurauli,63,8
Pratapganj,198,1
Sraigopi,91,8
NPHC Gobraha,178,8
Barahiya,110,8
Kasba ichauli 2,182,9
Salehnagar,145,1
Badhaideeh,198,10
Bhanpur,140,2
Sisauna,170,4
Jargawa,177,4
Bhikharpur,157,3
Ahirgawn,127,10
Sandauli,75,1
Shabpur,86,8
NPHC Belhara,168,6
Srwan Tiktha,81,1
Mighara,62,1
Trilokpur-1,184,2
Kudha,166,9
Khijirpur,176,5
Usmaanpur,136,9
Belhara,150,6
Kopwa,78,3
Bahuta,194,5
Kasba Ichauli 1,90,3
Hakkami,95,5
Amhiya,81,4
Tikaitnagar,98,4
Subeha,161,8
Bhikharpur,160,2
Aseni,198,8
Dedhia,68,9
Aliyabad,89,3
PHC-Badagawn,166,7
Dulhabanni,167,9
Tikrahuwa,155,6
Meennagar,196,9
Manodharpur,133,7
Vijhala,186,10
Haiderganj,105,2
Sailak Jalalpur,63,4
NPHC Majhgawa Sharif,56,1
Sirsa,50,1
Hkami,173,7
Surypur Khapraila,121,1
Sadullapur,123,5
Bindaura,180,1
Markamau,161,5
Cheda,111,4
Dulhdepur,139,1
Mailaraiganj,57,1
Malookpur,174,7
Gadhia,178,5
Alapur,150,5
Mediya,167,3
Chidwari,53,8
Ujarwara,68,5
Bajgahni,128,2
Asdamau,129,6
Khijna 1,143,7
Kanwa,139,8
PHC-Jatabarauli,137,4
Ganeshpur,78,4
Ramnagar-Badosarai,52,4
Bhagauli,160,9
Chandura,187,1
Maraucha,153,5
Meerpur,71,7
Rahimabad,152,10
Hasnapur,175,6
Mohd.pur Khala,92,10
Maulabad,58,1
Baburigawan,73,4
Banarki,152,4
District Male Hospital Barabanki,194,2
NPHC Udwatpur,166,9
Zameen Husainabad,159,1
Tiwaripur,185,2
CHC Haidergarh,172,2
Badosarai,165,10
Makanpur,107,8
NPHC Cheda,149,4
Jagsaida,142,2
Tikaria,93,6
Madanpur,124,2
NPHC Mittai,195,1
Payarepur Saraiya,66,1
Gwari,147,4
Bichhalaka,83,2
Dahila,70,3
Ukhadi,92,3
Khashipur,191,9
Shaili Kirat,143,4
Sipahidayatpur,196,10
Khajuri,191,10
Achkamau,79,9
NPHC Bhitauli,65,8
Katurikala,101,4
Barethi,183,9
Rasoolpur,146,9
Baragawn,144,9
Kursi,99,3
Mahmudabad,96,4
Rasoolpur,182,5
Fatehganj,131,6
Mohsand,190,1
Sanuli,131,5
Sahadatganj,90,5
Deeha,61,1
Lalganj,166,3
NPHC Ramuapur,69,10
HARAKH SATRIKH,100,3
Kasbaichuliya-1,113,7
Banki,87,5
Ghunghtair 2,51,7
NPHC Udhauli,165,7
Rohna Meerapur,106,2
Udhauli,50,2
Shespur Damodar,122,2
NPHC Thalwara,142,4
Kotwadham,195,9
Shahri Islampur,185,10
NPHC Dadra,118,8
Barawa,124,5
Tanda,126,1
Badagawn,198,4
Mahadewa,105,8
Ibrahimabad,191,6
Daniyaalpur,82,4
Darawan,96,9
Hasanpur,72,3
Bahadurpur,103,3
PHC-Tikaitnagar,150,2
Bhayara,84,2
Aladatpur,93,10
Silauta,96,1
Bhitauli,64,6
Jahagirabad,119,8
Baraiya,168,2
Sarai Parsanda,104,8
Rasoolpur,101,2
Baddupur,70,4
Sharifabad,113,10
Jhanjhara,147,1
Saidkhanpur,59,5
Chaubisi,114,3
Izzatpur,187,6
Chilgawa,141,7
Gobraha,120,10
Semrawa,107,1
Mailaraigaj,161,7
Chauri,154,7
Pyarepur Sraiya,105,10
Kathurikala,163,4
Shivnaam,52,5
Jargawa,105,6
Yakutganj,162,5
Sarayn netamau,180,5
Mansara,195,8
CHC Badagawn,129,7
Mohiuddinpur,145,2
Safipur,189,5
Kamoli,185,8
Saraigop,149,5
Vatiya,63,4
CHC Suratganj,79,9
Sarsawan,121,6
Garri,159,1
Tikariya,75,7
Bhanauli,60,6
CHC Sirauli Gauspur,98,8
Ukhdi,105,9
Raghavpur,149,9
Qyampur,126,2
NPHC Sudhiamau,160,10
Murarpur,59,8
Kirsiya,60,9
Jagsenda,55,4
Hetmapur,79,2
Jeewal,56,5
Badel,63,8
Mau,133,7
Malauli,97,4
Tikariya,57,5
PHC Siddhaur,112,5
Dewa-Tindola,87,2
Kursi 2,199,2
Kotwa Kala,186,6
Patulki,73,5
Chakiya,80,2
Hazratpur,97,1
Bainatikahar,138,6
Medua,83,5
Teergawn,53,6
Khijna,166,3
Devkaliya,64,3
Drawa,113,7
Mirzapur,160,6
Dhausar,138,4
Baburegawn,150,6
Tikaitganj,184,2
Khutauli,90,1
Deokalia,139,1
Sarai Netamau,70,9
Ramuapur,195,8
Bhaisuriya,152,1
Lahi,164,6
Dodi,111,5
Sarai Dunauli,109,10
NPHC Mahadewa,197,6
Motikpur,183,8
NPHC Shahawar,143,10
Sarahi,156,3
Sanauli,167,2
Bhadrash,155,3
Bhaisuriya,173,6
Sirkona,74,6
Anwari,113,8
Vainatekarhar,63,10
NPHC Saidanpur,135,10
Zameen Husenabad,115,7
Bichhla,123,3
Sardaha,198,6
Dashrathpur,107,5
Sudiyamau,133,7
Silhaur,61,4
Ranjeetpur,66,2
Saidanpur,99,3
Fataapur Kala,72,2
Kanhipur,75,4
Raghwapur,70,10
District Women Hospital Barabanki,182,8
Bhagauli,121,3
Trivediganj F.P,147,4
Birauli,66,1
Chirra,197,7
Gehndwal,92,1
watiya,93,2
NPHC kursi,197,9
Chhidwahi,162,5
Khetasrai,192,3
Kintoor,121,3
Bhatuwamau,60,7
Parvatpur,138,2
Meen Nagar,59,6
Krisiya,79,8
Dewgawn,190,7
Mittai,57,9
Gulriha,61,5
Sarwan Tikha,124,3
Behta,113,7
Ganhari,120,8
Rasoolpanah,91,3
