Health Facility Name,Number_Of_Beds,Rating
primary health centre kavalapur,195,7
sub centre bisur,151,9
sub centre budhgaon 1,150,8
sub centre budhgaon 2,161,6
subcentre kavalapu1,61,10
subcentre kavalapur2,147,2
sub centre  kharkatwadi,197,1
sub centre  kharkatwadi,162,1
subcentre sambarwadi,61,6
subcentre bamnoli,75,7
Malgaon 2,177,5
Ramanandnagar,140,7
Kareve,114,8
Manjarde,158,6
Muchandi,158,5
Kontya Boblad,101,6
Narsewadi,93,9
Malewadi,177,8
Shegaon,198,8
Payappachiwadi,88,8
Borgaon 2,102,10
SDH Kavathemahankal,86,6
Kargani,100,2
Lengare,55,5
Takali,78,3
Agalgaon,91,1
Gundewadi,183,10
Samdholi,69,6
Kontya Boblad,85,2
Shirshi,78,5
Kasegaon,137,1
Nimbavade,101,3
Bhikawadi Kh,91,5
Erandoli,195,5
Ranjani,85,2
Walwa 1,58,8
Narwad,171,6
Peth,66,6
Medhegiri,121,3
Belaudagi,159,2
Umadi,151,8
Jath 3,186,4
Pachgani,169,10
Khatav,168,1
Vita,164,4
Mohi,76,5
Upalavi,173,5
Hatnoli,196,9
Malgaon 1,187,3
Upalemayani,168,8
Dighanchi,151,10
Bisur,103,1
Kadegaon,122,7
Ped,53,5
Padawalwadi,81,4
Hatnoor,91,5
Chorochi,137,6
Kameri,73,4
Nagrale,146,6
Vasumbe,63,2
RH Chinchani Wangi,55,10
Banewadi,127,5
Shigaon,81,1
Hingangade,179,3
Mhaisal 1,68,2
Sirgaon,94,8
Bhilwadi,127,3
Karanje,177,5
Vishrambag Health Post,52,4
Lohgaon,98,5
Hategaon,131,6
Biaur,193,2
Charan,79,8
Sankh,168,3
Umrani,178,7
RH Jath,114,7
Agalgaon,184,5
RH Kokrud,166,7
Sandgewadi,173,3
Nagaon,114,6
Tondoli,149,10
Dhalgaon,124,8
Mangrul,168,5
Nerle,50,3
Arag,148,7
RH Belanki,173,2
Mahuli,59,10
Khanapur,87,6
Basrgi,130,4
Kokale,66,2
Kameri 2,162,7
RH Tasgaon,182,3
Gardi,185,6
Siddhewadi,94,5
Dudhebhavi,195,7
Suslad,184,6
Kadegaon,111,2
Vadiyeraybang,72,9
Nelkaranji,87,6
Kavathe Piran,196,6
Sambarwadi,62,1
Ashta (Bavachi),89,3
Karmale,132,6
Kavathe Piran,188,7
Ghotkhindi,158,7
Karnal,114,7
Renavi,106,2
Salgare,121,7
Ingrul,63,4
Mhaisal(s),145,7
Yelur,117,1
Junekhed,54,1
Dighanchi 2,167,4
Bastawade,55,3
RH Ashta,156,9
Mangale,172,5
Kharsundi,155,8
Chincholi,57,5
Walwan,152,10
Kinarewadi,79,7
Tadawale,84,4
Banali,108,4
Yelapur,97,3
Haripur,165,10
Wakurde Bh,193,2
Karoli,135,9
Rile,66,4
Inamdhamni,163,6
Koregaon,132,8
Khundalapur,111,6
Peth,81,5
Rethareharnaksha,133,9
RH Shirala,83,6
Dudhgaon,142,5
Shirala 1,65,6
Kumthe,159,4
Sanmadi,53,3
Takari,66,4
Hingangao Bk,123,7
Shivajinagar Health Post,52,9
Visapur,129,4
Bambavde,178,6
Nagaj,185,3
Gaurgaon,71,3
Nimani,131,10
Masuchiwadi,60,3
Zare,121,9
Kavathemahankal,154,8
Ghatnandre,193,6
Jath 1,158,8
Rajapur,137,5
Nagewadi,135,7
Madgule,191,7
Kuktoli,87,4
Navekhed,137,8
Utagi,153,7
Amanapur,183,7
Bahe,134,6
Antri Bk,150,1
Koulge,145,7
Shiradhon,97,10
Bivnur,89,10
Kupwad Health Post,103,3
Karjagi,188,8
Borgaon 1,178,1
Bahadurwadi,135,4
Budhgaon,169,5
Karungli,93,7
Walsang,175,6
Manadur,94,8
Kuchi,167,2
Kameri 1,109,8
Nigdi,189,6
Savarde,70,3
Erandoli,101,5
Kavalapur,72,6
Kokarud,90,1
Kavathe Ekand,151,2
Padmale,138,10
Ranjanwadi,69,2
Avandhi,125,10
Mangrul,93,10
Soni,119,8
Tikondi,195,5
Saonawade,104,10
Nerle 2,74,10
Dudhondi,176,4
Jath 2,115,8
Santoshwadi,157,10
Kusaiwadi,147,1
Deshing,127,3
Gomewadi,73,3
Aalate,82,5
RH Bhivghat Karanje,153,6
Retredharan,136,10
Palashi,72,3
Belwade,159,4
Shetphale,194,5
Balgavde,198,5
Kharsundi 2,129,1
Savalaj,165,5
Tambave,105,5
Kapuskhed,76,9
Miraj Urban Health Post,165,7
Shipur,180,10
Hatnoor,127,1
Shirgaon,66,3
Sangliwadi Health Post,141,6
SDH Islampur,111,2
Mallewadi,198,1
Wajrchoude,84,10
Sagaon,134,1
Waifale,121,6
Chinchani,163,10
Waifale,101,5
Kande,190,9
Yedenipani,141,9
Kharsundi 1,165,4
Bramhanal,96,9
Kalamwadi,117,2
Sakhar Karkhana Health Post,96,5
Kundalapur,181,6
Nerle 1,132,7
Dongrewadi,169,4
Yelvi,58,4
Vihapur,94,10
Khanderajuri,99,2
Kharshing,139,10
Killemachhindragad,168,3
Ankali,134,7
Dongarsoni,80,4
Walwa,117,2
Balawdi Kh,96,8
Erali,198,2
Jirgyal,82,8
M. Digraj,178,4
Manjarde,68,4
Kundalwadi,123,8
Arwade,180,6
Dighanchi 1,183,6
Khatav,197,3
Manadur 1,167,1
Borgaon,146,9
Khanapur,154,8
Ankalkhop,67,5
Mirajwadi,116,1
Chikordi,145,3
Kheradewangi,176,6
Kavalapur,66,6
Sordi,56,1
Salshing,186,9
Dhulgaon,157,9
Takawe,169,9
Gavhan,117,9
Nagaon,166,5
Bhalwani,190,6
Ramamatanagar Health Post,89,8
Aitwade Bu,138,4
Umadi,50,8
Karve,83,6
Nigadi,188,1
Sirasi,180,6
Pat. Warun 2,90,8
Sonyal,181,6
Vejegaon,134,1
Dhalewadi,74,3
Amrapur,51,8
Borgaon,111,5
Anjani,140,6
Mhaisal 2,169,1
Ankalgi,190,5
Govt. Medical College and Hospital Miraj,64,6
Alkud,58,2
Burli,132,2
Bilur,53,7
Dafalapur,99,9
Nerli,183,2
Manerajuri,89,7
Ankale,86,8
Mohityache Vadgaon,50,2
Pat. Warun 1,182,3
Dahiwadi,144,7
Indiranagar Health Post,115,8
Nathwade,104,1
Hirave,99,2
RH Palus,76,7
Dhamwade,135,2
Kavaji Khotwadi,131,1
Ghogaon,124,4
Bagani,107,3
Vithhalapur,101,4
Shirala 2,78,2
Kurlap,150,7
Tanang,135,7
Ladegaon,106,5
Girgaon,195,4
Hingangaon Bk,72,9
Walwa 2,86,6
Chinchani Ambak,177,6
Kanthi,191,2
Red,143,9
Atpadi,94,7
Burungwadi,57,4
Itakare,187,9
Kanadwadi,86,6
Hingangaon,99,8
Bolwad,177,7
Kognoli,180,8
Alsand,83,2
Wadgaon,160,7
Bamni,174,4
Kalambi,166,5
Daribadchi,55,7
Khanderajuri,50,7
Jath 4,148,1
Punwat,55,9
Gharniki,186,8
Bhikwadi,130,2
Meni,111,4
Chikhali,82,10
Natoli,85,8
Pundi,83,5
Balawdi,174,3
Andhali,197,1
Yede Machchhindra,63,2
Belanki,191,2
Savalwadi,132,2
Tisangi,57,6
Surul,198,9
Aasangi Turk,141,4
Bhose,90,10
Walwa 3,155,4
Bedag,81,6
Sonsal,176,3
Charan,191,7
Padli,133,5
Khujgaon,172,9
Bhilwadi,131,7
RH Atpadi,155,4
Aitwade Kh,197,10
Yelvi,138,5
Jadar Boblad,175,10
Tadwale,178,8
Arala,77,4
Kumbhari,183,8
Sakharale,143,7
Antri Bk,85,4
Tadsar,145,3
Shegaon,186,5
Sankh,128,3
Shalgaon,146,1
Kokarud,164,2
Dhawali,105,1
Tupari,66,3
Yelur,77,1
Deshingh,155,8
Narsinghpur,140,3
Baj,84,9
Sagaon,193,9
Konikonur,50,10
Bagani,158,3
Lingivare,122,6
Nevari,173,9
Kharkatwadi,57,6
Bamnoli,161,3
Shirte,94,4
RH Vita,118,3
Mardwadi,174,1
Wangi,156,6
Mangale,58,2
Walekhindi,117,2
Manadur 2,131,2
Dhavali,119,4
Kundal,84,10
Kurli,57,6
Bambavde,122,2
Nagthane,78,7
Walsang,131,2
Tandulwadi,148,9
Sonkhire,66,8
Idgahnagar Health Post,174,5
Tung,77,1
Balgaon,74,8
Yelavi,132,8
Kasegaon,100,7
Lingnur,125,1
Borgi,182,8
Bilashi,71,1
Savalaj,81,10
Kouthali,71,10
Dhavaleshwar,116,8
Bhose,192,9
Malangaon,104,5
Punadi,53,10
Karoli T,72,6
Hivtad,147,5
Kasabedigraj,143,4
Dhulgaon,97,8
Kandur,111,1
Yelavi,174,10
Nandre,52,4
Madhavnagar,186,10
RH Madgyal,155,4
Ghoti Bk,51,7
Samata Nagar Primary Health Centre,135,1
Karanjwade,84,3
Nandre,155,10
Bavchi,153,10
Kargani,190,6
Ranjani,169,8
Bilur,174,9
Borgaon,185,10
Ramapur,51,6
Dorli,193,2
primary health centre kavalapur,116,6
sub centre bisur,105,10
sub centre budhgaon 1,168,1
sub centre budhgaon 2,171,7
subcentre kavalapu1,114,4
subcentre kavalapur2,115,7
sub centre  kharkatwadi,192,5
sub centre  kharkatwadi,141,4
subcentre sambarwadi,114,9
subcentre bamnoli,176,10
Malgaon 2,75,7
Ramanandnagar,180,1
Kareve,78,3
Manjarde,140,6
Muchandi,82,1
Kontya Boblad,198,5
Narsewadi,158,6
Malewadi,126,10
Shegaon,151,5
Payappachiwadi,156,1
Borgaon 2,155,7
SDH Kavathemahankal,118,10
Kargani,142,1
Lengare,79,2
Takali,194,2
Agalgaon,164,2
Gundewadi,78,3
Samdholi,75,6
Kontya Boblad,181,6
Shirshi,82,3
Kasegaon,135,8
Nimbavade,114,9
Bhikawadi Kh,101,5
Erandoli,72,1
Ranjani,62,3
Walwa 1,177,7
Narwad,127,10
Peth,197,5
Medhegiri,68,7
Belaudagi,148,8
Umadi,63,8
Jath 3,152,1
Pachgani,123,3
Khatav,183,5
Vita,119,8
Mohi,83,10
Upalavi,142,3
Hatnoli,122,1
Malgaon 1,134,3
Upalemayani,153,4
Dighanchi,70,4
Bisur,128,4
Kadegaon,94,10
Ped,56,3
Padawalwadi,135,1
Hatnoor,182,5
Chorochi,140,2
Kameri,199,10
Nagrale,165,1
Vasumbe,58,5
RH Chinchani Wangi,136,3
Banewadi,58,6
Shigaon,120,2
Hingangade,126,2
Mhaisal 1,55,7
Sirgaon,55,5
Bhilwadi,155,1
Karanje,69,8
Vishrambag Health Post,94,8
Lohgaon,108,6
Hategaon,132,4
Biaur,182,5
Charan,98,10
Sankh,116,7
Umrani,68,7
RH Jath,116,5
Agalgaon,179,10
RH Kokrud,129,6
Sandgewadi,195,7
Nagaon,61,10
Tondoli,182,1
Dhalgaon,57,10
Mangrul,85,7
Nerle,121,4
Arag,139,10
RH Belanki,62,1
Mahuli,116,9
Khanapur,170,3
Basrgi,178,6
Kokale,129,5
Kameri 2,156,3
RH Tasgaon,120,7
Gardi,97,6
Siddhewadi,137,6
Dudhebhavi,88,10
Suslad,81,8
Kadegaon,89,1
Vadiyeraybang,60,7
Nelkaranji,55,5
Kavathe Piran,98,2
Sambarwadi,95,5
Ashta (Bavachi),179,1
Karmale,180,6
Kavathe Piran,105,8
Ghotkhindi,108,1
Karnal,174,9
Renavi,159,5
Salgare,104,4
Ingrul,152,4
Mhaisal(s),138,8
Yelur,143,8
Junekhed,135,4
Dighanchi 2,195,2
Bastawade,135,2
RH Ashta,179,10
Mangale,57,10
Kharsundi,154,4
Chincholi,75,5
Walwan,114,6
Kinarewadi,159,4
Tadawale,130,2
Banali,197,2
Yelapur,139,10
Haripur,162,2
Wakurde Bh,153,6
Karoli,154,10
Rile,126,5
Inamdhamni,104,2
Koregaon,165,8
Khundalapur,138,4
Peth,64,3
Rethareharnaksha,93,8
RH Shirala,84,8
Dudhgaon,151,2
Shirala 1,67,5
Kumthe,64,5
Sanmadi,97,9
Takari,145,3
Hingangao Bk,148,8
Shivajinagar Health Post,147,5
Visapur,130,3
Bambavde,79,5
Nagaj,111,2
Gaurgaon,192,5
Nimani,150,2
Masuchiwadi,177,8
Zare,89,10
Kavathemahankal,188,9
Ghatnandre,169,5
Jath 1,79,10
Rajapur,190,9
Nagewadi,84,7
Madgule,192,5
Kuktoli,92,6
Navekhed,59,6
Utagi,96,4
Amanapur,115,4
Bahe,197,8
Antri Bk,50,6
Koulge,96,9
Shiradhon,97,3
Bivnur,50,9
Kupwad Health Post,163,2
Karjagi,181,1
Borgaon 1,157,5
Bahadurwadi,165,8
Budhgaon,139,4
Karungli,105,5
Walsang,173,1
Manadur,148,7
Kuchi,135,4
Kameri 1,196,1
Nigdi,147,2
Savarde,77,6
Erandoli,172,4
Kavalapur,158,4
Kokarud,70,1
Kavathe Ekand,115,1
Padmale,170,7
Ranjanwadi,90,5
Avandhi,122,6
Mangrul,120,1
Soni,120,4
Tikondi,93,2
Saonawade,73,3
Nerle 2,128,8
Dudhondi,187,7
Jath 2,131,9
Santoshwadi,188,8
Kusaiwadi,190,1
Deshing,51,4
Gomewadi,56,8
Aalate,82,6
RH Bhivghat Karanje,136,9
Retredharan,113,6
Palashi,183,4
Belwade,116,5
Shetphale,130,6
Balgavde,190,3
Kharsundi 2,135,2
Savalaj,183,3
Tambave,115,9
Kapuskhed,57,1
Miraj Urban Health Post,176,5
Shipur,186,3
Hatnoor,68,8
Shirgaon,143,1
Sangliwadi Health Post,174,5
SDH Islampur,154,5
Mallewadi,53,1
Wajrchoude,178,2
Sagaon,120,2
Waifale,70,6
Chinchani,129,1
Waifale,65,9
Kande,171,2
Yedenipani,100,1
Kharsundi 1,80,7
Bramhanal,151,10
Kalamwadi,169,10
Sakhar Karkhana Health Post,189,9
Kundalapur,120,3
Nerle 1,77,2
Dongrewadi,154,5
Yelvi,104,3
Vihapur,150,4
Khanderajuri,94,6
Kharshing,52,2
Killemachhindragad,80,6
Ankali,141,5
Dongarsoni,150,8
Walwa,118,5
Balawdi Kh,122,10
Erali,76,1
Jirgyal,181,4
M. Digraj,126,6
Manjarde,102,6
Kundalwadi,195,5
Arwade,85,9
Dighanchi 1,51,5
Khatav,186,6
Manadur 1,132,10
Borgaon,147,10
Khanapur,93,3
Ankalkhop,142,6
Mirajwadi,105,1
Chikordi,58,4
Kheradewangi,104,1
Kavalapur,195,9
Sordi,137,3
Salshing,56,6
Dhulgaon,51,1
Takawe,108,2
Gavhan,96,7
Nagaon,73,1
Bhalwani,174,7
Ramamatanagar Health Post,59,10
Aitwade Bu,116,8
Umadi,93,3
Karve,123,7
Nigadi,157,5
Sirasi,178,10
Pat. Warun 2,59,2
Sonyal,161,2
Vejegaon,98,5
Dhalewadi,113,6
Amrapur,147,2
Borgaon,181,10
Anjani,123,5
Mhaisal 2,190,7
Ankalgi,174,3
Govt. Medical College and Hospital Miraj,159,2
Alkud,166,2
Burli,53,3
Bilur,57,7
Dafalapur,74,2
Nerli,70,1
Manerajuri,52,7
Ankale,133,2
Mohityache Vadgaon,114,8
Pat. Warun 1,56,6
Dahiwadi,133,4
Indiranagar Health Post,174,5
Nathwade,54,6
Hirave,153,5
RH Palus,171,2
Dhamwade,98,3
Kavaji Khotwadi,79,4
Ghogaon,65,7
Bagani,191,2
Vithhalapur,113,5
Shirala 2,94,2
Kurlap,189,6
Tanang,108,5
Ladegaon,66,10
Girgaon,123,6
Hingangaon Bk,188,1
Walwa 2,164,7
Chinchani Ambak,133,10
Kanthi,196,7
Red,189,7
Atpadi,120,10
Burungwadi,139,9
Itakare,94,2
Kanadwadi,192,5
Hingangaon,179,5
Bolwad,167,6
Kognoli,60,8
Alsand,86,2
Wadgaon,145,3
Bamni,119,8
Kalambi,105,7
Daribadchi,89,1
Khanderajuri,199,5
Jath 4,165,2
Punwat,76,1
Gharniki,67,2
Bhikwadi,129,10
Meni,135,9
Chikhali,196,9
Natoli,102,5
Pundi,150,3
Balawdi,129,1
Andhali,163,10
Yede Machchhindra,105,2
Belanki,166,3
Savalwadi,197,6
Tisangi,120,10
Surul,118,2
Aasangi Turk,156,5
Bhose,67,5
Walwa 3,59,8
Bedag,143,8
Sonsal,71,2
Charan,155,2
Padli,154,9
Khujgaon,79,2
Bhilwadi,141,3
RH Atpadi,167,7
Aitwade Kh,56,8
Yelvi,96,8
Jadar Boblad,125,10
Tadwale,147,3
Arala,139,6
Kumbhari,125,8
Sakharale,142,9
Antri Bk,112,2
Tadsar,146,3
Shegaon,65,7
Sankh,150,10
Shalgaon,70,5
Kokarud,175,2
Dhawali,188,8
Tupari,138,2
Yelur,178,7
Deshingh,181,2
Narsinghpur,118,3
Baj,173,3
Sagaon,165,4
Konikonur,196,10
Bagani,112,3
Lingivare,141,9
Nevari,51,5
Kharkatwadi,174,1
Bamnoli,183,7
Shirte,188,5
RH Vita,148,1
Mardwadi,150,5
Wangi,170,9
Mangale,66,4
Walekhindi,96,4
Manadur 2,166,7
Dhavali,95,3
Kundal,187,8
Kurli,132,1
Bambavde,184,2
Nagthane,181,6
Walsang,95,10
Tandulwadi,69,5
Sonkhire,127,5
Idgahnagar Health Post,57,4
Tung,64,1
Balgaon,60,10
Yelavi,194,9
Kasegaon,128,9
Lingnur,124,7
Borgi,99,8
Bilashi,171,7
Savalaj,169,6
Kouthali,70,3
Dhavaleshwar,142,2
Bhose,143,10
Malangaon,191,1
Punadi,122,10
Karoli T,104,9
Hivtad,133,2
Kasabedigraj,191,10
Dhulgaon,140,6
Kandur,177,3
Yelavi,177,6
Nandre,59,7
Madhavnagar,117,4
RH Madgyal,119,3
Ghoti Bk,98,8
Samata Nagar Primary Health Centre,110,3
Karanjwade,158,3
Nandre,90,5
Bavchi,182,4
Kargani,137,7
Ranjani,158,8
Bilur,63,4
Borgaon,128,4
Ramapur,197,4
Dorli,157,8
