Health Facility Name,Number_Of_Beds,Rating
chhidiya,115,1
Balpur -T,80,8
Maypur,106,6
Virthava -T,82,10
Borda -T,65,5
KARANJKHED,155,1
Songadh - T,119,10
Ukai -T,71,7
Gangtha -T,90,10
Raygadh -T,199,7
Khervada,127,10
Kukarmunda -T,109,1
Veldha -T,167,9
JAISING PUR,185,1
Nizar - T,177,4
Bandharpada -T,117,2
Champavadi -T,129,8
Agasvani -T,175,8
Ukhalda -T,154,7
Degama -T,177,10
Dolvan -T,67,9
Vanka -T,67,4
Valod - T,170,9
Jamkhedi -T,147,8
Buhari -T,129,6
Algat -T,122,10
chhidiya,131,6
Balpur -T,136,7
Maypur,192,8
Virthava -T,101,6
Borda -T,94,10
KARANJKHED,187,8
Songadh - T,163,4
Ukai -T,143,4
Gangtha -T,197,2
Raygadh -T,142,5
Khervada,91,10
Kukarmunda -T,123,1
Veldha -T,87,8
JAISING PUR,101,3
Nizar - T,177,4
Bandharpada -T,123,3
Champavadi -T,88,4
Agasvani -T,121,7
Ukhalda -T,66,4
Degama -T,160,1
Dolvan -T,70,3
Vanka -T,82,6
Valod - T,133,2
Jamkhedi -T,154,4
Buhari -T,173,3
Algat -T,71,9
