Health Facility Name,Number_Of_Beds,Rating
Referral Hospital Barhiya,123,5
APHC Mananpur,60,8
APHC Arma,69,5
Rasalpur,67,6
APHC Parsawa,144,9
APHC Kajra,124,2
APHC Kchhiyana,72,2
APHC Gerua Pursanda,102,2
Fatehpur,104,7
Lohra,106,10
Saroura,116,4
Avgil,129,3
Sadai Bigha,132,4
Rajpur,67,3
APHC Abhaypur,162,5
Dhira,121,6
Chandanpura,81,9
Sadar Hospital Lakhisarai,177,3
Bharida,67,4
Billo,126,7
Pipariya,164,9
APHC Khutha,74,1
Gopalpur,145,10
Silwe,127,8
Ramshir,164,5
APHC Pratappur,58,7
Singhaul Tetaria,56,2
Bahchha,73,3
Bela Mahrath,110,1
Ramnagar bartara,60,7
Khawa,57,3
Salempur,98,9
Halsi,194,5
Saundhi,95,7
Pokhrama,132,9
Sandhmaf,138,3
PRATAPPUR,60,8
Nadiyama,105,3
Tarhari,110,4
Lakhochak,100,10
Aure,87,4
APHC Urain,187,8
Nadanvan,129,7
Belauri,112,4
Lahsorwa,139,7
Raudpur,59,3
APHC Ramchandra Pur,199,6
Ramgarh Chowk,79,2
Rahatpur,54,2
APHC Manikpur,186,3
Garsanda,184,1
Matasi,64,3
Garibnagar,99,6
Arma,113,8
Bhirha,119,6
Ghonghsa,132,6
Jhinaura,156,1
Mustafapur,115,1
Basauni,67,7
Kundar,168,1
Bannubagicha,111,5
Bariyarpur,100,1
KAINDI,109,3
Ballopur,81,5
Rupsanda,90,8
Reuta,118,2
APHC Ghosaith,142,7
Kiranpur,62,2
Konag,69,2
Lakhana,75,4
Jwas,198,3
Alapur,124,10
Rampur,107,6
Pipra,73,9
Malpur,116,4
Sharmatal,72,8
Birupur,72,10
Tetarhat,82,6
Nijay,132,3
Bichhwe,154,3
Jankidih,118,1
Punadih,167,3
Lay,177,5
Satsanda,148,2
Patner,82,7
Nandnama,101,3
PRATAPPUR,148,8
Mano,78,3
Bartara,164,3
Mudwariya,180,5
Pipariya,134,2
Sethna,181,1
Surajgarha,167,6
Sirkhindi,180,8
Chetan Tola,192,10
Konipar,193,1
Narsingholi,55,4
Dakra,153,6
Jajwara,96,8
Alinagar,169,7
Mahsaura,116,4
Manikpur,155,10
Barahiya,116,4
Lakhisarai,156,2
Rehua,183,6
Pawai,114,8
Laldiyara,185,10
Chaukara,139,2
Behrama,179,5
Damodarpur,73,5
Sahjadpur,64,8
Kaindi,149,6
olipur,115,3
Jagdishpur,66,4
Singhchak,77,10
APHC Pratappur,85,3
Dariyapur,90,10
Maheshpur,70,1
Kalyanpur,63,2
Mananpur,131,5
Basudevpur,139,4
Nathanpur,111,8
Sahur,94,7
APHC Ramchandrapur,95,1
Gangasarai,130,4
Ramgarh,87,9
Amhara,73,1
Katehar,142,5
Laxmipur,93,8
Garhi Bishanpur,73,10
APHC Nauma,117,9
Adarsh Laxmipur,156,4
Adupur,142,3
Referral Hospital Barhiya,141,1
APHC Mananpur,148,6
APHC Arma,197,7
Rasalpur,80,4
APHC Parsawa,95,8
APHC Kajra,69,7
APHC Kchhiyana,146,5
APHC Gerua Pursanda,105,8
Fatehpur,129,4
Lohra,149,8
Saroura,186,4
Avgil,152,7
Sadai Bigha,128,7
Rajpur,94,2
APHC Abhaypur,167,9
Dhira,146,5
Chandanpura,136,5
Sadar Hospital Lakhisarai,67,6
Bharida,84,10
Billo,188,8
Pipariya,84,6
APHC Khutha,111,4
Gopalpur,151,9
Silwe,85,3
Ramshir,117,9
APHC Pratappur,159,5
Singhaul Tetaria,135,4
Bahchha,88,3
Bela Mahrath,129,10
Ramnagar bartara,199,1
Khawa,189,8
Salempur,133,2
Halsi,126,9
Saundhi,165,6
Pokhrama,99,1
Sandhmaf,68,5
PRATAPPUR,150,9
Nadiyama,151,2
Tarhari,174,8
Lakhochak,142,6
Aure,71,4
APHC Urain,150,4
Nadanvan,148,3
Belauri,156,3
Lahsorwa,67,7
Raudpur,87,5
APHC Ramchandra Pur,160,3
Ramgarh Chowk,69,1
Rahatpur,61,4
APHC Manikpur,119,9
Garsanda,155,7
Matasi,93,8
Garibnagar,159,5
Arma,187,9
Bhirha,149,10
Ghonghsa,186,4
Jhinaura,164,3
Mustafapur,129,8
Basauni,85,10
Kundar,158,6
Bannubagicha,53,10
Bariyarpur,105,5
KAINDI,81,6
Ballopur,138,6
Rupsanda,70,8
Reuta,160,9
APHC Ghosaith,190,5
Kiranpur,60,7
Konag,176,6
Lakhana,91,8
Jwas,185,8
Alapur,112,3
Rampur,162,9
Pipra,74,5
Malpur,150,5
Sharmatal,122,7
Birupur,71,8
Tetarhat,198,1
Nijay,153,5
Bichhwe,66,7
Jankidih,135,9
Punadih,189,5
Lay,174,10
Satsanda,101,1
Patner,97,4
Nandnama,61,3
PRATAPPUR,56,1
Mano,77,3
Bartara,61,3
Mudwariya,149,9
Pipariya,139,9
Sethna,197,6
Surajgarha,182,10
Sirkhindi,80,1
Chetan Tola,119,3
Konipar,172,5
Narsingholi,97,1
Dakra,184,10
Jajwara,168,6
Alinagar,195,3
Mahsaura,133,6
Manikpur,55,10
Barahiya,99,5
Lakhisarai,123,4
Rehua,197,6
Pawai,152,10
Laldiyara,151,7
Chaukara,162,4
Behrama,130,5
Damodarpur,184,7
Sahjadpur,68,6
Kaindi,63,7
olipur,93,8
Jagdishpur,58,5
Singhchak,59,1
APHC Pratappur,192,9
Dariyapur,88,6
Maheshpur,134,10
Kalyanpur,68,8
Mananpur,114,1
Basudevpur,154,10
Nathanpur,55,9
Sahur,127,7
APHC Ramchandrapur,182,2
Gangasarai,130,4
Ramgarh,64,7
Amhara,167,2
Katehar,68,1
Laxmipur,53,2
Garhi Bishanpur,133,8
APHC Nauma,162,4
Adarsh Laxmipur,65,9
Adupur,107,8
