Health Facility Name,Number_Of_Beds,Rating
CD UT Press Sector 18,74,2
CD Sarangpur,168,2
"CD-Khuda Ali Sher, Chandigarh",110,8
"UPHC New Resettlement colony Dhanas, Chandigarh",103,7
"3 BRD HOSPITAL RAMDARBAR, CHANDIGARH",116,3
"CD Sector-19,Chandigarh",182,3
"ESI CD Sector-23, Chandigarh",199,7
Public Health Dispensary,140,4
"GMCH SECTOR 32 ,CHANDIGARH",181,9
Sub Centre Kajheri,132,4
"RHTC-Palsora, Chandigarh",189,2
"Ayurvedic Dispensary, Sector 37, Chandigarh",155,6
"Civil Dispensary Sector -11, Chandigarh",77,4
"AD Sector-28, Chandigarh",145,6
SC(N) KHUDA ALI SHER,67,7
SC Khuda Ali Sher,176,10
"Civil Dispensary Ramdarbar, Chandigarh",50,7
"Civil Dispensary - Dhanas, Chandigarh",123,2
SC Sarangpur,153,10
"Police Hospital Sector-26,Chandigarh",55,6
"CH Manimajra, Chandigarh",98,5
"Civil Dispensary Sector-42, Chandigarh",140,4
"ESI Hospital Ramdarbar, Chandigarh",97,3
"Civil Dispensary -Dadu Majra, Chandigarh",82,8
"Civil Hospital-Sector 22, Chandigarh",89,2
SC Faidan,187,9
"Civil Dispensary Sector-33,Chandigarh",199,3
SC Raipur Kalan,187,9
"Civil Dispensary Mauli Jagran, Chandigarh",137,3
Sub Centre Badheri,166,1
"Civil Dispensary Kajheri,Chandigarh",175,4
SC Khuda Lahora,160,4
Sub Center-Behlana,76,6
Sub Centre Dariya,177,4
SC Kishangarh,179,10
"CD Civil Sect Sector-1, Chandigarh",110,4
"AD AND HD  Sector -47, Chandigarh",120,7
Sub Center Maloya,112,2
"Civil Dispensary-Hallomajra, Chandigarh",59,5
"UHTC, Indira Colony, Chandigarh",98,8
SC Mauli Village,127,4
"CD HIGH COURT SECTOR-1 ,CHANDIGARH",71,10
SC Khuda Jassu,83,6
"Civil Dispensary, Sector-23, Chandigarh",150,9
"Civil Dispensary Sector-40,  Chandigarh",107,5
"Civil Dispensary, Sector-38, Chandigarh",167,8
"CD Sector-8, Chandigarh",157,5
SC(N) BURAIL,155,2
SC(N) Buterla,51,2
SC(N) Dadu Majra,183,1
"GMSH Sector-16 ,Chandigarh",91,8
SC Palsora,57,5
"UCHC Sector -45 ,Chandigarh",132,4
"Homeopathic Dispensary, Sector-34, Chandigarh",106,2
SC Kaimbwala,104,10
"Postgraduate Institute of Medical Education  and Research (PGIMER), Chandigarh",93,9
Sub Center Dhanas,169,9
"CD Sector-9, Chandigarh",160,7
"CD-Kaimbwala, Chandigarh",185,8
"Civil Dispensary Modern Complex, Chandigarh",174,5
"ITBP Hospital Behlana, Chandigarh",109,10
"Ayurvedic Dispensary, Sector-24,Chandigarh",115,3
"Civil Dispensary Sector-20,Chandigarh",198,7
"CD-MALOYA,CHANDIGARH",158,3
"UHTC Sector -44 ,Chandigarh",139,3
"HD Sector-27, Chandigarh",180,2
"CD CITCO, CHANDIGARH",69,4
"CD Sector-26 ,Chandigarh",199,6
"Civil Dispensary Sector-35, Chandigarh",119,9
Sub Center Hallomajra,105,2
Sub Center- Raipur Khurd,154,2
"ESI Civil Dispensary Sector- 29 ,Chandigarh",63,5
CD UT Press Sector 18,56,4
CD Sarangpur,101,4
"CD-Khuda Ali Sher, Chandigarh",99,7
"UPHC New Resettlement colony Dhanas, Chandigarh",123,4
"3 BRD HOSPITAL RAMDARBAR, CHANDIGARH",194,10
"CD Sector-19,Chandigarh",156,8
"ESI CD Sector-23, Chandigarh",123,8
Public Health Dispensary,64,1
"GMCH SECTOR 32 ,CHANDIGARH",130,9
Sub Centre Kajheri,67,3
"RHTC-Palsora, Chandigarh",176,1
"Ayurvedic Dispensary, Sector 37, Chandigarh",112,1
"Civil Dispensary Sector -11, Chandigarh",125,7
"AD Sector-28, Chandigarh",146,2
SC(N) KHUDA ALI SHER,129,7
SC Khuda Ali Sher,51,2
"Civil Dispensary Ramdarbar, Chandigarh",154,3
"Civil Dispensary - Dhanas, Chandigarh",121,3
SC Sarangpur,131,8
"Police Hospital Sector-26,Chandigarh",178,9
"CH Manimajra, Chandigarh",165,10
"Civil Dispensary Sector-42, Chandigarh",68,8
"ESI Hospital Ramdarbar, Chandigarh",82,3
"Civil Dispensary -Dadu Majra, Chandigarh",118,1
"Civil Hospital-Sector 22, Chandigarh",80,3
SC Faidan,160,7
"Civil Dispensary Sector-33,Chandigarh",140,10
SC Raipur Kalan,77,6
"Civil Dispensary Mauli Jagran, Chandigarh",189,1
Sub Centre Badheri,165,6
"Civil Dispensary Kajheri,Chandigarh",54,2
SC Khuda Lahora,167,1
Sub Center-Behlana,143,8
Sub Centre Dariya,176,6
SC Kishangarh,68,6
"CD Civil Sect Sector-1, Chandigarh",154,3
"AD AND HD  Sector -47, Chandigarh",181,6
Sub Center Maloya,89,2
"Civil Dispensary-Hallomajra, Chandigarh",141,8
"UHTC, Indira Colony, Chandigarh",88,7
SC Mauli Village,81,6
"CD HIGH COURT SECTOR-1 ,CHANDIGARH",95,3
SC Khuda Jassu,167,5
"Civil Dispensary, Sector-23, Chandigarh",164,5
"Civil Dispensary Sector-40,  Chandigarh",151,4
"Civil Dispensary, Sector-38, Chandigarh",56,6
"CD Sector-8, Chandigarh",177,9
SC(N) BURAIL,163,6
SC(N) Buterla,171,4
SC(N) Dadu Majra,199,2
"GMSH Sector-16 ,Chandigarh",197,7
SC Palsora,134,2
"UCHC Sector -45 ,Chandigarh",61,4
"Homeopathic Dispensary, Sector-34, Chandigarh",116,7
SC Kaimbwala,76,3
"Postgraduate Institute of Medical Education  and Research (PGIMER), Chandigarh",136,1
Sub Center Dhanas,103,8
"CD Sector-9, Chandigarh",181,10
"CD-Kaimbwala, Chandigarh",122,8
"Civil Dispensary Modern Complex, Chandigarh",183,3
"ITBP Hospital Behlana, Chandigarh",79,7
"Ayurvedic Dispensary, Sector-24,Chandigarh",113,5
"Civil Dispensary Sector-20,Chandigarh",60,4
"CD-MALOYA,CHANDIGARH",182,3
"UHTC Sector -44 ,Chandigarh",117,2
"HD Sector-27, Chandigarh",199,9
"CD CITCO, CHANDIGARH",181,6
"CD Sector-26 ,Chandigarh",88,7
"Civil Dispensary Sector-35, Chandigarh",152,5
Sub Center Hallomajra,106,8
Sub Center- Raipur Khurd,64,10
"ESI Civil Dispensary Sector- 29 ,Chandigarh",165,1
