Health Facility Name,Number_Of_Beds,Rating
Jaigaon PHC,183,7
Alipurduar District Hospital,119,4
Barochowki,190,10
Centralduars TE Basra,170,4
West Nararthali,174,9
Gobenerhat,161,3
Netajipally,56,9
Purba Madarihat,121,3
Sankosh TE,50,1
Turturi GP,66,3
North Point,75,9
Chaparerpar II GP,66,4
Jadab Pally,150,6
Mahakalguri,148,5
Dhanirampur II GP,96,5
Khowchandpara,136,10
Choto Salkumar SC,62,10
Nabonagar,146,4
West Falakata,184,3
Chepani,65,6
Pradhanpara,190,9
Bamsidharpur,87,8
Dakshin Kamakhyaguri,199,10
Munsipara PHC SC,51,4
Banchukamari,178,1
Pakuritola,160,1
Rahimabad TE,191,10
Kohinoor GP,116,1
Chilapata,100,10
Velukdabri,182,7
Centralduars TE Hatimara,50,8
East Chepani,182,8
Rydak TE II,125,1
Uttar Panialguri,186,7
Lankapara GP,66,5
Barodaldali,134,1
Boragari,98,2
Nimti TE,83,9
Purba Simlabari,127,7
Ethelbari TG,88,7
Santalabari,122,10
Uttar Kamakhyaguri,124,10
Dakshin Satali,68,2
East Nararthali,198,4
Kumargram PHC,168,8
Dakshin Chakwakheti,114,3
Turturi PHC SC,174,8
Madhya Patkapara,174,4
Dumchipara TG,175,5
West Raichanga,131,8
Latabari GP (Hamiltonganj Depo),180,4
Ballalguri GP,155,1
Birpara TG,51,1
Kalapani,192,6
Kamakshyaguri RH,154,4
Dakshin Dhalkar,66,1
Jointi TE,166,3
Bhatkhawa TE,121,5
Rahimpur TG,125,10
Mujnai TG,149,8
Choto Mechia Basti,96,3
Domanpur,119,7
East Salbari,96,5
Shilbarihat SC,120,2
Chinchula TE,99,8
Chachakhata,83,6
Dimdima TG,127,8
Dakshin Sonapur,148,6
Panchkolguri RH SC,73,3
Kunjanagar,162,2
Kohinoor TG,69,6
Choto Salkumar  PHC,133,4
Kartick TE,74,10
Satali PHC,105,4
Telipara,108,8
Khokla Basti,104,1
Satali TE,62,3
Falakata I GP,61,5
Jaydebpur,56,8
Madhya Kamakhyaguri,159,5
Sidhabari,55,3
Uttar Shibkata,65,2
Nimti Domohani,121,6
Deomali,172,6
Uttar Chhekamari,84,9
Dalgaon GP HQ,131,2
Munshipara PHC,73,8
Madhya Rangalibazna PHC,191,5
Dakshin Parokata,147,3
Lokenathpur,191,5
Nararthali,94,4
Dalgaon Basti,166,4
Dalsingpara GP,122,6
Malangi GP,198,9
Samuktala PHC,120,8
Madarihat RH,158,3
Dhowlajhora Basty,109,4
Nathuatari,148,7
PS Deogaon,108,7
Falakata RH,68,4
Chhoto Daldali,79,9
New Lands TE,182,9
Sishujhumra PHC SC,91,1
Jogendra Nagar,137,9
Turturi PHC,65,5
Madarihat GP,136,3
Uttar Madarihat,99,6
Raimatang TG,119,3
Sarugaon TG,74,4
JATESWAR PHC,96,1
Uttar Majid Khana,157,10
Paschim Khairbari,105,2
Hantapara GP,63,9
Birpara No II GP,55,6
Makrapara TG,157,10
Garopara GP,74,4
Mendabari GP,127,2
Changmaritari,91,3
Chuakhola,60,2
Garganda TG,62,7
Mathura TG,59,10
Jayanti,170,8
Dakshin Rampur,159,6
Mathura TG Division,103,2
Madhya Khairbari,76,9
Dakshin Sishubari,68,3
Birpara I,101,9
Subhaspally,75,6
Natunpara,81,10
Madhya Haldibari,65,4
Thanupara,79,4
Foskadanga,157,6
Lankapara TG,67,4
Islamabad,143,9
South Jitpur,87,10
Madhu TG,198,1
Dakshin Mendabari,55,4
Marakhata,102,9
New line,187,4
Parorpar,103,6
Jaigaon I GP,56,3
Laskarpara,130,7
Samuktala PHC SC,68,4
Subashpally,120,9
Topshikatha,176,9
Madhya Nararthali,99,3
Ghagra,170,10
Uttar Majherdabri,80,10
Uttar Latabari RH,103,4
Ran Bahadur Basti,184,4
Baniadabri,179,8
Joy Birpara TG,128,2
Chaparerpar,104,8
Khalishamari,177,7
Phaskowa TE,130,5
Falakata II GP,110,1
Tasti TG,77,2
Deogaon GP,92,6
Gangutia TE,76,5
Chuapara GP,107,1
Uttar Rangalibazna,100,3
Bhatibari RH,166,3
Lachmandabri,61,9
Kayakhata,172,9
Silbarihat PHC,121,2
Bhutnirghat,149,10
Nangdala TG,132,9
Pukhuria,64,2
Panchkolguri RH,155,1
Chandirjhar,158,4
Patkapara TG,101,4
Atiabari TE,190,7
Guabarnagar,53,4
Dima TE,105,7
Baruipara,136,4
Jasodanga RH,184,7
Subhasini  TE,116,7
Gokulnagar,94,7
Pramod Nagar,95,5
Bairiguri,146,7
Ghaksapara,105,6
Kadambini TG,79,10
Kanthalbari,177,6
Satpukuria,110,7
Bholardabri I,153,7
Umacharanpur,195,4
Kumargram TE,77,1
Madhya Rangalibazna PHC SC,76,4
Uttar Latabari RH SC,171,2
Kalchini GP,129,3
Hantapara TG,59,5
Bharnobari TG,193,4
Uttar Patkapara,158,4
Birpara No. I GP,108,10
Totopara PHC,130,1
Parengerpar GP,118,6
Satali PHC SC,148,9
Dalmore TG,161,4
Dakshin Nararthali,93,2
Bhatpara,124,10
Birpara  II,138,5
Dalsingpara TE,70,10
Alinagar,192,5
Mairadanga GP,61,9
Bakla,158,6
Barobisha PHC  SC,52,3
Rydak TE I,184,2
West Kathalbari,94,10
East Chikliguri,136,7
Samaj Kalyan,54,8
Barobisha PHC,158,10
Toorsha TG,143,6
Kalchini Modiline,153,9
Dhowlajhora TE,55,10
Bhatibari RH SC,170,1
West Chengmari,79,3
Kumargram PHC  SC,155,7
Totopara PHC SC,55,10
Uttar Parokata,99,1
Kalabari,140,9
Madhya Jitpur,88,8
Radharani TE,181,4
Jasodanga RH SC,105,9
Mechpara 8 No. SC,69,10
Birpara SGH,68,8
Salkumar GP,137,7
Dalmoni Div.,145,4
Baganbari,136,4
Purba Kathalbari,117,2
Jateswar I GP,114,3
Gopalpur TG,159,1
Guabarnagar GP HQ,93,3
Jateswar II GP,109,7
Changpara GP,193,10
Rajabhatkhawa GP,87,8
Bholardabri  II,91,10
Dakshin Chengmari,160,10
Uttar Jitpur,103,2
Bundapani TG,98,8
Birpara TG Division,149,10
Sishujhumra PHC,115,9
Old Hasimara,116,6
Soudpara,111,6
Jaigaon II GP,192,2
Dhulagaon,179,8
Jateswar  SC,160,8
Jharna Basti,155,10
Paschim Satali,57,2
Dhanirampur I GP,73,1
Turturi Khanda,163,9
Majherdabri GP,173,4
Paglarhat,161,9
Beltoli Bhandani,138,10
Pradhanpara,157,6
Ramjhora Bazar,50,5
Pakriguri,130,7
Madhya Satali,72,2
Rajabhat TE,133,6
Jaigaon PHC,68,7
Alipurduar District Hospital,155,10
Barochowki,190,4
Centralduars TE Basra,122,1
West Nararthali,110,5
Gobenerhat,148,1
Netajipally,74,1
Purba Madarihat,116,1
Sankosh TE,128,3
Turturi GP,191,10
North Point,62,5
Chaparerpar II GP,114,8
Jadab Pally,79,10
Mahakalguri,112,2
Dhanirampur II GP,63,3
Khowchandpara,180,1
Choto Salkumar SC,172,9
Nabonagar,195,1
West Falakata,173,5
Chepani,114,5
Pradhanpara,86,3
Bamsidharpur,96,4
Dakshin Kamakhyaguri,179,7
Munsipara PHC SC,162,8
Banchukamari,133,3
Pakuritola,165,10
Rahimabad TE,144,5
Kohinoor GP,54,9
Chilapata,80,9
Velukdabri,165,10
Centralduars TE Hatimara,151,8
East Chepani,199,2
Rydak TE II,157,2
Uttar Panialguri,137,3
Lankapara GP,60,3
Barodaldali,113,9
Boragari,117,9
Nimti TE,75,2
Purba Simlabari,165,10
Ethelbari TG,148,9
Santalabari,198,3
Uttar Kamakhyaguri,61,3
Dakshin Satali,102,2
East Nararthali,58,1
Kumargram PHC,156,8
Dakshin Chakwakheti,123,6
Turturi PHC SC,80,6
Madhya Patkapara,118,6
Dumchipara TG,179,5
West Raichanga,185,7
Latabari GP (Hamiltonganj Depo),172,1
Ballalguri GP,193,7
Birpara TG,189,1
Kalapani,115,10
Kamakshyaguri RH,131,2
Dakshin Dhalkar,125,5
Jointi TE,119,7
Bhatkhawa TE,176,3
Rahimpur TG,110,3
Mujnai TG,159,10
Choto Mechia Basti,169,10
Domanpur,144,10
East Salbari,163,8
Shilbarihat SC,189,6
Chinchula TE,138,1
Chachakhata,137,9
Dimdima TG,101,2
Dakshin Sonapur,107,1
Panchkolguri RH SC,173,8
Kunjanagar,159,6
Kohinoor TG,144,6
Choto Salkumar  PHC,140,3
Kartick TE,77,5
Satali PHC,132,2
Telipara,173,9
Khokla Basti,98,6
Satali TE,189,8
Falakata I GP,75,1
Jaydebpur,117,1
Madhya Kamakhyaguri,69,3
Sidhabari,116,3
Uttar Shibkata,167,5
Nimti Domohani,141,10
Deomali,187,10
Uttar Chhekamari,190,1
Dalgaon GP HQ,59,10
Munshipara PHC,176,5
Madhya Rangalibazna PHC,135,4
Dakshin Parokata,186,4
Lokenathpur,193,5
Nararthali,166,10
Dalgaon Basti,70,5
Dalsingpara GP,71,8
Malangi GP,90,1
Samuktala PHC,127,1
Madarihat RH,61,8
Dhowlajhora Basty,87,1
Nathuatari,99,5
PS Deogaon,167,6
Falakata RH,125,9
Chhoto Daldali,77,3
New Lands TE,163,6
Sishujhumra PHC SC,102,10
Jogendra Nagar,74,3
Turturi PHC,113,5
Madarihat GP,166,2
Uttar Madarihat,134,1
Raimatang TG,92,9
Sarugaon TG,85,10
JATESWAR PHC,70,3
Uttar Majid Khana,99,6
Paschim Khairbari,140,2
Hantapara GP,51,1
Birpara No II GP,67,7
Makrapara TG,67,4
Garopara GP,97,5
Mendabari GP,168,10
Changmaritari,178,1
Chuakhola,90,5
Garganda TG,169,5
Mathura TG,174,4
Jayanti,103,5
Dakshin Rampur,156,5
Mathura TG Division,123,4
Madhya Khairbari,94,3
Dakshin Sishubari,121,5
Birpara I,75,2
Subhaspally,76,3
Natunpara,60,9
Madhya Haldibari,94,9
Thanupara,51,8
Foskadanga,154,3
Lankapara TG,164,4
Islamabad,153,10
South Jitpur,169,8
Madhu TG,131,2
Dakshin Mendabari,133,10
Marakhata,140,4
New line,114,3
Parorpar,93,2
Jaigaon I GP,63,7
Laskarpara,146,9
Samuktala PHC SC,55,10
Subashpally,169,8
Topshikatha,196,8
Madhya Nararthali,136,5
Ghagra,69,2
Uttar Majherdabri,105,2
Uttar Latabari RH,162,6
Ran Bahadur Basti,65,4
Baniadabri,84,8
Joy Birpara TG,185,5
Chaparerpar,163,1
Khalishamari,118,5
Phaskowa TE,89,4
Falakata II GP,175,2
Tasti TG,58,5
Deogaon GP,149,7
Gangutia TE,54,5
Chuapara GP,141,8
Uttar Rangalibazna,138,2
Bhatibari RH,107,3
Lachmandabri,87,8
Kayakhata,97,6
Silbarihat PHC,126,3
Bhutnirghat,168,1
Nangdala TG,96,10
Pukhuria,187,5
Panchkolguri RH,134,7
Chandirjhar,67,10
Patkapara TG,192,9
Atiabari TE,136,1
Guabarnagar,125,3
Dima TE,127,9
Baruipara,136,3
Jasodanga RH,186,1
Subhasini  TE,70,8
Gokulnagar,177,5
Pramod Nagar,76,6
Bairiguri,82,4
Ghaksapara,96,4
Kadambini TG,83,7
Kanthalbari,56,6
Satpukuria,54,7
Bholardabri I,90,3
Umacharanpur,165,1
Kumargram TE,72,9
Madhya Rangalibazna PHC SC,97,7
Uttar Latabari RH SC,163,1
Kalchini GP,181,6
Hantapara TG,164,8
Bharnobari TG,80,9
Uttar Patkapara,177,5
Birpara No. I GP,131,5
Totopara PHC,143,8
Parengerpar GP,125,1
Satali PHC SC,85,7
Dalmore TG,140,2
Dakshin Nararthali,148,8
Bhatpara,174,1
Birpara  II,55,5
Dalsingpara TE,197,2
Alinagar,150,3
Mairadanga GP,114,8
Bakla,140,1
Barobisha PHC  SC,169,9
Rydak TE I,107,2
West Kathalbari,54,2
East Chikliguri,93,2
Samaj Kalyan,196,6
Barobisha PHC,139,4
Toorsha TG,105,5
Kalchini Modiline,117,1
Dhowlajhora TE,99,1
Bhatibari RH SC,142,4
West Chengmari,71,8
Kumargram PHC  SC,150,8
Totopara PHC SC,106,6
Uttar Parokata,186,3
Kalabari,89,8
Madhya Jitpur,95,5
Radharani TE,77,5
Jasodanga RH SC,178,5
Mechpara 8 No. SC,100,6
Birpara SGH,121,6
Salkumar GP,140,1
Dalmoni Div.,61,1
Baganbari,151,2
Purba Kathalbari,159,6
Jateswar I GP,142,4
Gopalpur TG,184,6
Guabarnagar GP HQ,83,8
Jateswar II GP,55,5
Changpara GP,123,10
Rajabhatkhawa GP,173,8
Bholardabri  II,174,5
Dakshin Chengmari,101,7
Uttar Jitpur,108,3
Bundapani TG,90,6
Birpara TG Division,101,10
Sishujhumra PHC,176,8
Old Hasimara,80,6
Soudpara,78,7
Jaigaon II GP,167,3
Dhulagaon,193,10
Jateswar  SC,58,1
Jharna Basti,126,9
Paschim Satali,165,8
Dhanirampur I GP,117,9
Turturi Khanda,185,2
Majherdabri GP,118,3
Paglarhat,100,6
Beltoli Bhandani,185,4
Pradhanpara,161,5
Ramjhora Bazar,80,6
Pakriguri,118,2
Madhya Satali,124,9
Rajabhat TE,51,8
