Health Facility Name,Number_Of_Beds,Rating
KALLIPUR,135,4
lallapura,95,7
jaitpura,97,9
sewasadan,58,3
sadar bazar,91,2
rajghat,135,3
maduadeeh,151,9
durga kund,146,4
bazardiha,67,7
SHIVDASPUR,147,3
ADAMPUR,150,2
ASFAKNAGAR,102,5
BADHI BAZAR,176,7
BENIYA,199,5
BHELUPUR,172,8
CANTOMENT,159,7
KONIYA,131,6
MADANPURA,63,5
Madhawpur,115,3
Mata Anandmayi,168,5
MKU Ardalibazar,71,7
Pandeypur,125,3
Rajghat,134,9
Shivpur,174,5
Sikraul,61,4
Townhall,185,4
Mahmoodpur,92,3
Danupur,72,9
KAMAULI,193,9
Bhatpurva,157,9
Tewar,182,9
Raja pur,86,10
NEWADA,125,6
APHC Kashipur,193,8
Domaila,164,6
Dharahar PHC,96,2
Goppur,112,1
Amba,133,2
CHHITAUNA,72,3
Phoolpur,165,9
Kardhana II,154,5
Basantpur,75,1
Main Centre II,167,9
Devchandpur,186,10
Amaut,85,1
Chaubeypur Khurd,95,7
Balrampur,182,3
Sarayakaji,103,1
Karkhiaon,106,6
Jairam pur,85,8
Bhanpur,51,7
New PHC  GANGAPUR,85,3
Chabeypur Ay.Dis.,60,2
KRISHANDATPUR,95,4
New PHC Bhagwanpur,197,4
KASHIPUR,182,7
Pitari,101,7
Sarawa,181,6
Ramdih,190,6
Pachimpatti (Ramaipatti),146,9
Mukhya -Kendra -Cholapur,185,2
Kashipur,154,5
Goshai Khurd,103,3
Bhagwanpur,131,7
Bhanpur,178,7
Bhagwanpur,83,10
Tisaura,58,6
Danganj Sub C.,66,4
Sultanipur,185,6
Kardhana I,163,6
New PHC Puwaikala,138,5
Harhua I,138,2
Fulwariya,85,7
Bhagwanpur,148,7
Khannaw,69,3
Kudi,83,1
PT. DEEN DAYAL UPADHYAY GOVT HOSPITAL,150,4
Basaon,184,1
BARAI,101,6
Raghunathpur,115,1
Shahapur II,55,7
Bihada,124,7
Parsara,155,9
CHHITAUNA,84,8
Chittampur,63,8
Gadhkhara,180,3
Kaithi,150,8
Gosaipur Mohav,131,8
ShreeNath Pur,177,4
Hariharpur,186,9
Hathiyar,92,1
kadipur,187,8
PAYAGPUR,164,5
Todarpur,167,9
Palahi Patti,58,1
Dhuripur-Baluwa,66,8
Sikhari,140,9
Atesua,100,10
Bhikhipur,69,6
GOBARAHA,94,2
CHAKKHARAWAN,79,7
Jagidishpur,102,5
Lakhanpur,66,7
BHIKHAMPUR,194,10
A. PHC PACHWAR,103,2
Devchandpur,151,4
HARASOS,70,9
Changwar,138,3
Karsara,188,1
Pachavar,155,7
MALHATH,93,3
Ghoghari,84,5
Gokulpur,138,10
Tikirikala,148,10
Rajpur,181,5
KORAUT,140,4
Sadho Ganj,164,3
Durjanpur,131,8
Chamauv,130,6
GURUDASPUR,99,1
Sarsawa,113,8
Danganj,115,1
SALARPUR,184,8
Gauhura,185,2
SAHANSAHPUR,106,8
Madhumkkhiya,144,8
Bhadwa,176,9
Belawa,72,1
Lalpur,108,5
Bhatti,184,5
ASWARI,198,3
Puwarikhurd,186,9
Nehiyaan,179,3
CHC MCH,144,10
Mhagaon,50,6
Hardattpur,177,10
Ukathi,169,10
PHULPUR,199,8
Barthara Khurd,180,5
Khalispur,90,10
Babiyaw,142,10
Lohata Rahimpur,99,9
New PHC GANGAPUR,140,6
Narayanpur,167,6
Chhatari Manapur,127,7
Bachaura,176,7
Mirzamurad,195,7
Kabirampur,198,9
Kanakpur,196,5
Dabethua,195,4
BHAGTUA,190,10
Dhudhuwa,193,2
Narottmpur,89,1
KHULASPUR,152,7
Thathara II,152,9
Jamapur,123,7
Bhikharipur,152,10
Awasanpur,110,1
PARMANDAPUR,160,8
Baluya,166,8
Mawaiya,68,5
Hiramanpur,65,10
LEDHUPUR,168,3
S.S.P.G. DIV. DIST. HOSPITAL,186,2
Pallia Shambhupur,153,1
Bhikhampur,91,9
Garthama,99,2
Sakalpur,114,9
Kuru,111,5
Gajhokhar,197,10
CHHITAUNI,109,8
Cholapur MCH,181,2
Shahpur I,159,2
Lohata,77,9
kushai,188,6
Pindrai,197,3
SINGHWAR,106,9
Rameshawar 2,92,5
GOBARAHA,180,10
Sarai,170,10
Buchhi,75,2
SANKARPUR,90,1
Rajatalab-Araziline,136,8
MEHADIGANJ,192,2
Dilawalpur,94,4
Janasa,199,7
APHC Hiramanpur,167,1
BHAWANIPUR,62,3
Badaura,198,1
Son Barasa,134,2
NARAICHA,102,5
MCH Main Centre,83,5
Sindhora,166,6
Babatpur,134,1
Shreekanthpur,93,5
New PHC  Kadipur,93,4
Niiyar Sub Center,78,1
RAMCHANDIPUR,71,10
Barki,162,5
Cholapur-Niyar,133,1
KURAUNA,63,6
SARSAUL,54,10
Singhpur,112,10
Amrakhaira,179,7
Ajgara - I,163,8
Kutauna,51,3
Cholapur F.Planning,86,9
SAJOI,155,3
Bhathauli,168,4
PHC Pindra,69,3
Thathara I,185,4
Kalika Dham,180,6
Garthauli,131,4
CHC CHIRAIGAUON,122,7
Lahartara,123,2
KANDAWA,55,10
SARAIKAZI,177,9
Undi,91,5
Mohanpur,108,3
Nandapur,78,8
Tadi,190,2
Daniyal Pur,164,4
Sattanpur,181,8
Ghamahapur,50,1
Govindpur,170,6
Main Centre I,96,1
Rajpur,73,3
Saraisheikhlard,172,8
KHALISHPUR,73,10
BHITKURI,99,4
Bedi,76,4
Mangari,184,2
KHARAGRAMPUR,134,10
Babaatpur,160,5
Barema,62,10
Rajwari,56,10
Ramsinghpur,167,6
Dharahar MCH,175,7
Barahi Nivada,68,2
Manyari Pur,174,8
New PHC  JAGARDEOPUR,119,7
Nathai Pur,168,8
DAREKHU,88,3
CHIRAIGAUON,151,5
Belwariya,54,6
Benipur,148,2
Bhabhiyar,91,10
KAPARFORWA,72,5
Amini,184,4
Niyar PHC,59,6
Belvan,150,4
Patirajpur,85,1
Rauna Khurd,169,2
Rameshawar 1,88,6
HIRAMANPUR,97,1
Dulhipur,124,10
Uday Pur,162,8
Bashni,123,10
Shivram pur,156,8
Ugapur,131,5
New PHC Rajatalab,156,7
Ahirouli,172,7
Marui,55,7
Sabhaipur,187,9
Bargaon,100,2
PHC Gangapur,52,3
Barahi Kala,80,7
Hathi,116,4
Kushumara,94,3
Veerbahnpur,192,1
Aharakh,69,1
Thana,63,9
New PHC MIRZAMURAD,141,2
Viraonkot,95,8
Roopchandpur,142,8
Katirao,78,7
Bikapur,50,7
Rasoolpur,183,6
Puranpatti,105,7
Aneyee,56,8
Jhanjhour,60,10
DISTRICT WOMEN HOSPITAL VARANASI,115,4
New PHC Chitaipur,191,8
Dhananjay Pur,76,3
Harhua II,119,10
Gangapur,76,5
Bandey Pur,75,2
Munari,197,7
Ghamaha pur,62,1
KORAUTI,119,4
Kapsathi,196,3
Tarsada,151,3
Puwarikala-Harhua,183,5
Maharajpur,133,3
Jathi,51,3
Hadiya Deeh,70,8
Tewar,63,10
kachnar,193,9
Panditpur,188,5
Puwaikala,138,4
LAHIYA,120,4
PANIYARA,108,8
Shivdaspur,121,3
Hathi Bhatauli,171,2
DELHANA,170,10
Ishi Pur,92,3
Basantpur,98,8
Barhi Nevada,179,8
Danoo Pur,135,6
Ganeshpur,71,7
Tendui,182,6
Surhi,184,6
Lamahi,107,5
Belari,199,3
Barji,104,7
Barthara Kala,199,4
Gharpur,58,8
Pisaur,156,8
Chhitupur,132,2
UMARAHA,95,10
Ajgara - II,55,6
Mahagaon,121,10
Virav Kot,186,3
Ayar,194,9
New PHC  PAYAGPUR,122,8
Balua,90,10
Bhiti,160,7
New PHC MAHAGAON,116,4
New PHC Haruhua,181,9
BHATSAR,140,8
Mohansarai,146,2
Bhorkala,189,7
Kakarmatta,92,3
Imlia,184,5
Katari,132,7
Danganj PHC,64,9
RUPAPUR,75,6
Dharahar,186,1
Paterawan,183,6
Jagdishpur,120,6
Jagardeopur,69,4
Lodhan,103,10
Chaubeypur,196,2
Barwaan,64,10
Misirpur,193,5
Parsadpur,160,8
Ahirauli,133,3
Ghajapur,78,2
KUNDARIYA,140,5
Kerakat pur,166,3
Karmi,56,10
Gosai,71,10
Hazipur,123,3
Lokapur,176,4
Gurvat,52,10
BHADAINI KHURD,55,3
KHEWALI,86,10
KODOPUR,155,7
Ayar,85,6
Bhitkuri,164,8
MAROI,150,6
Basnt Patti,186,5
JALHUPUR,91,3
Munari,141,7
Ramna,168,6
Seer Goverdhanpur,132,8
Hridayapur,86,5
MUSTAFABAD,184,1
Chilbila,87,1
PHC Mahagaon,109,4
Chhahi,98,5
Koiripur,58,6
Madhopur,145,10
KALLIPUR,155,5
lallapura,162,5
jaitpura,61,8
sewasadan,159,6
sadar bazar,145,5
rajghat,146,1
maduadeeh,154,5
durga kund,78,10
bazardiha,120,2
SHIVDASPUR,71,9
ADAMPUR,98,8
ASFAKNAGAR,143,9
BADHI BAZAR,161,5
BENIYA,50,7
BHELUPUR,75,1
CANTOMENT,50,7
KONIYA,124,7
MADANPURA,173,6
Madhawpur,97,6
Mata Anandmayi,78,7
MKU Ardalibazar,81,7
Pandeypur,86,7
Rajghat,159,3
Shivpur,69,3
Sikraul,113,8
Townhall,70,7
Mahmoodpur,65,8
Danupur,85,3
KAMAULI,70,6
Bhatpurva,142,7
Tewar,195,4
Raja pur,150,2
NEWADA,172,9
APHC Kashipur,156,7
Domaila,199,9
Dharahar PHC,177,10
Goppur,177,5
Amba,88,6
CHHITAUNA,63,9
Phoolpur,111,2
Kardhana II,112,8
Basantpur,77,8
Main Centre II,106,10
Devchandpur,124,5
Amaut,151,4
Chaubeypur Khurd,107,8
Balrampur,61,1
Sarayakaji,182,2
Karkhiaon,155,5
Jairam pur,198,3
Bhanpur,191,9
New PHC  GANGAPUR,88,3
Chabeypur Ay.Dis.,90,10
KRISHANDATPUR,191,7
New PHC Bhagwanpur,179,4
KASHIPUR,131,4
Pitari,83,4
Sarawa,76,9
Ramdih,54,8
Pachimpatti (Ramaipatti),101,10
Mukhya -Kendra -Cholapur,117,9
Kashipur,167,8
Goshai Khurd,102,1
Bhagwanpur,199,9
Bhanpur,147,9
Bhagwanpur,60,3
Tisaura,83,8
Danganj Sub C.,86,8
Sultanipur,94,6
Kardhana I,139,10
New PHC Puwaikala,84,6
Harhua I,114,8
Fulwariya,98,1
Bhagwanpur,170,6
Khannaw,125,3
Kudi,148,9
PT. DEEN DAYAL UPADHYAY GOVT HOSPITAL,115,2
Basaon,109,7
BARAI,112,10
Raghunathpur,180,2
Shahapur II,83,10
Bihada,159,9
Parsara,154,2
CHHITAUNA,140,5
Chittampur,67,9
Gadhkhara,143,6
Kaithi,165,9
Gosaipur Mohav,109,7
ShreeNath Pur,114,9
Hariharpur,86,6
Hathiyar,171,3
kadipur,161,10
PAYAGPUR,115,5
Todarpur,129,7
Palahi Patti,87,1
Dhuripur-Baluwa,83,4
Sikhari,140,3
Atesua,94,5
Bhikhipur,157,10
GOBARAHA,108,6
CHAKKHARAWAN,68,1
Jagidishpur,190,8
Lakhanpur,124,5
BHIKHAMPUR,189,1
A. PHC PACHWAR,79,6
Devchandpur,67,2
HARASOS,125,9
Changwar,144,4
Karsara,54,5
Pachavar,138,10
MALHATH,118,2
Ghoghari,118,5
Gokulpur,90,2
Tikirikala,117,3
Rajpur,96,6
KORAUT,166,6
Sadho Ganj,148,2
Durjanpur,108,8
Chamauv,94,6
GURUDASPUR,55,4
Sarsawa,92,10
Danganj,99,7
SALARPUR,179,8
Gauhura,139,7
SAHANSAHPUR,57,4
Madhumkkhiya,182,7
Bhadwa,60,2
Belawa,112,8
Lalpur,55,4
Bhatti,81,7
ASWARI,101,4
Puwarikhurd,75,8
Nehiyaan,96,10
CHC MCH,169,3
Mhagaon,118,8
Hardattpur,98,4
Ukathi,153,1
PHULPUR,193,1
Barthara Khurd,122,2
Khalispur,131,10
Babiyaw,95,6
Lohata Rahimpur,121,10
New PHC GANGAPUR,116,10
Narayanpur,70,3
Chhatari Manapur,102,4
Bachaura,187,4
Mirzamurad,164,6
Kabirampur,103,4
Kanakpur,77,5
Dabethua,106,6
BHAGTUA,120,4
Dhudhuwa,99,9
Narottmpur,173,8
KHULASPUR,175,3
Thathara II,138,4
Jamapur,86,7
Bhikharipur,127,4
Awasanpur,141,2
PARMANDAPUR,109,2
Baluya,187,6
Mawaiya,119,10
Hiramanpur,122,10
LEDHUPUR,172,7
S.S.P.G. DIV. DIST. HOSPITAL,102,7
Pallia Shambhupur,74,7
Bhikhampur,157,6
Garthama,94,4
Sakalpur,185,7
Kuru,161,8
Gajhokhar,62,4
CHHITAUNI,86,10
Cholapur MCH,152,10
Shahpur I,55,3
Lohata,173,10
kushai,165,8
Pindrai,156,10
SINGHWAR,68,6
Rameshawar 2,105,2
GOBARAHA,60,1
Sarai,135,9
Buchhi,103,7
SANKARPUR,192,1
Rajatalab-Araziline,177,5
MEHADIGANJ,198,7
Dilawalpur,136,7
Janasa,192,2
APHC Hiramanpur,87,1
BHAWANIPUR,98,3
Badaura,53,2
Son Barasa,191,7
NARAICHA,81,3
MCH Main Centre,76,1
Sindhora,149,2
Babatpur,101,1
Shreekanthpur,87,7
New PHC  Kadipur,137,1
Niiyar Sub Center,54,9
RAMCHANDIPUR,130,9
Barki,192,9
Cholapur-Niyar,64,10
KURAUNA,70,9
SARSAUL,74,6
Singhpur,71,7
Amrakhaira,156,5
Ajgara - I,84,2
Kutauna,102,5
Cholapur F.Planning,124,8
SAJOI,97,10
Bhathauli,50,10
PHC Pindra,134,9
Thathara I,150,7
Kalika Dham,162,3
Garthauli,167,9
CHC CHIRAIGAUON,157,9
Lahartara,135,7
KANDAWA,75,4
SARAIKAZI,60,10
Undi,80,1
Mohanpur,90,6
Nandapur,181,7
Tadi,58,7
Daniyal Pur,101,6
Sattanpur,181,4
Ghamahapur,169,5
Govindpur,53,4
Main Centre I,144,1
Rajpur,179,7
Saraisheikhlard,151,3
KHALISHPUR,67,8
BHITKURI,68,9
Bedi,183,5
Mangari,181,5
KHARAGRAMPUR,113,9
Babaatpur,94,2
Barema,119,10
Rajwari,116,9
Ramsinghpur,99,2
Dharahar MCH,159,3
Barahi Nivada,81,10
Manyari Pur,81,1
New PHC  JAGARDEOPUR,177,7
Nathai Pur,62,8
DAREKHU,95,9
CHIRAIGAUON,151,3
Belwariya,150,10
Benipur,163,8
Bhabhiyar,116,3
KAPARFORWA,156,4
Amini,121,6
Niyar PHC,132,3
Belvan,185,3
Patirajpur,87,4
Rauna Khurd,77,6
Rameshawar 1,78,7
HIRAMANPUR,54,8
Dulhipur,115,1
Uday Pur,133,7
Bashni,173,4
Shivram pur,184,1
Ugapur,177,8
New PHC Rajatalab,193,7
Ahirouli,74,2
Marui,117,8
Sabhaipur,119,2
Bargaon,132,2
PHC Gangapur,151,10
Barahi Kala,153,9
Hathi,159,8
Kushumara,57,5
Veerbahnpur,122,2
Aharakh,95,9
Thana,108,3
New PHC MIRZAMURAD,192,10
Viraonkot,79,7
Roopchandpur,171,8
Katirao,144,6
Bikapur,145,3
Rasoolpur,122,7
Puranpatti,170,10
Aneyee,86,8
Jhanjhour,54,2
DISTRICT WOMEN HOSPITAL VARANASI,96,2
New PHC Chitaipur,85,10
Dhananjay Pur,132,2
Harhua II,68,2
Gangapur,198,4
Bandey Pur,190,8
Munari,170,1
Ghamaha pur,153,7
KORAUTI,180,2
Kapsathi,118,4
Tarsada,105,10
Puwarikala-Harhua,151,4
Maharajpur,132,10
Jathi,113,8
Hadiya Deeh,199,9
Tewar,120,2
kachnar,113,1
Panditpur,139,5
Puwaikala,136,8
LAHIYA,141,8
PANIYARA,102,10
Shivdaspur,172,6
Hathi Bhatauli,196,8
DELHANA,179,6
Ishi Pur,162,8
Basantpur,126,3
Barhi Nevada,182,3
Danoo Pur,133,9
Ganeshpur,108,1
Tendui,137,10
Surhi,72,4
Lamahi,71,5
Belari,145,10
Barji,165,5
Barthara Kala,150,6
Gharpur,169,7
Pisaur,192,3
Chhitupur,125,2
UMARAHA,151,8
Ajgara - II,78,10
Mahagaon,53,7
Virav Kot,143,4
Ayar,186,8
New PHC  PAYAGPUR,109,7
Balua,196,3
Bhiti,125,8
New PHC MAHAGAON,120,1
New PHC Haruhua,70,4
BHATSAR,199,8
Mohansarai,103,4
Bhorkala,67,2
Kakarmatta,167,10
Imlia,57,3
Katari,125,5
Danganj PHC,186,3
RUPAPUR,126,10
Dharahar,85,4
Paterawan,80,4
Jagdishpur,137,7
Jagardeopur,162,10
Lodhan,144,3
Chaubeypur,62,5
Barwaan,166,4
Misirpur,186,7
Parsadpur,76,10
Ahirauli,60,9
Ghajapur,108,6
KUNDARIYA,107,1
Kerakat pur,71,1
Karmi,129,8
Gosai,176,2
Hazipur,161,5
Lokapur,165,10
Gurvat,153,3
BHADAINI KHURD,62,1
KHEWALI,190,4
KODOPUR,113,7
Ayar,119,6
Bhitkuri,175,10
MAROI,133,7
Basnt Patti,190,8
JALHUPUR,176,5
Munari,138,1
Ramna,63,5
Seer Goverdhanpur,97,5
Hridayapur,61,7
MUSTAFABAD,56,8
Chilbila,114,6
PHC Mahagaon,50,9
Chhahi,166,4
Koiripur,135,7
Madhopur,117,9
