Health Facility Name,Number_Of_Beds,Rating
Super speciality Hospital,139,1
Super speciality Hospital,109,2
dr. babasaheb ambedkar hospital and research center nagpur,102,1
Indira gandhi rugnalaya nagpur,136,9
Saoner MCL,111,8
Sirsi,173,1
Guguldoh,70,9
Mohapa,199,2
RH Kalmeshwar,64,2
Mahal Diagnostic Centre,101,2
Wadoda,78,6
Dighori UPHC,154,5
Kalambi,183,5
Ajani,85,7
Sawargaon,178,5
Khasada,62,1
Shiva,135,1
Rewaral,112,1
Kothurna,55,4
Godhni Railway,175,2
Bhandarbodi,79,7
Kotewada,153,3
Kachurwahi,64,4
Titur,122,9
Takalghat,113,9
Khairgaon,79,7
Umri,94,1
Belda,121,1
Garib Nawaz Nagar UPHC,52,5
Digras bu,97,2
Kapil Nagar UPHC,180,8
Dhamangaon (v),76,2
Pachkhedi (Ga),193,8
Bhandarbodi,178,2
Shirpur,64,7
Yenva,184,9
Cotton Market Ayur. Dispensary,107,9
Somalwada UPHC,60,7
Mendhala,159,6
Pachgaon,88,8
Mowad,54,9
Badegaon,191,8
Belona,114,2
Koradi New,198,7
Awandi,140,5
Pusagondi,175,5
Daga Memorial Hospital HP,101,7
Jalalkheda,172,7
Salwa,50,4
Musalgaon,123,9
RH Parshivani,138,4
Isapurkhu,191,6
Borda,163,7
Baba Taj Bag UPHC,95,7
Chapegadi,71,3
Veltur,192,9
Aroli,192,6
Rajola,150,3
Hevati,164,4
Kandri,94,9
Hardoli (Na),184,8
Kacharisawanga,69,10
Navegaonkhairi,179,7
Yenva,117,1
Bhugaon,132,8
Sawargaon,74,1
RH Narkhed,153,4
Tuman,92,6
Silli,54,5
Parsad,105,10
Sadar Diagnostic Centre,102,4
SDH Kamptee,120,2
Mahuli,137,4
Govt. Ayurvedic college and hospital,176,5
Kondhali,98,6
Karwahi,126,7
Mominpura UPHC,185,7
Khaparkheda,118,9
Kodamendhi,85,10
Bondri,53,8
Yerkheda,112,3
Karanbhad,104,1
Vyahad,106,2
Mahendi,164,3
Gowari,84,1
Adyal,192,3
Mohpa,189,1
Niharwani,154,4
Dorli(Bhandwalkar ),139,9
Raipur,58,4
Makardhokda,176,7
Mehandibag UPHC,68,9
Nagpur Homiopathic College and hospital NGO HP,94,2
Devalapar,190,7
Dhanala,167,2
Mandhal,106,7
Takalghat,151,4
Rualgao,132,10
RH Kalameswar,173,2
Chacher,120,3
Gumthala,178,10
Bordoh,181,5
Umriwagh,122,1
Kandri,183,9
Indora Allopathic Dispensary,96,3
Dick Allopathic Dispensary,95,6
Kuhi,90,8
Borkhedi,128,9
Old Mangalwari Dispensary,139,2
Kundanlal Gupta Nagar New HP,123,9
Adam,51,4
Navegaonkhairi,100,9
Shedeshwar,133,6
Karwahi,177,5
Khairi Pannase,77,5
Dorli  Bhi.,169,8
Mahalgaon,103,3
Tarana,188,5
Uparwahi,89,2
Nishanghat,173,10
Timki Ayur. Dispensary,65,4
Kanhan,118,8
Pardide,129,7
Malewada,195,5
Dhawlapur,196,3
Khursapar Kondhali,151,3
Pachgaon,50,1
Babulkheda UPHC,102,6
Dhanoli,146,5
Tanda,172,2
Hiwarabazar,171,6
RH Katol,104,8
Ghoti,146,10
Ambhora Khurd,156,3
Borgaon,169,4
Khumari,103,2
Jalalkheda,57,2
Budhwari Female Dispensary,176,5
Nagardhan,101,2
Khapa (N),174,4
DhahegaonJoshi,105,4
Kotchi,187,3
Dongargaon,183,5
Dhapewadakhu.,133,2
Koradi Old,88,5
Jaitala New UPHC,189,2
Thana Mandhal SC,149,3
Bandra,74,4
Pipala,150,2
Waroda,194,7
Borkhedi,174,3
Bhivapur,182,9
Yenikoni,77,3
Ridhora,96,7
Indira Gandhi Rugnalaya NMC,191,6
Gumthala,197,4
Rohana,59,9
Dharmapur,154,9
Gumthala1,139,5
Futala UPHC,165,1
Junikamptee,73,8
Parshivani,134,6
Kacharisawanga,54,7
Mondha,73,8
Saleshari,78,2
Khairi Dhalgaon,147,2
Dongarmouda,133,2
Nagardhan,117,9
Masod,70,7
Choni Homeo. Dispensary,122,7
Kohali,129,8
Lawha,81,9
Mendha,62,5
Khapri,149,9
Kondhasawli,67,7
Temasna,111,2
Dhaparla (V),50,4
Dudhala,151,7
Masala,75,9
Mandavi,68,6
Amgaon,51,2
Buty Allopathic Dispensary,122,2
Sonegaon,121,10
Kujaba,116,6
Kelwad,138,10
Mahalgaon,68,10
Nimkheda,62,7
Tarodi,87,4
UHP Khare Tarkunde Nagar RCH Centre,138,4
Bothli,124,3
Mendki,73,1
Azad Nagar UPHC,152,8
Badegaon,92,7
Kolitmara,113,10
Khapa,71,1
Women Hospital Nagpur,73,2
RH HINGANA,185,4
Mahendri,74,4
Dongari,65,8
Nagrik Sahkari Rugnalaya NGO HP,74,5
Pachpaoli Maternity Home,181,2
Bramhani,153,1
Mohgaon,79,5
Adegaon,102,3
Chakole Allopathic Dispensary,149,6
Gharatwada,143,4
Saleghat,65,4
Ubali,143,1
Khat,112,1
Kondamendhi B,189,3
Khairi bijewada,78,8
Degmakhurd,121,4
Khalasna,85,8
Palora,117,3
Tamaswadi,178,3
Kodegaon,157,8
Bela,149,10
Mowad,68,4
Sindhi,166,8
Dorli,173,10
Indira Gandhi Medical College and Hospital,185,4
Indira Gandhi Medical College,64,6
Ladgao,125,1
Shivapur,69,8
Khursapar,186,7
Salaidhaba,99,4
Shanti Nagar Allopathic Dispensary,73,1
Mansar,199,2
Gumthi,148,9
Khairi,87,9
SDH Ramtek,176,6
Matru sewa sangh Sitaburdi NGO HP,72,9
Kharsoli,67,5
Mansar,166,1
Wag,87,3
Sawangi Khurd,162,5
Shirul,93,7
Mahal Homeo. Dispensary,52,3
Pardsinga,94,7
Sitapur,79,5
Shivani,129,1
Suradevi,69,10
Tishti,93,9
Matru sewa sangh Mahal NGO HP,82,5
Pipala,191,8
NMC - Pachpaoli Maternity Home,156,5
Sihora,125,1
Asola,154,1
Satak,132,6
Pipariya,103,2
Pardi Ayur. Dispensary,54,10
Coalmine,82,6
Hiwarabazar,160,1
Gondkhairi,108,6
Dhamangaon,111,7
Ajani,139,5
Dawasa,101,3
Tekadi,180,10
Walani,197,8
Jiwanapur,157,4
Somanala,153,8
Wadgaon,188,9
Sawalikhu,86,2
Susundri,90,1
Linga,57,7
Gondkhairi,81,5
Bazargaon,165,8
RH Bhiwapur,78,3
Kawdas,167,9
Bela,157,1
Kargaon,189,4
Bhanegaon,148,5
Pullar,85,2
Fetari,174,9
Gonha,120,2
Shanti Nagar Homeo. Dispensary,58,8
Sirsi,154,7
Aamgaon,163,9
Babulkheda Homeo. Dispensary,139,9
Binaki Female Dispensary,164,9
Janta Maternity home and hospital NGO HP,128,3
Bharsingi,186,9
Bhishnur,158,3
Wanjara,97,9
Issolation Hospital,71,1
Valambha,96,6
Thadipavani,154,7
Dudhala Kondhali,186,2
Zilpa,162,2
Jawali,99,3
Hivara,110,8
Wandali,88,7
Tinkheda,195,9
Kinhala,158,9
Dhamana,171,3
New Bagdaganj UPHC,88,2
Zingabai Takali UPHC,54,8
Kanholibara,176,8
Naxi,142,6
Malani,83,6
Chichala,141,10
Khangaon,104,4
Babdev,157,1
Apatur,113,10
Warda,113,1
Gumgaon,148,5
Digdoh,167,10
Adegaon,67,9
Mahadula,152,4
Parsodi,102,2
Anjangaon,150,1
Pota,150,1
Butibori Old,81,10
RH Umred,112,7
Dipti Signal UPHC,156,10
Dhapewada,68,9
Salai,184,8
Borgaon khu.,157,10
Health Unit Saoner,123,1
Hazaripahad UPHC,194,3
Besur,125,1
Jatamkhora,130,4
Mathani,192,5
Navegaon,124,1
Khaprigandhi,78,7
Bhorgad,163,10
Gagner,118,8
Babulban Ayur. Dispensary,77,9
Salai,143,10
Palasawali,85,2
Khapa-Khapa,50,9
Mahurzari,104,5
Gothangaon,196,7
Nildoh,107,2
Virli,133,7
Amdi,144,2
Waki,137,1
Makardhokda,169,8
Telgaon,139,4
Butibori (New),91,7
Champa,117,3
DahegaonJoshi,118,7
Kanhalgaon,105,1
Sonegaon,150,1
Titur,160,2
Jaripatka Allopathic Dispensary,137,8
Chicholi,90,1
Nand,105,1
Khamla Ayur. Dispensary,170,1
Govt. Medical College and Hospital,96,9
RH Deolapar,184,6
Ramthi,170,3
Kelwad,189,2
Dalavi Hospital NGO HP,192,1
Telkamptee,132,8
Jawali,180,7
UHP Hiwari Nagar (Babulban)UPHC,170,2
Panjara,167,7
Dighori,132,10
Murti,174,5
Ambadi,173,1
Musewadi,152,10
Manegaon,136,4
Chicholi,72,3
Khubala,151,1
Dharmapuri,86,6
Gaddigodam Dispensary,55,4
Fegad,126,1
E S I S Hospital,132,5
Ambada Deshmukh,56,2
Mouda,116,2
Godhni,179,10
Umari,97,2
Lonkhairi,192,4
Patansavangi,100,9
Wadhvihira,196,6
Mangarul,54,9
Ashta,80,6
Adasa,112,1
Isapur,122,5
RH Kuhi,175,6
Netaji Allopathic Dispensary,113,9
Garamsur Kondhali,180,3
Raipur,173,9
Dhanla,52,1
Kalamana,129,2
Shende Nagar UPHC,72,9
Bina,129,3
Sawarmendha,112,4
Telangkhedi Ayur. Dispensary,50,5
Nagpur Homeopathy College and Hospital NGO HP,163,3
Loharisawanga,137,7
Pipara,86,7
Salwa,93,7
Joga,75,3
Dewali Pendhari,56,3
Nimkheda,144,6
Patgowari,112,4
Kondhali,63,2
Bidipeth UPHC,91,3
Nandanvan (Darshan Colony) RCH Center,162,2
Narhar,127,7
Nanda,101,10
Khapa,95,8
Dorli,86,5
Mahadula,142,6
Wakodi,75,1
Dongargaon,170,10
Sonegaon Lodhi,122,9
Thugaon Dev,196,4
Tarsa,178,2
Pathrai,116,5
Mouda,106,2
Veltur,114,5
Sirsi,86,4
Mandhal,170,1
Davha,198,1
Mendhala,153,7
Pipri,171,1
Sillewada,78,5
Yerladhote,157,7
PIMPLA KEVALRAM,163,2
Ambazari Ayur. Dispensary,79,6
Pithori,135,2
Kanholibara,148,5
Satak,152,8
Dahegaon,176,3
Singarkheda,157,4
Pachpaoli Ayur. Dispensary,157,8
Jamgaon,180,6
Nand,183,10
Mandri,61,4
Hansapuri Ayur. Dispensary,100,7
dhahoda,177,10
Bhamewada,79,9
Lalganj Ayur. Dispensary,129,10
Patansavangi,59,2
Khat,81,1
Vihirgaon,174,5
Malegaon,81,7
Bhaldarpura UPHC,191,5
Wadi,182,2
Nagalwadi,187,10
Lodha,63,1
Sironji,184,3
Neri,165,6
Bhagwanpur,163,6
Mendhepathar,174,7
Daji  Allopathic Dispensary,94,7
Kotodi,112,2
Tangala,119,1
Khandala,130,3
Super speciality Hospital,182,10
Super speciality Hospital,75,4
dr. babasaheb ambedkar hospital and research center nagpur,191,2
Indira gandhi rugnalaya nagpur,78,9
Saoner MCL,144,1
Sirsi,129,7
Guguldoh,54,2
Mohapa,67,2
RH Kalmeshwar,177,7
Mahal Diagnostic Centre,70,2
Wadoda,191,10
Dighori UPHC,87,8
Kalambi,80,6
Ajani,147,10
Sawargaon,87,3
Khasada,141,4
Shiva,107,1
Rewaral,160,9
Kothurna,185,5
Godhni Railway,124,3
Bhandarbodi,186,3
Kotewada,58,8
Kachurwahi,97,8
Titur,112,4
Takalghat,103,2
Khairgaon,158,7
Umri,172,8
Belda,132,6
Garib Nawaz Nagar UPHC,84,1
Digras bu,155,9
Kapil Nagar UPHC,125,1
Dhamangaon (v),183,3
Pachkhedi (Ga),91,3
Bhandarbodi,111,5
Shirpur,63,10
Yenva,129,4
Cotton Market Ayur. Dispensary,162,3
Somalwada UPHC,129,3
Mendhala,154,5
Pachgaon,99,6
Mowad,173,7
Badegaon,197,5
Belona,123,3
Koradi New,70,3
Awandi,157,4
Pusagondi,92,3
Daga Memorial Hospital HP,82,5
Jalalkheda,118,6
Salwa,64,7
Musalgaon,84,1
RH Parshivani,158,5
Isapurkhu,172,10
Borda,62,1
Baba Taj Bag UPHC,181,1
Chapegadi,138,7
Veltur,197,10
Aroli,192,7
Rajola,174,9
Hevati,107,7
Kandri,91,9
Hardoli (Na),194,6
Kacharisawanga,147,3
Navegaonkhairi,91,1
Yenva,147,2
Bhugaon,69,4
Sawargaon,183,6
RH Narkhed,59,1
Tuman,100,2
Silli,107,8
Parsad,160,6
Sadar Diagnostic Centre,56,5
SDH Kamptee,59,2
Mahuli,70,10
Govt. Ayurvedic college and hospital,59,9
Kondhali,63,8
Karwahi,156,9
Mominpura UPHC,84,6
Khaparkheda,105,6
Kodamendhi,103,7
Bondri,116,4
Yerkheda,80,8
Karanbhad,131,2
Vyahad,116,10
Mahendi,166,5
Gowari,59,2
Adyal,148,2
Mohpa,172,9
Niharwani,105,10
Dorli(Bhandwalkar ),139,3
Raipur,177,3
Makardhokda,130,2
Mehandibag UPHC,178,8
Nagpur Homiopathic College and hospital NGO HP,184,8
Devalapar,162,8
Dhanala,76,3
Mandhal,77,1
Takalghat,154,4
Rualgao,178,6
RH Kalameswar,51,2
Chacher,68,4
Gumthala,178,1
Bordoh,140,3
Umriwagh,142,5
Kandri,119,10
Indora Allopathic Dispensary,164,2
Dick Allopathic Dispensary,187,9
Kuhi,126,5
Borkhedi,158,3
Old Mangalwari Dispensary,197,4
Kundanlal Gupta Nagar New HP,172,4
Adam,83,8
Navegaonkhairi,119,6
Shedeshwar,117,10
Karwahi,164,10
Khairi Pannase,83,10
Dorli  Bhi.,124,9
Mahalgaon,108,9
Tarana,189,7
Uparwahi,142,6
Nishanghat,86,4
Timki Ayur. Dispensary,94,6
Kanhan,156,2
Pardide,102,1
Malewada,160,4
Dhawlapur,154,5
Khursapar Kondhali,194,6
Pachgaon,93,9
Babulkheda UPHC,84,5
Dhanoli,146,3
Tanda,78,5
Hiwarabazar,143,3
RH Katol,75,7
Ghoti,84,2
Ambhora Khurd,198,2
Borgaon,178,6
Khumari,194,7
Jalalkheda,70,6
Budhwari Female Dispensary,180,2
Nagardhan,78,4
Khapa (N),174,5
DhahegaonJoshi,86,8
Kotchi,82,9
Dongargaon,131,10
Dhapewadakhu.,164,1
Koradi Old,123,2
Jaitala New UPHC,83,8
Thana Mandhal SC,138,1
Bandra,86,7
Pipala,179,9
Waroda,119,3
Borkhedi,98,1
Bhivapur,193,1
Yenikoni,75,2
Ridhora,59,6
Indira Gandhi Rugnalaya NMC,129,9
Gumthala,103,4
Rohana,113,10
Dharmapur,147,9
Gumthala1,174,10
Futala UPHC,179,5
Junikamptee,152,5
Parshivani,89,6
Kacharisawanga,106,3
Mondha,50,9
Saleshari,62,4
Khairi Dhalgaon,64,6
Dongarmouda,55,4
Nagardhan,100,8
Masod,76,9
Choni Homeo. Dispensary,55,5
Kohali,158,2
Lawha,111,7
Mendha,181,10
Khapri,182,8
Kondhasawli,168,1
Temasna,123,6
Dhaparla (V),165,9
Dudhala,152,2
Masala,192,6
Mandavi,94,5
Amgaon,102,2
Buty Allopathic Dispensary,159,4
Sonegaon,132,10
Kujaba,57,6
Kelwad,176,6
Mahalgaon,132,6
Nimkheda,185,1
Tarodi,168,5
UHP Khare Tarkunde Nagar RCH Centre,64,2
Bothli,89,6
Mendki,134,5
Azad Nagar UPHC,148,3
Badegaon,144,7
Kolitmara,150,6
Khapa,90,5
Women Hospital Nagpur,76,10
RH HINGANA,125,2
Mahendri,84,9
Dongari,117,8
Nagrik Sahkari Rugnalaya NGO HP,170,5
Pachpaoli Maternity Home,95,8
Bramhani,114,3
Mohgaon,133,5
Adegaon,78,7
Chakole Allopathic Dispensary,119,6
Gharatwada,79,1
Saleghat,69,10
Ubali,97,3
Khat,130,7
Kondamendhi B,150,9
Khairi bijewada,173,1
Degmakhurd,118,6
Khalasna,133,6
Palora,74,3
Tamaswadi,167,6
Kodegaon,86,3
Bela,59,6
Mowad,166,2
Sindhi,108,9
Dorli,73,1
Indira Gandhi Medical College and Hospital,73,4
Indira Gandhi Medical College,106,2
Ladgao,77,1
Shivapur,75,7
Khursapar,129,6
Salaidhaba,140,9
Shanti Nagar Allopathic Dispensary,194,5
Mansar,108,7
Gumthi,75,6
Khairi,182,9
SDH Ramtek,78,4
Matru sewa sangh Sitaburdi NGO HP,111,4
Kharsoli,184,8
Mansar,86,8
Wag,188,3
Sawangi Khurd,193,4
Shirul,59,1
Mahal Homeo. Dispensary,156,8
Pardsinga,55,4
Sitapur,112,4
Shivani,192,1
Suradevi,70,10
Tishti,128,5
Matru sewa sangh Mahal NGO HP,52,10
Pipala,105,4
NMC - Pachpaoli Maternity Home,50,2
Sihora,132,1
Asola,142,8
Satak,194,8
Pipariya,89,7
Pardi Ayur. Dispensary,132,8
Coalmine,133,3
Hiwarabazar,67,10
Gondkhairi,173,9
Dhamangaon,114,1
Ajani,126,9
Dawasa,121,1
Tekadi,61,9
Walani,79,4
Jiwanapur,176,3
Somanala,168,10
Wadgaon,90,8
Sawalikhu,192,2
Susundri,187,3
Linga,128,4
Gondkhairi,112,1
Bazargaon,137,4
RH Bhiwapur,140,9
Kawdas,65,8
Bela,70,6
Kargaon,137,10
Bhanegaon,113,1
Pullar,169,6
Fetari,115,10
Gonha,65,7
Shanti Nagar Homeo. Dispensary,69,10
Sirsi,102,2
Aamgaon,105,10
Babulkheda Homeo. Dispensary,152,4
Binaki Female Dispensary,124,2
Janta Maternity home and hospital NGO HP,95,9
Bharsingi,195,3
Bhishnur,103,6
Wanjara,77,5
Issolation Hospital,146,2
Valambha,139,10
Thadipavani,137,5
Dudhala Kondhali,105,4
Zilpa,188,2
Jawali,125,7
Hivara,94,4
Wandali,65,5
Tinkheda,98,1
Kinhala,64,6
Dhamana,98,8
New Bagdaganj UPHC,165,10
Zingabai Takali UPHC,73,1
Kanholibara,61,6
Naxi,180,7
Malani,83,2
Chichala,87,9
Khangaon,154,5
Babdev,139,5
Apatur,130,10
Warda,104,9
Gumgaon,67,10
Digdoh,84,7
Adegaon,184,4
Mahadula,129,1
Parsodi,170,3
Anjangaon,118,7
Pota,150,3
Butibori Old,90,4
RH Umred,170,4
Dipti Signal UPHC,104,4
Dhapewada,147,10
Salai,171,7
Borgaon khu.,85,8
Health Unit Saoner,138,9
Hazaripahad UPHC,58,2
Besur,80,7
Jatamkhora,167,7
Mathani,57,6
Navegaon,125,8
Khaprigandhi,186,5
Bhorgad,51,2
Gagner,128,10
Babulban Ayur. Dispensary,103,3
Salai,52,3
Palasawali,138,7
Khapa-Khapa,121,3
Mahurzari,52,8
Gothangaon,153,1
Nildoh,51,9
Virli,87,10
Amdi,161,8
Waki,169,8
Makardhokda,169,6
Telgaon,157,3
Butibori (New),126,7
Champa,85,2
DahegaonJoshi,157,7
Kanhalgaon,196,6
Sonegaon,79,4
Titur,149,8
Jaripatka Allopathic Dispensary,148,10
Chicholi,157,3
Nand,69,10
Khamla Ayur. Dispensary,151,3
Govt. Medical College and Hospital,131,10
RH Deolapar,128,8
Ramthi,129,10
Kelwad,131,5
Dalavi Hospital NGO HP,94,1
Telkamptee,113,5
Jawali,110,4
UHP Hiwari Nagar (Babulban)UPHC,67,7
Panjara,76,4
Dighori,68,8
Murti,77,5
Ambadi,168,8
Musewadi,87,9
Manegaon,186,7
Chicholi,176,3
Khubala,120,9
Dharmapuri,165,3
Gaddigodam Dispensary,95,3
Fegad,123,3
E S I S Hospital,70,4
Ambada Deshmukh,123,7
Mouda,174,7
Godhni,139,1
Umari,80,8
Lonkhairi,87,4
Patansavangi,131,2
Wadhvihira,71,7
Mangarul,56,3
Ashta,158,2
Adasa,131,5
Isapur,185,3
RH Kuhi,185,2
Netaji Allopathic Dispensary,140,5
Garamsur Kondhali,162,7
Raipur,53,2
Dhanla,93,9
Kalamana,117,7
Shende Nagar UPHC,185,5
Bina,122,10
Sawarmendha,78,3
Telangkhedi Ayur. Dispensary,67,3
Nagpur Homeopathy College and Hospital NGO HP,81,3
Loharisawanga,53,6
Pipara,143,6
Salwa,134,2
Joga,115,3
Dewali Pendhari,96,3
Nimkheda,116,4
Patgowari,69,1
Kondhali,144,4
Bidipeth UPHC,106,3
Nandanvan (Darshan Colony) RCH Center,76,2
Narhar,64,6
Nanda,56,2
Khapa,187,2
Dorli,149,3
Mahadula,165,10
Wakodi,109,2
Dongargaon,152,7
Sonegaon Lodhi,178,7
Thugaon Dev,151,4
Tarsa,176,10
Pathrai,71,9
Mouda,112,3
Veltur,55,4
Sirsi,147,5
Mandhal,89,2
Davha,154,7
Mendhala,163,3
Pipri,172,6
Sillewada,124,7
Yerladhote,183,4
PIMPLA KEVALRAM,115,7
Ambazari Ayur. Dispensary,151,7
Pithori,118,4
Kanholibara,100,2
Satak,92,4
Dahegaon,163,3
Singarkheda,192,6
Pachpaoli Ayur. Dispensary,92,3
Jamgaon,169,3
Nand,146,9
Mandri,111,9
Hansapuri Ayur. Dispensary,76,2
dhahoda,192,6
Bhamewada,93,6
Lalganj Ayur. Dispensary,159,4
Patansavangi,73,3
Khat,63,10
Vihirgaon,102,5
Malegaon,140,8
Bhaldarpura UPHC,57,8
Wadi,119,6
Nagalwadi,124,4
Lodha,165,10
Sironji,162,10
Neri,134,2
Bhagwanpur,58,9
Mendhepathar,195,10
Daji  Allopathic Dispensary,90,9
Kotodi,102,3
Tangala,88,5
Khandala,125,1
