Health Facility Name,Number_Of_Beds,Rating
DHONIPUR SC,56,10
Silchar Medical College and Hospital,74,8
Gangapur SC,188,5
Sundari SC,104,6
Jirighat SC,199,3
Simoltola SC,64,2
Manikpur SC,153,3
Buribail SC,188,4
Hathikhal SC,91,7
Gonirgram SC,171,10
Hawaithang-I SC,144,1
Dholai Basti SC,191,1
Makhannagar-II SC,72,6
Kanakpur-II SC,125,7
Lakhipur BPHC,123,5
Irongmara SC,180,5
Joypur SHC,174,3
Gossaipur MSC,149,2
Borkhola BPHC,100,3
Hiyarbond SC,77,4
Digabor SC,150,3
Salganga SC,199,6
Gumrah MSC,118,3
Borjurai SC,130,3
Kachudaram MSC,136,10
Kuarpar SC,51,7
Allenpur SC,103,8
Sibtilla SC,52,2
Fulbari MPHC,146,10
Lodhi Basti SC,68,7
Uttarkrishnapur-I SC,178,8
Sibpur SC,94,3
Dugrubasti SC,124,1
Bagkhal SC,152,9
Jirighat MPHC,178,8
Bagbahar SC,93,3
Fulbari MPHC NSC,134,1
Masimpur SC,129,1
Barbond SC,54,8
Badribasti SC,56,4
Katigorah MPHC,123,6
Karaikandi SC,199,4
Manipur II SC,100,7
Dholchera SC,178,9
Bikrampur BPHC,183,8
Chibitabichia MPHC,145,1
Digorsrikona SC,178,5
Chandrapur SC,121,7
Chotomamda MPHC,112,1
Narayanpur Grant SC,159,10
Jalalpur PHC NSC,147,7
Kalyanibasti SC,50,2
Niz Rupaibali SC,140,7
Bhubannagar SC,155,7
Dudpur SC,50,2
Tarapur SC,100,3
Dholai BPHC,64,7
Dakhshin Fulertal SC,151,3
Durgapur SC,184,3
Laduma SC,78,7
Thaligram MPHC,90,10
Algin SC,177,10
Ramnagar SC,52,6
Narsingpur MPHC,97,4
Madhura SC,176,1
SEWTI SC,119,9
Joypur SHC NSC,66,7
Dudhpatil - V SC,66,9
NATUN KANCHANPUR MSC,199,6
Chandbari SC,121,4
Harina MPHC,159,9
Baikampunji SC,189,7
Banskandi FW SC,197,10
Kamranga II SC,69,2
Sribar SC,52,2
Binbasti SC,149,1
Jibangram SC,136,4
Singari SC,169,1
Peladahar SC,98,4
Zabda SC,174,1
Madhurband SC,52,10
Fulbari SC,113,8
Lattimara - I,157,3
Bikrampur PHC NSC,194,2
Jurkhal SC,187,8
Ganguly SC,136,5
Durganagar SC,75,7
Singirband Pt-III SC,181,5
Bhaga Bazar SC,76,6
Sonai PHC NSC,143,8
Gobindapur SC,120,4
Pailapool MSC,86,5
Anandakhal SC,88,2
Borkhola PHC NSC,121,3
Hazarigram SC,187,1
Khelma SC,98,9
Chotomamda SC,105,6
Maruacherra SC,163,6
Gorerbond MSC,79,10
Lakhipur PHC NSC,69,8
Dungripar SC,129,10
Sonabarighat SHC,100,3
Algapur SC,172,9
Tamacherra -l SC,188,7
Tolengram SC,161,4
Ratanpur SC,104,5
KAZIDHAR SC,141,4
Jhanjarbali SC,72,10
Bhairabnagar SC,65,5
Dhakin Bhangarpar SC,191,8
Barjatrapur MSC,81,7
Chandranathpur SC,107,7
Kanakpur II SC,159,7
Amjurghat SC,124,9
RUKNIPAR SC,99,10
Rakhaltilla SC,111,9
Jalalpur BPHC,161,8
GOVINDANAGAR MSC,114,5
Dhamalia SC,176,3
Bowali TE SC,118,8
Hawaithang-II SC,172,5
Mahadevpur SC,127,6
Shibasthan SC,182,6
Digar Kashipur SC,190,5
Udharbond PHC NSC,77,1
Scotpur SC,132,6
Koomba SC,145,9
Madripar SC,151,6
Alipur Basti SC,78,3
Jarailtola MSC,191,7
Dhanehari Pt-II SC,198,2
Rupacherra Shiristal SC,178,2
Natun Ramnagar SD,75,4
Arikol SC,136,8
Srikona MSC,66,8
MOTINAGAR SC,131,2
Tilka TE SC,108,7
BERABAK-II SC,163,10
Nizjoynagar MSC,133,9
Uttar lalpani SC,50,7
Boroitali SC,93,7
Sabaspur SC,98,9
Bagmara SC,86,2
Bhubaneswar Nagar SC,116,4
Surtara SC,134,5
Kanakpur-I SC,140,4
Digar Kashipur MPHC,146,2
Durganagar SC,140,3
Borthol SC,58,9
Doloichera SC,149,4
Digar Fulertal SHC,133,7
Sahapur MSC,180,5
Alambag SC,143,3
Kumacherra SC,72,6
Lakhipur grant SC,138,10
Mohanpur SC,116,2
Sastrinagar SC,125,6
RAMMANIKPUR MSC,158,10
Ujan Tarapur SC,191,1
BERENGA-II SC,135,6
Chandpur SC,154,6
Purbadayapur SC,83,1
Borjalenga MPHC NSC,84,7
Borjalenga MPHC,102,6
Chibitabichia MPHC NSC,175,5
Kamlabari SC,52,3
Badarpur SC,176,1
KABUGANJ SC,189,8
Lakhinagar SC,152,4
Lalzar SC,193,6
Diglang SC,63,3
Harintilla SC,51,6
Udharbond BPHC,134,7
Noyabill SC,98,4
Rajnagar MPHC NSC,119,5
Banskandi MPHC,182,9
Kalain CHC NSC,124,10
Rosekandy SC,102,6
SILDUBI MSC,58,1
Santipur SC,52,8
Bahadurpur SC,118,3
BASKHAL SC,95,6
Lattimara -ii SC,52,6
POLOI BASTI SC,116,7
Kalinagar SC,89,7
Borjalenga SC,133,10
PUTIKHAL SC,163,7
Malugram SC,130,3
Monierkhal SC,51,8
BERABAK-III SC,158,1
Santipur SC,162,9
Boromamda SC,54,1
Sonabarighat MSC,179,5
Boali SC,134,8
Kalain FW SC,105,1
Harinagar BPHC,155,3
Athalbasti SC,192,6
GANGANAGAR MSC,198,9
Dudhpatil MSC,81,4
Gorervitor SC,175,2
Uttor Sonapur SC,58,2
Burunga SC,88,6
Nayagram SC,85,2
KACHUDARAM 12 NO BASTI SC,92,6
Hillara SC,112,10
NATUN RAMNAGAR SD NSC,140,5
Gonirgram SD,171,2
Chotorampur SC,53,6
Digar fulertal SC,123,4
Pangram SC,53,7
Palonghat MSC,197,7
Chalitakandi SC,166,6
Jhapirbond MSC,88,8
Saidpur SC,89,4
Naraindhar TE SC,130,6
Katigorah MPHC NSC,159,9
Urban Health Centre,83,3
KANAKPUR SC,121,3
MEHERPUR SC,86,10
Swadhin Bazar SC,96,9
Nayagram SC,68,3
Thaipunagar SC,89,9
Salamatpur SC,137,7
Kalakhal SC,196,5
PAKOIPAR SC,92,5
Kaptanpur SC,182,3
Srinagar SC,96,6
Mangalpur SC,127,6
Bhubandhar Colony SC,148,5
Dalu MSC,111,10
BAROMONI SC,71,9
Dakshin Mohanpur SC,51,1
Badripar SC,53,10
Kashipur SC,111,1
PUTIKHAL MSC,79,2
SILCOORIE MSC,180,6
Barsangan SC,83,1
Alicherra SC,95,2
Kuparajapunjee SC,187,10
Srikona SC,185,4
Kashipur SC,106,2
Amraghat SC,157,10
Baula SC,185,10
Kalain CHC,52,9
Chengjur TE SC,69,10
Hatikuri TE SC,105,4
Harinagar PHC NSC,98,3
Thaligram MSC,145,7
Mollong SC,199,3
Digli SC,187,1
Panibhora-III SC,156,10
Sonai BPHC,171,1
Tamachara -ll SC,189,6
Bhorakhai SC,185,8
Bantarapur SC,172,1
Kumarpara SC,142,8
Rajnagar MPHC,189,5
Lallangpar SC,123,2
Damcherra SC,57,5
Bairagitilla SC,63,7
Sonabarighat SHC NSC,53,3
Subong SC,79,10
Bhaga Bazar SC,87,8
SALGANGARPAR SC,56,4
Bidyaratanpur MPHC NSC,149,10
Chandinagar SC,153,8
Ratanpur SC,154,2
Dargakona SC,101,3
Chengduar SC,193,1
Makahannagar P-I SC,169,7
Kalompunji SC,194,8
Chekarcham SC,198,10
Dumurghat SC,73,7
Narayanpur Basti SC,123,10
Paschimbasti SC,180,5
Mahaltal SC,186,8
PANIBHORA-II SC,58,10
Neairgram SC,57,9
Singirband Pt-V MSC,128,7
Salchapra MPHC NSC,113,5
Gossainagar SC,141,1
Nandigram SC,174,7
Arkatipur SC,120,9
Darmikhal MSC,105,4
Lanjitilla SC,82,2
Khaspur SC,108,1
Digli SC,76,1
Machghat SC,74,10
Masughat SC,165,8
Saidpur-II SC,171,4
Gongapur SC,188,3
Kalinagar SC,63,4
CHINCOORIE MSC,102,6
Rajartilla SC,88,6
JHORAGOOLE MSC,150,1
Bhubanber SC,193,10
Diderkush pt-III SC,57,8
SATKARAKANDI SC,192,4
Raninagar SC,175,2
Jamalpur SC,53,2
Punirmukh SC,142,5
Daramkhal SC,94,8
Patimara SC,183,2
Bariknagar SC,125,9
Rengti SC,51,9
Salchapra MPHC,75,5
BOALJUR SC,187,8
Uttarkrishnapur-II SC,146,10
BEKIRPER SC,184,1
Dholai PHC NSC,108,4
Bidyaratnpur MPHC,111,6
Arunachal SC,184,5
Harina SC,99,7
Rongpur SC,83,3
Thailu Krishna Nagar Colony SC,136,10
Bahadurpur SC,58,9
Dwarbond MSC,190,6
DHONIPUR SC,104,9
Silchar Medical College and Hospital,108,7
Gangapur SC,172,1
Sundari SC,116,4
Jirighat SC,145,7
Simoltola SC,105,3
Manikpur SC,96,9
Buribail SC,91,7
Hathikhal SC,97,7
Gonirgram SC,73,10
Hawaithang-I SC,137,6
Dholai Basti SC,167,1
Makhannagar-II SC,69,2
Kanakpur-II SC,167,6
Lakhipur BPHC,86,5
Irongmara SC,100,4
Joypur SHC,54,3
Gossaipur MSC,66,4
Borkhola BPHC,164,4
Hiyarbond SC,104,6
Digabor SC,149,6
Salganga SC,86,6
Gumrah MSC,129,9
Borjurai SC,163,1
Kachudaram MSC,158,3
Kuarpar SC,186,1
Allenpur SC,121,1
Sibtilla SC,171,6
Fulbari MPHC,184,7
Lodhi Basti SC,104,1
Uttarkrishnapur-I SC,95,5
Sibpur SC,172,5
Dugrubasti SC,141,4
Bagkhal SC,158,8
Jirighat MPHC,68,8
Bagbahar SC,140,10
Fulbari MPHC NSC,98,7
Masimpur SC,114,5
Barbond SC,173,10
Badribasti SC,180,5
Katigorah MPHC,185,8
Karaikandi SC,72,8
Manipur II SC,153,6
Dholchera SC,154,8
Bikrampur BPHC,168,1
Chibitabichia MPHC,149,7
Digorsrikona SC,58,8
Chandrapur SC,165,10
Chotomamda MPHC,58,4
Narayanpur Grant SC,79,3
Jalalpur PHC NSC,74,3
Kalyanibasti SC,95,7
Niz Rupaibali SC,96,5
Bhubannagar SC,131,1
Dudpur SC,146,9
Tarapur SC,164,9
Dholai BPHC,94,2
Dakhshin Fulertal SC,196,8
Durgapur SC,116,4
Laduma SC,183,4
Thaligram MPHC,156,8
Algin SC,82,9
Ramnagar SC,74,5
Narsingpur MPHC,182,1
Madhura SC,103,3
SEWTI SC,106,7
Joypur SHC NSC,73,1
Dudhpatil - V SC,77,4
NATUN KANCHANPUR MSC,82,10
Chandbari SC,145,4
Harina MPHC,116,8
Baikampunji SC,109,9
Banskandi FW SC,161,10
Kamranga II SC,71,7
Sribar SC,155,3
Binbasti SC,141,1
Jibangram SC,68,8
Singari SC,155,1
Peladahar SC,143,4
Zabda SC,61,2
Madhurband SC,114,2
Fulbari SC,178,8
Lattimara - I,154,1
Bikrampur PHC NSC,105,6
Jurkhal SC,159,1
Ganguly SC,66,2
Durganagar SC,82,6
Singirband Pt-III SC,126,5
Bhaga Bazar SC,115,2
Sonai PHC NSC,56,8
Gobindapur SC,53,5
Pailapool MSC,179,5
Anandakhal SC,102,1
Borkhola PHC NSC,133,9
Hazarigram SC,59,10
Khelma SC,75,8
Chotomamda SC,163,2
Maruacherra SC,121,8
Gorerbond MSC,74,2
Lakhipur PHC NSC,89,10
Dungripar SC,174,2
Sonabarighat SHC,101,4
Algapur SC,120,7
Tamacherra -l SC,53,5
Tolengram SC,87,10
Ratanpur SC,104,1
KAZIDHAR SC,71,9
Jhanjarbali SC,104,10
Bhairabnagar SC,139,8
Dhakin Bhangarpar SC,140,7
Barjatrapur MSC,141,4
Chandranathpur SC,97,9
Kanakpur II SC,186,10
Amjurghat SC,167,10
RUKNIPAR SC,131,2
Rakhaltilla SC,70,10
Jalalpur BPHC,194,4
GOVINDANAGAR MSC,143,4
Dhamalia SC,194,2
Bowali TE SC,175,9
Hawaithang-II SC,77,7
Mahadevpur SC,169,7
Shibasthan SC,172,9
Digar Kashipur SC,81,5
Udharbond PHC NSC,157,4
Scotpur SC,55,10
Koomba SC,79,9
Madripar SC,198,6
Alipur Basti SC,129,6
Jarailtola MSC,64,2
Dhanehari Pt-II SC,173,7
Rupacherra Shiristal SC,83,7
Natun Ramnagar SD,163,1
Arikol SC,54,3
Srikona MSC,178,8
MOTINAGAR SC,54,10
Tilka TE SC,123,9
BERABAK-II SC,126,2
Nizjoynagar MSC,62,3
Uttar lalpani SC,135,3
Boroitali SC,82,5
Sabaspur SC,123,1
Bagmara SC,71,1
Bhubaneswar Nagar SC,189,7
Surtara SC,199,3
Kanakpur-I SC,158,7
Digar Kashipur MPHC,146,3
Durganagar SC,76,8
Borthol SC,155,10
Doloichera SC,170,2
Digar Fulertal SHC,83,7
Sahapur MSC,57,9
Alambag SC,56,1
Kumacherra SC,106,3
Lakhipur grant SC,114,9
Mohanpur SC,55,7
Sastrinagar SC,82,5
RAMMANIKPUR MSC,185,6
Ujan Tarapur SC,54,3
BERENGA-II SC,156,5
Chandpur SC,151,2
Purbadayapur SC,54,4
Borjalenga MPHC NSC,58,4
Borjalenga MPHC,188,6
Chibitabichia MPHC NSC,176,7
Kamlabari SC,196,5
Badarpur SC,110,2
KABUGANJ SC,153,1
Lakhinagar SC,167,6
Lalzar SC,152,3
Diglang SC,124,6
Harintilla SC,198,8
Udharbond BPHC,90,8
Noyabill SC,63,10
Rajnagar MPHC NSC,169,10
Banskandi MPHC,73,3
Kalain CHC NSC,170,1
Rosekandy SC,70,8
SILDUBI MSC,191,7
Santipur SC,82,1
Bahadurpur SC,123,5
BASKHAL SC,79,1
Lattimara -ii SC,112,10
POLOI BASTI SC,126,8
Kalinagar SC,62,7
Borjalenga SC,158,3
PUTIKHAL SC,120,4
Malugram SC,112,3
Monierkhal SC,101,5
BERABAK-III SC,100,4
Santipur SC,187,7
Boromamda SC,58,8
Sonabarighat MSC,102,7
Boali SC,90,10
Kalain FW SC,83,3
Harinagar BPHC,78,1
Athalbasti SC,199,10
GANGANAGAR MSC,73,5
Dudhpatil MSC,142,6
Gorervitor SC,52,5
Uttor Sonapur SC,142,4
Burunga SC,183,8
Nayagram SC,184,6
KACHUDARAM 12 NO BASTI SC,173,5
Hillara SC,119,4
NATUN RAMNAGAR SD NSC,133,10
Gonirgram SD,140,2
Chotorampur SC,53,5
Digar fulertal SC,93,8
Pangram SC,185,1
Palonghat MSC,117,9
Chalitakandi SC,163,6
Jhapirbond MSC,162,4
Saidpur SC,130,4
Naraindhar TE SC,92,4
Katigorah MPHC NSC,158,1
Urban Health Centre,176,5
KANAKPUR SC,75,2
MEHERPUR SC,143,5
Swadhin Bazar SC,127,3
Nayagram SC,84,8
Thaipunagar SC,60,9
Salamatpur SC,68,5
Kalakhal SC,121,8
PAKOIPAR SC,98,6
Kaptanpur SC,127,6
Srinagar SC,167,7
Mangalpur SC,149,6
Bhubandhar Colony SC,105,2
Dalu MSC,172,2
BAROMONI SC,107,9
Dakshin Mohanpur SC,111,9
Badripar SC,158,1
Kashipur SC,149,4
PUTIKHAL MSC,112,3
SILCOORIE MSC,190,8
Barsangan SC,188,4
Alicherra SC,79,7
Kuparajapunjee SC,115,6
Srikona SC,85,6
Kashipur SC,162,10
Amraghat SC,71,7
Baula SC,135,7
Kalain CHC,87,6
Chengjur TE SC,113,5
Hatikuri TE SC,109,6
Harinagar PHC NSC,66,3
Thaligram MSC,60,8
Mollong SC,165,3
Digli SC,166,10
Panibhora-III SC,63,10
Sonai BPHC,91,10
Tamachara -ll SC,134,6
Bhorakhai SC,132,3
Bantarapur SC,63,8
Kumarpara SC,113,3
Rajnagar MPHC,69,7
Lallangpar SC,118,1
Damcherra SC,117,1
Bairagitilla SC,173,4
Sonabarighat SHC NSC,148,10
Subong SC,156,10
Bhaga Bazar SC,139,9
SALGANGARPAR SC,160,9
Bidyaratanpur MPHC NSC,107,4
Chandinagar SC,55,9
Ratanpur SC,156,8
Dargakona SC,141,1
Chengduar SC,141,3
Makahannagar P-I SC,145,10
Kalompunji SC,165,7
Chekarcham SC,78,6
Dumurghat SC,122,9
Narayanpur Basti SC,184,2
Paschimbasti SC,199,10
Mahaltal SC,144,6
PANIBHORA-II SC,130,9
Neairgram SC,139,4
Singirband Pt-V MSC,173,3
Salchapra MPHC NSC,137,8
Gossainagar SC,86,8
Nandigram SC,158,3
Arkatipur SC,144,6
Darmikhal MSC,181,3
Lanjitilla SC,62,1
Khaspur SC,172,5
Digli SC,141,2
Machghat SC,89,6
Masughat SC,125,6
Saidpur-II SC,177,10
Gongapur SC,179,10
Kalinagar SC,93,1
CHINCOORIE MSC,197,3
Rajartilla SC,69,1
JHORAGOOLE MSC,83,2
Bhubanber SC,147,6
Diderkush pt-III SC,133,1
SATKARAKANDI SC,51,3
Raninagar SC,188,7
Jamalpur SC,184,3
Punirmukh SC,144,1
Daramkhal SC,184,7
Patimara SC,138,6
Bariknagar SC,101,7
Rengti SC,186,4
Salchapra MPHC,183,1
BOALJUR SC,184,2
Uttarkrishnapur-II SC,125,9
BEKIRPER SC,124,6
Dholai PHC NSC,121,7
Bidyaratnpur MPHC,188,1
Arunachal SC,152,6
Harina SC,80,8
Rongpur SC,187,3
Thailu Krishna Nagar Colony SC,142,8
Bahadurpur SC,74,8
Dwarbond MSC,154,2
