Health Facility Name,Number_Of_Beds,Rating
SC Pangchao (Notional),57,9
PHC Lawnu (Notional),89,9
SC Longding (Notional),146,8
SC Kanubari (Notional),143,8
SC Wakka (Notional,135,9
SC Pangchao (Notional),113,10
PHC Lawnu (Notional),134,2
SC Longding (Notional),54,3
SC Kanubari (Notional),143,4
SC Wakka (Notional,172,5
