Health Facility Name,Number_Of_Beds,Rating
"Community Health Center, Burgampadu",116,3
.,53,2
"Community Health Centre, Venkatapuram",121,8
Wazeedu,116,2
"Primary Health Centre, PHC",162,1
"Primary Health Centre, Wazeedu",121,3
"Primary Health Centre, Edhira",60,8
"Primary Health Centre, Narsapuram",159,9
"Primary Health Centre, Kusumanchi",173,9
"Primary Health Centre, Mudigonda",162,1
"Primary Health Centre, Nelakondapalli",55,6
"Community Health Center, Garla",87,3
"SubCentre, Jakkepalli",118,9
"SubCentre, Parnasala",142,4
"SubCentre, Erragunta",111,1
"SubCentre, Jagadeesh Colony",67,9
"SubCentre, Theegalabanjara",186,4
"SubCentre, Kommugudem",79,7
"Urban Health Centre, Safai Basti",130,6
"Primary Health Centre, Parnasala",125,9
Velairpadu,135,1
"SubCentre, Seripuram",157,4
"SubCentre, Garla I",190,4
"SubCentre, Naramvarigudem",146,5
"SubCentre, Gouraram",108,5
"SubCentre, Nukalampadu",127,6
"SubCentre, NN Prolu",98,5
"SubCentre, Mulakalapalli",100,8
"SubCentre, Kommugudem",90,4
"SubCentre, Miryalapenta",137,4
"Primary Health Centre, Banakal",71,7
"SubCentre, Lachagudem",150,6
"SubCentre, Rajeswarapuram",130,7
"SubCentre, Chinakorukondi",71,1
"Primary Health Centre, Gundala",117,7
P.W. Road,110,8
"SubCentre, Beerapalli",186,2
"SubCentre, Thanikella",109,7
"SubCentre, Bethampudi",65,10
"SubCentre, V.Kistapuram",139,2
"SubCentre, Peddamunagala",65,3
"SubCentre, Medepalli",88,5
"SubCentre, Muchavaram",177,1
"SubCentre, Gollpudi",177,9
Pega,92,10
"SubCentre, Unjupalli",162,10
"SubCentre, Motamarri",153,1
"SubCentre, Gummadavalli",144,10
"SubCentre, Thallampadu",142,8
"SubCentre, Sarapaka",192,2
"SubCentre, Burgampadu-I",173,8
"SubCentre, Muthyalampadu",128,3
"SubCentre, Satyanarayanapuram",197,10
"Primary Health Centre, Aswapuram",144,9
"SubCentre, Cheemalapadu",183,2
"SubCentre, Aswaraopeta-II",74,7
"SubCentre, Muthyalampeta",82,5
"SubCentre, Mukamamidi",111,7
"SubCentre, Thippapuram",77,9
"SubCentre, Kommugudem",56,9
"SubCentre, Kurnapalli",89,4
"SubCentre, Rangaraipuram",176,3
"SubCentre, Khanapuram",188,3
"SubCentre, Madhira-2",190,1
"SubCentre, Nagupalli",72,3
"Primary Health Centre, M.V.Palem",57,5
"SubCentre, Siripuram",176,7
"SubCentre, Chinnanallapalli",142,3
Kopirametta,192,1
"SubCentre, Peruru",156,3
"Primary Health Centre, Julurupadu",171,1
"SubCentre, Papakollu",98,9
"Primary Health Centre, Aswaraopeta",78,1
"SubCentre, Kothapeta",124,9
"SubCentre, 21 Pit",150,5
"SubCentre, Madhira-1",94,8
"SubCentre, Krishnasagar",88,3
"SubCentre, Alubaka",78,10
"SubCentre, Koyagudem",101,10
"SubCentre, Indiranagar",95,6
"SubCentre, Theldarupalli",74,7
"SubCentre, Anantharam",155,5
"Primary Health Centre, Rompedu",136,6
"SubCentre, Singabupalem",103,8
"SubCentre, Kambalapadu",198,10
"SubCentre, Karaigudem",150,1
"Primary Health Centre, Chintakani",160,6
"SubCentre, Pocharam",177,9
"SubCentre, Peddakorukondi",154,3
"SubCentre, Ponnekallu",102,5
"SubCentre, M.V.Palem",85,3
"SubCentre, Manguvaibaduva",104,8
"SubCentre, Eerlapudi",53,3
"Urban Health Centre, Srinivasa Nagar",199,10
"SubCentre, Rajupeta",62,4
"SubCentre, Komararam",164,6
"SubCentre, Kusumanchi",146,7
"SubCentre, Timminenipalem",55,10
"SubCentre, Narsapuram",105,7
"SubCentre, Balajipeta",112,6
"SubCentre, Thallapenta",145,8
"SubCentre, Rudrakshapalli",111,8
Amaravaram,95,6
"SubCentre, Seethampeta",68,7
"SubCentre, 7 incline",149,5
"Primary Health Centre, Peddagopathi",57,1
"SubCentre, Burgampadu-II",140,6
"SubCentre, Ramnagar",182,10
"SubCentre, Kondaigudem",157,8
"SubCentre, Two Incline",184,2
"SubCentre, Rompedu",131,6
"SubCentre, Karepalli-II",140,6
"SubCentre, Oddugudem",70,1
"SubCentre, Beerolu",117,6
"Primariy Health Centre, Charla",153,10
Rekapalli,71,3
"SubCentre, Nelapatla",119,6
"SubCentre, Samithisingaram",141,4
"SubCentre, Iravendi",55,10
Gannavaram,75,10
"SubCentre, Koyachalaka",112,5
"SubCentre, Rayamadharam",138,8
"SubCentre, Pocharam",176,4
"SubCentre, Aswapuram-I",60,4
"SubCentre, Errupalem",58,2
"SubCentre, Kokkireni",186,7
"SubCentre, Aswapuram-III",77,8
"SubCentre, Gurvaigudem",168,3
"SubCentre, Tummalachervu",111,5
"SubCentre, Rajupeta",92,2
"SubCentre, Betalapadu",122,5
"SubCentre, Mustibanda",157,3
"SubCentre, Penuballi",52,8
"SubCentre, Gandhampalli",78,5
"Community Health Centre, Paloncha",101,2
Eleru,174,10
"SubCentre, Raghunadhapalem",65,10
"Primary Health Centre, Wyra",118,8
"M&CW Center, UFWC Bhadrachalam",51,10
"SubCentre, Anjanapuram",118,2
Cooli Line II,144,9
"SubCentre, Chennur",133,10
"SubCentre, Tegada",148,6
"Primary Health Centre, Gandhampalli",156,8
"SubCentre, Singareni",161,4
"SubCentre, Kandhukuru",179,3
"SubCentre, Ayyagaripeta",167,10
"SubCentre, Enagali",184,3
"SubCentre, Madharam",132,5
"SubCentre, Pullur",178,4
"SubCentre, Ganngapedu",106,1
"Primary Health Centre, Kalluru",54,1
"SubCentre, Manchukonda",199,5
"SubCentre, Chaparalapalli",154,9
Nizampeta,112,6
"SubCentre, Bhagathsinghnagar",162,7
"SubCentre, Kambalapalli",92,4
"SubCentre, Kavadikondla",75,10
"SubCentre, Barlagudem",60,3
"SubCentre, Choudaram",178,9
"SubCentre, Basvapuram",51,1
"SubCentre, Mallaram",160,2
"SubCentre, Nagulavancha",99,1
"SubCentre, Gandhasiri",63,10
"SubCentre, Thirumalayapalem",174,6
"SubCentre, Jagannadhapuram",125,5
"SubCentre, Pallipadu",99,10
"Primary Health Centre, Erragunta",186,4
"SubCentre, Dammapeta-II",157,2
"SubCentre, P Narsapuram",158,7
Edugurallapalli,131,9
"SubCentre, Buddaram",166,4
"SubCentre, Chinthagurthy",90,2
"SubCentre, Muthagudem",169,1
"SubCentre, Mamunoor",80,7
"SubCentre, UFWC-I",118,8
"SubCentre, Mutthagudem",192,10
"SubCentre, Jallepalli",100,5
"SubCentre, dhamsulapuram",122,8
"SubCentre, Jagannadhapuram",76,6
"SubCentre, Wazeedu",138,3
"SubCentre, Guvvalagudem",161,7
"SubCentre, Bathupalli",188,3
"SubCentre, Pammi",81,5
"SubCentre, Gompalli",58,4
"Primary Health Centre, Sujatha Nagar",150,5
"SubCentre, Thurubaka",133,6
"SubCentre, Pagideru",62,3
"SubCentre, Thatipudi",82,6
"SubCentre, Rajapuram",188,9
"Primary Health Centre, Karakagudem",172,6
"Urban Health Centre, Old Kothagudem",96,5
"Community Health Centre, Penuballi",64,9
SR Nagaram,179,7
"SubCentre, Kamanchikallu",79,10
"SubCentre, Kakatiya Nagar",151,5
"SubCentre, Jagathraopeta",125,9
"Primary Health Centre, Lankasagar",89,1
"SubCentre, Kakarvai",73,5
"SubCentre, Cherukuru",151,1
"SubCentre, Sambaigudem",66,3
Rudramkota,61,7
"SubCentre, P Banjara",57,5
"SubCentre, Lingagiri",101,5
"Primary Health Centre, Thirumalayapalem",91,1
"SubCentre, Narayanapuram",109,3
Lakkavaram,77,8
"SubCentre, Muddunuru",143,1
"SubCentre, Peddaraigudem",137,10
"SubCentre, Nandipadu",110,8
"SubCentre, Somulagudem",140,5
"SubCentre, Maddulapalli",172,9
"SubCentre, Gangaram",182,8
"SubCentre, Kalakota",81,6
"SubCentre, Produtoor",192,5
"SubCentre, Mohamadapuram",172,1
"SubCentre, Gudurupadu",103,10
"SubCentre, Irsulapuram",68,9
"SubCentre, Manikyaram",104,2
"SubCentre, Vepalagadda",127,5
"SubCentre, SN Puram",135,8
"SubCentre, Timmaraopeta",168,2
"SubCentre, Thirumalakunta",188,4
"SubCentre, Chintriyala",143,6
"SubCentre, Pragallapalli",182,1
"SubCentre, Venkatapuram",185,2
"SubCentre, Kommanapalli",101,4
"SubCentre, Kurnavalli",117,8
"SubCentre, Gundepudi",158,10
"SubCentre, Tekulapalli",87,1
"SubCentre, Kondapuram",130,7
"SubCentre, Lankapalli",106,6
"SubCentre, Marlapadu",190,8
"SubCentre, Reddygudem",150,7
"SubCentre, Vemsoor",126,9
"SubCentre, Gandhinagar",194,8
"SubCentre, Pinapaka",166,3
"SubCentre, Gandagalapadu",160,4
"SubCentre, Mulkanoor",74,9
"SubCentre, Nugur",183,1
"SubCentre, Lankasagar",184,4
"SubCentre, Jujjulrao peta",89,6
"SubCentre, Gundala",52,10
"SubCentre, 24 Pit",128,6
"SubCentre, Singarayapalem",98,4
"SubCentre, Marikala",160,7
"Primary Health Centre, Dummugudem",132,8
"SubCentre, Brahmanapalli",145,10
"SubCentre, Sriramgiri",166,3
"SubCentre, Maraigudem",127,8
"SubCentre, Tallagudem",150,4
"Primary Health Centre, Regalla",102,8
"Primary Health Centre, Pinapaka",135,7
"SubCentre, Bheemavaram",110,3
"SubCentre, Ontigudese",120,4
"SubCentre, Gangaram",57,1
"SubCentre, Laxmidevipalli",54,9
"SubCentre, Thumburu",185,2
"SubCentre, Jaggaram",129,9
"SubCentre, Thallada",183,8
"SubCentre, Madhira III",177,8
"SubCentre, vvpalem",167,10
"SubCentre, Narayanapuam",159,4
"SubCentre, Patharlapadu",106,8
"SubCentre, Penuballi",191,2
"SubCentre, Chandrugonda",192,5
"SubCentre, Sadasivapeta",130,2
"SubCentre, Chunchupalli",60,1
Bhadrachalam MCW Centre,102,5
"SubCentre, Babu Camp",83,2
"SubCentre, VMBanjara",151,6
"SubCentre, Rejerla",80,6
Peddamittapalli,162,6
"SubCentre, Madharam",120,10
"SubCentre, Meenavolu",88,8
"SubCentre, Nellipaka Banjar",75,6
"SubCentre, Gate Karepalli",133,4
"SubCentre, Mondivaram",154,1
"SubCentre, Palair",77,5
"SubCentre, Lingalapalli",190,7
"SubCentre, Ganeshpadu",105,10
"SubCentre, K.K.Ramavaram",130,1
"SubCentre, Venkatapuram",140,8
"SubCentre, Kodumoor",172,10
"SubCentre, Patharlapadu",144,8
"SubCentre, Gollagudem",165,5
"SubCentre, Madhapuram",123,10
"Primary Health Centre, Mangapeta",132,7
"SubCentre, Anantharam",97,7
ED Palli,133,6
"Primary Health Centre, Nelakondapalli",81,1
"SubCentre, Edira",60,5
"SubCentre, Venkatapuram",129,4
"SubCentre, Billipadu",186,1
"SubCentre, Narsapuram",88,5
Thimmampeta,126,3
"SubCentre, Julurpadu",96,6
"SubCentre, Usirikayalapalli",170,6
"SubCentre, Ulvanoor",145,5
"SubCentre, Dharmavaram",182,4
"SubCentre, Singareddy palem",114,4
"SubCentre, Bollorigudem",90,5
"Primary Health Centre, Morampallibanjara",105,9
"SubCentre, Athkoor",128,1
"SubCentre, Wyra",96,3
"SubCentre, Bodulabanda",75,5
Thulasipaka,64,3
"SubCentre, Pedamandava",189,5
Guduru,183,3
"SubCentre, Bombaithanda",185,7
"SubCentre, Somavaram",105,8
"Area Hospital, Bhadrachalam",144,2
"SubCentre, Nelakondapalli",80,6
"SubCentre, Sulhanagar",196,5
"SubCentre, Regupalli",154,10
"SubCentre, Sarvaram",90,5
"SubCentre, Narayanapuram",197,2
"SubCentre, Manikyaram",175,8
"SubCentre, Chinnamandava",159,8
"SubCentre, Kothalingala",198,1
"Primary Health Centre, Tallada",114,5
"Primary Health Centre, Mudigonda",129,3
Nellipaka,195,2
"SubCentre, Vidya Nagar-I",112,3
"SubCentre, Kummarigudem",164,3
"SubCentre, Garla II",130,3
"SubCentre, Paaladugu",136,10
"SubCentre, Mulakapadu",133,4
"SubCentre, Jupeda",76,9
"SubCentre, Enkoor",101,8
"Primary Health Centre, Allapalli",91,5
"SubCentre, Gowraram",100,1
"SubCentre, Sanjainagar",101,10
"SubCentre, Peraigudem",103,7
"SubCentre, Mothe",106,9
"SubCentre, Nizampeta",103,9
"SubCentre, Goutampur",86,1
"SubCentre, Hemachandra Puram",155,4
"SubCentre, Dugenepalli",92,10
"SubCentre, Vinayakapuram",84,1
"SubCentre, Pothireddipalem",147,4
Karmankonda,177,7
"SubCentre, Malkaram",187,7
"Primary Health Centre, Chandrugonda",75,4
"SubCentre, Chatha konda -II",186,7
"SubCentre, Pusugudem",78,4
"SubCentre, Mamillavarigudem",138,6
"SubCentre, Chandrupatla",173,2
PP Unit Kothagudem,179,1
"SubCentre, Yedulapuram",180,6
"SubCentre, Jamalapuram",68,2
Velairpadu,144,8
"SubCentre, Jastipalli",50,6
"SubCentre, Jagannadhapuram",168,4
"SubCentre, Bethupalli",170,5
"SubCentre, Rajeev Colony",97,3
"SubCentre, Bandarigudem",177,10
Mothugudem,136,1
"SubCentre, Seetarampuram",115,1
"SubCentre, UFWC-II",68,9
"SubCentre, Banigandlapadu",83,2
"SubCentre, Konijerla",102,9
"SubCentre, Rampuram",119,9
"SubCentre, Marlapadu",172,9
"SubCentre, Bhupathirao Colony",85,8
"SubCentre, Sri Nagar Colony",104,10
"SubCentre, Buggapadu",73,1
"SubCentre, Dammapeta-I",77,6
"SubCentre, Moddulagudem",67,9
"SubCentre, Garibpeta",186,1
"SubCentre, Papatapalli",122,8
"SubCentre, Kamalapuram",96,3
"SubCentre, Arlagudem",105,2
"Primary Health Centre, Penagadapa",65,3
"SubCentre, Tippanapalli",50,5
"SubCentre, Mahadevapuram",167,9
"SubCentre, Pinapaka",177,6
"SubCentre, Ravinuthala",70,8
"Primary Health Centre, Ulavanoor",187,5
"SubCentre, Kakarla",62,7
"SubCentre, Sanjeevareddypalem",155,9
"SubCentre, Patwarigudem",129,1
"SubCentre, Annapureddipalli",183,1
"SubCentre, Ayyannapalem",149,8
"Area Hospital, Koathagudem",67,4
"SubCentre, Tadekalapudi",187,10
"SubCentre, VidyaNagar-II",128,1
"SubCentre, Garla III (MCW Centre)",151,1
"SubCentre, Kunavaram D Type",196,10
"SubCentre, Vallabhi",71,8
Yatapaka,53,2
"Primary Health Centre, Mulkanoor",62,1
"SubCentre, Theerdala",168,1
"SubCentre, Morampallibanjara",136,7
"SubCentre, Seetarampuram",87,4
"SubCentre, Gondigudem",119,5
"Primary Health Centre, Sublaid",149,9
Jinnethogu,74,5
"SubCentre, Kamalapuram",137,10
"SubCentre, Tungaram",110,1
"SubCentre, Chokkala",69,8
"SubCentre, Karakagudem",176,6
"SubCentre, Bhavannapalem",190,10
"SubCentre, Arekodu",152,2
"SubCentre, Marrigudem",93,6
"Primary Health Centre, Peruru",86,10
"SubCentre, Pentlam",94,10
"SubCentre, Dummugudem",56,10
"SubCentre, Nuthankal",56,8
"SubCentre, Govindrala",112,7
"SubCentre, Chegomma",193,3
"SubCentre, Neerada",90,5
"SubCentre, Tutukalingannapeta",100,5
Khilla,71,6
"Urban Health Centre, Gudipadu",139,1
"SubCentre, Gattugudem",88,1
"SubCentre, Ricepeta",168,7
"SubCentre, Painampalli",96,10
"SubCentre, Madupalli",109,10
"SubCentre, Sundaraiah Nagar",177,10
"SubCentre, Choutapalli",168,7
"Primary Health Centre, Banigandlapadu",192,7
"SubCentre, Pagadalapalli",133,1
"Primary Health Centre, Kusumanchi",167,6
"SubCentre, Ravikampadu",181,3
"SubCentre, Ashwaraopeta",87,2
"Primary Health Centre, Singareni",77,4
"SubCentre, Munsaf banjara",147,10
"SubCentre, Alluri Seetharamaraju Colony",163,4
"SubCentre, Vijayanagar",106,2
"SubCentre, Pokalagudem",89,9
"SubCentre, Sujatha Nagar",136,1
"SubCentre, Penugollu",181,7
Gogubaka,72,4
"SubCentre, Shettipalli",110,7
"SubCentre, Aswaraopeta-III",171,3
"SubCentre, Govindapuram",106,5
"SubCentre, Remidicherla",65,1
"SubCentre, Cherla",165,1
"SubCentre, Indiranagar Colony",82,4
"SubCentre, Kothuru",63,3
"SubCentre, Dammaigudem",81,8
"SubCentre, Gubbagurthi",109,1
"SubCentre, Koppurai",84,2
"SubCentre, Pedabeeravalli",172,1
"SubCentre, Surya thanda",195,6
"SubCentre, Arlapenta",53,2
"SubCentre, Yathalakunta",56,7
"SubCentre, Anantharam",66,8
"SubCentre, Mylaram",147,2
"SubCentre, Dhanbad-II",120,9
"SubCentre, Pandurangapuram",148,6
"SubCentre, New Palvancha",196,4
Venkatreddipeta,130,9
"SubCentre, Sitharampuram",183,1
"SubCentre, Lingagudem",186,1
"Urban Health Centre, Mamillagudem",137,3
"SubCentre, Aswaraopeta-I",190,4
"Community Health Centre, Aswaraopeta",130,6
"SubCentre, Chinthakani",129,5
"SubCentre, Bommanapalli",145,6
"SubCentre, Bacchodu",100,5
"SubCentre, Pilot Colony",154,9
"SubCentre, Lachigudem",86,7
"SubCentre, Peddagopathi",81,7
"SubCentre, Bodu",93,7
"SubCentre, Mucherla",76,5
"SubCentre, Dendukoor",86,9
"SubCentre, 21 Pit II",63,6
"SubCentre, Boduthanda",149,9
"SubCentre, Bapanikunta",187,8
"SubCentre, Patha Anjanapuram",118,1
"SubCentre, Mudigonda",81,2
"SubCentre, B.Raghavapuram",120,3
"SubCentre, Yanambailu",119,9
"Primary Health Centre, Sulahanagar",186,9
"SubCentre, Garikapadu",116,3
"SubCentre, Mittapalli",117,1
"SubCentre, Kalluru B",98,1
"Primary Health Centre, Kamepalli",82,1
"SubCentre, Indiranagar",165,7
"SubCentre, Sangam",197,5
Tulagonda,157,3
"SubCentre, Pandithapuram",164,10
"SubCentre, Matoor",59,4
"SubCentre, Gandhinagar",137,5
"SubCentre, Thimmampeta",96,7
"SubCentre, Sathupalli",123,2
"SubCentre, Sheshagirinagar",177,5
"SubCentre, Jannaram",74,2
"SubCentre, Ananthanagar",176,10
"Primary Health Centre, Enkoor",132,6
"SubCentre, Uppaka",62,7
Sanayasi Basti,169,8
"SubCentre, Pindiprolu",194,4
"SubCentre, Kalyanamandapam",163,3
"Primary Health Centre, Gangaram",136,8
"SubCentre, K.G.Mallela",135,9
"SubCentre, Rudrampur",167,5
"SubCentre, Cheruvumadharam",70,9
Chaman Basti,91,8
"SubCentre, Utukur",126,5
"SubCentre, Erraboinapalli",168,7
"SubCentre, Ankampalem",94,9
"SubCentre, Regalla",185,10
"SubCentre, Mujjugudem",192,1
"SubCentre, Chinnagollagudem",79,8
"SubCentre, Sudimalla",53,2
Koida,125,7
"SubCentre, Hanumanthulapadu",72,4
"SubCentre, Chennaram",146,4
"SubCentre, Bayyaram II",177,2
"SubCentre, Bayyaram III",75,9
"SubCentre, Mangapuramthanda",151,4
"SubCentre, Kamalapuram",156,9
"SubCentre, Pathareddigudem",74,5
"SubCentre, Allapalli",84,7
"SubCentre, Kalluru A",105,4
"SubCentre, Chinagopathi",109,9
"Primary Health Centre, Konijerla",195,2
"SubCentre, Shivalingapuram",77,8
"SubCentre, Korlagudem",177,4
"SubCentre, Gumpena",81,3
"Community Health Centre, Madhira",83,7
"SubCentre, Kamalapuram",129,1
"SubCentre, Ambedkar Nagar",133,10
"SubCentre, Penagadapa",73,7
"SubCentre, Seethampeta",173,8
"SubCentre, Mandalapalli",72,10
"SubCentre, Peddathanda",66,10
"SubCentre, Gummadidoddi",156,6
"SubCentre, Markodu",56,9
"SubCentre, Battupalli",75,6
"Primary Health Centre, Manchukonda",147,3
Kuturu,154,7
"SubCentre, Venkatapuram",154,9
"SubCentre, Bangaruchelaka",165,5
"SubCentre, Dosallapalli",107,8
"SubCentre, Kunchaparthi",133,9
"SubCentre, Bonakal",50,2
"SubCentre, Peddagangaram",64,9
"Primary Health Centre, Janampeta",172,7
"SubCentre, Nacharam",199,10
"SubCentre, Uppalapadu",170,6
"Community Health Centre, Sathuopalli",84,7
"Urban Health Centre, Ramavaram",86,6
"SubCentre, Danavaipeta",139,5
"SubCentre, Manuguru",103,6
Medepalli,111,9
"SubCentre, Adserlapadu",198,9
"SubCentre, Vishwanadhapalli",165,9
"SubCentre, Anandkhani",98,7
"SubCentre, Pedamidisileru",127,3
"SubCentre, Kinnerasani",131,5
"Primary Health Centre, Satyanarayanapuram",59,7
"SubCentre, Pinapaka",104,8
"SubCentre, Sampathnagar",165,6
"SubCentre, Jeelachervu",82,9
"SubCentre, Mamidigudem",164,5
"SubCentre, Gudimalla",162,8
"SubCentre, NTR Nagar",67,6
"District Hospital, Khammam",70,5
"SubCentre, Janampeta",107,3
"SubCentre, Koyyuru",172,9
"SubCentre, Nadikudi",165,10
"SubCentre, Thummalapalli",97,9
"Primary Health Centre, Dammapeta",165,5
"SubCentre, Toggudem",122,2
"SubCentre, Pamunuru",64,4
"SubCentre, Chirunomula",168,10
"SubCentre, Maddukur",179,10
"SubCentre, Ramakrishnapuram",186,6
"SubCentre, Pothureddipalli",87,6
"SubCentre, Naikengudem",93,7
"SubCentre, Peddakistapuram",62,6
"Primary Health Centre, Wazeedu",67,5
"Primary Health Centre, Edira",78,9
"SubCentre, Mustikuntla",151,2
Kukunooru,127,3
"SubCentre, Dhanbad-I",94,2
"SubCentre, Aswapuram-II",185,3
"SubCentre, Peruvancha",179,9
"SubCentre, Motlagudem",189,8
"SubCentre, Ashoknagar",146,6
"SubCentre, Annarupadu",147,8
"Primary Health Centre, Maturipeta",133,10
"SubCentre, Ragaboinagudem",177,3
"SubCentre, Laxmipuram",166,6
"SubCentre, K.Gangaram",130,8
"SubCentre, Maruthinagar",93,10
"SubCentre, Sitarampuram",167,2
"SubCentre, Tekulacheruvu",118,2
Challakavvam,114,6
"Urban Health Centre, Mustafa Nagar",80,9
"SubCentre, Mallaram",117,8
"SubCentre, Veerabhadraram",112,4
"SubCentre, Kachanapalli",90,2
"Primary Health Centre, Bayyaram",113,10
"SubCentre, Three Incline",67,8
"SubCentre, Pandillapalli",89,3
"SubCentre, Perepalli",112,3
"SubCentre, Khammampadu",101,4
"SubCentre, Bannapuram",59,1
"SubCentre, Mittagudem",174,9
"SubCentre, Nagaram",150,1
PP Unit Khammam,119,9
"Primary Health Centre, Patwarigudem",108,1
"SubCentre, Indiranagar Colony",97,8
"SubCentre, Bayyaram I",184,1
"SubCentre, Vedanthapuram",179,6
"SubCentre, Mallemadugu",107,1
"Primary Health Centre, Jaganadhapuram",100,1
"SubCentre, Nacharam",91,9
"SubCentre, Bramanapalli",53,9
"SubCentre, M Kasinagaram",87,5
"M&CW Center, Palvoncha",129,2
Laxmipuram,184,2
"SubCentre, Kunavaram",171,8
"SubCentre, Muthapuram",189,10
"SubCentre, Ramachandrapuram",117,8
"SubCentre, Tekulapalli",198,7
"Community Health Center, Yellandu",136,8
"SubCentre, Kamepalli",166,8
"SubCentre, Pandurangapuram",159,4
"SubCentre, Substation",174,8
"SubCentre, Chathakonda-I",163,5
"Urban Health Centre, Shekaram Banjara",191,10
"Primary Health Centre, Gummadavalli",79,5
"Primary Health Centre, Komararam",62,5
"SubCentre, Khanapuram",94,6
Sarvila,131,9
"SubCentre, Kishtaram",119,6
"SubCentre, Mondikunta",128,9
Bokkalagadda,189,8
"SubCentre, Pandurangapuram",84,2
"SubCentre, Bhagyanagar Thanda",75,4
"SubCentre, Seetampeta",152,1
"Primary HEalth Centre, Manuguru",153,1
"SubCentre, Sublaid",193,5
"Primary Health Centre, Vemsoor",93,6
"SubCentre, Annarugudem",174,8
"SubCentre, Sayanapalli",176,7
"SubCentre, Abbugudem",101,4
"SubCentre, Telagavaram",126,4
"Community Health Center, Burgampadu",159,9
.,92,5
"Community Health Centre, Venkatapuram",141,10
Wazeedu,64,7
"Primary Health Centre, PHC",115,5
"Primary Health Centre, Wazeedu",135,3
"Primary Health Centre, Edhira",83,8
"Primary Health Centre, Narsapuram",154,8
"Primary Health Centre, Kusumanchi",163,6
"Primary Health Centre, Mudigonda",58,3
"Primary Health Centre, Nelakondapalli",177,2
"Community Health Center, Garla",71,5
"SubCentre, Jakkepalli",53,4
"SubCentre, Parnasala",159,5
"SubCentre, Erragunta",171,8
"SubCentre, Jagadeesh Colony",144,3
"SubCentre, Theegalabanjara",70,6
"SubCentre, Kommugudem",65,8
"Urban Health Centre, Safai Basti",114,9
"Primary Health Centre, Parnasala",61,2
Velairpadu,168,9
"SubCentre, Seripuram",142,5
"SubCentre, Garla I",199,7
"SubCentre, Naramvarigudem",128,6
"SubCentre, Gouraram",184,5
"SubCentre, Nukalampadu",190,3
"SubCentre, NN Prolu",185,9
"SubCentre, Mulakalapalli",198,1
"SubCentre, Kommugudem",82,1
"SubCentre, Miryalapenta",59,1
"Primary Health Centre, Banakal",108,3
"SubCentre, Lachagudem",129,8
"SubCentre, Rajeswarapuram",94,9
"SubCentre, Chinakorukondi",177,2
"Primary Health Centre, Gundala",126,4
P.W. Road,129,1
"SubCentre, Beerapalli",121,9
"SubCentre, Thanikella",169,9
"SubCentre, Bethampudi",98,2
"SubCentre, V.Kistapuram",122,10
"SubCentre, Peddamunagala",191,4
"SubCentre, Medepalli",113,6
"SubCentre, Muchavaram",169,5
"SubCentre, Gollpudi",65,7
Pega,132,7
"SubCentre, Unjupalli",112,3
"SubCentre, Motamarri",103,6
"SubCentre, Gummadavalli",175,2
"SubCentre, Thallampadu",97,9
"SubCentre, Sarapaka",94,7
"SubCentre, Burgampadu-I",136,9
"SubCentre, Muthyalampadu",110,8
"SubCentre, Satyanarayanapuram",101,2
"Primary Health Centre, Aswapuram",182,6
"SubCentre, Cheemalapadu",122,8
"SubCentre, Aswaraopeta-II",147,9
"SubCentre, Muthyalampeta",185,6
"SubCentre, Mukamamidi",194,8
"SubCentre, Thippapuram",191,5
"SubCentre, Kommugudem",175,3
"SubCentre, Kurnapalli",127,5
"SubCentre, Rangaraipuram",157,5
"SubCentre, Khanapuram",114,4
"SubCentre, Madhira-2",129,1
"SubCentre, Nagupalli",66,2
"Primary Health Centre, M.V.Palem",118,6
"SubCentre, Siripuram",103,10
"SubCentre, Chinnanallapalli",55,3
Kopirametta,85,10
"SubCentre, Peruru",109,1
"Primary Health Centre, Julurupadu",172,3
"SubCentre, Papakollu",132,10
"Primary Health Centre, Aswaraopeta",66,10
"SubCentre, Kothapeta",101,3
"SubCentre, 21 Pit",58,3
"SubCentre, Madhira-1",55,8
"SubCentre, Krishnasagar",110,9
"SubCentre, Alubaka",178,9
"SubCentre, Koyagudem",76,3
"SubCentre, Indiranagar",76,3
"SubCentre, Theldarupalli",171,7
"SubCentre, Anantharam",175,8
"Primary Health Centre, Rompedu",84,4
"SubCentre, Singabupalem",80,7
"SubCentre, Kambalapadu",174,2
"SubCentre, Karaigudem",177,4
"Primary Health Centre, Chintakani",135,2
"SubCentre, Pocharam",185,4
"SubCentre, Peddakorukondi",119,10
"SubCentre, Ponnekallu",181,6
"SubCentre, M.V.Palem",144,9
"SubCentre, Manguvaibaduva",153,1
"SubCentre, Eerlapudi",118,3
"Urban Health Centre, Srinivasa Nagar",89,2
"SubCentre, Rajupeta",187,8
"SubCentre, Komararam",191,8
"SubCentre, Kusumanchi",102,7
"SubCentre, Timminenipalem",117,1
"SubCentre, Narsapuram",55,4
"SubCentre, Balajipeta",98,5
"SubCentre, Thallapenta",101,4
"SubCentre, Rudrakshapalli",50,6
Amaravaram,99,8
"SubCentre, Seethampeta",59,7
"SubCentre, 7 incline",77,3
"Primary Health Centre, Peddagopathi",131,4
"SubCentre, Burgampadu-II",157,1
"SubCentre, Ramnagar",110,7
"SubCentre, Kondaigudem",108,8
"SubCentre, Two Incline",186,6
"SubCentre, Rompedu",133,4
"SubCentre, Karepalli-II",171,9
"SubCentre, Oddugudem",60,5
"SubCentre, Beerolu",76,7
"Primariy Health Centre, Charla",85,9
Rekapalli,197,3
"SubCentre, Nelapatla",164,3
"SubCentre, Samithisingaram",76,6
"SubCentre, Iravendi",115,3
Gannavaram,176,6
"SubCentre, Koyachalaka",51,2
"SubCentre, Rayamadharam",148,1
"SubCentre, Pocharam",78,9
"SubCentre, Aswapuram-I",51,3
"SubCentre, Errupalem",92,4
"SubCentre, Kokkireni",54,9
"SubCentre, Aswapuram-III",144,2
"SubCentre, Gurvaigudem",94,7
"SubCentre, Tummalachervu",142,9
"SubCentre, Rajupeta",132,2
"SubCentre, Betalapadu",179,8
"SubCentre, Mustibanda",96,2
"SubCentre, Penuballi",64,8
"SubCentre, Gandhampalli",187,3
"Community Health Centre, Paloncha",158,7
Eleru,184,7
"SubCentre, Raghunadhapalem",183,8
"Primary Health Centre, Wyra",77,3
"M&CW Center, UFWC Bhadrachalam",102,4
"SubCentre, Anjanapuram",78,9
Cooli Line II,199,8
"SubCentre, Chennur",167,9
"SubCentre, Tegada",162,3
"Primary Health Centre, Gandhampalli",113,10
"SubCentre, Singareni",98,5
"SubCentre, Kandhukuru",185,5
"SubCentre, Ayyagaripeta",92,5
"SubCentre, Enagali",60,4
"SubCentre, Madharam",189,4
"SubCentre, Pullur",150,9
"SubCentre, Ganngapedu",107,4
"Primary Health Centre, Kalluru",169,10
"SubCentre, Manchukonda",52,8
"SubCentre, Chaparalapalli",138,6
Nizampeta,125,2
"SubCentre, Bhagathsinghnagar",145,2
"SubCentre, Kambalapalli",187,1
"SubCentre, Kavadikondla",64,7
"SubCentre, Barlagudem",115,6
"SubCentre, Choudaram",189,7
"SubCentre, Basvapuram",178,6
"SubCentre, Mallaram",132,9
"SubCentre, Nagulavancha",52,2
"SubCentre, Gandhasiri",145,5
"SubCentre, Thirumalayapalem",185,3
"SubCentre, Jagannadhapuram",181,1
"SubCentre, Pallipadu",87,2
"Primary Health Centre, Erragunta",72,8
"SubCentre, Dammapeta-II",117,3
"SubCentre, P Narsapuram",140,6
Edugurallapalli,115,5
"SubCentre, Buddaram",103,5
"SubCentre, Chinthagurthy",107,1
"SubCentre, Muthagudem",78,4
"SubCentre, Mamunoor",101,7
"SubCentre, UFWC-I",126,10
"SubCentre, Mutthagudem",194,5
"SubCentre, Jallepalli",65,8
"SubCentre, dhamsulapuram",55,3
"SubCentre, Jagannadhapuram",170,9
"SubCentre, Wazeedu",57,3
"SubCentre, Guvvalagudem",188,6
"SubCentre, Bathupalli",97,5
"SubCentre, Pammi",127,1
"SubCentre, Gompalli",133,5
"Primary Health Centre, Sujatha Nagar",111,4
"SubCentre, Thurubaka",73,10
"SubCentre, Pagideru",59,5
"SubCentre, Thatipudi",122,4
"SubCentre, Rajapuram",69,8
"Primary Health Centre, Karakagudem",61,6
"Urban Health Centre, Old Kothagudem",150,3
"Community Health Centre, Penuballi",83,3
SR Nagaram,138,3
"SubCentre, Kamanchikallu",169,7
"SubCentre, Kakatiya Nagar",131,2
"SubCentre, Jagathraopeta",52,8
"Primary Health Centre, Lankasagar",94,9
"SubCentre, Kakarvai",101,3
"SubCentre, Cherukuru",183,2
"SubCentre, Sambaigudem",171,4
Rudramkota,91,1
"SubCentre, P Banjara",97,6
"SubCentre, Lingagiri",75,9
"Primary Health Centre, Thirumalayapalem",165,5
"SubCentre, Narayanapuram",169,10
Lakkavaram,51,2
"SubCentre, Muddunuru",180,5
"SubCentre, Peddaraigudem",114,6
"SubCentre, Nandipadu",160,9
"SubCentre, Somulagudem",170,10
"SubCentre, Maddulapalli",55,3
"SubCentre, Gangaram",96,7
"SubCentre, Kalakota",163,1
"SubCentre, Produtoor",109,3
"SubCentre, Mohamadapuram",197,4
"SubCentre, Gudurupadu",126,1
"SubCentre, Irsulapuram",86,8
"SubCentre, Manikyaram",82,9
"SubCentre, Vepalagadda",108,7
"SubCentre, SN Puram",107,7
"SubCentre, Timmaraopeta",164,4
"SubCentre, Thirumalakunta",78,2
"SubCentre, Chintriyala",53,4
"SubCentre, Pragallapalli",148,7
"SubCentre, Venkatapuram",165,3
"SubCentre, Kommanapalli",121,2
"SubCentre, Kurnavalli",53,1
"SubCentre, Gundepudi",192,2
"SubCentre, Tekulapalli",92,9
"SubCentre, Kondapuram",75,6
"SubCentre, Lankapalli",86,3
"SubCentre, Marlapadu",67,2
"SubCentre, Reddygudem",72,7
"SubCentre, Vemsoor",118,10
"SubCentre, Gandhinagar",61,9
"SubCentre, Pinapaka",88,7
"SubCentre, Gandagalapadu",192,9
"SubCentre, Mulkanoor",53,9
"SubCentre, Nugur",195,8
"SubCentre, Lankasagar",119,6
"SubCentre, Jujjulrao peta",117,10
"SubCentre, Gundala",172,3
"SubCentre, 24 Pit",104,10
"SubCentre, Singarayapalem",131,3
"SubCentre, Marikala",199,8
"Primary Health Centre, Dummugudem",90,7
"SubCentre, Brahmanapalli",97,10
"SubCentre, Sriramgiri",168,6
"SubCentre, Maraigudem",129,7
"SubCentre, Tallagudem",92,1
"Primary Health Centre, Regalla",103,5
"Primary Health Centre, Pinapaka",159,9
"SubCentre, Bheemavaram",194,1
"SubCentre, Ontigudese",62,2
"SubCentre, Gangaram",144,1
"SubCentre, Laxmidevipalli",191,6
"SubCentre, Thumburu",131,10
"SubCentre, Jaggaram",99,3
"SubCentre, Thallada",66,9
"SubCentre, Madhira III",59,3
"SubCentre, vvpalem",72,1
"SubCentre, Narayanapuam",82,6
"SubCentre, Patharlapadu",189,2
"SubCentre, Penuballi",53,5
"SubCentre, Chandrugonda",86,6
"SubCentre, Sadasivapeta",96,1
"SubCentre, Chunchupalli",125,2
Bhadrachalam MCW Centre,62,10
"SubCentre, Babu Camp",156,3
"SubCentre, VMBanjara",62,3
"SubCentre, Rejerla",79,7
Peddamittapalli,188,5
"SubCentre, Madharam",165,1
"SubCentre, Meenavolu",130,7
"SubCentre, Nellipaka Banjar",129,2
"SubCentre, Gate Karepalli",139,1
"SubCentre, Mondivaram",185,1
"SubCentre, Palair",94,8
"SubCentre, Lingalapalli",170,10
"SubCentre, Ganeshpadu",167,5
"SubCentre, K.K.Ramavaram",62,8
"SubCentre, Venkatapuram",163,5
"SubCentre, Kodumoor",198,10
"SubCentre, Patharlapadu",160,10
"SubCentre, Gollagudem",125,8
"SubCentre, Madhapuram",109,4
"Primary Health Centre, Mangapeta",66,4
"SubCentre, Anantharam",136,7
ED Palli,61,7
"Primary Health Centre, Nelakondapalli",117,9
"SubCentre, Edira",69,5
"SubCentre, Venkatapuram",143,4
"SubCentre, Billipadu",128,7
"SubCentre, Narsapuram",139,4
Thimmampeta,125,8
"SubCentre, Julurpadu",123,5
"SubCentre, Usirikayalapalli",50,6
"SubCentre, Ulvanoor",167,3
"SubCentre, Dharmavaram",62,3
"SubCentre, Singareddy palem",138,8
"SubCentre, Bollorigudem",116,1
"Primary Health Centre, Morampallibanjara",77,10
"SubCentre, Athkoor",148,5
"SubCentre, Wyra",55,5
"SubCentre, Bodulabanda",175,8
Thulasipaka,58,9
"SubCentre, Pedamandava",166,4
Guduru,74,2
"SubCentre, Bombaithanda",88,6
"SubCentre, Somavaram",106,10
"Area Hospital, Bhadrachalam",155,5
"SubCentre, Nelakondapalli",131,6
"SubCentre, Sulhanagar",168,5
"SubCentre, Regupalli",149,6
"SubCentre, Sarvaram",119,3
"SubCentre, Narayanapuram",111,8
"SubCentre, Manikyaram",88,4
"SubCentre, Chinnamandava",98,2
"SubCentre, Kothalingala",76,1
"Primary Health Centre, Tallada",152,8
"Primary Health Centre, Mudigonda",156,6
Nellipaka,164,4
"SubCentre, Vidya Nagar-I",69,7
"SubCentre, Kummarigudem",148,4
"SubCentre, Garla II",85,3
"SubCentre, Paaladugu",122,4
"SubCentre, Mulakapadu",180,4
"SubCentre, Jupeda",50,9
"SubCentre, Enkoor",141,5
"Primary Health Centre, Allapalli",81,6
"SubCentre, Gowraram",98,1
"SubCentre, Sanjainagar",96,7
"SubCentre, Peraigudem",115,5
"SubCentre, Mothe",133,10
"SubCentre, Nizampeta",63,6
"SubCentre, Goutampur",70,7
"SubCentre, Hemachandra Puram",63,8
"SubCentre, Dugenepalli",125,7
"SubCentre, Vinayakapuram",169,7
"SubCentre, Pothireddipalem",147,3
Karmankonda,160,2
"SubCentre, Malkaram",116,10
"Primary Health Centre, Chandrugonda",192,7
"SubCentre, Chatha konda -II",94,10
"SubCentre, Pusugudem",86,6
"SubCentre, Mamillavarigudem",128,2
"SubCentre, Chandrupatla",139,10
PP Unit Kothagudem,115,7
"SubCentre, Yedulapuram",58,6
"SubCentre, Jamalapuram",172,7
Velairpadu,161,6
"SubCentre, Jastipalli",153,9
"SubCentre, Jagannadhapuram",68,1
"SubCentre, Bethupalli",55,8
"SubCentre, Rajeev Colony",75,7
"SubCentre, Bandarigudem",182,7
Mothugudem,149,5
"SubCentre, Seetarampuram",146,9
"SubCentre, UFWC-II",124,10
"SubCentre, Banigandlapadu",83,4
"SubCentre, Konijerla",90,6
"SubCentre, Rampuram",58,1
"SubCentre, Marlapadu",119,8
"SubCentre, Bhupathirao Colony",77,4
"SubCentre, Sri Nagar Colony",186,6
"SubCentre, Buggapadu",163,10
"SubCentre, Dammapeta-I",81,9
"SubCentre, Moddulagudem",58,10
"SubCentre, Garibpeta",107,8
"SubCentre, Papatapalli",119,10
"SubCentre, Kamalapuram",196,4
"SubCentre, Arlagudem",129,8
"Primary Health Centre, Penagadapa",91,2
"SubCentre, Tippanapalli",125,2
"SubCentre, Mahadevapuram",197,10
"SubCentre, Pinapaka",101,7
"SubCentre, Ravinuthala",100,7
"Primary Health Centre, Ulavanoor",147,3
"SubCentre, Kakarla",63,10
"SubCentre, Sanjeevareddypalem",154,10
"SubCentre, Patwarigudem",62,10
"SubCentre, Annapureddipalli",69,10
"SubCentre, Ayyannapalem",181,8
"Area Hospital, Koathagudem",68,4
"SubCentre, Tadekalapudi",199,2
"SubCentre, VidyaNagar-II",74,5
"SubCentre, Garla III (MCW Centre)",56,8
"SubCentre, Kunavaram D Type",199,2
"SubCentre, Vallabhi",103,8
Yatapaka,175,3
"Primary Health Centre, Mulkanoor",161,6
"SubCentre, Theerdala",136,8
"SubCentre, Morampallibanjara",193,9
"SubCentre, Seetarampuram",86,1
"SubCentre, Gondigudem",55,4
"Primary Health Centre, Sublaid",58,2
Jinnethogu,113,1
"SubCentre, Kamalapuram",100,7
"SubCentre, Tungaram",140,9
"SubCentre, Chokkala",172,4
"SubCentre, Karakagudem",117,6
"SubCentre, Bhavannapalem",100,2
"SubCentre, Arekodu",56,5
"SubCentre, Marrigudem",65,9
"Primary Health Centre, Peruru",81,8
"SubCentre, Pentlam",172,1
"SubCentre, Dummugudem",139,9
"SubCentre, Nuthankal",116,7
"SubCentre, Govindrala",106,7
"SubCentre, Chegomma",155,3
"SubCentre, Neerada",136,2
"SubCentre, Tutukalingannapeta",189,9
Khilla,111,9
"Urban Health Centre, Gudipadu",179,10
"SubCentre, Gattugudem",85,10
"SubCentre, Ricepeta",91,7
"SubCentre, Painampalli",63,3
"SubCentre, Madupalli",83,3
"SubCentre, Sundaraiah Nagar",149,4
"SubCentre, Choutapalli",121,10
"Primary Health Centre, Banigandlapadu",109,9
"SubCentre, Pagadalapalli",172,10
"Primary Health Centre, Kusumanchi",109,7
"SubCentre, Ravikampadu",124,6
"SubCentre, Ashwaraopeta",154,8
"Primary Health Centre, Singareni",69,5
"SubCentre, Munsaf banjara",101,9
"SubCentre, Alluri Seetharamaraju Colony",101,3
"SubCentre, Vijayanagar",164,1
"SubCentre, Pokalagudem",103,2
"SubCentre, Sujatha Nagar",81,1
"SubCentre, Penugollu",149,2
Gogubaka,161,8
"SubCentre, Shettipalli",60,2
"SubCentre, Aswaraopeta-III",93,6
"SubCentre, Govindapuram",193,4
"SubCentre, Remidicherla",186,4
"SubCentre, Cherla",122,3
"SubCentre, Indiranagar Colony",123,2
"SubCentre, Kothuru",147,5
"SubCentre, Dammaigudem",88,3
"SubCentre, Gubbagurthi",182,4
"SubCentre, Koppurai",188,1
"SubCentre, Pedabeeravalli",132,1
"SubCentre, Surya thanda",82,4
"SubCentre, Arlapenta",130,5
"SubCentre, Yathalakunta",179,9
"SubCentre, Anantharam",124,9
"SubCentre, Mylaram",104,10
"SubCentre, Dhanbad-II",154,10
"SubCentre, Pandurangapuram",172,2
"SubCentre, New Palvancha",126,7
Venkatreddipeta,84,5
"SubCentre, Sitharampuram",135,5
"SubCentre, Lingagudem",148,10
"Urban Health Centre, Mamillagudem",142,10
"SubCentre, Aswaraopeta-I",141,4
"Community Health Centre, Aswaraopeta",136,6
"SubCentre, Chinthakani",56,2
"SubCentre, Bommanapalli",160,7
"SubCentre, Bacchodu",59,10
"SubCentre, Pilot Colony",76,10
"SubCentre, Lachigudem",153,5
"SubCentre, Peddagopathi",125,4
"SubCentre, Bodu",94,3
"SubCentre, Mucherla",156,1
"SubCentre, Dendukoor",66,10
"SubCentre, 21 Pit II",96,3
"SubCentre, Boduthanda",61,1
"SubCentre, Bapanikunta",131,7
"SubCentre, Patha Anjanapuram",109,1
"SubCentre, Mudigonda",99,6
"SubCentre, B.Raghavapuram",116,10
"SubCentre, Yanambailu",178,6
"Primary Health Centre, Sulahanagar",57,8
"SubCentre, Garikapadu",104,4
"SubCentre, Mittapalli",122,7
"SubCentre, Kalluru B",126,1
"Primary Health Centre, Kamepalli",134,4
"SubCentre, Indiranagar",102,3
"SubCentre, Sangam",175,7
Tulagonda,199,4
"SubCentre, Pandithapuram",74,8
"SubCentre, Matoor",68,8
"SubCentre, Gandhinagar",114,9
"SubCentre, Thimmampeta",67,10
"SubCentre, Sathupalli",129,1
"SubCentre, Sheshagirinagar",183,3
"SubCentre, Jannaram",107,4
"SubCentre, Ananthanagar",71,5
"Primary Health Centre, Enkoor",138,5
"SubCentre, Uppaka",88,3
Sanayasi Basti,66,10
"SubCentre, Pindiprolu",105,4
"SubCentre, Kalyanamandapam",58,5
"Primary Health Centre, Gangaram",116,10
"SubCentre, K.G.Mallela",114,6
"SubCentre, Rudrampur",56,6
"SubCentre, Cheruvumadharam",50,1
Chaman Basti,94,8
"SubCentre, Utukur",172,3
"SubCentre, Erraboinapalli",180,7
"SubCentre, Ankampalem",77,3
"SubCentre, Regalla",159,7
"SubCentre, Mujjugudem",87,4
"SubCentre, Chinnagollagudem",190,9
"SubCentre, Sudimalla",86,5
Koida,180,7
"SubCentre, Hanumanthulapadu",198,3
"SubCentre, Chennaram",144,6
"SubCentre, Bayyaram II",199,7
"SubCentre, Bayyaram III",171,3
"SubCentre, Mangapuramthanda",174,9
"SubCentre, Kamalapuram",96,4
"SubCentre, Pathareddigudem",83,1
"SubCentre, Allapalli",51,8
"SubCentre, Kalluru A",147,4
"SubCentre, Chinagopathi",166,4
"Primary Health Centre, Konijerla",166,2
"SubCentre, Shivalingapuram",115,5
"SubCentre, Korlagudem",84,7
"SubCentre, Gumpena",181,2
"Community Health Centre, Madhira",163,3
"SubCentre, Kamalapuram",110,6
"SubCentre, Ambedkar Nagar",136,6
"SubCentre, Penagadapa",60,3
"SubCentre, Seethampeta",78,8
"SubCentre, Mandalapalli",81,8
"SubCentre, Peddathanda",170,5
"SubCentre, Gummadidoddi",164,9
"SubCentre, Markodu",132,6
"SubCentre, Battupalli",195,5
"Primary Health Centre, Manchukonda",148,9
Kuturu,93,6
"SubCentre, Venkatapuram",191,5
"SubCentre, Bangaruchelaka",195,5
"SubCentre, Dosallapalli",152,10
"SubCentre, Kunchaparthi",101,1
"SubCentre, Bonakal",143,7
"SubCentre, Peddagangaram",55,5
"Primary Health Centre, Janampeta",93,3
"SubCentre, Nacharam",183,4
"SubCentre, Uppalapadu",177,10
"Community Health Centre, Sathuopalli",77,6
"Urban Health Centre, Ramavaram",97,6
"SubCentre, Danavaipeta",53,10
"SubCentre, Manuguru",95,6
Medepalli,101,6
"SubCentre, Adserlapadu",161,1
"SubCentre, Vishwanadhapalli",68,2
"SubCentre, Anandkhani",104,6
"SubCentre, Pedamidisileru",78,3
"SubCentre, Kinnerasani",131,7
"Primary Health Centre, Satyanarayanapuram",181,5
"SubCentre, Pinapaka",173,4
"SubCentre, Sampathnagar",141,9
"SubCentre, Jeelachervu",78,1
"SubCentre, Mamidigudem",58,10
"SubCentre, Gudimalla",141,9
"SubCentre, NTR Nagar",50,7
"District Hospital, Khammam",115,2
"SubCentre, Janampeta",175,7
"SubCentre, Koyyuru",111,1
"SubCentre, Nadikudi",197,9
"SubCentre, Thummalapalli",92,4
"Primary Health Centre, Dammapeta",121,4
"SubCentre, Toggudem",95,3
"SubCentre, Pamunuru",192,10
"SubCentre, Chirunomula",83,3
"SubCentre, Maddukur",182,7
"SubCentre, Ramakrishnapuram",169,10
"SubCentre, Pothureddipalli",80,4
"SubCentre, Naikengudem",83,7
"SubCentre, Peddakistapuram",117,10
"Primary Health Centre, Wazeedu",152,7
"Primary Health Centre, Edira",63,8
"SubCentre, Mustikuntla",99,1
Kukunooru,83,9
"SubCentre, Dhanbad-I",139,4
"SubCentre, Aswapuram-II",140,5
"SubCentre, Peruvancha",174,2
"SubCentre, Motlagudem",55,6
"SubCentre, Ashoknagar",197,9
"SubCentre, Annarupadu",197,1
"Primary Health Centre, Maturipeta",184,8
"SubCentre, Ragaboinagudem",191,2
"SubCentre, Laxmipuram",74,5
"SubCentre, K.Gangaram",79,4
"SubCentre, Maruthinagar",72,1
"SubCentre, Sitarampuram",161,7
"SubCentre, Tekulacheruvu",135,9
Challakavvam,113,7
"Urban Health Centre, Mustafa Nagar",183,5
"SubCentre, Mallaram",128,3
"SubCentre, Veerabhadraram",135,2
"SubCentre, Kachanapalli",179,2
"Primary Health Centre, Bayyaram",118,10
"SubCentre, Three Incline",144,8
"SubCentre, Pandillapalli",63,1
"SubCentre, Perepalli",78,6
"SubCentre, Khammampadu",122,2
"SubCentre, Bannapuram",70,8
"SubCentre, Mittagudem",139,1
"SubCentre, Nagaram",175,3
PP Unit Khammam,198,5
"Primary Health Centre, Patwarigudem",52,5
"SubCentre, Indiranagar Colony",199,10
"SubCentre, Bayyaram I",146,3
"SubCentre, Vedanthapuram",168,5
"SubCentre, Mallemadugu",92,4
"Primary Health Centre, Jaganadhapuram",65,9
"SubCentre, Nacharam",118,3
"SubCentre, Bramanapalli",114,10
"SubCentre, M Kasinagaram",181,7
"M&CW Center, Palvoncha",64,1
Laxmipuram,158,8
"SubCentre, Kunavaram",139,3
"SubCentre, Muthapuram",83,9
"SubCentre, Ramachandrapuram",72,7
"SubCentre, Tekulapalli",62,2
"Community Health Center, Yellandu",125,9
"SubCentre, Kamepalli",111,2
"SubCentre, Pandurangapuram",166,3
"SubCentre, Substation",83,1
"SubCentre, Chathakonda-I",56,5
"Urban Health Centre, Shekaram Banjara",99,9
"Primary Health Centre, Gummadavalli",157,4
"Primary Health Centre, Komararam",108,2
"SubCentre, Khanapuram",108,1
Sarvila,191,6
"SubCentre, Kishtaram",91,10
"SubCentre, Mondikunta",181,3
Bokkalagadda,71,10
"SubCentre, Pandurangapuram",131,10
"SubCentre, Bhagyanagar Thanda",180,4
"SubCentre, Seetampeta",72,3
"Primary HEalth Centre, Manuguru",161,6
"SubCentre, Sublaid",129,7
"Primary Health Centre, Vemsoor",81,8
"SubCentre, Annarugudem",103,5
"SubCentre, Sayanapalli",196,8
"SubCentre, Abbugudem",160,3
"SubCentre, Telagavaram",198,6
