Health Facility Name,Number_Of_Beds,Rating
UPHC  Chhallapura,158,5
bihari,96,8
SHC Bhadol,137,1
SHC Khamroli,181,6
SHC Bahadurpur,57,6
SHC Berchha,135,5
SHC Bichhodana,167,9
SHC Salon-B,63,8
SHC Baroni,189,10
PHC Sohan,158,5
SHC Kasherua,103,7
SHC Basai,183,3
CHC Indergarh,84,3
SHC Mahuwa,117,3
SHC Buhara,106,7
SHC Kudari,135,5
SHC Chirula,194,10
SHC Hinotiya,68,8
SHC Sarsai,94,9
PHC Salon-B,130,2
SHC Bharroli,59,1
SHC Padri,196,9
SHC Jigna,75,2
SHC Bilethi,75,9
SHC Kamad,123,4
SHC Sirsa,63,3
SHC Mangrol,111,8
SHC Dalpatpur,54,5
SHC Ikara,190,1
SHC Noner,101,10
SHC Bagpura,195,7
SHC Saletara,181,10
SHC Jujharpur,166,4
SHC Sindhwari,146,7
SHC Launch,183,4
PHC Sonagir,174,10
SHC Chandrol,68,3
SHC Sersa,122,1
SHC Larayta,134,4
SHC Udina,97,8
SHC Hathlai,59,1
SHC Atreta,188,5
SHC Chhikau,120,4
SHC Dirolipar,151,2
SHC Barka,141,7
SHC Pandokhar,55,4
SHC Sirol,117,5
SHC Bhagour,113,8
SHC Nunwaha,112,6
SHC dariyapur,191,4
SHC Imiliya,169,7
SHC Bhalka,84,4
SHC Johariya,164,1
DH DATIA,163,6
SHC Badokhari,139,1
PHC Unao,64,5
SHC Badonkala,164,9
SHC Erai,185,10
CHC Basai,96,9
PHC Tharet,147,5
CHC Bhander,151,1
SHC Sohan,68,8
SHC Baderasopan,149,10
SHC Neemdada,69,10
SHC Lahar Haweli,50,8
SHC Upraiy,143,3
SHC Todapahad,151,7
PHC Uchad,134,4
SHC Kusoli,64,2
SHC Sinawal,72,7
SHC Mudara,169,8
SHC Nayakheda,125,10
SHC Targuwa,177,4
SHC Goraghat,154,9
SHC Badera,109,8
SHC Kumharra,134,6
SHC Hathlav,127,8
SHC Agora,55,5
SHC Sanora,102,5
SHC Udgawa,186,5
SHC Dhirpura,165,7
SHC Uchiya,50,7
SHC Talgaon,82,1
SHC Sadwara,57,6
SHC Dursada,77,4
SHC Barghuwa,96,9
SHC Bhauwapura,126,10
CH Seondha,153,5
SHC Igui,75,8
SHC Piproua,109,2
SHC Beekar,56,9
PHC Dursada,118,1
SHC Godan,159,8
SHC Parasari,83,6
SHC Piprouakala,64,4
SHC Softa,189,1
SHC Bhadona,175,7
SHC Berach,188,3
SHC ParsondaGurjar,172,8
SHC Tatarpur,119,10
SHC Siroli,115,9
SHC Kuleth,185,1
SHC Sikri,146,2
PHC Barcholi,184,10
SHC Singhpura,56,7
SHC Ruhera,148,3
PHC Baroni,113,7
SHC KhiriyaFaizula,193,10
SHC Jouniya,177,7
SHC Digua,164,4
SHC Jouri,66,5
UPHC  Chhallapura,112,8
bihari,186,5
SHC Bhadol,106,6
SHC Khamroli,64,2
SHC Bahadurpur,77,6
SHC Berchha,164,4
SHC Bichhodana,194,9
SHC Salon-B,78,10
SHC Baroni,91,4
PHC Sohan,183,7
SHC Kasherua,84,4
SHC Basai,159,5
CHC Indergarh,88,5
SHC Mahuwa,91,3
SHC Buhara,197,1
SHC Kudari,166,9
SHC Chirula,141,7
SHC Hinotiya,92,4
SHC Sarsai,53,6
PHC Salon-B,180,7
SHC Bharroli,113,4
SHC Padri,131,4
SHC Jigna,138,8
SHC Bilethi,120,7
SHC Kamad,52,8
SHC Sirsa,79,3
SHC Mangrol,194,5
SHC Dalpatpur,154,10
SHC Ikara,182,1
SHC Noner,100,10
SHC Bagpura,104,7
SHC Saletara,136,9
SHC Jujharpur,151,10
SHC Sindhwari,112,5
SHC Launch,181,1
PHC Sonagir,139,4
SHC Chandrol,67,4
SHC Sersa,197,3
SHC Larayta,170,4
SHC Udina,165,8
SHC Hathlai,157,3
SHC Atreta,154,2
SHC Chhikau,70,1
SHC Dirolipar,169,2
SHC Barka,62,4
SHC Pandokhar,185,8
SHC Sirol,132,6
SHC Bhagour,159,1
SHC Nunwaha,105,3
SHC dariyapur,51,3
SHC Imiliya,98,8
SHC Bhalka,108,3
SHC Johariya,116,6
DH DATIA,125,4
SHC Badokhari,74,9
PHC Unao,94,10
SHC Badonkala,177,5
SHC Erai,175,2
CHC Basai,153,3
PHC Tharet,193,7
CHC Bhander,143,1
SHC Sohan,178,1
SHC Baderasopan,99,5
SHC Neemdada,126,10
SHC Lahar Haweli,80,5
SHC Upraiy,96,5
SHC Todapahad,121,2
PHC Uchad,94,6
SHC Kusoli,173,4
SHC Sinawal,111,4
SHC Mudara,81,10
SHC Nayakheda,51,4
SHC Targuwa,149,3
SHC Goraghat,126,5
SHC Badera,120,1
SHC Kumharra,71,6
SHC Hathlav,163,10
SHC Agora,127,6
SHC Sanora,160,5
SHC Udgawa,144,6
SHC Dhirpura,171,4
SHC Uchiya,149,10
SHC Talgaon,66,4
SHC Sadwara,119,8
SHC Dursada,194,6
SHC Barghuwa,199,5
SHC Bhauwapura,187,3
CH Seondha,86,10
SHC Igui,159,7
SHC Piproua,76,5
SHC Beekar,128,10
PHC Dursada,183,3
SHC Godan,91,2
SHC Parasari,51,9
SHC Piprouakala,70,2
SHC Softa,167,1
SHC Bhadona,102,9
SHC Berach,98,5
SHC ParsondaGurjar,121,3
SHC Tatarpur,93,8
SHC Siroli,173,1
SHC Kuleth,149,4
SHC Sikri,186,8
PHC Barcholi,139,1
SHC Singhpura,169,8
SHC Ruhera,64,2
PHC Baroni,130,10
SHC KhiriyaFaizula,146,1
SHC Jouniya,124,6
SHC Digua,122,4
SHC Jouri,107,6
