Health Facility Name,Number_Of_Beds,Rating
Gadoj,191,10
Anandpur,183,4
bahrampur,109,3
adoli,188,6
Dabarwas,127,7
Domroli,124,1
Kaysha,134,4
Kutina,122,8
MAJARA,174,1
khoh,136,9
Majri Kalan,100,3
Nangli Balai,149,10
Mandhan,130,9
Mathurahera,167,2
Anandpur,146,4
Ardeend,97,5
Bheempura,61,5
Nangal Rupa,132,2
Dheekwar,159,10
nithari,137,7
Hudiya Khurd,51,9
toda,143,2
Nihalpura,97,10
Porula,176,1
jatwara,135,3
Raisarna,84,9
kherli,88,2
Raiwana,177,1
Ramchandrapura,155,9
Rajeev Gandhi District Hospital,191,6
Kala Kua Satellite Hospital,139,5
Jagannath Mandir,80,3
NEB Housing Board,97,4
Shivaji Park,167,4
Jail Dispensary,143,10
Police Line Dispensary,130,10
UFWC Shubash Chowk,145,8
Mohalla Akhepura,115,6
CD No 1 Mugaska,92,1
Miltary Hospital,51,1
Bahrampur,81,7
Ladiya,55,4
Giglana,105,5
Umren,52,9
Shahadka,111,10
Jamdoli,52,9
Ladpur,113,8
Akbarpur,115,3
mahua kala,164,1
NOTIONAL Barodamav,113,3
Chawandi Kalan,178,4
Khareta,81,10
Sarangpur,94,8
Hajipur,146,1
bijorawas,64,10
Manri Khurd,127,5
Thanagazi,142,4
Khedli Pichnaut,151,1
Aalampur,163,9
Bilali,126,1
Harsora,56,5
Jatpur,97,5
NOTIONAL Kherli,137,8
sirolikala,187,9
Kervada,57,4
Jatuwas,111,1
Rajwada,79,6
Sanwar,179,5
Etera,80,7
Tasing,191,2
Tapukara,155,4
Chimrawali Gaud,103,9
Jaitpur,108,2
Mainaki,192,4
Ajabpura,126,2
Titpuri,95,6
NOTIONAL Baskrapalnagar,99,6
Katariya ka Bas,144,3
NOTIONAL Rajgarh,161,5
Seerawas,63,4
Desula,53,3
Khedli Chandawat,169,1
NOTIONAL Pada,85,5
NOTIONAL rabadka,94,8
NOTIONAL Govindgarh,70,1
Tikri,161,6
Behror,162,6
Girudi,96,2
tatarpur,182,9
Gurgachka,197,5
Mundawar,68,3
Mathurahera,193,10
NOTIONAL Laxmangarh,64,8
thada,184,1
JAISHINGPURA,97,2
Lekri,94,4
Chhapur,130,3
khapria,169,5
Manaka,125,4
Jasai,68,6
Gadli,111,3
Ajarka,132,2
Binjari,70,6
Lalpura,130,6
Jhajarpur,157,10
Moliya,112,1
Bhagwari Khurd,183,10
Duharchougarn,151,3
Baghoda,184,10
Bilahedi,151,2
Bileta,132,5
kamalpur,179,5
Bagad Rajpoot,113,4
Jhiwana,66,1
Pali,87,8
Manchal,160,1
babeli,110,10
Roopbas,180,1
Rayli,107,9
Shahbad,123,4
Dhara Ka Bas,85,7
Nithari,51,8
Nibheda,176,9
Partapgarh,145,1
nanagheri,140,5
Bhadurpur,63,4
Agar,95,4
Thekda,177,6
Hingwaheda,112,5
Barli,105,4
NOTIONAL Harsana,152,4
Mudiya khara,107,8
Rasagn,117,9
Gailpur,168,2
shivdansinghpura,150,2
Madhogarh,108,8
Chandpuri,88,6
NOTIONAL Ghdhi Sawairam,199,10
Rajorgarh,98,4
Samuchi,130,7
Semla,192,4
Derabamanwas,103,2
Raikhera,162,10
Ghasoli,136,7
Jhiri,169,3
Kohrana,129,6
Kalsada,183,5
Khatoti,122,10
Dahami,152,2
Digawara,60,5
Nayagawn,130,2
NOTIONAL Jhajarpur,107,7
Kutuki,95,8
Patti Joriya,127,9
Ranoth,133,4
Pahadi,162,1
Sadampur,135,5
nalota,92,2
kalka,86,2
Gyan Singh Ki Dhani,62,9
Bhikanpura,150,4
Khokar,107,2
Raita,134,7
Kheda Mehamood,104,4
rabhana,124,2
Sanoli,64,7
Shamda,159,10
kehrani,193,3
Aamka,71,9
Mojdika,121,6
Nitata,179,7
Tinkiruri,159,1
Mojpur,148,2
Bhadaj,96,3
Gunsar,80,10
Chanduki,70,1
Tulasiwala,101,2
Babera,86,9
Tilwad,53,4
Jairoli,101,5
Doroli,146,3
Chandichana,187,10
BHAJEDA,105,5
Darbarpur,57,8
Berla,198,1
ITOLI,56,2
NOTIONAL Mojpur,66,10
NOTIONAL Nikach,148,5
Masari,112,4
NOTIONAL Palawa,183,7
NOTIONAL Kushalgarh,91,3
Dewati,96,1
Dubee,112,3
Gunti,121,5
Haspur,109,10
Jakharana,98,5
Siwana,179,5
Doroli,61,2
Bhiwadi,171,3
Dantiya,169,3
Mubarikpur,157,3
Hulyana,173,5
Khiwaheri,147,5
Kotkasim,86,5
Bhuaka,128,9
Nangwas,133,10
NOTIONAL Tehla,64,1
Kathumar,117,10
Bandoli,146,9
Hatudi,189,8
Pila Dhaba,155,5
NOTIONAL Rampur,191,3
Sirod Khurd,193,5
Khohar,191,1
NOTIONAL Chandoli,119,10
Ballana,87,7
NOTIONAL Padisel,135,1
Mundli,143,7
Dhadoli,137,10
Tigaria,197,3
Hamirpur,61,6
Jonaicha Kala,74,1
Karana,195,7
Morodi,109,3
Kherthal,85,6
Machhroli,179,3
NOTIONAL Milakpur Turk,94,9
Ishroda,101,8
Mandu ka Bas,102,6
Bilaspur,157,4
Rasnali,142,7
Akleempur,52,8
Kherli,103,7
Prempura,149,10
Bagadmev,198,7
Samara,156,1
Naysharna,145,8
mohammadpur,181,6
NOTIONAL Etera,192,7
sathalka,110,1
Daroda,160,4
Mouthuka,153,8
Kalwari,117,5
NOTIONAL Neemrana,60,2
Nikach,175,9
NOTIONAL Rasagn,194,8
Chamroda,51,7
dugheda,93,9
Sonkh,89,1
Nangli Balaheer,151,5
Holawas,92,4
NOTIONAL Hamirpur,92,8
Kerwaval,152,7
Salpur,110,1
Hajipur,189,6
Mahua Khurd,169,2
Khareda,87,8
Siyakhoh,129,8
Khohra,170,8
Kolila,120,3
Basai,157,3
Bilaspur,127,3
dhamawas,123,6
Gothara,97,2
Devsan,62,7
piplana,128,8
Uchpur,93,3
Noor Nagar,146,1
Dungariya,142,6
Gaduwas,98,6
Dudheri,185,5
khidarpur,170,1
Samla Khurd,80,10
mahesara,153,10
Ghari,192,6
NOTIONAL Bhindusi,166,7
Teouwas,144,6
NOTIONAL Bamboli,166,3
Chouma,129,2
NOTIONAL Baleta,140,3
Vijaypura,158,1
Aslimpur,89,8
Bhuriyawas,87,9
Kakralimev,69,8
Bhugore,135,9
Kithur,172,2
SHERPUR,159,9
NOTIONAL Kalwari,53,6
NOTIONAL Digawara,195,5
Jawali,130,5
Budia Bas,85,9
Shanthalpur,65,5
NOTIONAL Sarekalan,166,5
NOTIONAL Nangalwali,194,5
NOTIONAL Tijara,107,6
Manawas,123,1
Bardod,157,6
Baldevpura,126,5
Bilandi,193,8
Dabli,111,4
NOTIONAL Bansur,199,2
Padmada,123,5
Duwarapur,117,3
Bas Shekhawat,96,3
Kutina,126,9
Surar,68,6
Pahdawati,77,1
Niwali,101,10
NOTIONAL Reni,107,4
Shanto,184,4
Nakhnol,104,10
Dangarwada Gurjar,71,1
Ulaheri,81,7
Khodreb,68,7
Kaneti,166,6
dhidhor,182,4
Balpura,156,6
Hamiraka,199,10
Bajeda,193,1
Bhakatpura,123,4
NOTIONAL Ghari,106,6
Guta Shahpur,56,9
Dyothana,118,6
Ringspuri,182,1
Chidwa,95,6
Baberi,88,5
NOTIONAL Baytukalan,177,7
Ramnagar,168,9
NOTIONAL Bileta,124,3
NOTIONAL choupanki,101,3
Geeloth,146,6
Thanarajaji,59,5
Neemli,141,8
Domroli,189,1
Bas Purohit,67,8
sherpur,74,7
Chomu,138,10
Khouh,175,3
Khilora,185,6
chawandi khurda,93,6
Hanuman Guwada,115,8
Kanpura,133,5
Khoabas,55,4
Ghevar Nayala,179,7
NOTIONAL Kishangarhbas,120,3
Harsana,148,3
Prathvipura,86,7
Chandpur,94,1
Ardeend,168,10
Khanpur Mewan,80,10
Tijara,102,10
NOTIONAL Nangli Balaheer,198,1
Dhwala,55,1
shahpur,92,6
Lili,66,10
Jamalpur,176,6
Kakarchhaja,195,4
Roopbas,125,4
Kanhadka,166,9
Falsa,143,2
Khohri,195,6
NOTIONAL Badaka,114,10
Natoj,198,3
Rasgan,184,9
Mallana,102,5
NOTIONAL Ramnagar,79,6
Khohari,137,5
Toda,97,7
Ramsinghpura,134,10
Bansur,143,1
Pawata,161,7
NOTIONAL jalalpur,77,9
Sirlarpur,94,1
Chousla,172,9
NOTIONAL Deharashahpur,60,10
Sarekalan,100,2
Nethla,195,3
Bijwad Chouhan,111,3
mithiyawas,76,9
Jilota,106,3
Naswari,128,9
Shekhpur Ahir,156,3
RAMPURA,181,1
Dhis,81,9
City Dispensary Shivaji Park Alwar,196,10
karenda,171,8
Kalyanpura,140,10
Kundalaka,78,9
Nimbhahedi,51,8
Kakrali,193,7
Matoiur,125,4
Nangal Bhavsingh,95,1
NOTIONAL Tikri,67,5
NOTIONAL Guta Shahpur,177,4
Bas Goverdhan,155,10
Shekhpur,194,9
Narayanpur,53,5
Tuleda,132,5
NOTIONAL Mandawara,129,7
Majra Kath,100,3
NOTIONAL Pahdawati,62,7
JonaychaKhurd,97,1
Ismilepur,109,8
Shyodan Pura,157,9
Pinan,178,4
Bhanokhar,110,1
Gugali Ka Guwada,63,7
Barodamav,167,6
Parta Ka Bas,55,8
zaatka,161,5
salarpur,73,10
Mandhan,127,10
Baytukalan,112,8
Pragpura,118,2
NOTIONAL Jindoli,169,8
Chuhadpur,101,2
NOTIONAL Nimuchana,159,10
jhakhopur,92,10
jodiyamev,120,8
NOTIONAL Tapukara,163,10
Narhet,190,8
Khudiyana,170,8
Doba,117,1
Hudiya Khurd,85,5
NOTIONAL Pehal,158,4
Bhetera,111,1
Dohali,132,10
Kesroli,169,1
Hasanpur,161,10
Bader,63,3
NOTIONAL Khanpur Mewan,65,8
Nangal Bajirka,143,7
Devata,107,10
Bijopur,127,4
Garu,106,3
Jatgawara,61,10
Kaluka,190,3
Kishori,198,5
Karoda,189,10
NOTIONAL Ajabgarh,138,6
Padak Chapali,110,4
City Dispensary NEB Housing Board Alwar,65,8
NOTIONAL Narayanpur,141,3
Gadhi Dhaneta,111,1
Jajarpur,60,2
Parsa Ka Bas,76,4
NOTIONAL Bagadmev,84,4
Chikani,52,7
Kankardopa,139,7
Gyanpura,117,9
Shahjapur,96,6
Harsoli,55,6
Bisarawas,80,8
Khedi,192,1
NOTIONAL Sarai Kalan,131,7
NOTIONAL Khodreb,82,3
Tolawas,163,5
Darogawala,195,2
NOTIONAL Agar,59,2
NOTIONAL Talab,153,7
ShiliBawadi,108,5
Soorawas,75,7
ChorotiPahad,175,5
Kakralijat,192,9
NOTIONAL Kishori,140,10
Raisarana,196,7
Kushpuri,106,3
Jhagret,50,4
Dhara,184,4
Bhajit,143,9
Doli,80,8
Bai,186,5
Nairdha Khurd,159,4
Alapur Mev,122,4
Jagannathpura,140,4
Angari,158,1
Annantpura,177,6
Jodiya,75,10
Deewali,124,5
Laduwas,144,3
Nangli Megha,102,8
Sukola,199,2
Alampur,148,8
Karvad,172,8
Piplai,178,10
Baroli,84,3
Dhiriyawas,162,1
Bigota,108,5
Garh Basai,79,9
Sirmoli,115,3
Amara Ka Bas,151,2
NOTIONAL Tatarpur,158,8
NOTIONAL Jhalatala,51,8
Beejwad Naruka,125,5
Haldina,178,4
MUDIYA,108,3
Ujoli,121,9
Jodhawas,76,10
Indoke,171,8
NOTIONAL Sodawas,71,8
Dhakla,151,6
Palawa,162,3
Kaska,149,8
Neemrana,176,9
Kankariya,159,6
Lily,108,7
Dhakpuri,129,4
Tasing,54,5
Kaniyawas,130,9
Sahedi,91,6
Kalyanpura,59,10
Mundiyakheda,53,10
mayapur,196,3
Dhamred,98,6
Bijawa,188,6
Ajarka,146,5
Umren,128,6
Gudhachurani,143,10
Alapur Jat,89,3
Todiya ka Bas,177,4
Leela Manda,121,7
Mirjapur,114,6
Bheempura,178,10
Umari Devari,79,1
Bhupsera,65,1
NOTIONAL Baldevgarh,109,8
Bhaali,138,2
City Dispensary Jagannath Mandir Alwar,126,10
Gujariwas,161,4
Dotana,118,4
Goteda,90,6
Patliya,92,7
Shayam Ganga,101,8
Dhundhariya,78,10
patankala,189,4
Bahadakokala,191,6
Khan Pur,190,2
Gola ka bas,57,1
Beda,107,3
NOTIONAL Kolaheda,183,10
Bamanwas,192,10
golawas,98,7
salarpur mev,193,7
Diwakri,159,5
Arua,177,1
Kheda Kalyanpur,64,2
Kaleshan,78,7
Nimuchana,167,7
Jat Bahror,76,4
Karoli,142,1
Bhaggu Ka Bas,55,5
sehrod,194,10
Achalpuri,90,2
Jhareda,101,4
Allapur,100,5
Macha,73,3
Shahapur,127,6
Ronijathan,121,6
dawani,80,6
Tarwala,98,10
Kharkheda,170,9
Shahpur,197,1
indour,163,2
Untwal,190,1
Fouladpur,81,2
Bujaka,155,7
NOTIONAL Palkhedi,131,6
Utoli,86,9
Khuteta Kalan,115,7
Berla,67,3
Nashopur,191,1
Pisai,164,8
Baldevgarh,184,6
Rampur,180,2
Mandha Majra,69,5
Thikari,118,7
Kala Kuwa Salellite Hospital,126,3
NOTIONAL Jairoli,150,7
NOTIONAL khidarpur,170,6
NOTIONAL Jhiwana,128,3
Bichgaun,125,5
bhabdaka,146,5
Pata,159,7
Nasopur,71,10
Adoli,73,1
Khoithal,179,10
Chilodi,199,4
Todajaisinghpura,170,1
NOTIONAL Masari,163,5
Sirmor,94,4
Gurjaro Ka Guwada,153,8
Kalikholi,124,10
Gordanpura,55,10
Burja,180,4
Indravali,133,7
Bardod,163,6
Gadpur,56,7
NOTIONAL Kutina,165,2
Basani,59,9
Pakhar,106,10
Gwara,186,10
NOTIONAL Haldina,172,4
Ramcgandrapura,114,1
Jatiyana,89,1
Bamboli,156,9
Baghana,163,9
Ghegoli,107,2
Ladpur,98,10
Jakharana,126,8
Jajaur,104,6
Makdava,147,2
Anandpur,141,7
NOTIONAL Baghore,113,5
Ramgarh,109,6
Majara Dhakora,80,7
Phoolawas,117,4
NOTIONAL Sakat,154,4
Chandoli,141,4
kalgaun,179,6
Mahanpur,118,1
Hamidpur,104,5
Kotkasim,146,7
Kherli Rail,116,1
Birkadi,182,9
Basana,192,1
Indergarh,144,10
Shaluta,128,9
Suratgarh,134,5
Bambora,191,4
NOTIONAL Jatwara,83,7
Patanbhan,194,8
shekhpur Jat,87,10
Chind Jaishinghpura,196,8
Lapala,143,6
NOTIONAL Mallana,160,8
Siya Ka Bas,154,1
Tigawa,137,3
Dharmpura,180,7
Sareta,113,1
NOTIONAL Prathvipura,178,7
Reni,58,7
Manjri Kala,164,1
GugalKota,57,8
Sonkhari,174,7
Sahdoli,191,9
Nangala Udiya,186,1
Khera,194,2
Bhokar,150,10
NOTIONAL Bijwad Chouhan,194,3
Bibirani,172,9
Gahankar,96,1
Gudaramji,85,1
Barodakan,135,3
Kolaheda,169,10
Jaguwas,181,7
Kolgawn,55,2
NOTIONAL Baghana,185,1
Talwana,151,3
NOTIONAL Shahbad,76,5
NOTIONAL Soarai,155,7
Loyti,143,4
Kishorpura,85,10
Bharu Gatti,187,3
Balluwas,198,3
Baseth,149,1
Nathalwada,62,7
Ahir Ka Tibara,135,10
rajpur chota,65,7
Jalawas,79,10
nasarpur,116,9
Kishanpura,111,8
Pipali,142,8
Jharkhera,88,5
Doulatsingpura,105,3
Dabarwas,153,10
Nangla Sedu,51,10
Mundawar,173,3
NOTIONAL Mundanwada,198,8
Katuwas,60,8
NOTIONAL Ramgarh,183,4
Gandala,93,6
Lalupura,129,5
Bhetera,74,2
Kundla,66,9
Palwa,137,10
choupanki,93,7
Punkhar,139,7
Kelpurkhera,73,2
NOTIONAL Jaitpur,145,6
Machri,148,8
Sakat,195,6
Jindoli,119,5
Bilahedi,179,9
Deegli,108,5
Burja,175,7
Raybka,87,2
Gopalpura,108,10
Khedameda,198,2
Harner,143,5
Dogdi,144,7
Adpost Alaee,60,2
NOTIONAL Jamdoli,195,10
Mandawara,88,7
RFWC Subhash Chowk Alwar,137,3
Ratangarh Pala,50,8
Sorwa,158,9
Tibara,177,10
NOTIONAL Gudhachurani,156,9
Jagta Basai,82,10
Raipura Bal,167,6
Lamchpur,89,9
Jatuwas,168,8
Maseet,89,6
Gugdod,84,8
Palpur,135,5
Ratanpura,131,1
Sabalgarh banethi,127,7
NOTIONAL Bhadurpur,197,5
Niyana,60,4
NOTIONAL Rajpurbara,148,4
Purana Rajgarh,91,3
Parvaini,110,8
Baira,111,8
jainpurwas,130,10
garh,183,8
Sheelgav,116,10
Jahadu,198,2
jalalpur,138,6
UKARI,197,7
Shyopur,112,9
Ghamukad,110,9
Chaper,77,6
Girwas,59,3
NOTIONAL Gahankar,77,2
talwad,87,10
Sahodi,172,3
NOTIONAL Bhanokhar,70,10
Sihalikalan,159,2
Langar Bas,140,7
NOTIONAL Untwal,118,8
Chatarpura,62,10
mundana,137,7
NOTIONAL Gandura,59,3
Majri Khola,112,1
Ghdhi Sawairam,111,3
BAAJOLI,120,10
Shri Chandpura,181,8
Ghatla,123,6
NOTIONAL Khokar,90,10
dhaki,128,7
Nangal Lakha,198,1
Bhindusi,183,1
Behror,150,10
NOTIONAL Jodiya,113,3
Jadla,52,9
Indpur,89,8
Sodawas,95,9
khijuriwas,77,4
Pada,88,1
Gwalda,173,10
Ismilepur,91,2
Musakheda,52,3
NOTIONAL Sihalikalan,129,7
bichala,120,1
NOTIONAL Malakhera,115,4
Padisel,189,8
Nangalhedi,97,10
Bagherikhurd,120,7
Beeranwas,156,8
Dheekwar,162,2
Rambas,138,1
Dhiroda,147,6
Nagel,52,3
Losal Gurjar,112,7
Bhazeda,70,7
Ghat,77,5
iswana,154,6
Saithali,107,4
Alanpur,164,10
Nihalpura,151,6
NOTIONAL Raghunathgarh,145,7
NOTIONAL Chandpur,191,8
Dhgadaga,68,4
Khundroth,135,10
Piproli,72,10
Kharkhada,126,8
Thanagazi,141,10
Kanpura,62,10
Hamirpur,58,6
Saleta,103,10
Gandala,112,10
Motiwada,162,5
Mothuka,155,10
Rajeev Gandhi Govt Genaral Hospital Alwar,175,5
Palsana Ki Dhani,139,10
Manjra,131,7
Tehla,148,7
mundana mev,126,9
NOTIONAL Kathumar,111,6
Indranda,79,6
Baghore,84,1
Chula,97,2
shethal,93,9
pahadi,176,4
Gandura,113,4
Nathusar,199,10
Onala,154,2
Rambass,161,8
NOTIONAL Pinan,61,6
Bamanwas,125,1
Brisngwas,81,1
Basai Jogiyan,127,4
Bootoli,52,3
ghatal,83,10
NOTIONAL Bagherikala,189,1
Baramada,107,10
NOTIONAL Gola ka bas,52,1
Kaserpur,159,4
Jaitpur Gujran,183,4
Imlali,92,5
Jhadka,129,5
Barkheda,103,6
NOTIONAL Akbarpur,111,2
majrigujjar,111,7
Pehal,152,3
Sonkhar,74,1
Hisala,186,8
Riwali,77,7
Bhandwada,76,2
Butiyana,195,7
Katopur,183,2
karoli,78,6
Karkadi,155,10
gujarwas,149,7
Nangla Madhopur,173,1
Biharisar,161,8
Ganj,60,3
Rongda,161,3
Nangal Rupa,144,2
Doshod,108,4
Luhadehara,90,3
isrota,83,4
Malpur,179,9
Dhela Vas,158,4
Chand Pahadi,154,8
Bansdawat,183,7
Saloli,145,7
NOTIONAL Tasai,138,5
NOTIONAL Dabarwas,84,4
Bheriwas,78,5
Ratanaki,191,2
Laxmangarh,82,9
Kanhnwas,188,6
khorikalan,145,1
Ajabgarh,95,4
Patan Mewan,131,8
Rarwa,198,8
Dangiwas,144,3
Misrala,59,3
Brasangpur,135,2
Turkiyabas,113,4
Kohrana,142,5
Gopipura,127,6
NOTIONAL Mubarikpur,145,8
Bhandodi,159,6
Hulmana Khurd,196,3
Tusari,113,1
Nangalsaliya,180,10
Barer,51,8
Pur,161,10
Sakkala,112,9
NOTIONAL indour,77,3
NOTIONAL Ishroda,83,6
Bhuriya was,87,10
Govindgarh,162,4
Tibara,109,2
Bandka,104,4
Kaysha,74,10
Chandali,153,1
NOTIONAL Hamiraka,89,3
Kothiya,113,6
Rodawal,60,8
Milakpur,68,5
NOTIONAL Kaysha,177,6
NOTIONAL Kherthal,192,1
Sarai Kalan,126,5
NOTIONAL Manaka,89,1
NOTIONAL Dotana,62,7
Palasali,83,4
Tatarpur,131,1
Jaguwas,106,10
Jatoli,197,8
Ghasoli,175,7
Patan Ahir,92,6
Sehra,173,1
ShriKrishan Nagar,117,4
Kherli Syadh,134,7
Mundanwada,118,3
udaipur,71,2
Milakpur Turk,193,1
Baleta,119,9
Kushalgarh,172,10
Porula,61,8
Dantala,161,3
Budhwal,192,1
NOTIONAL Bibirani,77,2
Imtipura,95,10
NOTIONAL Manjra,95,1
Palkhedi,56,6
Gujuki,135,2
NOTIONAL Pur,57,9
Salwari,163,8
Beroj,151,7
Neemla,112,10
HudiyaKala,158,8
Malakhera,78,8
Bichpuri,85,3
Noorpur,192,9
Bilath,173,6
Pradhana Ka Gwada,55,9
Bairwa ki Dhani,176,5
Nangalwali,89,10
Bolni,184,2
gokalpur,115,5
banveerpur,172,10
Kohida Karmali,123,9
Vijay Nagar,158,6
Kota Khurd,117,5
Macha,55,1
Khohra,52,3
Kalajhara,106,4
Partapgarh,140,1
Musari,96,9
Gooth,180,5
Khaleelpuri,129,4
Budhibawal,93,10
milakpur gujjar,171,3
Jaitpur,60,2
Hajipur,120,8
Talab,54,7
NOTIONAL Shayam Ganga,175,4
Bhadkol,172,10
Rajgarh,159,10
Moonpur Kramla,147,1
Ghatada,199,9
Nogawa,58,10
Mohamudpur,139,6
Maharajawas,62,5
Babaria,180,8
Kankar,77,2
Nangal Khodiya,63,1
Kheda Mangal Sing,183,10
Rajwana,142,10
Partapur,155,7
Narol,125,2
Bhahala,198,3
Deharashahpur,95,9
Badaka,105,4
Saidpur,197,10
Doangada,92,4
Nayabas,74,5
Rajpurbara,179,10
Naya Goa Bolka,91,3
Kushalpura,172,8
Ghikaka,130,10
nangaliya,147,4
Bhikawas,176,9
NOTIONAL Hajipur,174,4
NOTIONAL Bilali,183,10
NOTIONAL karoli,101,6
Shahjapur,193,7
Bas Dayal,66,4
Malutana,188,9
Pahari,76,5
Kaled,168,3
Raghunathgarh,95,9
NOTIONAL Samla Khurd,79,1
NOTIONAL Mandhan,166,5
Bhungra Aher,171,10
Anantpura,73,9
NOTIONAL Karanikot,160,6
NOTIONAL Manjri Kala,57,1
Jatiyana,63,7
NOTIONAL Harsora,54,9
NOTIONAL Machri,198,5
gandwa,114,6
Jhalatala,57,4
Milakpur,138,1
NOTIONAL Alawada,150,4
islampur,166,5
burera,107,9
Dhakpuri,71,3
Khanpur Aher,93,8
Khoh,73,5
Mainpur,86,9
NOTIONAL Bhiwadi,123,7
Kalyannagar,72,3
Buteri,84,4
Baskrapalnagar,82,7
Toda,164,6
Khatankhera,188,8
Kerwajat,64,4
Balluwas,182,7
Lalpura,193,2
Siryani,116,4
BUDHA,130,2
birampur,111,8
Majara,121,4
Kankara,120,5
Gudha Bhakarwala,57,7
Nando,162,5
banhad,129,5
Bagherikala,75,10
Mohabbatpur,139,6
Turana,118,7
NOTIONAL Karana,192,6
NOTIONAL Nogawa,186,1
rabadka,125,8
NOTIONAL Jat Bahror,103,6
Mahatwas,123,6
Jatwara,101,6
Karanikot,102,7
NOTIONAL Roopbas,181,4
gotoli,94,7
Shyampura,62,8
NOTIONAL Dhamred,83,4
Gundpur,86,9
Patan,69,9
Ramnagar,166,9
Domroli,91,10
Bhulari,161,2
NOTIONAL Baghoda,168,9
Tasai,129,2
Sourakha Kalan,119,10
Daulatpur Majra,133,5
Soarai,180,1
navinagar,171,1
Basy Bhopal,50,5
Nizam Nagar,107,3
Maithna,171,8
Pratapsingpura,62,2
NOTIONAL Harsoli,67,10
Alawada,106,5
Kishangarhbas,68,4
peepalheda,105,5
Bandada,58,1
Hasanpur Mafi,189,10
tehtada,107,5
Gadoj,85,7
Anandpur,120,2
bahrampur,171,1
adoli,137,6
Dabarwas,137,10
Domroli,122,2
Kaysha,103,9
Kutina,180,1
MAJARA,190,1
khoh,186,9
Majri Kalan,66,5
Nangli Balai,83,9
Mandhan,113,10
Mathurahera,199,8
Anandpur,54,4
Ardeend,177,7
Bheempura,135,8
Nangal Rupa,157,7
Dheekwar,125,5
nithari,96,7
Hudiya Khurd,152,1
toda,75,9
Nihalpura,135,7
Porula,134,7
jatwara,122,7
Raisarna,170,2
kherli,166,6
Raiwana,95,9
Ramchandrapura,113,6
Rajeev Gandhi District Hospital,164,4
Kala Kua Satellite Hospital,65,7
Jagannath Mandir,148,1
NEB Housing Board,56,10
Shivaji Park,73,10
Jail Dispensary,94,7
Police Line Dispensary,191,7
UFWC Shubash Chowk,59,4
Mohalla Akhepura,109,4
CD No 1 Mugaska,74,5
Miltary Hospital,107,5
Bahrampur,56,7
Ladiya,73,7
Giglana,137,9
Umren,178,1
Shahadka,85,8
Jamdoli,53,4
Ladpur,56,2
Akbarpur,196,1
mahua kala,142,5
NOTIONAL Barodamav,70,10
Chawandi Kalan,153,1
Khareta,183,2
Sarangpur,100,7
Hajipur,84,10
bijorawas,80,9
Manri Khurd,104,7
Thanagazi,112,9
Khedli Pichnaut,116,8
Aalampur,68,9
Bilali,112,7
Harsora,101,1
Jatpur,169,8
NOTIONAL Kherli,85,3
sirolikala,111,3
Kervada,81,2
Jatuwas,74,5
Rajwada,104,7
Sanwar,157,7
Etera,144,8
Tasing,194,9
Tapukara,71,2
Chimrawali Gaud,134,10
Jaitpur,82,3
Mainaki,118,6
Ajabpura,71,8
Titpuri,88,2
NOTIONAL Baskrapalnagar,55,4
Katariya ka Bas,115,9
NOTIONAL Rajgarh,117,2
Seerawas,63,4
Desula,100,4
Khedli Chandawat,131,6
NOTIONAL Pada,66,5
NOTIONAL rabadka,50,5
NOTIONAL Govindgarh,155,5
Tikri,195,6
Behror,161,2
Girudi,63,9
tatarpur,97,8
Gurgachka,184,6
Mundawar,65,1
Mathurahera,119,10
NOTIONAL Laxmangarh,84,8
thada,69,8
JAISHINGPURA,134,2
Lekri,185,9
Chhapur,130,6
khapria,180,3
Manaka,159,1
Jasai,125,2
Gadli,167,6
Ajarka,52,6
Binjari,191,2
Lalpura,97,7
Jhajarpur,131,1
Moliya,125,8
Bhagwari Khurd,57,3
Duharchougarn,78,6
Baghoda,173,10
Bilahedi,72,6
Bileta,73,1
kamalpur,144,7
Bagad Rajpoot,100,5
Jhiwana,186,2
Pali,151,7
Manchal,68,10
babeli,92,6
Roopbas,134,5
Rayli,56,6
Shahbad,59,7
Dhara Ka Bas,135,3
Nithari,195,3
Nibheda,97,7
Partapgarh,85,9
nanagheri,128,8
Bhadurpur,59,2
Agar,93,5
Thekda,78,5
Hingwaheda,97,9
Barli,191,3
NOTIONAL Harsana,94,10
Mudiya khara,91,9
Rasagn,61,3
Gailpur,184,4
shivdansinghpura,141,8
Madhogarh,114,5
Chandpuri,156,8
NOTIONAL Ghdhi Sawairam,142,9
Rajorgarh,92,1
Samuchi,56,2
Semla,70,8
Derabamanwas,112,2
Raikhera,120,9
Ghasoli,193,6
Jhiri,167,5
Kohrana,128,7
Kalsada,159,8
Khatoti,61,9
Dahami,76,6
Digawara,145,2
Nayagawn,187,3
NOTIONAL Jhajarpur,74,8
Kutuki,99,2
Patti Joriya,51,10
Ranoth,155,10
Pahadi,50,4
Sadampur,100,10
nalota,92,5
kalka,104,8
Gyan Singh Ki Dhani,166,10
Bhikanpura,197,3
Khokar,77,5
Raita,51,2
Kheda Mehamood,78,8
rabhana,143,4
Sanoli,108,2
Shamda,101,4
kehrani,116,4
Aamka,151,4
Mojdika,52,5
Nitata,76,3
Tinkiruri,135,5
Mojpur,149,10
Bhadaj,196,9
Gunsar,133,10
Chanduki,57,3
Tulasiwala,103,1
Babera,179,1
Tilwad,89,9
Jairoli,91,4
Doroli,123,1
Chandichana,181,5
BHAJEDA,71,4
Darbarpur,112,6
Berla,156,7
ITOLI,62,1
NOTIONAL Mojpur,100,5
NOTIONAL Nikach,56,4
Masari,186,2
NOTIONAL Palawa,114,2
NOTIONAL Kushalgarh,97,7
Dewati,95,5
Dubee,147,1
Gunti,155,8
Haspur,173,2
Jakharana,96,7
Siwana,119,5
Doroli,134,6
Bhiwadi,176,7
Dantiya,176,4
Mubarikpur,106,6
Hulyana,116,10
Khiwaheri,52,10
Kotkasim,62,1
Bhuaka,117,6
Nangwas,80,3
NOTIONAL Tehla,198,10
Kathumar,197,5
Bandoli,192,2
Hatudi,174,2
Pila Dhaba,179,8
NOTIONAL Rampur,165,6
Sirod Khurd,84,10
Khohar,187,6
NOTIONAL Chandoli,133,1
Ballana,125,1
NOTIONAL Padisel,86,9
Mundli,83,3
Dhadoli,121,9
Tigaria,197,7
Hamirpur,73,10
Jonaicha Kala,72,9
Karana,167,4
Morodi,142,10
Kherthal,75,2
Machhroli,67,1
NOTIONAL Milakpur Turk,181,3
Ishroda,127,4
Mandu ka Bas,142,8
Bilaspur,194,10
Rasnali,144,3
Akleempur,136,2
Kherli,74,3
Prempura,146,2
Bagadmev,97,1
Samara,150,3
Naysharna,122,1
mohammadpur,118,3
NOTIONAL Etera,65,10
sathalka,144,3
Daroda,180,10
Mouthuka,63,4
Kalwari,152,4
NOTIONAL Neemrana,144,5
Nikach,129,4
NOTIONAL Rasagn,164,10
Chamroda,68,4
dugheda,155,3
Sonkh,198,2
Nangli Balaheer,137,10
Holawas,127,5
NOTIONAL Hamirpur,65,7
Kerwaval,50,4
Salpur,176,5
Hajipur,79,2
Mahua Khurd,158,10
Khareda,186,2
Siyakhoh,109,8
Khohra,104,1
Kolila,107,4
Basai,112,8
Bilaspur,130,5
dhamawas,127,6
Gothara,83,1
Devsan,118,6
piplana,53,3
Uchpur,138,10
Noor Nagar,118,4
Dungariya,150,7
Gaduwas,60,9
Dudheri,191,9
khidarpur,78,6
Samla Khurd,59,1
mahesara,138,1
Ghari,76,5
NOTIONAL Bhindusi,79,8
Teouwas,76,9
NOTIONAL Bamboli,124,7
Chouma,199,7
NOTIONAL Baleta,138,3
Vijaypura,75,2
Aslimpur,136,9
Bhuriyawas,116,4
Kakralimev,99,1
Bhugore,196,4
Kithur,69,4
SHERPUR,184,8
NOTIONAL Kalwari,178,4
NOTIONAL Digawara,61,9
Jawali,171,8
Budia Bas,138,4
Shanthalpur,78,4
NOTIONAL Sarekalan,180,9
NOTIONAL Nangalwali,117,9
NOTIONAL Tijara,135,8
Manawas,74,5
Bardod,81,3
Baldevpura,141,5
Bilandi,184,9
Dabli,58,3
NOTIONAL Bansur,64,1
Padmada,84,4
Duwarapur,158,8
Bas Shekhawat,197,3
Kutina,160,10
Surar,123,4
Pahdawati,177,2
Niwali,122,2
NOTIONAL Reni,107,1
Shanto,111,2
Nakhnol,58,8
Dangarwada Gurjar,100,8
Ulaheri,81,10
Khodreb,176,5
Kaneti,167,6
dhidhor,142,8
Balpura,69,5
Hamiraka,193,2
Bajeda,142,6
Bhakatpura,167,9
NOTIONAL Ghari,113,3
Guta Shahpur,61,3
Dyothana,184,5
Ringspuri,145,5
Chidwa,92,1
Baberi,197,6
NOTIONAL Baytukalan,158,8
Ramnagar,80,4
NOTIONAL Bileta,183,6
NOTIONAL choupanki,61,1
Geeloth,153,8
Thanarajaji,145,1
Neemli,89,8
Domroli,149,5
Bas Purohit,189,4
sherpur,122,8
Chomu,73,6
Khouh,93,5
Khilora,105,3
chawandi khurda,155,7
Hanuman Guwada,97,5
Kanpura,96,4
Khoabas,106,8
Ghevar Nayala,153,2
NOTIONAL Kishangarhbas,82,8
Harsana,98,9
Prathvipura,149,2
Chandpur,110,3
Ardeend,97,1
Khanpur Mewan,83,1
Tijara,198,1
NOTIONAL Nangli Balaheer,106,4
Dhwala,160,4
shahpur,108,8
Lili,155,10
Jamalpur,124,6
Kakarchhaja,178,6
Roopbas,174,3
Kanhadka,99,3
Falsa,52,7
Khohri,171,9
NOTIONAL Badaka,50,2
Natoj,189,10
Rasgan,51,10
Mallana,76,3
NOTIONAL Ramnagar,115,10
Khohari,108,5
Toda,169,2
Ramsinghpura,125,10
Bansur,100,4
Pawata,110,2
NOTIONAL jalalpur,194,9
Sirlarpur,104,7
Chousla,70,9
NOTIONAL Deharashahpur,136,9
Sarekalan,195,6
Nethla,114,6
Bijwad Chouhan,93,9
mithiyawas,187,5
Jilota,105,2
Naswari,128,7
Shekhpur Ahir,193,10
RAMPURA,125,5
Dhis,79,4
City Dispensary Shivaji Park Alwar,176,3
karenda,190,3
Kalyanpura,117,8
Kundalaka,113,7
Nimbhahedi,161,1
Kakrali,69,7
Matoiur,79,5
Nangal Bhavsingh,169,7
NOTIONAL Tikri,66,1
NOTIONAL Guta Shahpur,131,7
Bas Goverdhan,91,8
Shekhpur,111,2
Narayanpur,57,8
Tuleda,93,1
NOTIONAL Mandawara,121,2
Majra Kath,173,10
NOTIONAL Pahdawati,157,7
JonaychaKhurd,89,3
Ismilepur,69,8
Shyodan Pura,130,3
Pinan,56,4
Bhanokhar,131,1
Gugali Ka Guwada,179,4
Barodamav,196,6
Parta Ka Bas,180,4
zaatka,134,1
salarpur,132,1
Mandhan,194,2
Baytukalan,144,9
Pragpura,113,6
NOTIONAL Jindoli,106,10
Chuhadpur,116,2
NOTIONAL Nimuchana,59,9
jhakhopur,82,1
jodiyamev,196,1
NOTIONAL Tapukara,88,9
Narhet,169,10
Khudiyana,98,6
Doba,187,7
Hudiya Khurd,185,10
NOTIONAL Pehal,189,7
Bhetera,162,7
Dohali,140,5
Kesroli,185,9
Hasanpur,133,1
Bader,124,4
NOTIONAL Khanpur Mewan,127,4
Nangal Bajirka,178,6
Devata,62,9
Bijopur,139,4
Garu,118,8
Jatgawara,164,8
Kaluka,67,5
Kishori,174,7
Karoda,174,9
NOTIONAL Ajabgarh,110,8
Padak Chapali,196,9
City Dispensary NEB Housing Board Alwar,137,5
NOTIONAL Narayanpur,179,8
Gadhi Dhaneta,67,6
Jajarpur,82,1
Parsa Ka Bas,149,3
NOTIONAL Bagadmev,98,5
Chikani,63,5
Kankardopa,179,6
Gyanpura,105,9
Shahjapur,111,6
Harsoli,183,9
Bisarawas,137,5
Khedi,166,10
NOTIONAL Sarai Kalan,167,1
NOTIONAL Khodreb,167,5
Tolawas,176,1
Darogawala,62,8
NOTIONAL Agar,123,3
NOTIONAL Talab,77,10
ShiliBawadi,66,2
Soorawas,181,7
ChorotiPahad,92,9
Kakralijat,60,8
NOTIONAL Kishori,193,7
Raisarana,164,6
Kushpuri,151,7
Jhagret,117,2
Dhara,140,3
Bhajit,130,2
Doli,64,8
Bai,80,10
Nairdha Khurd,114,2
Alapur Mev,51,5
Jagannathpura,135,7
Angari,129,8
Annantpura,93,9
Jodiya,56,2
Deewali,101,7
Laduwas,113,6
Nangli Megha,92,5
Sukola,125,8
Alampur,51,6
Karvad,116,3
Piplai,167,2
Baroli,111,4
Dhiriyawas,153,1
Bigota,64,2
Garh Basai,94,2
Sirmoli,192,8
Amara Ka Bas,189,10
NOTIONAL Tatarpur,57,2
NOTIONAL Jhalatala,148,10
Beejwad Naruka,109,3
Haldina,58,2
MUDIYA,79,6
Ujoli,70,5
Jodhawas,177,7
Indoke,92,4
NOTIONAL Sodawas,199,5
Dhakla,118,4
Palawa,148,7
Kaska,96,4
Neemrana,130,10
Kankariya,64,2
Lily,125,7
Dhakpuri,52,8
Tasing,67,7
Kaniyawas,89,3
Sahedi,197,9
Kalyanpura,199,3
Mundiyakheda,95,7
mayapur,142,7
Dhamred,68,2
Bijawa,87,9
Ajarka,69,7
Umren,166,3
Gudhachurani,167,4
Alapur Jat,147,6
Todiya ka Bas,115,2
Leela Manda,151,1
Mirjapur,167,3
Bheempura,91,3
Umari Devari,172,1
Bhupsera,125,1
NOTIONAL Baldevgarh,134,10
Bhaali,195,7
City Dispensary Jagannath Mandir Alwar,83,2
Gujariwas,175,1
Dotana,183,10
Goteda,116,3
Patliya,157,2
Shayam Ganga,90,1
Dhundhariya,52,10
patankala,116,4
Bahadakokala,143,4
Khan Pur,168,2
Gola ka bas,139,5
Beda,63,10
NOTIONAL Kolaheda,192,1
Bamanwas,67,10
golawas,196,4
salarpur mev,137,7
Diwakri,118,3
Arua,187,4
Kheda Kalyanpur,77,2
Kaleshan,57,4
Nimuchana,76,4
Jat Bahror,88,6
Karoli,72,1
Bhaggu Ka Bas,65,6
sehrod,148,4
Achalpuri,184,9
Jhareda,135,7
Allapur,140,9
Macha,77,8
Shahapur,130,8
Ronijathan,198,9
dawani,67,3
Tarwala,150,7
Kharkheda,90,1
Shahpur,188,2
indour,53,8
Untwal,177,5
Fouladpur,133,3
Bujaka,194,3
NOTIONAL Palkhedi,72,4
Utoli,87,1
Khuteta Kalan,130,10
Berla,59,2
Nashopur,66,2
Pisai,170,10
Baldevgarh,56,9
Rampur,190,9
Mandha Majra,66,1
Thikari,74,7
Kala Kuwa Salellite Hospital,188,9
NOTIONAL Jairoli,144,8
NOTIONAL khidarpur,191,7
NOTIONAL Jhiwana,179,9
Bichgaun,79,9
bhabdaka,80,1
Pata,124,2
Nasopur,142,6
Adoli,97,8
Khoithal,64,1
Chilodi,168,1
Todajaisinghpura,115,3
NOTIONAL Masari,178,9
Sirmor,199,6
Gurjaro Ka Guwada,84,6
Kalikholi,100,6
Gordanpura,188,8
Burja,105,10
Indravali,172,5
Bardod,77,5
Gadpur,128,5
NOTIONAL Kutina,169,8
Basani,148,10
Pakhar,199,5
Gwara,161,4
NOTIONAL Haldina,122,3
Ramcgandrapura,139,2
Jatiyana,78,4
Bamboli,155,2
Baghana,192,10
Ghegoli,124,9
Ladpur,169,2
Jakharana,76,8
Jajaur,168,3
Makdava,90,5
Anandpur,78,7
NOTIONAL Baghore,120,8
Ramgarh,125,10
Majara Dhakora,161,5
Phoolawas,165,10
NOTIONAL Sakat,162,8
Chandoli,156,9
kalgaun,158,2
Mahanpur,105,1
Hamidpur,59,7
Kotkasim,154,5
Kherli Rail,149,4
Birkadi,67,8
Basana,163,3
Indergarh,131,10
Shaluta,96,3
Suratgarh,176,1
Bambora,73,5
NOTIONAL Jatwara,52,4
Patanbhan,161,2
shekhpur Jat,124,3
Chind Jaishinghpura,113,10
Lapala,91,6
NOTIONAL Mallana,104,8
Siya Ka Bas,183,7
Tigawa,81,10
Dharmpura,157,9
Sareta,109,6
NOTIONAL Prathvipura,174,1
Reni,72,9
Manjri Kala,143,8
GugalKota,167,8
Sonkhari,62,2
Sahdoli,190,4
Nangala Udiya,115,8
Khera,149,4
Bhokar,137,8
NOTIONAL Bijwad Chouhan,86,10
Bibirani,105,8
Gahankar,172,4
Gudaramji,84,1
Barodakan,78,9
Kolaheda,196,5
Jaguwas,121,5
Kolgawn,199,7
NOTIONAL Baghana,144,10
Talwana,124,6
NOTIONAL Shahbad,161,8
NOTIONAL Soarai,123,2
Loyti,160,8
Kishorpura,56,9
Bharu Gatti,57,4
Balluwas,66,9
Baseth,189,9
Nathalwada,119,10
Ahir Ka Tibara,62,9
rajpur chota,141,1
Jalawas,132,1
nasarpur,85,3
Kishanpura,122,8
Pipali,117,2
Jharkhera,163,10
Doulatsingpura,60,3
Dabarwas,90,9
Nangla Sedu,70,3
Mundawar,83,9
NOTIONAL Mundanwada,131,7
Katuwas,97,6
NOTIONAL Ramgarh,115,9
Gandala,101,5
Lalupura,155,10
Bhetera,147,1
Kundla,150,2
Palwa,166,3
choupanki,58,3
Punkhar,174,5
Kelpurkhera,129,10
NOTIONAL Jaitpur,199,1
Machri,158,3
Sakat,69,4
Jindoli,143,2
Bilahedi,59,6
Deegli,123,2
Burja,63,9
Raybka,142,4
Gopalpura,153,8
Khedameda,57,6
Harner,51,10
Dogdi,65,10
Adpost Alaee,165,1
NOTIONAL Jamdoli,138,3
Mandawara,86,4
RFWC Subhash Chowk Alwar,179,3
Ratangarh Pala,76,4
Sorwa,92,4
Tibara,73,1
NOTIONAL Gudhachurani,98,4
Jagta Basai,111,3
Raipura Bal,183,2
Lamchpur,161,8
Jatuwas,95,6
Maseet,96,4
Gugdod,52,3
Palpur,190,6
Ratanpura,82,6
Sabalgarh banethi,80,1
NOTIONAL Bhadurpur,76,4
Niyana,71,6
NOTIONAL Rajpurbara,119,4
Purana Rajgarh,76,10
Parvaini,152,3
Baira,121,8
jainpurwas,175,5
garh,95,2
Sheelgav,181,8
Jahadu,68,7
jalalpur,164,10
UKARI,59,1
Shyopur,69,2
Ghamukad,156,4
Chaper,61,6
Girwas,54,10
NOTIONAL Gahankar,186,10
talwad,147,2
Sahodi,158,7
NOTIONAL Bhanokhar,82,7
Sihalikalan,101,10
Langar Bas,91,10
NOTIONAL Untwal,173,1
Chatarpura,59,4
mundana,105,7
NOTIONAL Gandura,88,3
Majri Khola,78,6
Ghdhi Sawairam,180,5
BAAJOLI,51,8
Shri Chandpura,67,4
Ghatla,151,2
NOTIONAL Khokar,104,10
dhaki,170,3
Nangal Lakha,159,10
Bhindusi,138,9
Behror,188,4
NOTIONAL Jodiya,111,2
Jadla,146,1
Indpur,142,8
Sodawas,85,4
khijuriwas,178,8
Pada,131,10
Gwalda,113,8
Ismilepur,181,8
Musakheda,64,2
NOTIONAL Sihalikalan,85,5
bichala,67,9
NOTIONAL Malakhera,99,8
Padisel,159,5
Nangalhedi,170,4
Bagherikhurd,79,1
Beeranwas,96,3
Dheekwar,136,8
Rambas,86,10
Dhiroda,93,8
Nagel,158,7
Losal Gurjar,194,8
Bhazeda,154,7
Ghat,79,1
iswana,124,7
Saithali,192,1
Alanpur,115,4
Nihalpura,54,2
NOTIONAL Raghunathgarh,88,6
NOTIONAL Chandpur,99,8
Dhgadaga,141,10
Khundroth,165,10
Piproli,51,3
Kharkhada,69,1
Thanagazi,67,1
Kanpura,58,3
Hamirpur,127,6
Saleta,123,3
Gandala,182,7
Motiwada,127,10
Mothuka,92,6
Rajeev Gandhi Govt Genaral Hospital Alwar,82,8
Palsana Ki Dhani,134,8
Manjra,187,4
Tehla,118,4
mundana mev,87,6
NOTIONAL Kathumar,71,5
Indranda,54,3
Baghore,195,9
Chula,186,3
shethal,52,8
pahadi,67,9
Gandura,67,1
Nathusar,180,9
Onala,156,7
Rambass,53,3
NOTIONAL Pinan,169,4
Bamanwas,69,7
Brisngwas,88,3
Basai Jogiyan,124,1
Bootoli,140,7
ghatal,170,5
NOTIONAL Bagherikala,138,3
Baramada,84,8
NOTIONAL Gola ka bas,197,6
Kaserpur,147,2
Jaitpur Gujran,53,8
Imlali,74,4
Jhadka,89,2
Barkheda,99,10
NOTIONAL Akbarpur,157,2
majrigujjar,150,2
Pehal,71,2
Sonkhar,165,1
Hisala,169,3
Riwali,198,5
Bhandwada,65,1
Butiyana,50,5
Katopur,172,8
karoli,69,5
Karkadi,196,9
gujarwas,150,7
Nangla Madhopur,199,5
Biharisar,98,7
Ganj,70,2
Rongda,93,4
Nangal Rupa,58,10
Doshod,175,1
Luhadehara,183,7
isrota,143,3
Malpur,148,7
Dhela Vas,104,8
Chand Pahadi,64,2
Bansdawat,134,3
Saloli,61,6
NOTIONAL Tasai,170,4
NOTIONAL Dabarwas,89,7
Bheriwas,141,4
Ratanaki,105,7
Laxmangarh,73,5
Kanhnwas,193,9
khorikalan,78,2
Ajabgarh,133,6
Patan Mewan,164,6
Rarwa,54,6
Dangiwas,118,1
Misrala,147,9
Brasangpur,98,2
Turkiyabas,154,6
Kohrana,135,9
Gopipura,165,9
NOTIONAL Mubarikpur,183,10
Bhandodi,81,8
Hulmana Khurd,103,5
Tusari,122,6
Nangalsaliya,131,2
Barer,142,8
Pur,72,7
Sakkala,190,8
NOTIONAL indour,68,2
NOTIONAL Ishroda,118,3
Bhuriya was,197,8
Govindgarh,123,3
Tibara,193,6
Bandka,98,3
Kaysha,98,4
Chandali,160,1
NOTIONAL Hamiraka,182,4
Kothiya,100,10
Rodawal,127,6
Milakpur,114,7
NOTIONAL Kaysha,141,10
NOTIONAL Kherthal,196,7
Sarai Kalan,61,9
NOTIONAL Manaka,147,3
NOTIONAL Dotana,172,10
Palasali,145,1
Tatarpur,119,8
Jaguwas,92,7
Jatoli,126,5
Ghasoli,60,2
Patan Ahir,167,8
Sehra,79,7
ShriKrishan Nagar,179,9
Kherli Syadh,140,6
Mundanwada,53,10
udaipur,175,9
Milakpur Turk,61,1
Baleta,160,9
Kushalgarh,189,2
Porula,145,4
Dantala,180,7
Budhwal,51,4
NOTIONAL Bibirani,134,5
Imtipura,151,7
NOTIONAL Manjra,121,3
Palkhedi,139,2
Gujuki,170,5
NOTIONAL Pur,183,9
Salwari,138,2
Beroj,115,2
Neemla,180,2
HudiyaKala,166,8
Malakhera,103,1
Bichpuri,122,4
Noorpur,93,1
Bilath,169,9
Pradhana Ka Gwada,118,1
Bairwa ki Dhani,182,2
Nangalwali,116,3
Bolni,51,7
gokalpur,146,2
banveerpur,167,8
Kohida Karmali,140,3
Vijay Nagar,72,2
Kota Khurd,80,9
Macha,195,2
Khohra,72,4
Kalajhara,177,10
Partapgarh,65,4
Musari,96,1
Gooth,69,6
Khaleelpuri,194,3
Budhibawal,114,4
milakpur gujjar,104,3
Jaitpur,174,8
Hajipur,160,2
Talab,199,7
NOTIONAL Shayam Ganga,73,4
Bhadkol,185,8
Rajgarh,137,8
Moonpur Kramla,125,2
Ghatada,105,1
Nogawa,64,3
Mohamudpur,183,9
Maharajawas,163,8
Babaria,78,8
Kankar,145,9
Nangal Khodiya,156,4
Kheda Mangal Sing,87,7
Rajwana,125,5
Partapur,161,3
Narol,69,3
Bhahala,52,4
Deharashahpur,79,2
Badaka,146,3
Saidpur,100,10
Doangada,98,6
Nayabas,125,5
Rajpurbara,197,8
Naya Goa Bolka,160,10
Kushalpura,55,1
Ghikaka,144,6
nangaliya,113,5
Bhikawas,93,9
NOTIONAL Hajipur,123,3
NOTIONAL Bilali,164,6
NOTIONAL karoli,190,3
Shahjapur,104,5
Bas Dayal,69,7
Malutana,115,7
Pahari,148,3
Kaled,76,7
Raghunathgarh,79,6
NOTIONAL Samla Khurd,165,10
NOTIONAL Mandhan,188,9
Bhungra Aher,60,10
Anantpura,57,3
NOTIONAL Karanikot,164,9
NOTIONAL Manjri Kala,198,1
Jatiyana,184,2
NOTIONAL Harsora,143,5
NOTIONAL Machri,198,6
gandwa,54,4
Jhalatala,98,2
Milakpur,123,9
NOTIONAL Alawada,197,8
islampur,199,8
burera,166,8
Dhakpuri,88,5
Khanpur Aher,91,10
Khoh,174,7
Mainpur,169,1
NOTIONAL Bhiwadi,100,4
Kalyannagar,90,2
Buteri,131,7
Baskrapalnagar,154,5
Toda,174,3
Khatankhera,137,4
Kerwajat,133,7
Balluwas,119,8
Lalpura,121,4
Siryani,114,4
BUDHA,172,10
birampur,89,2
Majara,87,5
Kankara,124,1
Gudha Bhakarwala,148,10
Nando,80,8
banhad,97,5
Bagherikala,181,2
Mohabbatpur,113,9
Turana,98,3
NOTIONAL Karana,142,7
NOTIONAL Nogawa,126,5
rabadka,54,2
NOTIONAL Jat Bahror,194,1
Mahatwas,72,1
Jatwara,66,7
Karanikot,70,6
NOTIONAL Roopbas,134,1
gotoli,104,8
Shyampura,75,3
NOTIONAL Dhamred,144,6
Gundpur,168,10
Patan,72,10
Ramnagar,142,7
Domroli,120,7
Bhulari,133,5
NOTIONAL Baghoda,63,1
Tasai,187,8
Sourakha Kalan,131,1
Daulatpur Majra,121,7
Soarai,127,5
navinagar,93,3
Basy Bhopal,101,8
Nizam Nagar,159,2
Maithna,50,5
Pratapsingpura,94,9
NOTIONAL Harsoli,156,10
Alawada,180,10
Kishangarhbas,143,4
peepalheda,116,6
Bandada,103,8
Hasanpur Mafi,73,8
tehtada,116,2
