Health Facility Name,Number_Of_Beds,Rating
National Institute of TB and Respiratory Diseases,69,10
CGHS Malviya Nagar,160,7
Vardaan Hospital,175,2
Vinaya Bhawan Mty Centre,107,1
Max Health Care Hospital,145,2
Rockland Hospital,98,3
Sunil Hospital and Nursing Home,100,8
Vibhu Nursing Home,144,3
Aman Medical Centre,152,3
"Max Smart Super Specialty Hospital, Saket???á",106,4
Bhagwati Hospital,151,2
Healing Touch Hospital,95,7
Leekha Nursing Home,175,4
Satyam Medical Centre,118,4
Sukhmani Hospital,122,5
Swan Neelu Angels Nursing Home,66,3
DGD Bersarai,142,10
Area-4,61,6
Area-4,84,10
Area-2,87,4
Area-4,74,3
Area-2,173,6
SPUHC Sangam Vihar L 2,58,5
Area-3,151,10
Area-C,193,10
Area-5,114,1
Area-7,95,1
Area-C,170,9
Area-3,96,9
Area-5,67,4
Area-1,99,5
Area-7,111,7
Area-C,187,8
DGD Chirag Delhi,80,5
MCW Shahpur Jat,190,6
Area-5,147,6
Area-1,134,1
Area-1,163,7
Area-4,184,8
DGD Dakshinpuri,154,10
Area-3,186,10
Area-4,190,1
Area-2,89,5
MCW Fatehpur Beri,60,7
Area-2,144,3
Area-7,193,8
Area-2,152,8
Area-4,91,2
Area-1,137,9
Area-3,173,1
Area-2,178,9
MCW Mehrauli,52,3
Area-6,162,4
Area-10,170,5
Area-2,125,1
Area-1,184,10
Area-1,114,2
Area-5,126,8
Area-3,137,8
Area-3,83,10
Area-1,62,1
Area-C,142,7
Area-4,122,6
Area-5,50,6
MCW Madangir,143,5
Area-C,117,8
Area-2,112,9
Area-1,100,7
Area-4,87,3
Area-4,192,7
MCW Gautam Nagar,105,2
Area-5,185,9
Area-2,82,2
Area-4,85,2
Area-7,81,9
Area-3,87,8
DGD Khanpur,144,2
Area-5,121,1
Area-1,57,6
Area-4,123,6
Area-5,77,6
Area-2,120,5
Area-3,158,6
Area-3,175,2
MCW Bhatti Mines,158,10
Area-C,150,9
Area-1,157,1
Area-6,81,5
Area-2,185,10
Area-5,131,3
Area-2,95,7
Area-5,82,7
Area-2,96,7
Area-4,56,3
Area-6,185,6
Area-4,176,10
Area-6,114,9
Area-7,167,4
Area-3,163,9
Area-8,195,10
Area-C,127,1
Area-4,193,7
Area-6,87,1
Area-C,193,7
Area-3,88,5
DGD Chattarpur,160,8
SPUHC Neb Sarai,53,3
MCW Deoli,182,3
Area-1,142,10
Area-2,141,3
Area-2,190,3
Area-3,96,2
Area-5,70,4
Area-7,63,5
Area-C,150,9
Area-C,139,7
Area-1,127,6
Area-2,96,9
Area-3,153,8
Area-2,155,9
Area-1,94,4
Area-C,123,5
Pt. Madan Mohan Malviya Hospital,82,6
Area-7,144,6
Area-4,138,2
Area-3,83,7
DGD Jonapur,159,2
"All India Institute of Medical Sciences (AIIMS), Delhi",188,10
Area-3,59,7
Area-8,92,9
DGD Begumpur,195,6
Area-1,126,1
Area-1,108,7
MCW Dakshin Puri E Block,81,7
MCW Ber Sarai,120,4
Area-C,102,10
Area-3,192,7
Area-4,177,9
Area-2,70,3
Area-1,52,4
Area-2,181,4
Area-1,116,3
Area-1,151,2
Area-1,52,4
Area-2,96,3
Area-6,56,10
Area-1,56,2
Area-3,152,4
SPUHC Jawahar park,61,1
Area-3,171,10
Area-1,126,6
Area-2,95,5
Area-6,181,10
Area-2,119,3
Area-1,155,7
Area-9,192,9
Area-C,74,8
Area-4,91,8
SPUHC Aya Nagar,94,4
Area-6,81,9
Area-C,158,8
Area-5,189,4
DGD Sangam Vihar K2,188,6
Area-C,64,8
Area-3,150,3
IPPVIII Dakshinpuri,124,3
MCW  Hauz Khas,180,3
Area-C,158,9
DGD Madangir,180,10
Area-1,95,10
Area-9,116,3
Area-2,93,7
Area-1,133,4
Area-2,58,2
DGD Pvr Complex Saket,83,7
Area-4,189,4
Area-3,67,10
Area-6,78,2
Area-3,170,10
Area-1,65,5
MCW Dakshinpuri 5 Block,115,10
Area-4,85,1
Area-5,86,9
Area-C,132,6
Area-2,158,7
Area-3,93,10
Area-6,179,9
National Institute of TB and Respiratory Diseases,125,9
CGHS Malviya Nagar,150,9
Vardaan Hospital,119,6
Vinaya Bhawan Mty Centre,118,7
Max Health Care Hospital,197,4
Rockland Hospital,195,1
Sunil Hospital and Nursing Home,132,2
Vibhu Nursing Home,86,8
Aman Medical Centre,75,10
"Max Smart Super Specialty Hospital, Saket???á",136,6
Bhagwati Hospital,142,10
Healing Touch Hospital,114,6
Leekha Nursing Home,120,5
Satyam Medical Centre,64,1
Sukhmani Hospital,117,3
Swan Neelu Angels Nursing Home,107,9
DGD Bersarai,77,3
Area-4,182,7
Area-4,157,10
Area-2,178,5
Area-4,124,8
Area-2,139,5
SPUHC Sangam Vihar L 2,94,4
Area-3,198,10
Area-C,80,1
Area-5,117,5
Area-7,106,7
Area-C,178,9
Area-3,117,7
Area-5,163,9
Area-1,142,1
Area-7,108,7
Area-C,70,5
DGD Chirag Delhi,120,1
MCW Shahpur Jat,129,10
Area-5,62,2
Area-1,81,5
Area-1,129,6
Area-4,101,4
DGD Dakshinpuri,132,5
Area-3,60,6
Area-4,179,6
Area-2,86,9
MCW Fatehpur Beri,135,5
Area-2,98,7
Area-7,68,6
Area-2,188,9
Area-4,143,1
Area-1,56,4
Area-3,117,7
Area-2,120,7
MCW Mehrauli,184,10
Area-6,76,7
Area-10,142,7
Area-2,148,9
Area-1,86,7
Area-1,78,3
Area-5,164,4
Area-3,79,5
Area-3,62,2
Area-1,51,9
Area-C,77,2
Area-4,119,10
Area-5,163,1
MCW Madangir,147,3
Area-C,166,6
Area-2,96,2
Area-1,124,6
Area-4,113,1
Area-4,157,10
MCW Gautam Nagar,54,3
Area-5,92,2
Area-2,139,9
Area-4,131,2
Area-7,158,4
Area-3,54,4
DGD Khanpur,153,8
Area-5,170,8
Area-1,59,3
Area-4,198,3
Area-5,152,9
Area-2,67,4
Area-3,161,7
Area-3,170,7
MCW Bhatti Mines,93,7
Area-C,157,1
Area-1,176,9
Area-6,149,7
Area-2,143,7
Area-5,67,4
Area-2,73,3
Area-5,133,7
Area-2,81,3
Area-4,147,9
Area-6,178,8
Area-4,89,9
Area-6,79,1
Area-7,125,4
Area-3,76,2
Area-8,56,8
Area-C,93,1
Area-4,177,7
Area-6,134,3
Area-C,179,4
Area-3,135,10
DGD Chattarpur,83,2
SPUHC Neb Sarai,56,10
MCW Deoli,97,1
Area-1,158,9
Area-2,115,6
Area-2,137,7
Area-3,196,4
Area-5,153,9
Area-7,91,3
Area-C,159,3
Area-C,123,9
Area-1,89,9
Area-2,161,7
Area-3,199,6
Area-2,81,4
Area-1,185,5
Area-C,167,3
Pt. Madan Mohan Malviya Hospital,82,3
Area-7,99,3
Area-4,124,5
Area-3,62,7
DGD Jonapur,94,6
"All India Institute of Medical Sciences (AIIMS), Delhi",147,4
Area-3,188,2
Area-8,159,1
DGD Begumpur,97,6
Area-1,154,3
Area-1,115,5
MCW Dakshin Puri E Block,171,5
MCW Ber Sarai,50,3
Area-C,62,3
Area-3,149,4
Area-4,177,1
Area-2,164,9
Area-1,62,2
Area-2,61,1
Area-1,83,6
Area-1,93,10
Area-1,124,9
Area-2,121,2
Area-6,96,1
Area-1,175,8
Area-3,98,6
SPUHC Jawahar park,183,1
Area-3,177,3
Area-1,135,4
Area-2,145,4
Area-6,171,3
Area-2,151,9
Area-1,62,3
Area-9,195,1
Area-C,65,4
Area-4,122,10
SPUHC Aya Nagar,103,5
Area-6,137,8
Area-C,164,6
Area-5,121,4
DGD Sangam Vihar K2,64,1
Area-C,51,5
Area-3,107,6
IPPVIII Dakshinpuri,126,10
MCW  Hauz Khas,139,9
Area-C,73,6
DGD Madangir,50,8
Area-1,76,3
Area-9,168,4
Area-2,183,3
Area-1,122,2
Area-2,139,8
DGD Pvr Complex Saket,127,9
Area-4,136,5
Area-3,183,1
Area-6,116,7
Area-3,142,7
Area-1,155,7
MCW Dakshinpuri 5 Block,161,7
Area-4,90,9
Area-5,93,4
Area-C,58,4
Area-2,68,2
Area-3,79,3
Area-6,165,3
