Health Facility Name,Number_Of_Beds,Rating
TRB Civil Hospital,90,7
Dihina MPHC,182,7
Darakahara SD notional SC,128,7
Sikarhati SC,96,10
Garal MPHC,52,9
Niralpur SC,177,6
Kalubari SC,137,3
Goalhati SC,136,4
Halogaon MPHC,53,3
Batakuchi (M) &(FW) SC,101,3
Lower Lumpi SC,171,9
Kayan SC,78,4
Baruajani SC,63,1
Parlly SC,170,8
Rangia BPHC,121,1
Balikuchi SC,97,3
Gargara SC,68,1
Bardangerikuchi  SC,151,3
Mairapur SC,90,4
Uttar Ghilabari SC,154,4
Jalukpaham SC,139,9
Rangapani SC,90,10
Luki Jarihat SC,148,5
Dakshin Singra SC,113,3
Bongara SC,116,6
Chakardoi SC,84,5
Paschimpar Baghbari SC,105,8
Moranjana SC,140,3
Bazarapara SC,177,5
Rojabaha SC,62,3
Umsur SC,105,3
Chhaygaon OPD N SC,117,10
Dhanipara SC,144,9
Karoibari SC,198,1
Gumi MPHC,96,5
Nargaon SC,177,8
Chamaria SD,169,7
Ischapur SC,157,4
Pub Chessa SC,195,7
Singarpara SC,93,1
Dhaborgaon SC,78,8
Piolikhata SC,134,1
Dhupguri SD,181,1
Jotiyabhangra SC,74,4
Baranghati MPHC,185,4
Jongakhuli SC,175,2
Hajo PHC N,87,2
Sontala SC,57,2
Ratanpur SC,123,9
Kolmoni SC,95,8
Guiya SD,171,3
Tarabari SD N SC,144,5
Tupamari MPHC N SC,166,6
Palasbari SD N Sub-Centre,91,1
Rangamati SC,52,1
Holongjuli SC,198,8
Muduki SC,187,9
Jharobari MPHC,88,9
Rajapara SD,90,7
Dillinga No-II SC,117,10
Bokolipara SC,62,9
Palasbari SD,166,7
Pingaleswar SC,171,2
Dohali SC,82,10
Koniha SC,134,9
Borni SC,168,8
Paschimsitara SC,54,1
Siddheswari Santitol SC,153,9
Barkuchi SC,111,10
Bharalipara SC,69,8
Ramdia SD,66,2
Sialmari Char SC,107,6
Naitar Kalyanpur MPHC,158,8
G.B. MPHC,56,10
Rajapara SD,110,3
Duramari Malibari SC,184,2
Moniari Tiniali SD,171,9
Amtola SC,64,8
Khaliha Uzanpara SC,101,10
Bihdia BPHC,176,10
Chouthala SC,87,4
Sourdia SC,104,3
Uttar Sekhadari No-II SC,106,2
Baralabari SC,60,9
Pachoria SC,55,10
Bhomlahata SC,80,10
Siliguri SC,178,10
Boromboi SC,108,7
Nahira Kuldung SC,83,10
Rangeswari Pam SC,81,3
Loharghat SC,108,1
Karara SC,149,3
Gamerimura SC,169,10
Pathalipara SC,164,6
Bamunigaon Model Hospital,107,9
Barijani SC,108,10
Goroimari CHC,163,1
Uttar Rangapani SC,64,2
Puthimari MPHC,128,5
Chhaygaon BPHC/CHC,54,2
Baihata Chariali SC,72,2
Guimara SD,71,9
Malibari,192,9
Samrang SC,159,9
Dakhala SC,157,6
Bezera CHC/FRU,197,1
Bama SC,133,9
Lenga SC,182,6
Mauman SC,124,1
Bhalukghata SD N SC,141,6
Deuduar SC,98,7
Chandra,67,4
Deochar MPHC,108,6
Chirakhundi SC,77,9
Tarigaon SC,57,1
Garubandha SC,86,2
Baruahbari SC,70,1
Borkukuria SC,137,8
Namtarabari SC,108,7
Ratanpur,112,5
Bordekpar SC,50,5
Barpalaha SC,119,8
Jharobari B,124,8
Kendukona SC,179,6
Naitar Kalyanpur MPHC N SC,169,4
Bejorsuti SC,185,2
Alikash SD,145,8
Gumi SC,61,2
Dadara SC,163,9
Malibari MPHC,180,6
Bagta SC,52,2
Naitar Bidyanagar SC,100,7
Jalah SC,94,7
Bangjeng SC,183,7
Choudhuripara SC,175,5
Soniadi SC,104,7
Kahua SC,122,6
Ketekijar SC,92,10
Sauramuri SC,91,10
Nagarbera BPHC,89,3
Rangmahal SC,148,8
Laduguri SC,193,2
Joldhapara SC,156,5
Mataikhar SC,196,7
Naitar Kalyanpur SC,140,5
Banmaja SC,107,5
Uzankuri SC,136,9
Dampur SD,176,8
Chatabari SD (Ayur),121,2
Tulsibari SC,182,10
Hajo PHC Char N,89,1
Khetrihardia SC,159,6
Bahjani SC,110,2
Dadara MPHC,93,8
Batahidia Char PHC,50,4
Trilosan -1 SC,51,8
Tarabari SD,111,9
Haldha SC,99,3
Mazarkuri SC,127,8
Kumeria SC,192,2
Kalatoli SC,88,7
Niz Hassang SC,130,4
Sajanpara SC,106,10
Nambarjuli SC,119,4
Nalbari Kuldung SC,134,6
Chamaria SD N SC,118,7
Saledol SC,193,1
Guimara SD,128,5
Chhaygaon OPD,87,2
Belorguri SC,191,9
Phulung MPHC,102,5
Bamunigaon (M) SC,162,4
Soniadi MPHC,105,9
Barua Balijhar MPHC N SC,160,5
Katenipara SC,69,7
Athiaboi Banmaja MPHC,135,6
Puranburka MPHC,130,10
North Guwahati OPD,68,4
Dagaon,56,8
Changsari SD,106,4
Gopalpur SC,104,8
Udiana SC,98,10
Saru Arikati SC,65,4
Mirjapur SC,161,3
Chhaygaon BPHC N SC,146,8
Manahkuchi SC,146,7
Majkuchi SC,95,2
Kekenikuchi SC,63,6
Namdhania SC,121,10
Bhitorkhola SC,118,10
Ghagrachuk SC,52,9
Ischadagharia SC,77,2
Barua Balijhar MPHC,190,9
Jamartal SC,160,1
Dhoparguri SC,59,9
G.B.MPHC N SC,123,7
Tokradia SC,55,3
Balasiddhi SC,133,10
Rajabazar SC,147,10
Mirza CHC,172,6
Buragohainthan MPHC N SC,63,2
Jambari SC,83,3
Baihata Chariali MPHC,108,5
Moniari Tiniali SC,147,9
Chakrapani SC,92,6
Madankamdev SC,199,8
Salmara SC,186,9
Pitambar Hatbajali SC,153,8
Rajapukhuri SC,159,4
Gorpot SC,148,1
Azara BPHC/CHC/FRU,109,9
Japia SC,100,10
Ukhura SC,99,4
Jambari MPHC,91,1
Bamunbori SC,174,1
Rampur B,178,6
Tupamari SC,67,2
Loharghat SD,169,6
Suktaguri MPHC,131,8
Ganeshtola SC,119,3
Balisatra SC,107,3
Dampur SC,50,1
Rampur BPHC,166,9
Mojebari SC,123,1
Moukuchi SC,88,2
North Guwahati BPHC,141,9
Tupamari MPHC,82,2
Jamlai SC,191,1
Puranburka SC,158,3
Bhetamukh SC,167,6
Rowmari SC,108,1
Sorabori SC,57,10
South Sorubongsor SC,60,6
Nagarbera PHC N SC,52,4
Bongshar SC,190,10
Hekera SD,158,6
Hiragata SC,87,6
Barmula SC,148,4
Trilosan -2 SC,55,4
Jharobari A,150,10
Barua Balijhar SC,189,7
Ukiam SC,193,6
Mariapatti SC,151,7
Bagapani SC,152,6
Talimara SC,52,5
Bhalukghata SD,143,9
Gurmow SC,60,5
Batahidia SC,175,2
Tukrapara SC,132,7
Dhupguri SC,69,10
Jalukbari Pantan MPHC,87,2
Pub Boragaon SC,184,6
Kamalpur PHC Notional SC,73,8
Kamalpur BPHC/CHC,58,2
Akadi SC,118,2
Burahara SC,175,4
Santipur SC,190,6
Bihdia PHC,53,1
Bathan Srihati SC,170,1
Futuri SC,150,9
Saje SC,182,9
Sakhati Bazar SC,60,10
Jorsimolu SC,138,7
Sanpara SC,106,10
Rani CHC,174,10
Bargaon SC,160,9
Nahira SD,134,10
Sichapith SC,179,9
Deulkuchi SC,136,7
Agchia SC,139,5
Champopara SC,146,2
Satpakhali SC,51,9
Saportari SC,81,3
Domdoma SC,155,6
Dekachang SC,59,5
Koniha SD,139,5
Simlibari SC,160,3
Rupnagar SC,75,5
Pukhuripar SC,66,7
Mirzakhat SC,158,2
Jamuguri MPHC N SC,137,3
Uparhali PHC N Sub-Centre,92,9
Borhazara SC,131,3
Dhopatari SC,104,4
Kharikot SC,121,9
Badla Bazar SC,95,2
Kulshi SC,141,5
Sonapur SC,81,10
Athgaon SC,158,8
Boko BPHC/CHC/FRU,70,4
Dolepaham SC,72,3
Balagaon SC,98,9
Boromboi MPHC,179,6
Malara SC,111,6
Garka SC,133,2
Khopanikuchi SC,131,10
Tarani SC,151,10
Panikhaity Char PHC,67,7
Dihina SC,52,1
Mandira SC,183,2
Kothara SC,79,8
Bamunbari MPHC,152,6
Maniari Tiniali SD N Sub-Centre,157,6
Malibari SC,118,3
Mohimari SC,70,10
Buragohainthan MPHC,176,8
Bangalpara Char PHC,114,8
Tarapati Lossana SC,91,1
Moina Khurung SC,68,2
Phulguri SC,80,7
Patrapur SC,128,9
Ramdia SC,124,8
Dolibari SC,136,10
Dharapur SC,191,6
Nowapara SC,135,2
Manikpur SC,126,1
Bahana SC,81,9
Uparhali BPHC,71,3
Madhukuchi SC,141,8
Palahartari SC,97,8
Hahim SD N SC,138,4
Jalukbari SC,56,6
Kulshi SD,124,2
Kekohati SC,62,2
Paharpara Bhakhuradia SC,179,6
Rampur A,69,10
Mandakata SC,171,5
Garopara SC,91,1
Dagaon SC,135,6
Rangia CHC/FRU,130,10
Hekera SC,193,2
Jamuguri MPHC,145,6
Chatabari SD N SC,151,10
Ghopla SC,92,4
Kandulimari SC,194,5
Gohalkona SC,87,4
Chutiapara SC,66,9
Garbhanga SC,172,4
Dorakohora SD,100,9
Kalitapara SC,166,3
Mirza SC,121,2
Bamunigaon (FW) SC,69,1
Ververy SC,198,7
Purnakhumdum SC,178,3
Guiya SC,109,1
Tokradia,119,6
Paneri SC,69,2
Deochar SC,91,7
Gondhmow SC,157,4
Baregaon SC,113,5
Majirgaon SC,101,10
Balahati SC,147,6
Bor Baka SC,115,9
Medhipara SC,186,6
Bordadhi SC,129,4
Hajo PHC Mobile,97,1
Pukhuripara SC,59,3
Bakhlapara SC,76,3
Patgaon SC,58,6
Solagaon SC,159,10
Hahim SD,177,7
Rangamati,117,5
Amrengkona SC,143,2
Sontoli MPHC,124,8
Bondapara SC,78,7
Palara SC,155,5
Jalimura SC,84,8
Bichenalla SC,180,6
Madhyapanduri MPHC,75,9
Titkuri SC,178,4
Charaimari SC,133,6
Pub Dharampur SC,167,8
Borjhar SC,81,10
TRB Civil Hospital,96,9
Dihina MPHC,143,8
Darakahara SD notional SC,74,8
Sikarhati SC,157,7
Garal MPHC,70,9
Niralpur SC,174,1
Kalubari SC,61,1
Goalhati SC,193,1
Halogaon MPHC,57,4
Batakuchi (M) &(FW) SC,88,1
Lower Lumpi SC,153,1
Kayan SC,100,9
Baruajani SC,104,5
Parlly SC,95,8
Rangia BPHC,120,2
Balikuchi SC,125,7
Gargara SC,101,3
Bardangerikuchi  SC,96,4
Mairapur SC,120,4
Uttar Ghilabari SC,129,6
Jalukpaham SC,67,10
Rangapani SC,191,6
Luki Jarihat SC,164,1
Dakshin Singra SC,51,10
Bongara SC,85,1
Chakardoi SC,60,4
Paschimpar Baghbari SC,187,5
Moranjana SC,116,2
Bazarapara SC,195,9
Rojabaha SC,101,4
Umsur SC,70,6
Chhaygaon OPD N SC,163,8
Dhanipara SC,162,4
Karoibari SC,115,6
Gumi MPHC,148,3
Nargaon SC,81,8
Chamaria SD,82,9
Ischapur SC,163,3
Pub Chessa SC,52,5
Singarpara SC,148,3
Dhaborgaon SC,123,10
Piolikhata SC,80,10
Dhupguri SD,182,9
Jotiyabhangra SC,68,10
Baranghati MPHC,50,5
Jongakhuli SC,145,3
Hajo PHC N,62,8
Sontala SC,146,6
Ratanpur SC,130,3
Kolmoni SC,161,1
Guiya SD,102,1
Tarabari SD N SC,69,6
Tupamari MPHC N SC,52,7
Palasbari SD N Sub-Centre,176,8
Rangamati SC,130,2
Holongjuli SC,126,6
Muduki SC,87,10
Jharobari MPHC,150,9
Rajapara SD,145,10
Dillinga No-II SC,81,8
Bokolipara SC,150,9
Palasbari SD,191,6
Pingaleswar SC,171,5
Dohali SC,172,6
Koniha SC,112,8
Borni SC,175,1
Paschimsitara SC,131,8
Siddheswari Santitol SC,99,4
Barkuchi SC,147,5
Bharalipara SC,137,4
Ramdia SD,97,9
Sialmari Char SC,50,9
Naitar Kalyanpur MPHC,142,4
G.B. MPHC,144,5
Rajapara SD,172,2
Duramari Malibari SC,100,9
Moniari Tiniali SD,130,4
Amtola SC,74,9
Khaliha Uzanpara SC,94,8
Bihdia BPHC,160,8
Chouthala SC,178,4
Sourdia SC,65,3
Uttar Sekhadari No-II SC,74,3
Baralabari SC,159,9
Pachoria SC,125,8
Bhomlahata SC,174,4
Siliguri SC,176,4
Boromboi SC,176,6
Nahira Kuldung SC,135,8
Rangeswari Pam SC,51,10
Loharghat SC,134,10
Karara SC,67,9
Gamerimura SC,193,9
Pathalipara SC,127,1
Bamunigaon Model Hospital,151,6
Barijani SC,70,2
Goroimari CHC,145,8
Uttar Rangapani SC,143,10
Puthimari MPHC,166,3
Chhaygaon BPHC/CHC,197,6
Baihata Chariali SC,169,6
Guimara SD,182,5
Malibari,94,1
Samrang SC,146,4
Dakhala SC,184,9
Bezera CHC/FRU,103,8
Bama SC,97,4
Lenga SC,139,2
Mauman SC,110,6
Bhalukghata SD N SC,178,3
Deuduar SC,127,10
Chandra,182,5
Deochar MPHC,74,1
Chirakhundi SC,132,2
Tarigaon SC,129,3
Garubandha SC,193,2
Baruahbari SC,152,3
Borkukuria SC,185,5
Namtarabari SC,114,6
Ratanpur,190,5
Bordekpar SC,168,3
Barpalaha SC,68,6
Jharobari B,73,5
Kendukona SC,160,6
Naitar Kalyanpur MPHC N SC,63,1
Bejorsuti SC,57,6
Alikash SD,109,10
Gumi SC,194,10
Dadara SC,85,3
Malibari MPHC,157,6
Bagta SC,132,10
Naitar Bidyanagar SC,189,8
Jalah SC,124,4
Bangjeng SC,96,10
Choudhuripara SC,161,9
Soniadi SC,86,4
Kahua SC,183,3
Ketekijar SC,103,8
Sauramuri SC,199,7
Nagarbera BPHC,89,7
Rangmahal SC,98,3
Laduguri SC,157,2
Joldhapara SC,135,5
Mataikhar SC,113,9
Naitar Kalyanpur SC,167,1
Banmaja SC,92,8
Uzankuri SC,158,7
Dampur SD,88,7
Chatabari SD (Ayur),99,2
Tulsibari SC,87,10
Hajo PHC Char N,91,3
Khetrihardia SC,56,6
Bahjani SC,76,1
Dadara MPHC,107,10
Batahidia Char PHC,69,2
Trilosan -1 SC,195,9
Tarabari SD,129,7
Haldha SC,149,4
Mazarkuri SC,183,6
Kumeria SC,110,5
Kalatoli SC,51,7
Niz Hassang SC,184,2
Sajanpara SC,118,9
Nambarjuli SC,85,5
Nalbari Kuldung SC,117,8
Chamaria SD N SC,121,6
Saledol SC,158,1
Guimara SD,186,5
Chhaygaon OPD,158,9
Belorguri SC,165,8
Phulung MPHC,67,3
Bamunigaon (M) SC,142,9
Soniadi MPHC,151,5
Barua Balijhar MPHC N SC,125,10
Katenipara SC,167,9
Athiaboi Banmaja MPHC,54,1
Puranburka MPHC,186,3
North Guwahati OPD,119,3
Dagaon,95,10
Changsari SD,82,9
Gopalpur SC,142,9
Udiana SC,140,2
Saru Arikati SC,95,5
Mirjapur SC,91,9
Chhaygaon BPHC N SC,134,8
Manahkuchi SC,196,10
Majkuchi SC,93,4
Kekenikuchi SC,93,1
Namdhania SC,128,6
Bhitorkhola SC,100,2
Ghagrachuk SC,174,2
Ischadagharia SC,172,8
Barua Balijhar MPHC,98,4
Jamartal SC,189,7
Dhoparguri SC,148,4
G.B.MPHC N SC,153,10
Tokradia SC,146,4
Balasiddhi SC,68,10
Rajabazar SC,171,6
Mirza CHC,197,2
Buragohainthan MPHC N SC,73,7
Jambari SC,60,2
Baihata Chariali MPHC,186,5
Moniari Tiniali SC,157,4
Chakrapani SC,60,1
Madankamdev SC,102,9
Salmara SC,145,8
Pitambar Hatbajali SC,116,2
Rajapukhuri SC,124,2
Gorpot SC,117,6
Azara BPHC/CHC/FRU,82,5
Japia SC,159,8
Ukhura SC,88,9
Jambari MPHC,69,3
Bamunbori SC,108,6
Rampur B,65,5
Tupamari SC,150,8
Loharghat SD,167,10
Suktaguri MPHC,125,4
Ganeshtola SC,178,2
Balisatra SC,176,4
Dampur SC,160,2
Rampur BPHC,119,7
Mojebari SC,129,10
Moukuchi SC,77,1
North Guwahati BPHC,143,10
Tupamari MPHC,101,7
Jamlai SC,125,4
Puranburka SC,193,10
Bhetamukh SC,156,1
Rowmari SC,169,10
Sorabori SC,93,1
South Sorubongsor SC,118,3
Nagarbera PHC N SC,105,6
Bongshar SC,144,9
Hekera SD,86,3
Hiragata SC,104,10
Barmula SC,107,6
Trilosan -2 SC,111,6
Jharobari A,57,6
Barua Balijhar SC,151,9
Ukiam SC,136,8
Mariapatti SC,80,5
Bagapani SC,185,9
Talimara SC,173,2
Bhalukghata SD,119,2
Gurmow SC,97,3
Batahidia SC,108,9
Tukrapara SC,195,6
Dhupguri SC,193,6
Jalukbari Pantan MPHC,50,9
Pub Boragaon SC,170,5
Kamalpur PHC Notional SC,88,4
Kamalpur BPHC/CHC,74,3
Akadi SC,161,3
Burahara SC,193,5
Santipur SC,126,10
Bihdia PHC,197,3
Bathan Srihati SC,70,10
Futuri SC,62,6
Saje SC,113,1
Sakhati Bazar SC,76,6
Jorsimolu SC,55,8
Sanpara SC,115,3
Rani CHC,114,1
Bargaon SC,85,9
Nahira SD,100,9
Sichapith SC,81,8
Deulkuchi SC,147,9
Agchia SC,78,7
Champopara SC,153,1
Satpakhali SC,153,1
Saportari SC,144,6
Domdoma SC,94,7
Dekachang SC,60,7
Koniha SD,60,10
Simlibari SC,102,2
Rupnagar SC,80,1
Pukhuripar SC,192,5
Mirzakhat SC,63,5
Jamuguri MPHC N SC,119,1
Uparhali PHC N Sub-Centre,198,2
Borhazara SC,145,8
Dhopatari SC,195,8
Kharikot SC,122,5
Badla Bazar SC,94,3
Kulshi SC,97,8
Sonapur SC,58,3
Athgaon SC,79,2
Boko BPHC/CHC/FRU,78,5
Dolepaham SC,129,7
Balagaon SC,126,10
Boromboi MPHC,58,2
Malara SC,137,10
Garka SC,107,7
Khopanikuchi SC,107,2
Tarani SC,158,3
Panikhaity Char PHC,135,1
Dihina SC,162,8
Mandira SC,71,3
Kothara SC,95,7
Bamunbari MPHC,140,7
Maniari Tiniali SD N Sub-Centre,108,4
Malibari SC,199,7
Mohimari SC,102,3
Buragohainthan MPHC,182,3
Bangalpara Char PHC,51,10
Tarapati Lossana SC,191,2
Moina Khurung SC,62,3
Phulguri SC,97,8
Patrapur SC,94,8
Ramdia SC,65,9
Dolibari SC,185,9
Dharapur SC,58,4
Nowapara SC,191,2
Manikpur SC,116,9
Bahana SC,184,3
Uparhali BPHC,153,8
Madhukuchi SC,59,10
Palahartari SC,124,8
Hahim SD N SC,106,8
Jalukbari SC,165,5
Kulshi SD,111,9
Kekohati SC,117,3
Paharpara Bhakhuradia SC,128,5
Rampur A,76,7
Mandakata SC,102,9
Garopara SC,185,4
Dagaon SC,186,7
Rangia CHC/FRU,166,3
Hekera SC,71,1
Jamuguri MPHC,169,1
Chatabari SD N SC,177,5
Ghopla SC,103,6
Kandulimari SC,109,2
Gohalkona SC,145,4
Chutiapara SC,56,1
Garbhanga SC,198,3
Dorakohora SD,168,10
Kalitapara SC,156,5
Mirza SC,194,4
Bamunigaon (FW) SC,58,2
Ververy SC,199,4
Purnakhumdum SC,85,2
Guiya SC,56,2
Tokradia,128,3
Paneri SC,156,9
Deochar SC,181,2
Gondhmow SC,92,3
Baregaon SC,60,2
Majirgaon SC,168,7
Balahati SC,177,5
Bor Baka SC,187,3
Medhipara SC,81,3
Bordadhi SC,198,5
Hajo PHC Mobile,114,6
Pukhuripara SC,112,8
Bakhlapara SC,70,10
Patgaon SC,79,7
Solagaon SC,85,2
Hahim SD,187,6
Rangamati,89,7
Amrengkona SC,97,2
Sontoli MPHC,83,7
Bondapara SC,123,4
Palara SC,77,5
Jalimura SC,91,8
Bichenalla SC,113,3
Madhyapanduri MPHC,102,7
Titkuri SC,107,8
Charaimari SC,89,3
Pub Dharampur SC,69,2
Borjhar SC,111,6
