Health Facility Name,Number_Of_Beds,Rating
Baghmara Pvt Facility,145,3
Private Baliapur,148,5
Dhanbad Sadar Hospital,68,5
Dhanbad Sadar Pvt Facility,98,3
Patliputra Medical College Hospital,61,10
UCHC Kenduadih,52,7
UPHC Shivpuri Bhuli,60,9
Gobindpur Pvt Facility,152,6
Jharia Pvt Facility,141,3
Nirsa Pvt Facility,85,3
HSC BIRAJPUR,92,10
CHC NIRSA,149,7
HSC NAGARIKALA,178,7
HSC NOTIONAL BAGHMARA,100,10
PHC TETULIA,79,9
HSC DORDAHA,177,7
HSC JHINAKI,137,1
HSC SARKARDIH,146,3
PHC AMBONA,125,10
PHC RAJGANJ,167,4
HSC SINGDIH,190,3
HSC MAHULBANI,69,6
HSC Bishanpur,162,9
HSC DHANGI,146,5
HSC MAHULBANI,57,5
HSC ASNASINGHA,179,9
CHC TUNDI,177,10
HSC Tantri,51,10
PHC KENDUADIH,191,4
HSC CHARAK,167,5
HSC BHULI TOWNSHIP,109,2
PHC KATRAS,179,6
UHC BINOD NAGAR,129,2
HSC PRATAPUR,176,6
PHC GOMO,165,8
HSC PAWAPUR,180,5
HSC PALANI,196,2
HSC BHELATAND,177,5
PHC CHIRKUNDA,199,3
HSC KENDUADIH,158,7
HSC DHOBNI,194,5
HSC CHALDHOWA,127,8
HSC KATRAS,122,9
CHC Govindpur,75,8
CHC Baliapur,172,7
HSC HARIHARPUR,116,5
HSC BAGULA,170,5
HSC CHIRKUNDA,95,9
HSC GHAGHARA,51,8
HSC SIRPURIA,178,3
HSC SIJUA,160,2
HSC MATKURIA,119,1
HSC KAPURIA,96,6
HSC AMBONA,62,5
HSC MADAIDIH,133,6
HSC Vassepur,88,9
HSC NIRSA,112,2
PHC NAGARKIYARI,166,1
PHC RAMAKUNDA,98,1
HSC DAMODARPUR,111,2
HSC MANOHARTAD,169,9
HSC TILAIYA,135,8
HSC SINGDAHA,106,8
PHC TOPCHANCHI,89,2
HSC KABIRDIH,148,4
HSC MAHESHPUR,195,1
HSC BHORA,151,10
HSC ROAAM,165,5
HSC TETULMARI,187,2
HSC SALPATRA,125,2
HSC SONRIYA,67,9
CHC TOPCHANCHI,136,4
HSC RAJGANJ,195,5
HSC DIGWADIH,139,8
HSC BIRSINGHPUR,90,5
HSC SITALPUR,148,3
CHC DHANBAD SADAR,132,10
HSC BARARI,144,8
HSC GHORATHI,155,9
HSC KUMARDIH,152,1
HSC MALKERA,64,7
HSC KHURDIH,144,5
HSC CHUTIYARO,53,6
HSC BARADAHA,137,6
HSC JHAGRAHI,128,1
FWC KUMARDHUBI,76,1
HSC BHITIYA,152,10
UPHC SINDRI,80,8
PHC BIRAJPUR,85,8
PHC MADANPUR,133,8
UHC BHUDA,199,5
HSC BAGDAHA,137,1
HSC Dangi,50,6
HSC NAGARKIYARI,161,6
HSC GUNGHASA,127,10
HSC MAHUDA,65,8
UHC JAHAJTAND,89,9
UHC MANOHARTAND,175,1
HSC DALDALI,73,6
HSC MADANPUR,61,3
HSC Ramakunda,165,5
HSC ASNA,192,9
PHC MAHUDA,107,4
HSC Kaliasol 2210,199,6
HSC JAGDISH,118,8
HSC NICHITPUR,151,1
HSC MANIADIH,75,1
HSC BALIAPUR,186,1
HSC KESKA,185,3
HSC BAGHMARA,165,10
HSC GOPALPUR,194,1
PHC ROWM,64,2
UFWC JORAPOKHAR,129,9
HSC GODHAR,136,10
HSC URMA,138,8
HSC BALKUSH,125,2
HSC LATANI,138,10
HSC JHINAKI,102,8
HSC TELMACHCHO,107,7
HSC DUMARKUNDA,146,2
HSC DHAIYA,155,1
HSC PUTKI,141,6
HSC UDAYPUR,159,3
HSC Khokhrapahari,187,2
HSC BISHUNPUR,195,6
HSC AMTAL,182,10
HSC BELMI,77,10
HSC RAMPUR,53,3
HSC KHERIO,84,6
HSC Tetulia,125,5
HSC JANGALPUR,171,6
HSC MANAITAND,114,8
HSC RUDI KAPURIA,178,8
HSC JAIRAMPUR,80,1
HSC PARASBANIA,119,7
HSC BAGSUMA,54,7
HSC RADHA NAGAR,199,2
HSC CHITARPUR,197,5
HSC BARORA,71,4
HSC SADRIADIH,53,1
HSC JAIPUR,59,2
UHC BABUDIH,66,5
CHC BAGHMARA,104,1
HSC KHARIKABAD,85,8
HSC MATARI,162,10
HSC BADALPUR,50,1
CHC JHARIA-CUM-JORAPOKHAR,111,3
HSC GANSADIH,151,4
HSC RUPAN,89,6
HSC Narayanpur,112,5
HSC KANKO,88,5
Baghmara Pvt Facility,119,4
Private Baliapur,158,8
Dhanbad Sadar Hospital,195,8
Dhanbad Sadar Pvt Facility,192,3
Patliputra Medical College Hospital,95,10
UCHC Kenduadih,162,2
UPHC Shivpuri Bhuli,66,5
Gobindpur Pvt Facility,68,2
Jharia Pvt Facility,154,9
Nirsa Pvt Facility,150,3
HSC BIRAJPUR,87,2
CHC NIRSA,153,5
HSC NAGARIKALA,108,6
HSC NOTIONAL BAGHMARA,153,5
PHC TETULIA,186,10
HSC DORDAHA,180,2
HSC JHINAKI,115,6
HSC SARKARDIH,74,3
PHC AMBONA,53,6
PHC RAJGANJ,65,9
HSC SINGDIH,124,5
HSC MAHULBANI,158,7
HSC Bishanpur,109,5
HSC DHANGI,177,2
HSC MAHULBANI,150,3
HSC ASNASINGHA,76,4
CHC TUNDI,104,10
HSC Tantri,165,3
PHC KENDUADIH,115,2
HSC CHARAK,120,7
HSC BHULI TOWNSHIP,57,4
PHC KATRAS,124,9
UHC BINOD NAGAR,58,1
HSC PRATAPUR,144,9
PHC GOMO,140,7
HSC PAWAPUR,79,2
HSC PALANI,108,1
HSC BHELATAND,175,10
PHC CHIRKUNDA,161,4
HSC KENDUADIH,189,4
HSC DHOBNI,93,9
HSC CHALDHOWA,192,7
HSC KATRAS,151,1
CHC Govindpur,175,9
CHC Baliapur,172,8
HSC HARIHARPUR,192,9
HSC BAGULA,124,9
HSC CHIRKUNDA,188,7
HSC GHAGHARA,171,9
HSC SIRPURIA,77,8
HSC SIJUA,127,10
HSC MATKURIA,99,9
HSC KAPURIA,141,3
HSC AMBONA,193,3
HSC MADAIDIH,85,10
HSC Vassepur,66,6
HSC NIRSA,145,2
PHC NAGARKIYARI,160,3
PHC RAMAKUNDA,59,6
HSC DAMODARPUR,186,10
HSC MANOHARTAD,86,1
HSC TILAIYA,124,4
HSC SINGDAHA,197,2
PHC TOPCHANCHI,190,4
HSC KABIRDIH,106,4
HSC MAHESHPUR,175,8
HSC BHORA,50,9
HSC ROAAM,157,6
HSC TETULMARI,119,4
HSC SALPATRA,140,8
HSC SONRIYA,100,6
CHC TOPCHANCHI,138,2
HSC RAJGANJ,101,10
HSC DIGWADIH,96,6
HSC BIRSINGHPUR,155,1
HSC SITALPUR,129,4
CHC DHANBAD SADAR,180,10
HSC BARARI,138,10
HSC GHORATHI,141,9
HSC KUMARDIH,111,8
HSC MALKERA,133,5
HSC KHURDIH,69,10
HSC CHUTIYARO,189,5
HSC BARADAHA,190,4
HSC JHAGRAHI,124,5
FWC KUMARDHUBI,61,6
HSC BHITIYA,67,7
UPHC SINDRI,118,3
PHC BIRAJPUR,55,1
PHC MADANPUR,152,6
UHC BHUDA,78,2
HSC BAGDAHA,195,4
HSC Dangi,93,3
HSC NAGARKIYARI,185,9
HSC GUNGHASA,193,9
HSC MAHUDA,137,7
UHC JAHAJTAND,186,1
UHC MANOHARTAND,185,3
HSC DALDALI,152,2
HSC MADANPUR,193,7
HSC Ramakunda,81,2
HSC ASNA,124,4
PHC MAHUDA,77,6
HSC Kaliasol 2210,77,9
HSC JAGDISH,62,3
HSC NICHITPUR,195,6
HSC MANIADIH,124,6
HSC BALIAPUR,191,6
HSC KESKA,88,8
HSC BAGHMARA,153,6
HSC GOPALPUR,190,10
PHC ROWM,124,6
UFWC JORAPOKHAR,111,1
HSC GODHAR,95,5
HSC URMA,51,1
HSC BALKUSH,69,2
HSC LATANI,90,10
HSC JHINAKI,157,6
HSC TELMACHCHO,116,8
HSC DUMARKUNDA,156,9
HSC DHAIYA,127,2
HSC PUTKI,80,10
HSC UDAYPUR,177,7
HSC Khokhrapahari,160,4
HSC BISHUNPUR,86,3
HSC AMTAL,171,9
HSC BELMI,139,7
HSC RAMPUR,128,7
HSC KHERIO,90,9
HSC Tetulia,181,7
HSC JANGALPUR,85,9
HSC MANAITAND,127,2
HSC RUDI KAPURIA,74,9
HSC JAIRAMPUR,136,2
HSC PARASBANIA,136,9
HSC BAGSUMA,157,8
HSC RADHA NAGAR,61,9
HSC CHITARPUR,51,2
HSC BARORA,119,6
HSC SADRIADIH,166,6
HSC JAIPUR,87,2
UHC BABUDIH,197,4
CHC BAGHMARA,199,6
HSC KHARIKABAD,60,8
HSC MATARI,75,1
HSC BADALPUR,97,9
CHC JHARIA-CUM-JORAPOKHAR,144,4
HSC GANSADIH,83,9
HSC RUPAN,192,8
HSC Narayanpur,77,3
HSC KANKO,79,3
