Health Facility Name,Number_Of_Beds,Rating
Khuntaj,192,7
Lalmandva,185,8
Sorna,143,7
Rudan 2,146,4
Kachchhai,141,5
Sinhuj 2,106,3
Matar 3,87,9
Palla,151,6
Radhu-1,177,9
Rasikpura,185,3
Sinhuj 1,127,1
Kanjoda,88,8
Mahmadpura,94,3
Sapala,80,6
Udara,136,3
Sunda,104,8
Antroli-2,128,3
Modaj,87,6
Rustampura,127,7
Mahudha-2,173,7
Vadad,159,10
Aakhdol,125,9
Salun(va),82,3
Arera,113,6
Karoli,69,2
Punadara,80,7
Alindra,157,3
Chaklasi,179,2
Nirmali,161,4
Sandeshar,179,3
Malitadi,124,1
Navchetan,173,2
dharoda,51,5
Rudan,183,7
Padal,84,3
Uttarsanda 1,119,10
Civil Hospital Kheda.,108,4
Kanij,104,10
Malavan,162,4
Khadiyarapura,129,6
Vadathal,133,10
Ambav,89,8
Kathana,94,4
Ghodasar,74,8
Matar 1,86,8
Badarpur,116,5
Thasra 1,170,1
Sansoli,101,5
Mahudha,150,5
Maholel 2,95,5
bidaj,146,6
Thasra,87,4
Vaso,84,2
Nesh 1,142,4
Limbasi-2,123,2
Lasundra,79,2
Ravaliya,63,4
Hariyana,193,3
Kathlal,115,6
Bhumel,198,4
kathalal-1,75,10
Dahiyap,124,9
Pipalvada,123,10
Pithai,80,1
Chetarsumba,182,9
Nesh,51,5
Sanali,156,4
Samaspur,104,4
Nandagam,94,8
Haridas Hospital,61,8
Sastapur,60,3
Kanjari 3,126,10
Surashamal,80,9
Aklacha,129,9
Sinjivada,65,9
Dadusar,199,1
Khaladi,110,2
Kuni,140,4
Mahelaj,74,7
Mahi Itadi,55,6
Ratanpur,116,7
Sihunj,110,7
Antroli,184,6
Shahpur,148,4
Amsaran,189,1
Kevadiya,110,6
Nani Khadol,68,9
Modaj 1,117,7
Mankwa,145,6
Sevaliya,93,1
Chhipial,146,7
Khijalpur,66,10
Letar,99,10
Dasalvada,179,10
Jalanagar,97,1
Valetava,199,8
Aral,79,1
Vanoda,112,1
Modaj 2,56,3
Alwa,153,7
Kaniyel,50,9
Apruji,146,10
Kosam,195,3
Chaklasi 4,106,7
Attarsumba,160,2
Chikhlod,103,7
Jaliya,100,3
Bhugaliya,140,2
Sarsavani,122,10
Pariaej,100,7
Keriyavi,195,2
Rakhiyal,195,3
Mongharoli,173,2
Shatrunda,173,3
Menpura,74,7
Rinchhol,78,3
Lady Pillar,159,2
Dhunadara,111,3
Khadagodhara,167,1
Ghodali,149,6
Porda Fagvel,176,5
Anara,119,6
Wanthvali,169,7
Bhoomas,132,6
Dampat,188,8
Haldharvas 2,81,9
Kesara,98,5
Atarsumba,85,4
Yoginagar,136,6
Varsola,190,7
Traj,56,5
Sonipur,155,7
kashipura,74,6
Fatepura,76,7
Antisar,162,6
Vanghroli,80,1
Bhutiya,191,7
Parsataj,118,10
Chaklasi,176,6
Mahemdabad 2,79,6
Antisar,132,9
Mudel Ratanpur,139,1
Ravadavat,53,2
Vanoti,67,9
Sanali,126,5
Ref. Hospital Kapadvanj,178,7
Kalsar,126,7
Areri,143,1
Sevaliya 2,53,2
Kosiyal,152,6
Nayka,55,5
Machhiyel,92,8
Vanghroli,94,4
Narshipur,151,10
Ghoghavada,85,8
Daloli,69,7
Vadali,133,9
Vasna,183,10
Ghaua,67,3
Daloli,91,6
Haldarwas,143,2
Kot Lindra,155,8
Menpura,155,8
Nadiad Mission,60,8
Kanjari,161,7
Kamala,110,1
Alindra,80,5
Sorna,161,4
Jasu Na Muvada,199,6
Singhali,70,1
Sankhej,125,4
Sojali,186,3
Mahemdabad 3,91,8
Chaklasi 6,197,7
Javol,158,3
Sui,146,1
Nirmali,85,9
Sevaliya 3,161,3
Baroda,127,4
Finav,175,7
Vastana,97,5
Gutal,81,7
Devki vansol,172,5
Fagvel,85,3
Telnar,81,5
Sandheli,58,8
Hathaj,111,10
Ghadiya,190,9
Dakor,150,10
Maholel,123,2
Jargal,169,7
Porda (Bhatera),151,1
Haldharvas 1,194,9
Bharathari,57,6
Betavada,89,4
Radhu-2,184,1
Gobalaj,106,1
Rudan,152,5
Matar,112,2
Navagam,193,6
Chhipadi-2,107,6
Kakarkhad,190,3
Savli,143,6
Kalaji,111,6
Degam,194,2
Thasra 2,103,1
Singali,53,8
Salun (ta),163,3
Santram,85,7
Vina,98,4
Mahemdabad 1,116,5
Dabhan,152,10
Haijarabad,83,6
Asamali,54,6
Mehmedabad,176,7
Motizer,178,9
Heranj,136,4
Dhunadara,135,5
Agarva,133,2
Bhalada,183,3
Chetarsumba,142,1
Gothaj,84,9
Navagam,60,7
Lasundra 2,147,1
Sodpur,51,7
Vadatal,65,5
Limbasi-1,170,10
Nayka-1,157,2
Chhipadi-1,50,10
Lasundra,124,9
Gumadiya,67,8
kanij 1,53,3
Vadol,95,2
Alina-1,174,4
Thasra,86,5
Anara,187,7
Heranj,69,10
Kathlal,172,8
Chaklasi 5,165,10
Khatraj,192,3
J.Z.M.N. Hospital Nadiad,104,4
Kanjari 2,81,6
Mitral,50,2
Bhatera,109,8
Kaloli,98,9
Khandhli,88,3
Davada,152,5
Bhaner,190,8
Ukardina Muvada,133,3
Angadi,137,8
Raniya,112,7
Kanera,118,3
Nayka-2,136,6
Torna,126,3
Sevaliya 1,66,10
Sarali,132,4
Sokhada,104,1
Sarkhej,121,2
Abvel,55,1
Bharakunda,110,3
Udhela,94,3
Pipalvada,131,8
Sulan,122,9
Nesh 2,111,5
Dabhasar,179,4
Gogjipura,153,5
Vaghas,178,10
Chaklasi 1,191,3
Kuna,68,3
Barmuvada 2,175,1
Ghodasar,144,1
Mahisa,140,2
Traj,66,5
Kanjari 1,76,2
Alina-2,95,7
Uttarsanda 2,88,2
Golaj,70,7
Antroli-1,180,2
Kheda,143,2
Rajnagar,155,2
Nanizer,62,3
Saiyant,64,1
Nani Khadol,199,3
Karoli,179,3
Chaklasi 2,148,6
Marida,128,3
Jesapura,159,8
Vasna Margiya,194,7
Ozarala,85,4
Ref. Hospital Dakor,105,5
Mahudha,168,7
Gogjipura,51,8
Varsola,117,4
Maholel 1,136,5
Alina,129,2
Mahudha-1,137,6
Vasna Margiya,138,4
Vadala,176,3
Malavada,123,8
Ambaliyara,144,2
Torna,176,5
Bordi,72,5
Khumarvad,94,5
Navagam,115,7
Radhavanaj,66,8
Kapadvanj,177,6
Bilodra,112,1
Bamroli,129,8
Limbasi,141,1
Hathnoli,183,1
Kanij 2,198,2
khandhali,179,9
Thavad,76,9
Motizer,153,1
Valetva,163,5
Khadal,66,2
Nanadara,150,8
Bhojana Muvada,199,7
Chunel,196,10
kathalal-2,197,4
Pandavaniya,111,5
Vyasvasna,128,1
Paladi,85,5
Bhadrasa,106,7
Kaparoopur,133,5
Mahij,166,3
Narsanda,194,5
Chaklasi 3,54,7
Ajupara,73,6
Mahudha-3,96,7
Vansol Sundha,149,6
Barmuvada 1,189,3
Alindra,112,4
Radhu,187,2
Dakor,140,2
Bagadol,165,8
Rozva,171,5
Nenpur,136,4
Vasna Buzarg,151,9
Chhapra,131,3
Chared,62,5
Taiyabpura,179,5
Dantali,99,4
Sandhana,117,9
Chalali,79,10
Andhaj,102,9
Dana,89,10
Vaghas,57,3
Lali,159,6
Chunel,56,4
Narsanda,129,9
Varasang,155,10
Piplata,166,1
Sadra,147,5
Danadara,186,10
Sanadara,162,2
Dumral,151,8
Matar 2,70,1
Yoginagar,152,9
Bharkunda,198,8
Khuntaj,158,6
Lalmandva,162,7
Sorna,177,3
Rudan 2,163,6
Kachchhai,86,1
Sinhuj 2,133,10
Matar 3,184,9
Palla,87,1
Radhu-1,153,1
Rasikpura,76,10
Sinhuj 1,153,5
Kanjoda,118,3
Mahmadpura,154,1
Sapala,111,7
Udara,52,7
Sunda,99,9
Antroli-2,100,7
Modaj,139,3
Rustampura,132,7
Mahudha-2,77,3
Vadad,139,4
Aakhdol,102,1
Salun(va),63,3
Arera,72,6
Karoli,64,5
Punadara,142,9
Alindra,72,6
Chaklasi,81,10
Nirmali,161,5
Sandeshar,187,10
Malitadi,53,5
Navchetan,85,8
dharoda,131,3
Rudan,151,6
Padal,75,6
Uttarsanda 1,194,1
Civil Hospital Kheda.,174,3
Kanij,97,5
Malavan,76,8
Khadiyarapura,171,1
Vadathal,95,6
Ambav,60,1
Kathana,121,5
Ghodasar,122,1
Matar 1,51,8
Badarpur,198,4
Thasra 1,194,1
Sansoli,129,7
Mahudha,170,4
Maholel 2,138,8
bidaj,73,9
Thasra,99,10
Vaso,185,3
Nesh 1,135,4
Limbasi-2,164,8
Lasundra,56,6
Ravaliya,173,4
Hariyana,161,10
Kathlal,69,1
Bhumel,147,2
kathalal-1,134,3
Dahiyap,148,4
Pipalvada,185,9
Pithai,151,6
Chetarsumba,81,10
Nesh,92,5
Sanali,198,4
Samaspur,86,9
Nandagam,192,9
Haridas Hospital,157,6
Sastapur,52,5
Kanjari 3,67,9
Surashamal,195,2
Aklacha,88,9
Sinjivada,82,4
Dadusar,130,3
Khaladi,169,9
Kuni,90,5
Mahelaj,100,5
Mahi Itadi,64,6
Ratanpur,84,3
Sihunj,142,1
Antroli,192,5
Shahpur,100,6
Amsaran,116,2
Kevadiya,99,3
Nani Khadol,132,5
Modaj 1,121,3
Mankwa,127,5
Sevaliya,143,10
Chhipial,141,10
Khijalpur,57,6
Letar,145,4
Dasalvada,181,8
Jalanagar,106,2
Valetava,141,7
Aral,118,2
Vanoda,191,2
Modaj 2,81,3
Alwa,76,5
Kaniyel,60,7
Apruji,83,8
Kosam,137,7
Chaklasi 4,188,6
Attarsumba,93,4
Chikhlod,152,9
Jaliya,136,8
Bhugaliya,125,1
Sarsavani,154,6
Pariaej,197,3
Keriyavi,111,2
Rakhiyal,140,8
Mongharoli,182,9
Shatrunda,182,9
Menpura,171,1
Rinchhol,166,8
Lady Pillar,59,7
Dhunadara,130,1
Khadagodhara,95,10
Ghodali,128,6
Porda Fagvel,64,9
Anara,164,5
Wanthvali,113,2
Bhoomas,135,5
Dampat,125,4
Haldharvas 2,61,10
Kesara,112,3
Atarsumba,66,4
Yoginagar,68,8
Varsola,58,7
Traj,107,4
Sonipur,148,3
kashipura,78,8
Fatepura,89,3
Antisar,107,9
Vanghroli,128,2
Bhutiya,199,9
Parsataj,128,2
Chaklasi,172,3
Mahemdabad 2,54,6
Antisar,177,9
Mudel Ratanpur,151,7
Ravadavat,59,10
Vanoti,137,5
Sanali,168,2
Ref. Hospital Kapadvanj,188,3
Kalsar,84,8
Areri,127,5
Sevaliya 2,199,7
Kosiyal,135,4
Nayka,104,6
Machhiyel,76,10
Vanghroli,58,1
Narshipur,167,2
Ghoghavada,170,9
Daloli,80,8
Vadali,129,7
Vasna,91,3
Ghaua,157,5
Daloli,96,7
Haldarwas,162,6
Kot Lindra,96,4
Menpura,115,8
Nadiad Mission,87,10
Kanjari,160,3
Kamala,121,4
Alindra,117,7
Sorna,141,8
Jasu Na Muvada,120,4
Singhali,127,5
Sankhej,93,10
Sojali,87,2
Mahemdabad 3,92,1
Chaklasi 6,164,9
Javol,145,8
Sui,91,2
Nirmali,125,10
Sevaliya 3,152,4
Baroda,119,8
Finav,57,6
Vastana,119,3
Gutal,53,5
Devki vansol,56,9
Fagvel,66,4
Telnar,107,2
Sandheli,162,10
Hathaj,164,9
Ghadiya,138,5
Dakor,145,10
Maholel,150,9
Jargal,54,1
Porda (Bhatera),99,1
Haldharvas 1,77,4
Bharathari,157,2
Betavada,123,1
Radhu-2,77,7
Gobalaj,125,6
Rudan,66,9
Matar,86,2
Navagam,91,9
Chhipadi-2,147,8
Kakarkhad,53,7
Savli,141,6
Kalaji,80,1
Degam,116,8
Thasra 2,189,3
Singali,67,9
Salun (ta),169,3
Santram,71,1
Vina,123,5
Mahemdabad 1,62,9
Dabhan,128,2
Haijarabad,68,2
Asamali,50,5
Mehmedabad,147,2
Motizer,154,4
Heranj,128,3
Dhunadara,138,6
Agarva,121,4
Bhalada,190,7
Chetarsumba,170,7
Gothaj,92,4
Navagam,86,2
Lasundra 2,109,7
Sodpur,188,9
Vadatal,172,2
Limbasi-1,185,6
Nayka-1,90,9
Chhipadi-1,165,1
Lasundra,62,3
Gumadiya,160,5
kanij 1,187,1
Vadol,51,8
Alina-1,75,10
Thasra,116,7
Anara,60,1
Heranj,132,7
Kathlal,55,5
Chaklasi 5,76,5
Khatraj,186,2
J.Z.M.N. Hospital Nadiad,170,6
Kanjari 2,59,1
Mitral,176,6
Bhatera,139,6
Kaloli,164,7
Khandhli,60,2
Davada,115,10
Bhaner,50,2
Ukardina Muvada,165,10
Angadi,183,3
Raniya,138,4
Kanera,154,9
Nayka-2,157,8
Torna,106,6
Sevaliya 1,133,8
Sarali,140,7
Sokhada,136,5
Sarkhej,142,3
Abvel,122,7
Bharakunda,50,8
Udhela,75,3
Pipalvada,53,2
Sulan,137,8
Nesh 2,80,2
Dabhasar,69,3
Gogjipura,116,8
Vaghas,191,10
Chaklasi 1,123,1
Kuna,159,3
Barmuvada 2,192,7
Ghodasar,186,2
Mahisa,72,8
Traj,180,3
Kanjari 1,182,2
Alina-2,90,4
Uttarsanda 2,72,2
Golaj,90,1
Antroli-1,94,9
Kheda,193,8
Rajnagar,109,8
Nanizer,141,2
Saiyant,174,8
Nani Khadol,154,10
Karoli,162,8
Chaklasi 2,143,4
Marida,50,10
Jesapura,67,8
Vasna Margiya,125,1
Ozarala,53,2
Ref. Hospital Dakor,59,9
Mahudha,190,2
Gogjipura,153,9
Varsola,53,5
Maholel 1,179,4
Alina,164,3
Mahudha-1,158,2
Vasna Margiya,129,5
Vadala,177,5
Malavada,148,8
Ambaliyara,167,1
Torna,93,4
Bordi,150,9
Khumarvad,198,4
Navagam,177,10
Radhavanaj,139,1
Kapadvanj,166,2
Bilodra,153,9
Bamroli,165,9
Limbasi,85,7
Hathnoli,145,2
Kanij 2,112,7
khandhali,162,4
Thavad,116,9
Motizer,55,3
Valetva,123,5
Khadal,81,10
Nanadara,146,9
Bhojana Muvada,164,9
Chunel,95,1
kathalal-2,75,4
Pandavaniya,120,6
Vyasvasna,104,10
Paladi,127,5
Bhadrasa,125,9
Kaparoopur,155,4
Mahij,74,5
Narsanda,146,10
Chaklasi 3,186,8
Ajupara,63,7
Mahudha-3,112,3
Vansol Sundha,110,7
Barmuvada 1,164,1
Alindra,152,3
Radhu,65,2
Dakor,94,1
Bagadol,118,6
Rozva,110,5
Nenpur,87,2
Vasna Buzarg,191,8
Chhapra,103,6
Chared,115,7
Taiyabpura,104,8
Dantali,130,10
Sandhana,155,1
Chalali,174,4
Andhaj,174,7
Dana,70,8
Vaghas,167,4
Lali,74,9
Chunel,198,3
Narsanda,100,1
Varasang,165,5
Piplata,106,2
Sadra,93,8
Danadara,170,5
Sanadara,170,3
Dumral,111,10
Matar 2,180,7
Yoginagar,63,6
Bharkunda,162,8
