Health Facility Name,Number_Of_Beds,Rating
SC Gussar (Notional),179,5
PHC Gite-Ripa (Notional),135,2
SC Giba (Notional),197,5
SC Taliha (Notional),80,4
SC Muri Mugli (Notional),180,4
SC Payeng (Notional),148,5
SC Baririjo (Notional),144,6
SC Dumporijo (Notional),88,9
SC Limeking (Notional),78,3
SC Maro (Notional),65,9
SC Taksing (Notional),82,9
SC Gussar (Notional),157,9
PHC Gite-Ripa (Notional),172,4
SC Giba (Notional),107,7
SC Taliha (Notional),92,8
SC Muri Mugli (Notional),77,8
SC Payeng (Notional),70,4
SC Baririjo (Notional),133,9
SC Dumporijo (Notional),74,6
SC Limeking (Notional),172,8
SC Maro (Notional),67,5
SC Taksing (Notional),124,4
