Health Facility Name,Number_Of_Beds,Rating
Aphc Naudiha Sultanpur,57,1
Jamuara Kala,131,7
APHC Khukhari,99,6
APHC Piyar,58,6
APHC Magra,194,4
APHC Rajbaliya,60,4
APHC Kariyadpur,186,5
Gamhari,66,10
Nagwa,107,4
Bija,95,10
Jamuara Kala,74,8
UPHC Katari Hill,128,7
UPHC Ambedkar Nagar,184,4
UPHC Iqbal Nagar,83,7
UPHC MCH Centre Ramsagar,177,8
UPHC Telbigha,176,10
UPHC Bhushunda,101,3
UPHC Delha Viaji Nagar,84,5
UPHC Ghugdih arn,50,10
SDH Sherghati,162,4
SDH Tekari,90,4
"Sankramak Rog Hospital, Gaya",109,1
Panari,132,1
Narabat,100,2
Jaigir,55,1
Hathiyarpur,145,1
Bartara Tankuppa,161,8
Dobhi,155,3
Nandeeha,109,6
Palaki,147,2
Nidani,163,8
Kurkihar,53,8
Bhadwar Dumariya,149,4
APHC Jethian,52,4
Sindhur,66,6
Lodhwey,176,10
Kamalpur Tekari,163,1
PHC Manpur,64,6
Gangati Imamganj,86,8
BASHURA,128,2
Parsawa Konch,57,5
Chasi,190,6
Khelari,149,9
Bogiya,55,5
Bhokha,71,1
Rasalpur,65,7
Fatehpur,116,2
Cherki,162,9
Saliya Imamganj,126,2
Kolhubar,126,3
Roshanganj,147,10
Chadta,195,7
Parsawa Bankeybazar,58,3
Aphc Tajpur,125,1
Dhandhwa,62,6
Khiriyama,143,3
Bara 1,141,8
Kurmawa,62,4
Tilaiya,158,3
Niyazipur,142,4
Gehlor,181,7
Ghikathiya Kala,164,10
Mocharak,134,7
Atri,54,8
Bagodhar,104,2
Vikaipur,165,4
Paibigha,105,1
Tapovan,93,6
Navadih,143,4
Raghopur,62,4
Kenarchatti,159,5
Hasanpur Tekari,183,10
APHC Chaaita,76,3
Kolhna,135,5
DOBHI H.Q.,103,2
Mankoshi,182,1
Maigra,194,4
Ajmgadh,193,3
Galpa,189,6
Kapshiya,141,5
Dharahara,140,10
Tetarpur,196,4
Aphc Belhari,136,6
Dhmana,188,1
Bargaw,95,9
Naughariya,175,5
Laung Parsawa,88,2
Kabaddi,82,6
Kurwa,111,3
Ramanand Bigha,144,1
PHC HEAD-QUARTER,80,5
Solara,177,10
Manduka,127,9
MakhdumpurTekari,85,4
Jethudaha,156,3
head quarter,124,1
BARA EAST,172,4
Sadar Hospital Piligrim Gaya,100,9
Korma,66,10
Dhandhar,92,9
Dariyapur Mohara,120,7
Kutalupur,113,7
GURARU,142,8
Bishunpur,94,5
Kormathu,148,4
APHC Pura,87,2
Uchirama,171,9
Raniganj,111,8
Sakardas Nawada,181,4
MANJHAR,160,3
Gurua,112,8
Badalbigha,187,3
APHC Bhori,123,5
Bargow,119,2
APHC Karjara,150,9
APHC Pachangpur,122,10
Kurmawa,155,8
Simura,73,3
Ghoraghat,190,2
Fatehpur,127,10
Saren,184,6
Bhetora,196,1
Barha,172,2
Gopalpur Sherghati,150,1
Dighi,109,4
Hatiyawa,142,3
Gangasagar,60,5
Kothi,169,9
APHC Mau,107,4
Nagwa Imamganj,141,9
Head Quarter,138,5
APHC Bhore,122,2
Shikri,184,3
Garvaiya,75,4
APHC Shivganj,197,3
Akauna,64,5
Bajura,186,7
Bathani,197,8
Gannu Bigha,91,5
Dhansigra,136,10
APHC Sidh,68,2
Amkola,178,1
Shadevkhap,137,7
Shila Pathara,120,7
Vishunpur Dumariya,145,7
Mahamanna,104,3
Jhari,173,8
Nauranga,185,8
Koshila,190,5
Pipra,102,8
Ghaghar,175,2
Kaj,107,7
Urb,78,2
Sripur,150,2
Ahiyapur Konch,65,8
Khushiyalpur,163,9
For Delete,106,5
Mahuate,82,10
Nawada Sherghati,180,1
Itwa Mohanpur,155,7
Kanhil,60,10
Bhagosa,101,7
ISMAILPUR,115,4
Badhapur,70,5
Diha,58,3
Belaganj,77,6
Madhobigha,96,2
Bindol,151,7
Paluhar,196,5
Gurua,100,7
Tekara Khurd,184,2
Gaya Sadar,187,1
Kachar,139,2
Lodipur Manpur,169,8
APHC Vishunpur,178,10
APHC Ayer,144,1
Dihuri,86,6
Teswar,78,2
Karma Dumariya,150,9
Pakriya,79,4
Kandi,138,6
BARORHA,117,2
Angra,129,7
Langurakala,81,4
Kosdihara,50,3
Parwaldih,125,10
Nimari,110,3
Nakmuppa,179,9
Chandisthan,63,2
Saw Kala,189,1
Chandauni,63,7
Dhanawa,197,7
Mudera,71,5
Aphc Ismailpur,52,5
Niskha,184,7
Tarwa,61,7
korap aphc,173,1
Panchmah,146,8
Visunpura Sherghati,104,2
Belhari,78,7
Nagariawa,136,7
Guraru,183,8
APHC Karmuni,64,10
Rampur Dumariya,179,5
Manjhiwa,172,1
Bardag,104,3
Madardih,110,9
Aphc Mathurapur,182,6
Shivnagar Khizarsarai,63,7
Taroba,78,1
Chakand,66,3
Khajura,172,9
Khajwati,183,6
Bhabni Mohanpur,88,7
Siyakariya,123,6
Koriyawa,191,3
Paraiya,78,8
Jamuaawa,95,2
Bhera,76,9
Ambatari,73,5
Kathotiya,100,1
PHC Bodhgaya,138,7
Aadampur,104,10
Amarut,157,4
Mussi,100,3
Kataiya,134,9
Muriyal,129,3
Karisowa,177,2
Aphc Manjhiawa,195,2
Amas,197,8
Ilra,92,2
Pachrukhiya,98,2
APHC Gere,67,3
Chanda Dobhi,186,3
Manjhar,147,6
Sheva,71,2
Panchmahala,177,5
Vishunpur,145,1
Vhasha Pipra,187,10
Goga,82,1
Aphc Mahakar,147,4
Bhujual,54,10
Tatari,145,3
Budhgera,186,9
Dibhar,195,9
Khanatu,93,9
For Delete,179,6
Bhedji,133,6
APHC Gamhari,111,7
Punakala,181,10
Chichora,97,9
Sarbahada,79,5
Manjholi Imamganj,70,1
Kothi,50,4
Banke Bazar,140,9
Dumrichatti,106,9
Dhivar,100,6
sondaha,74,5
Piperghatti,168,8
Aphc Paibigha,176,8
Shila,74,8
PHC  Mohara,156,10
Kachuri,145,7
Banshi,115,3
Garari,134,3
Gurpa,123,4
Suptta,118,10
Amarpur,112,6
Manjhla,178,9
Bhagwanpur,134,7
Biju Bigha Manpur,139,7
Usasdevra,89,8
Law,151,1
Alam bigha,122,8
Ghorsari,83,10
Basantpur,174,1
A.D. PHC. DANGRA,61,6
Narayanpur,112,1
Pale,125,5
APHC Sevtar,68,4
APHC Keshpa,67,8
For Delete,148,8
Aphc Khizarsarai,55,1
Shekhbara,183,1
Sherghati,105,9
Mocharim,91,4
Bhora,193,7
APHC JHARI,172,1
Guriawa 1,93,7
Uproli,181,10
Aphc Bhagwanpur,98,1
Bichha,173,8
Saritand,88,9
Chovar,90,4
Chiraila,96,8
Manpur,146,6
Shekhpura Neemchak,140,10
Chilmi,134,7
Kerki,119,9
For Delete,143,10
Regania,92,5
Lakhibagh,117,6
APHC Simaru,103,6
Turi,157,6
Pathra Imamganj,192,10
MATHURAPUR,91,6
Jaipur Sherghati,73,1
Barakala,138,9
Bodhi Bigha,139,1
APHC Cherki,111,8
Mok,165,7
Pananiya,115,8
Sondiha,161,8
Ghhraiya,164,10
Bhalua,113,5
Meyari,153,9
Rohi,79,3
Basantpur,135,4
Madanbigha,64,10
Bahorma,170,1
Manjholi,198,7
Punad,55,9
Shamshabad,191,5
Rajpur Pariya,59,6
Bikopur,188,6
Aphc Mengram,118,5
Barbharari,72,5
Chilim,155,4
ITAHARI,111,10
Yamuava,97,10
Rajahari,139,4
Shadipur Manpur,64,8
Vishunganj,83,9
Ark Dibariaye,58,2
PHC HQ,81,8
Sahiya,142,2
For Delete,190,10
Kothar,142,5
Iguni,96,10
PHC AMAS,87,3
Dangra,111,9
Bhadeya,135,5
Badula,54,10
Mastpura,56,9
Chedhokher,145,6
Lai Mohanpur,86,6
karmauni APHC,120,4
Shabara,102,5
APHC VISHUNPUR,161,8
Bara,199,3
Dhibra,123,10
Jalalpur Tekari,51,8
Barehata,108,4
Shaganj,146,8
Makhdumpur Tankuppa,158,6
Aphc Mengram,109,3
Karjara,59,3
Rajan,197,6
Rajoyi Rampur,196,2
Hemara,168,5
Etwa,124,10
Srirampur Sherghati,93,10
Devkali,53,7
Alipur Tekari,126,6
Bohiya,111,5
Siyadih,142,9
phurhuriya,162,8
Irki,134,10
Shudhani,144,10
Bhawanpur,111,2
Aphc kurisaray,89,3
Pirashin,185,5
Mahuawan,173,9
Imamganj,67,7
Upthu,146,7
Nimsar,145,2
Aphc Paibigha,56,8
Birhima,112,3
Balgram,163,6
Harli,62,3
Nimthu,153,7
Amra,180,10
Khushdihra,66,9
Aphc Bhagwanpur,77,8
Gohti,194,1
Makshudpur,79,1
Singhola,130,8
Dumaria,74,2
APHC Piyar,185,6
Nigri,149,4
Dorma Konch,72,3
Vishar,71,8
Shivganj,104,2
Rondhwa,149,5
Kuibar,56,4
Khawaspur,111,2
Gera,130,9
Naili,54,5
Kanaudi,195,8
APHC KARJARA,153,10
Tankuppa,133,10
Malhari,79,9
Variya Bamandev,171,4
APHC Sanda,198,10
Jamari,111,4
Bindhua,82,9
Shindhuri,88,2
Basheta,86,6
Kalona,139,4
Badhikhap,51,10
Chiraily,177,8
Naugarh,64,7
Sarbadha,95,3
Dariyapur,134,3
Gaya Urban Center,89,2
Banke Bazar,132,2
Aaima,97,1
Adi,80,8
Sagahi,68,9
Tekari,110,10
Mahkar,102,3
Sarvody Nagar,142,6
Matha,194,1
Tandwa,164,2
Karjani,80,9
BARA WEST,145,7
Tuturakhi,130,2
Haridaspur,191,8
Amarpur,114,4
Dabur,58,1
Bumer,114,4
Tepa,167,10
Roniya,82,5
Sahbajpur,149,6
Chanpur,165,6
konch phc,172,6
Aphc Konchiverma,155,2
Rearibar,158,2
Tankuppa,82,6
Chahal Mudera,85,4
Bitho,170,2
Guriya,154,9
Makhror,133,8
Mohanpur,64,3
Neuriya,136,3
Kadarpur,178,3
Lutua,183,1
Mahamadpur,132,6
verma,199,1
chakra,140,4
Aamakuwa,173,10
Bhindaspur,58,2
PATHRA,105,1
Sighaul,168,4
Birnoi,121,10
Chakra,148,4
Shiyarbhuka,86,7
APHC Khajwati,150,6
Solara,95,8
Kewara,100,9
Satamas,187,4
Gurishervey,198,10
Aphc Mai,112,5
Belhadi,160,6
Aphc Kurwa,189,9
Kjur,137,6
Nadiyaien,115,7
Mushila,116,1
Chatarghat,60,5
Uchauli,140,8
Belaa,172,8
APHC Mahakar Sevichak,190,1
Pathalkatti,136,9
Nimchak,69,9
Sohaiyapur,159,7
Simrauka,157,2
Maingram,171,1
Dhamna,51,10
Gudru,139,7
For Delete,62,5
Nimchak Bathani,74,10
Pasiya,69,4
Laru,126,9
Kujapi,140,1
Mohanpur,69,10
mahkar sewaichak,146,4
Aphc Sarbahada,56,3
Maleha,118,2
Baraini,65,7
Neemchak,190,8
Arie Keshopur,176,1
Pali,189,2
Dema Mohanpur,132,8
Jani Bigha,83,8
Kariyadpur,78,8
Dhanama,164,1
Rupaspur Tekari,97,6
Iguna,95,3
Ketra,50,4
Rajbaliya,167,10
Nima,88,8
Dadpur,198,10
Kurmawa,105,2
Sharma,62,1
Sagidha,57,9
Sanoth,110,10
Rihula,76,2
Malshari,112,9
Binda,81,3
Belaganj,64,3
Bharondha,145,2
Nauaa Khap,133,5
Cherki,65,9
Chotiya,199,9
Gobraha,123,6
Aphc Kurisary,191,10
Mahamadpur Sherghati,131,5
Aphc Uchauli,149,5
Paraia,155,7
Aor,168,3
Beloti,110,6
Konch,91,2
Bedauli,145,7
Lachmipur,133,10
PHC Tekari Nagar,171,7
Matasho,176,5
Amethi,119,10
Kavar,172,1
Dhangai,142,4
Keturi,179,6
Aphc Nagwa,150,8
PHC Tekari,189,6
Chakarbandha Dumariya,77,10
Bhualpur,146,5
Dihura,102,2
Maniyara,159,9
Bajitpur,96,2
Barwadih,179,10
Barshona,85,3
Amra,173,1
Durvey,126,3
Arahwan,153,3
kusabija,141,10
Akthu,80,6
Kathautiya Konch,54,1
Baniya Barun,111,8
Ismailpur,141,6
Bumuar,186,7
Head Quarter Sherghati,73,5
Sindani,85,8
Shindhuri,84,9
Orma,175,3
Teusa,107,6
Chaugai,69,9
APHC TARWA,108,7
Amva,86,3
Kharhari,135,4
Mubarakpur,190,9
Bhawani Bigha,127,9
Jamune,170,3
For Delete,187,2
saren,136,6
koshila,195,6
PHC Bodhgaya,75,7
Chakarbandha,124,10
Nava Bagdaha,112,2
Rakshiya,50,2
Rasalpur Manpur,162,3
Bandhua,137,4
Ushri,83,5
Raja Bigha,100,9
Tarwa,145,9
Gauri Bigha,87,1
Bishrampur Imamganj,151,4
Lakhipur,159,10
Mahuri,66,9
Aajan,148,1
Prabhawati Hospital,172,1
For Delete,117,6
Samaspur,73,10
Anti,79,7
Bihta,68,8
MAJHIYAWA,154,5
Chandauti,56,1
Chitav,123,4
Kachnawa,192,5
APHC Naudiha,119,8
Ghetra,196,8
Bahera Imamganj,181,6
Kmalpur,114,6
APHC Jamuara,95,8
Dharampur,145,1
Sharshu,196,4
Dhangaow,144,9
Kaji Daulatpur,163,3
Kespa,182,8
Dhujji,119,9
Khaira Tekari,198,6
Mohabtapur,108,2
APHC Chakand,62,7
Nanuk,79,1
Kavisha,166,10
Chitabkhurd,193,8
Kahudag,56,6
Marachi,125,10
Piyar,150,10
Raili,170,8
Punol,153,7
Mandai,62,1
Darampur,86,3
Digashin,181,3
PHC WAZIRGANJ,59,3
Bela Sherghati,126,7
karmuni,80,4
Arur,77,3
Chandauti,94,8
Dogila,150,6
Barachatti,191,8
Rampurtaradih,58,7
Bajitpur,155,4
Ashni,109,1
Aphc Naudiha Sultanpur,57,2
Jamuara Kala,180,1
APHC Khukhari,56,9
APHC Piyar,134,8
APHC Magra,191,1
APHC Rajbaliya,172,5
APHC Kariyadpur,172,6
Gamhari,121,1
Nagwa,199,6
Bija,57,2
Jamuara Kala,134,5
UPHC Katari Hill,178,8
UPHC Ambedkar Nagar,132,4
UPHC Iqbal Nagar,171,4
UPHC MCH Centre Ramsagar,105,7
UPHC Telbigha,190,6
UPHC Bhushunda,119,8
UPHC Delha Viaji Nagar,139,2
UPHC Ghugdih arn,53,2
SDH Sherghati,139,2
SDH Tekari,97,1
"Sankramak Rog Hospital, Gaya",55,5
Panari,88,4
Narabat,51,7
Jaigir,180,7
Hathiyarpur,103,3
Bartara Tankuppa,154,6
Dobhi,166,1
Nandeeha,150,4
Palaki,139,3
Nidani,88,8
Kurkihar,52,4
Bhadwar Dumariya,69,5
APHC Jethian,92,2
Sindhur,121,10
Lodhwey,188,10
Kamalpur Tekari,135,10
PHC Manpur,167,10
Gangati Imamganj,168,9
BASHURA,64,8
Parsawa Konch,193,9
Chasi,163,9
Khelari,125,9
Bogiya,139,8
Bhokha,71,2
Rasalpur,122,7
Fatehpur,186,9
Cherki,187,2
Saliya Imamganj,191,10
Kolhubar,193,2
Roshanganj,117,5
Chadta,106,6
Parsawa Bankeybazar,86,7
Aphc Tajpur,137,3
Dhandhwa,178,5
Khiriyama,51,5
Bara 1,191,9
Kurmawa,127,3
Tilaiya,119,4
Niyazipur,187,6
Gehlor,90,6
Ghikathiya Kala,199,6
Mocharak,150,9
Atri,162,1
Bagodhar,147,9
Vikaipur,139,2
Paibigha,149,6
Tapovan,127,1
Navadih,164,7
Raghopur,139,1
Kenarchatti,191,2
Hasanpur Tekari,72,2
APHC Chaaita,172,7
Kolhna,141,2
DOBHI H.Q.,97,7
Mankoshi,163,8
Maigra,83,4
Ajmgadh,132,3
Galpa,131,4
Kapshiya,91,7
Dharahara,56,6
Tetarpur,126,10
Aphc Belhari,143,9
Dhmana,128,4
Bargaw,125,1
Naughariya,62,8
Laung Parsawa,106,2
Kabaddi,99,9
Kurwa,148,7
Ramanand Bigha,190,5
PHC HEAD-QUARTER,133,3
Solara,122,2
Manduka,155,1
MakhdumpurTekari,117,2
Jethudaha,103,2
head quarter,71,5
BARA EAST,67,3
Sadar Hospital Piligrim Gaya,68,10
Korma,116,5
Dhandhar,149,6
Dariyapur Mohara,147,4
Kutalupur,160,6
GURARU,155,2
Bishunpur,145,1
Kormathu,156,8
APHC Pura,113,9
Uchirama,156,9
Raniganj,150,5
Sakardas Nawada,121,1
MANJHAR,126,7
Gurua,93,3
Badalbigha,114,6
APHC Bhori,141,3
Bargow,132,4
APHC Karjara,187,10
APHC Pachangpur,87,6
Kurmawa,71,10
Simura,113,10
Ghoraghat,67,3
Fatehpur,95,5
Saren,125,9
Bhetora,171,5
Barha,64,3
Gopalpur Sherghati,194,10
Dighi,86,7
Hatiyawa,136,8
Gangasagar,102,9
Kothi,55,2
APHC Mau,78,7
Nagwa Imamganj,144,5
Head Quarter,155,10
APHC Bhore,58,1
Shikri,134,7
Garvaiya,162,4
APHC Shivganj,165,4
Akauna,195,2
Bajura,171,6
Bathani,188,7
Gannu Bigha,178,9
Dhansigra,129,7
APHC Sidh,142,8
Amkola,127,3
Shadevkhap,102,10
Shila Pathara,131,4
Vishunpur Dumariya,78,6
Mahamanna,150,6
Jhari,171,3
Nauranga,162,3
Koshila,164,7
Pipra,146,9
Ghaghar,103,5
Kaj,179,6
Urb,133,3
Sripur,125,8
Ahiyapur Konch,81,10
Khushiyalpur,130,1
For Delete,146,4
Mahuate,120,1
Nawada Sherghati,74,4
Itwa Mohanpur,183,5
Kanhil,68,5
Bhagosa,184,2
ISMAILPUR,131,5
Badhapur,145,1
Diha,103,2
Belaganj,51,1
Madhobigha,196,2
Bindol,169,10
Paluhar,190,3
Gurua,129,3
Tekara Khurd,193,5
Gaya Sadar,180,7
Kachar,165,2
Lodipur Manpur,97,9
APHC Vishunpur,174,2
APHC Ayer,150,3
Dihuri,158,10
Teswar,60,1
Karma Dumariya,153,1
Pakriya,104,7
Kandi,124,7
BARORHA,85,4
Angra,105,10
Langurakala,165,6
Kosdihara,143,10
Parwaldih,111,5
Nimari,130,10
Nakmuppa,91,9
Chandisthan,154,1
Saw Kala,98,1
Chandauni,199,3
Dhanawa,196,3
Mudera,61,9
Aphc Ismailpur,193,1
Niskha,59,8
Tarwa,191,9
korap aphc,165,9
Panchmah,100,9
Visunpura Sherghati,137,5
Belhari,171,8
Nagariawa,53,9
Guraru,163,7
APHC Karmuni,83,6
Rampur Dumariya,169,10
Manjhiwa,153,9
Bardag,171,6
Madardih,190,8
Aphc Mathurapur,172,3
Shivnagar Khizarsarai,188,7
Taroba,72,7
Chakand,150,3
Khajura,138,5
Khajwati,94,1
Bhabni Mohanpur,181,1
Siyakariya,121,3
Koriyawa,168,10
Paraiya,152,7
Jamuaawa,122,9
Bhera,88,1
Ambatari,133,2
Kathotiya,87,10
PHC Bodhgaya,172,2
Aadampur,121,5
Amarut,62,3
Mussi,104,8
Kataiya,138,4
Muriyal,182,1
Karisowa,119,5
Aphc Manjhiawa,178,4
Amas,62,8
Ilra,117,9
Pachrukhiya,193,4
APHC Gere,109,2
Chanda Dobhi,130,3
Manjhar,173,7
Sheva,62,4
Panchmahala,156,4
Vishunpur,101,7
Vhasha Pipra,75,5
Goga,89,3
Aphc Mahakar,178,4
Bhujual,187,9
Tatari,115,10
Budhgera,55,1
Dibhar,67,1
Khanatu,76,2
For Delete,91,10
Bhedji,59,10
APHC Gamhari,170,6
Punakala,124,1
Chichora,123,2
Sarbahada,190,9
Manjholi Imamganj,65,5
Kothi,87,9
Banke Bazar,124,6
Dumrichatti,125,2
Dhivar,152,7
sondaha,104,1
Piperghatti,66,5
Aphc Paibigha,77,3
Shila,173,9
PHC  Mohara,183,4
Kachuri,109,8
Banshi,199,2
Garari,92,9
Gurpa,126,2
Suptta,96,6
Amarpur,86,10
Manjhla,138,10
Bhagwanpur,83,3
Biju Bigha Manpur,58,7
Usasdevra,153,10
Law,80,3
Alam bigha,157,1
Ghorsari,65,6
Basantpur,50,8
A.D. PHC. DANGRA,82,7
Narayanpur,132,1
Pale,138,3
APHC Sevtar,138,3
APHC Keshpa,151,4
For Delete,110,10
Aphc Khizarsarai,162,1
Shekhbara,137,3
Sherghati,140,7
Mocharim,97,10
Bhora,69,8
APHC JHARI,53,1
Guriawa 1,148,1
Uproli,124,3
Aphc Bhagwanpur,88,7
Bichha,178,3
Saritand,150,9
Chovar,52,1
Chiraila,77,7
Manpur,91,3
Shekhpura Neemchak,146,1
Chilmi,123,9
Kerki,197,7
For Delete,191,8
Regania,90,9
Lakhibagh,152,6
APHC Simaru,76,10
Turi,196,5
Pathra Imamganj,108,3
MATHURAPUR,119,5
Jaipur Sherghati,164,8
Barakala,152,5
Bodhi Bigha,130,6
APHC Cherki,122,5
Mok,105,2
Pananiya,170,2
Sondiha,141,4
Ghhraiya,54,6
Bhalua,179,10
Meyari,191,5
Rohi,90,10
Basantpur,120,6
Madanbigha,113,6
Bahorma,69,9
Manjholi,75,3
Punad,168,7
Shamshabad,122,4
Rajpur Pariya,67,2
Bikopur,64,2
Aphc Mengram,102,3
Barbharari,130,10
Chilim,146,5
ITAHARI,128,2
Yamuava,101,7
Rajahari,87,9
Shadipur Manpur,123,7
Vishunganj,120,4
Ark Dibariaye,178,4
PHC HQ,52,6
Sahiya,89,5
For Delete,108,10
Kothar,100,7
Iguni,158,5
PHC AMAS,63,8
Dangra,123,4
Bhadeya,148,4
Badula,122,1
Mastpura,79,3
Chedhokher,97,3
Lai Mohanpur,171,4
karmauni APHC,118,4
Shabara,171,8
APHC VISHUNPUR,191,10
Bara,185,1
Dhibra,193,8
Jalalpur Tekari,82,5
Barehata,145,6
Shaganj,54,7
Makhdumpur Tankuppa,156,1
Aphc Mengram,97,7
Karjara,146,3
Rajan,152,5
Rajoyi Rampur,198,8
Hemara,84,6
Etwa,128,4
Srirampur Sherghati,57,4
Devkali,56,10
Alipur Tekari,107,9
Bohiya,68,2
Siyadih,116,6
phurhuriya,174,8
Irki,154,6
Shudhani,118,7
Bhawanpur,98,10
Aphc kurisaray,163,6
Pirashin,57,9
Mahuawan,168,1
Imamganj,58,2
Upthu,194,9
Nimsar,56,6
Aphc Paibigha,150,3
Birhima,106,7
Balgram,140,3
Harli,71,2
Nimthu,196,5
Amra,112,8
Khushdihra,118,4
Aphc Bhagwanpur,99,4
Gohti,177,2
Makshudpur,192,8
Singhola,149,10
Dumaria,119,7
APHC Piyar,88,3
Nigri,87,3
Dorma Konch,174,7
Vishar,69,1
Shivganj,87,4
Rondhwa,73,2
Kuibar,75,1
Khawaspur,99,8
Gera,119,3
Naili,149,3
Kanaudi,148,8
APHC KARJARA,171,3
Tankuppa,167,2
Malhari,100,1
Variya Bamandev,139,2
APHC Sanda,79,5
Jamari,81,6
Bindhua,133,9
Shindhuri,114,5
Basheta,190,7
Kalona,60,8
Badhikhap,164,9
Chiraily,68,5
Naugarh,139,2
Sarbadha,143,5
Dariyapur,60,5
Gaya Urban Center,175,4
Banke Bazar,90,3
Aaima,80,1
Adi,164,1
Sagahi,122,1
Tekari,101,5
Mahkar,186,8
Sarvody Nagar,131,7
Matha,189,10
Tandwa,142,10
Karjani,165,6
BARA WEST,86,2
Tuturakhi,178,10
Haridaspur,179,10
Amarpur,124,4
Dabur,199,5
Bumer,94,6
Tepa,188,3
Roniya,74,2
Sahbajpur,77,9
Chanpur,82,4
konch phc,138,7
Aphc Konchiverma,184,9
Rearibar,139,1
Tankuppa,133,8
Chahal Mudera,94,9
Bitho,176,6
Guriya,148,5
Makhror,140,5
Mohanpur,67,3
Neuriya,182,4
Kadarpur,112,4
Lutua,199,3
Mahamadpur,60,10
verma,196,2
chakra,117,10
Aamakuwa,109,7
Bhindaspur,117,2
PATHRA,139,3
Sighaul,145,9
Birnoi,142,4
Chakra,95,8
Shiyarbhuka,88,10
APHC Khajwati,183,5
Solara,80,4
Kewara,169,10
Satamas,64,1
Gurishervey,152,10
Aphc Mai,75,8
Belhadi,117,10
Aphc Kurwa,198,2
Kjur,56,10
Nadiyaien,155,9
Mushila,94,8
Chatarghat,198,9
Uchauli,116,8
Belaa,119,9
APHC Mahakar Sevichak,144,8
Pathalkatti,159,2
Nimchak,90,2
Sohaiyapur,188,5
Simrauka,77,1
Maingram,128,3
Dhamna,196,6
Gudru,161,9
For Delete,113,10
Nimchak Bathani,110,7
Pasiya,52,9
Laru,171,8
Kujapi,118,4
Mohanpur,62,10
mahkar sewaichak,169,10
Aphc Sarbahada,194,4
Maleha,90,7
Baraini,149,8
Neemchak,182,8
Arie Keshopur,106,9
Pali,88,2
Dema Mohanpur,160,9
Jani Bigha,182,6
Kariyadpur,192,3
Dhanama,184,3
Rupaspur Tekari,178,2
Iguna,96,8
Ketra,81,5
Rajbaliya,53,4
Nima,142,4
Dadpur,151,2
Kurmawa,54,6
Sharma,58,10
Sagidha,164,1
Sanoth,109,9
Rihula,76,5
Malshari,147,3
Binda,110,2
Belaganj,142,10
Bharondha,153,10
Nauaa Khap,118,5
Cherki,119,6
Chotiya,185,5
Gobraha,162,8
Aphc Kurisary,175,6
Mahamadpur Sherghati,86,4
Aphc Uchauli,105,5
Paraia,51,10
Aor,183,10
Beloti,126,1
Konch,86,8
Bedauli,162,2
Lachmipur,115,3
PHC Tekari Nagar,69,6
Matasho,176,10
Amethi,151,3
Kavar,191,6
Dhangai,167,8
Keturi,150,2
Aphc Nagwa,63,4
PHC Tekari,147,9
Chakarbandha Dumariya,178,4
Bhualpur,52,1
Dihura,53,10
Maniyara,194,4
Bajitpur,147,7
Barwadih,88,3
Barshona,162,10
Amra,95,1
Durvey,72,4
Arahwan,108,6
kusabija,176,2
Akthu,132,10
Kathautiya Konch,119,8
Baniya Barun,144,5
Ismailpur,116,5
Bumuar,137,7
Head Quarter Sherghati,110,4
Sindani,150,9
Shindhuri,108,9
Orma,119,5
Teusa,175,7
Chaugai,102,1
APHC TARWA,173,5
Amva,190,9
Kharhari,121,10
Mubarakpur,113,2
Bhawani Bigha,144,5
Jamune,83,9
For Delete,102,7
saren,73,1
koshila,195,1
PHC Bodhgaya,87,7
Chakarbandha,107,9
Nava Bagdaha,151,6
Rakshiya,156,9
Rasalpur Manpur,97,4
Bandhua,193,7
Ushri,147,8
Raja Bigha,89,8
Tarwa,167,10
Gauri Bigha,154,7
Bishrampur Imamganj,190,5
Lakhipur,121,8
Mahuri,131,9
Aajan,100,10
Prabhawati Hospital,53,9
For Delete,191,8
Samaspur,105,4
Anti,105,7
Bihta,91,5
MAJHIYAWA,190,3
Chandauti,185,10
Chitav,80,7
Kachnawa,95,10
APHC Naudiha,173,4
Ghetra,119,1
Bahera Imamganj,131,6
Kmalpur,98,6
APHC Jamuara,140,8
Dharampur,188,7
Sharshu,57,1
Dhangaow,123,1
Kaji Daulatpur,104,10
Kespa,60,8
Dhujji,134,9
Khaira Tekari,131,5
Mohabtapur,174,1
APHC Chakand,135,1
Nanuk,162,5
Kavisha,189,3
Chitabkhurd,163,3
Kahudag,104,10
Marachi,75,4
Piyar,177,9
Raili,75,2
Punol,162,9
Mandai,99,9
Darampur,109,8
Digashin,122,1
PHC WAZIRGANJ,169,9
Bela Sherghati,110,1
karmuni,73,10
Arur,88,7
Chandauti,152,7
Dogila,194,3
Barachatti,64,9
Rampurtaradih,56,7
Bajitpur,84,3
Ashni,162,4
