Health Facility Name,Number_Of_Beds,Rating
Namakkal,170,9
Sendamangalam,139,9
Rasipuram,56,7
Velur,150,1
Tiruchengode,98,4
Pallipalayam,183,4
Komarapalayam,87,7
VENNANDUR,78,2
SEETHARAMPALAYAM UPHC,149,2
Goundanur,175,7
V.K.R. MATERNITY HOSPITAL,81,5
ADHITYA NURSING HOME,159,6
ARAVIND HOSPITAL,150,3
AISHWARYA MEDICAL CENTRE,80,1
AACHI HOSPITAL,160,5
BHARATHI MEDICAL CENTRE,161,1
BALAJI HOSPITAL,184,10
SUGAM NURSING HOME,110,3
CHANDRA HOSPITAL,171,8
DEEPTHI HOSPITAL,165,3
DHIVYA NURSING HOME,197,8
GANGA HOSPITAL,145,4
KANDAMALAI HOSPITAL,107,2
J.K.K. TRUST HOSPITAL,164,1
KRISHNA HOSPITAL,60,9
KUMARAN POLY CLINIC,170,4
MARUTHI HOSPITAL,190,8
M.M. HOSPITAL,167,9
M.R. HOSPITAL,100,10
MALAR HOSPITAL,58,6
C.M. SPECIALITY HOSPITAL & JAYA LIZAROV CENTRE,188,10
INDIRA NURSING HOME,114,2
K.J. HOSPITAL,182,3
NIRMALA HOSPITAL,61,6
POORNIMA HOSPITAL,79,6
P.M. HOSPITAL,149,9
NILA HOSPITAL,82,9
R.J. HOSPITAL,62,9
R.K. HOSPITAL,183,2
SRI KRISHNA HOSPITAL,146,2
SARAVANA HOSPITAL,136,7
SREE KARUNYA HOSPITAL,57,3
SREE MALAR HOSPITAL,79,4
SRI SATHYA NARAYANA HOSPITAL,72,8
"SPM MEDICAL CENTRE,TIRUCHENGODE",98,10
SAKTHI HOSPITAL,150,2
"SRI BALAJI HOSPITAL,NAMAKKAL",97,7
"SUGAM Hospital,Rasipuram",169,2
SUGUNA HOSPITAL TIRUCHENGODE,101,3
SOORYA HOSPITAL TIRUCHENGODE,186,9
"T.S.DEEPA Nursing Home,Paramathi- Velur",90,9
TCA  HOSPITAL TIRUCHENGODE,171,4
"THANGAM HOSPITAL,NAMAKKAL",77,6
"VAIRAM HOSPITAL,NAMAKKAL",164,1
"VENKATESH Nursing Home,NAMAKKAL",128,8
"VIGNESWARA CLINIC,SENDAMANGALAM",124,5
VISAALAM Nursing Home Pallipalayam,149,4
Kumaramangalam,68,1
Vadugapatti,176,8
Mohanur,59,2
Alanganatham,107,4
Patlur,99,4
Thanneerpandalpalayam,188,10
Kandipudur,173,6
Pattanam,163,8
Chithalandur,158,5
Athipalayam,62,6
Alampatti,67,3
Chinnathambipalayam,143,4
Suriyampalayam,74,8
Pallipalayam,108,4
Thirumalaipatti,72,2
T.P.kadu,181,2
Marurpatti,63,6
Velur I,117,4
Anangur,121,7
MAVUREDDIPATTI,129,3
Thaligai,194,2
Ottanmethai,127,4
Mangalapuram,78,3
Konangipatti,118,3
Kabilarmalai,51,8
Panneerkuthipalayam,80,8
Arur,191,4
Marapparai,67,8
Minnampalli,88,6
Olapalayam,189,4
Vagurampatti,159,6
Periyakombai,190,6
Pandamangalam,158,10
Kokkarayanpettai,90,9
Moolapallipatti,54,5
Thottivalasu,187,7
Pallakuzhipatti,149,5
Kunjampalayam,117,6
Jedarpalayam,119,6
Kallankulam,152,4
Thindamangalam,72,4
Kondarasampalayam,195,5
Paramathi,66,4
Athanur,83,8
Kathapalli,151,10
Rajapalayam,126,10
Ariyur,198,9
Kaveri R S,92,4
Koodacheri,115,8
Vengarai,152,9
Nallakumarapalayam,94,10
Minnakkal,173,3
Valayapatty,161,9
Thoppapatti,170,5
Ariyagoundampatti,61,10
Vengateshapuri,159,5
NAMAGIRIPETTAI,155,4
Palayapalayam,51,6
Thalambadi,112,7
Thanneerpandalpalayam,65,8
Nallipalayam,57,6
Chinnamudalaipatti,193,1
Kulivalavu,153,9
Lakkapuram,103,7
Seventhipatti,153,10
Muthukalipatti,63,5
Singalandapuram,168,8
Pillikkalpalayam,187,5
Megnikkadu,137,1
Malaveppankuttai,89,9
Vadavathur,88,7
Vaiyappamalai,65,6
Musiri,97,2
Bodinaickenpatti,194,6
Rettiyampatti,122,6
Vasalurpatti,95,4
Padasolai,61,1
Bommasamudram,197,7
Oviampalayam,126,5
VIVEKANANDHA HOSPITAL,133,10
Karumapuram,159,2
K.Pudupalayam,74,3
Allinaickenpalayam,180,5
Pettapalayam,70,10
Mathuruttu,135,7
Edayapatti,182,4
Pottanam,117,2
Thattankuttai,149,7
Elandaikuttai,63,4
Puduchatram,145,6
Pallavanaickenpatti,119,5
Kothamangalam,191,10
Pallakkapalayam,184,10
Oruvandur,176,4
Kosavampatti,108,5
S Nattamangalam,177,10
Palaniappanur,126,10
Kolikkalnatham,167,4
Mallasamudram,199,5
Koppanampalayam,146,4
Namagiripet,146,7
Devanankuruchi,181,6
Mamudi,56,5
Vettambadi,92,1
KOMARAPALAYAM UPHC,96,9
Kadachanallur,194,2
Karumanur,103,2
K.Iyyampalayam,98,2
Karavalli,52,3
Nanjaiyadayar,82,2
Koodacheri,101,4
Kalkurichi,169,6
Mullukurichi,137,2
Unjanai,56,4
Tho.Jedarpalayam,96,8
Periyamanali,143,9
Eluppuli,95,6
KOMARAPALAYAM  MC 2,93,4
Gurusamypalayam,135,2
Palamedu,156,4
Pilippakuttai,58,8
Vadugapalayam,74,8
Erayamangalam,131,10
Sellipalayam,139,2
Keerambur,147,3
Avarankadu,50,8
Sevutturanganpatti,115,7
Pallipalayam Agraharam,69,10
SHANMUGA HEART CENTER,113,8
Manathi,191,8
Periyasolipalayam,64,2
Karadiyanur,186,1
Puduvalavu,85,6
Villipalayam,196,3
Suriagoundampalayam,154,4
S.Pudupalayam,113,5
Thirumalaipatti,124,6
Mangalapuram,73,6
Muthukapatti,123,9
Kokkalai,80,7
Elangiampatti,115,6
MAHARAJA HOSPITAL,169,2
Kalangani,124,6
Nadupatti,123,1
Rasipalayam,111,9
Nathukuzhipatti,70,4
Jangamanaickenpatti,93,3
Nathamedu,186,4
RASIPURAM UPHC,73,1
Padamudipalayam,52,9
Senkuttaipalayam,162,4
Selur,127,6
Pavithiram,145,7
PALLIPALAYAM UPHC,173,8
N.Pudupatti,56,5
Palamedu,104,3
Thokkavadi,177,10
TIRUCHENGODE  MC 3,137,3
Jedarpalayam,100,9
Srinivasampalayam,116,4
Palapatti,196,2
Umathankadu,199,6
Kadachanallur,95,4
Munjanur,199,4
P.M.Palayam,83,4
S.Valavanthi,179,7
Karadipatti,185,9
C.S.Puram,88,2
Kurukkapuram,116,7
Varagur,52,8
Kattanachampatti,87,4
Animoor,90,10
Singalandapuram,79,8
Nallur,66,7
Sengarai,152,8
Bodinaickenpatti,89,2
R.Pudupalayam,172,8
Thathathiripuram,175,2
Gandhipuram,82,1
Nariyankadu,160,6
Vediarasanpalayam,129,2
Alampalayam,167,9
Sowdapuram,145,7
Akkaraipatti,92,2
Alathur Urpuram,177,3
Kalappanaickenpatti,146,4
Kullanaickenpalayam,70,8
Thandagoundanur,156,9
Pudupalayam,134,4
Aniyar,159,9
Periapatti,79,5
Paruthipalli,88,4
THIRUKUMARAN HOSPITAL,99,1
K.V.Pudur,139,4
Lathuvadi,169,1
Nachipatti,163,9
Elur,97,5
Pappampalayam,195,2
Perumparappupatti,162,1
Erumaipatti,105,6
Mohanur.I,193,1
T.G.Pudur,133,10
S Kondalam,162,10
NAMAKKAL UPHC,68,5
Mathiyampatti,79,1
Vadugam,122,6
Velur II,54,9
Oduvampalayam,53,5
Keelsathambur,191,1
Karichipalayam,89,4
Chinnapallamparai,68,1
Erumapatti,108,10
Muttanchetti,131,8
SANTHI HOSPITAL,81,8
Manickampalayam,66,8
Oduvankuruchi,55,4
Velagoundampatti,84,1
Navani,76,5
Kalichettipatti,171,10
Kallankattuvalasu,153,1
Padaveedu,62,4
Kannurpatti,87,2
Thimmaravuthampatti,192,9
Kundanikaspa,60,2
Vengamedu,75,6
Kolakkattupudur,83,4
Mullukurichi,195,3
Komarapalayam,131,2
Thuthipalayam,132,9
Molipalli,167,1
Pillanallur,82,8
Vasanthapuram,91,10
Thuthikulam,154,4
Powerkadu,91,1
Elachipalayam,165,4
Vengarai,136,2
TIRUCHENGODE UPHC,80,8
O SOWDAPURAM,140,1
Parali,128,7
Puduvalavu,165,6
Manapalli,101,7
Thimmanaickenpatti,131,9
Vadugam,102,3
Olugurpatti,162,4
KOMARAPALAYAM  MC 1,111,10
Perunkuruchi,119,3
Kalipatti,100,3
Mangalam,126,10
KOMARAPALAYAM  MC 3,74,10
E.M.Palayam,129,6
PALLIPALAYAM  1,164,2
Kakkaveri,55,1
Olapalayam,97,8
Bharathiyar Nagar,71,1
Naraikinaru,191,10
Seerapalli,83,7
Pachal,165,6
Karaikurichipudur,60,5
NAMAKKAL  MC 3,135,6
Thindamangalam,161,5
Ramapuram,115,10
Emapalli,156,8
Anandagoundampalayam,152,9
Athanur,174,7
Oilpatti,93,10
Vaiyappamalai,140,6
Pottireddipatti,191,9
Kalappanaickenpatti,148,3
Periyamanali,125,1
Thidumal,80,1
Valavanthinadu,176,2
Solasiramani,135,2
Kuppanaickanur,181,2
Aniyapuram,163,7
Kokkarayanpettai,78,2
Vattur,76,10
Seppankulam,171,3
Asakkattupatti,170,8
RASIPURAM  MC 3,60,8
RASIPURAM  MC 2,189,3
R.Pudupatti,97,1
Kaliyanur,66,1
Pillikalpalayam,184,4
Bommasamudram,68,7
THIMMARAVUTHAMPATTI,120,4
Pavithiram,113,8
Thusur,120,5
Konur,81,1
Pothanur,166,3
Perumapatti,157,1
Vinaitheerthapuram,114,7
Elachipalayam,52,1
Jameel Elampillai,68,1
Mohanur.II,76,7
Pachudiampatti,174,4
Belukurichi,88,10
Andikkadu,149,1
Pavithirampudur,186,8
Kariyampatti,115,9
Ernapuram,97,2
Avuthipalayam,86,6
Alanganatham,139,8
Chithalanthur,93,4
R.P.Kattur,136,1
Kondamanaickenaptti,99,3
Konnaiyar,50,3
Pachudiampattipudur,140,3
Vallipuram,144,10
Ramapuram,89,8
Namakkal,179,8
Sendamangalam,157,2
Rasipuram,164,3
Velur,127,5
Tiruchengode,104,7
Pallipalayam,149,1
Komarapalayam,177,5
VENNANDUR,106,10
SEETHARAMPALAYAM UPHC,118,5
Goundanur,89,2
V.K.R. MATERNITY HOSPITAL,91,7
ADHITYA NURSING HOME,191,3
ARAVIND HOSPITAL,151,6
AISHWARYA MEDICAL CENTRE,51,7
AACHI HOSPITAL,80,2
BHARATHI MEDICAL CENTRE,67,3
BALAJI HOSPITAL,81,3
SUGAM NURSING HOME,95,9
CHANDRA HOSPITAL,159,8
DEEPTHI HOSPITAL,57,8
DHIVYA NURSING HOME,145,2
GANGA HOSPITAL,59,7
KANDAMALAI HOSPITAL,115,10
J.K.K. TRUST HOSPITAL,91,1
KRISHNA HOSPITAL,51,8
KUMARAN POLY CLINIC,173,7
MARUTHI HOSPITAL,59,9
M.M. HOSPITAL,130,5
M.R. HOSPITAL,81,8
MALAR HOSPITAL,196,2
C.M. SPECIALITY HOSPITAL & JAYA LIZAROV CENTRE,89,5
INDIRA NURSING HOME,167,2
K.J. HOSPITAL,129,2
NIRMALA HOSPITAL,157,2
POORNIMA HOSPITAL,97,6
P.M. HOSPITAL,72,2
NILA HOSPITAL,106,6
R.J. HOSPITAL,167,4
R.K. HOSPITAL,107,4
SRI KRISHNA HOSPITAL,133,5
SARAVANA HOSPITAL,180,6
SREE KARUNYA HOSPITAL,178,9
SREE MALAR HOSPITAL,184,8
SRI SATHYA NARAYANA HOSPITAL,162,9
"SPM MEDICAL CENTRE,TIRUCHENGODE",189,10
SAKTHI HOSPITAL,147,4
"SRI BALAJI HOSPITAL,NAMAKKAL",158,9
"SUGAM Hospital,Rasipuram",133,9
SUGUNA HOSPITAL TIRUCHENGODE,184,3
SOORYA HOSPITAL TIRUCHENGODE,66,3
"T.S.DEEPA Nursing Home,Paramathi- Velur",193,8
TCA  HOSPITAL TIRUCHENGODE,145,5
"THANGAM HOSPITAL,NAMAKKAL",64,3
"VAIRAM HOSPITAL,NAMAKKAL",86,10
"VENKATESH Nursing Home,NAMAKKAL",82,8
"VIGNESWARA CLINIC,SENDAMANGALAM",163,10
VISAALAM Nursing Home Pallipalayam,51,9
Kumaramangalam,115,2
Vadugapatti,130,4
Mohanur,173,3
Alanganatham,120,10
Patlur,131,4
Thanneerpandalpalayam,155,7
Kandipudur,54,6
Pattanam,149,4
Chithalandur,83,6
Athipalayam,149,9
Alampatti,99,7
Chinnathambipalayam,176,3
Suriyampalayam,177,2
Pallipalayam,81,2
Thirumalaipatti,70,6
T.P.kadu,192,10
Marurpatti,149,3
Velur I,179,7
Anangur,109,2
MAVUREDDIPATTI,57,5
Thaligai,86,6
Ottanmethai,51,4
Mangalapuram,133,9
Konangipatti,107,6
Kabilarmalai,133,2
Panneerkuthipalayam,148,1
Arur,113,10
Marapparai,109,8
Minnampalli,185,2
Olapalayam,121,3
Vagurampatti,124,1
Periyakombai,88,10
Pandamangalam,88,1
Kokkarayanpettai,70,9
Moolapallipatti,107,6
Thottivalasu,124,7
Pallakuzhipatti,175,3
Kunjampalayam,173,8
Jedarpalayam,114,3
Kallankulam,134,10
Thindamangalam,87,1
Kondarasampalayam,91,8
Paramathi,153,9
Athanur,136,4
Kathapalli,195,3
Rajapalayam,113,10
Ariyur,128,10
Kaveri R S,112,4
Koodacheri,71,4
Vengarai,123,10
Nallakumarapalayam,177,7
Minnakkal,118,2
Valayapatty,75,7
Thoppapatti,85,7
Ariyagoundampatti,198,2
Vengateshapuri,148,8
NAMAGIRIPETTAI,171,6
Palayapalayam,194,5
Thalambadi,166,1
Thanneerpandalpalayam,61,2
Nallipalayam,80,4
Chinnamudalaipatti,90,7
Kulivalavu,149,8
Lakkapuram,118,3
Seventhipatti,54,4
Muthukalipatti,189,5
Singalandapuram,193,4
Pillikkalpalayam,153,4
Megnikkadu,96,4
Malaveppankuttai,145,1
Vadavathur,131,4
Vaiyappamalai,99,9
Musiri,91,6
Bodinaickenpatti,158,8
Rettiyampatti,99,9
Vasalurpatti,195,5
Padasolai,144,8
Bommasamudram,85,1
Oviampalayam,181,7
VIVEKANANDHA HOSPITAL,95,9
Karumapuram,69,6
K.Pudupalayam,99,3
Allinaickenpalayam,64,5
Pettapalayam,101,4
Mathuruttu,189,4
Edayapatti,67,7
Pottanam,178,10
Thattankuttai,53,10
Elandaikuttai,178,7
Puduchatram,137,3
Pallavanaickenpatti,130,6
Kothamangalam,148,6
Pallakkapalayam,109,9
Oruvandur,78,1
Kosavampatti,191,6
S Nattamangalam,62,8
Palaniappanur,84,2
Kolikkalnatham,75,4
Mallasamudram,105,2
Koppanampalayam,138,7
Namagiripet,180,7
Devanankuruchi,60,3
Mamudi,169,7
Vettambadi,184,5
KOMARAPALAYAM UPHC,198,9
Kadachanallur,63,4
Karumanur,108,9
K.Iyyampalayam,60,8
Karavalli,141,8
Nanjaiyadayar,161,2
Koodacheri,197,5
Kalkurichi,154,9
Mullukurichi,160,4
Unjanai,139,5
Tho.Jedarpalayam,98,2
Periyamanali,55,5
Eluppuli,130,5
KOMARAPALAYAM  MC 2,133,2
Gurusamypalayam,80,9
Palamedu,93,5
Pilippakuttai,169,8
Vadugapalayam,137,5
Erayamangalam,95,9
Sellipalayam,54,8
Keerambur,153,10
Avarankadu,193,8
Sevutturanganpatti,193,9
Pallipalayam Agraharam,83,8
SHANMUGA HEART CENTER,157,1
Manathi,197,1
Periyasolipalayam,107,3
Karadiyanur,120,3
Puduvalavu,121,6
Villipalayam,197,6
Suriagoundampalayam,129,10
S.Pudupalayam,128,7
Thirumalaipatti,148,7
Mangalapuram,155,5
Muthukapatti,53,9
Kokkalai,75,5
Elangiampatti,153,2
MAHARAJA HOSPITAL,98,8
Kalangani,194,3
Nadupatti,121,2
Rasipalayam,61,4
Nathukuzhipatti,190,6
Jangamanaickenpatti,199,1
Nathamedu,93,2
RASIPURAM UPHC,127,6
Padamudipalayam,168,7
Senkuttaipalayam,177,3
Selur,59,10
Pavithiram,174,3
PALLIPALAYAM UPHC,186,3
N.Pudupatti,129,1
Palamedu,63,6
Thokkavadi,176,8
TIRUCHENGODE  MC 3,138,10
Jedarpalayam,138,4
Srinivasampalayam,87,6
Palapatti,117,9
Umathankadu,122,5
Kadachanallur,63,5
Munjanur,115,10
P.M.Palayam,104,2
S.Valavanthi,100,9
Karadipatti,129,2
C.S.Puram,181,8
Kurukkapuram,72,2
Varagur,142,7
Kattanachampatti,173,4
Animoor,158,4
Singalandapuram,124,3
Nallur,72,8
Sengarai,73,4
Bodinaickenpatti,184,9
R.Pudupalayam,60,4
Thathathiripuram,130,1
Gandhipuram,145,6
Nariyankadu,94,10
Vediarasanpalayam,157,4
Alampalayam,85,1
Sowdapuram,146,5
Akkaraipatti,115,6
Alathur Urpuram,80,2
Kalappanaickenpatti,105,4
Kullanaickenpalayam,186,7
Thandagoundanur,109,5
Pudupalayam,125,10
Aniyar,145,2
Periapatti,111,3
Paruthipalli,112,2
THIRUKUMARAN HOSPITAL,64,7
K.V.Pudur,126,10
Lathuvadi,68,1
Nachipatti,99,5
Elur,107,7
Pappampalayam,137,2
Perumparappupatti,149,10
Erumaipatti,158,3
Mohanur.I,165,8
T.G.Pudur,61,6
S Kondalam,121,1
NAMAKKAL UPHC,60,8
Mathiyampatti,133,2
Vadugam,120,5
Velur II,100,4
Oduvampalayam,99,4
Keelsathambur,183,6
Karichipalayam,56,1
Chinnapallamparai,93,10
Erumapatti,192,6
Muttanchetti,181,2
SANTHI HOSPITAL,167,1
Manickampalayam,144,5
Oduvankuruchi,113,3
Velagoundampatti,117,8
Navani,132,8
Kalichettipatti,137,6
Kallankattuvalasu,165,7
Padaveedu,83,2
Kannurpatti,123,3
Thimmaravuthampatti,147,2
Kundanikaspa,195,7
Vengamedu,158,4
Kolakkattupudur,100,2
Mullukurichi,100,6
Komarapalayam,179,8
Thuthipalayam,197,7
Molipalli,125,4
Pillanallur,105,1
Vasanthapuram,109,7
Thuthikulam,102,9
Powerkadu,191,1
Elachipalayam,97,5
Vengarai,166,1
TIRUCHENGODE UPHC,81,1
O SOWDAPURAM,112,6
Parali,134,10
Puduvalavu,106,4
Manapalli,195,5
Thimmanaickenpatti,170,10
Vadugam,66,2
Olugurpatti,161,3
KOMARAPALAYAM  MC 1,126,4
Perunkuruchi,87,2
Kalipatti,141,1
Mangalam,95,5
KOMARAPALAYAM  MC 3,169,7
E.M.Palayam,176,9
PALLIPALAYAM  1,84,5
Kakkaveri,85,3
Olapalayam,197,2
Bharathiyar Nagar,87,1
Naraikinaru,77,2
Seerapalli,51,1
Pachal,96,6
Karaikurichipudur,174,1
NAMAKKAL  MC 3,195,10
Thindamangalam,135,7
Ramapuram,102,10
Emapalli,83,4
Anandagoundampalayam,162,5
Athanur,61,10
Oilpatti,130,2
Vaiyappamalai,190,3
Pottireddipatti,152,3
Kalappanaickenpatti,54,10
Periyamanali,149,2
Thidumal,123,4
Valavanthinadu,61,2
Solasiramani,145,3
Kuppanaickanur,100,4
Aniyapuram,125,8
Kokkarayanpettai,174,4
Vattur,61,10
Seppankulam,190,10
Asakkattupatti,92,7
RASIPURAM  MC 3,194,9
RASIPURAM  MC 2,137,6
R.Pudupatti,137,7
Kaliyanur,50,10
Pillikalpalayam,64,4
Bommasamudram,93,1
THIMMARAVUTHAMPATTI,188,3
Pavithiram,116,4
Thusur,146,5
Konur,66,4
Pothanur,66,9
Perumapatti,151,8
Vinaitheerthapuram,152,2
Elachipalayam,106,6
Jameel Elampillai,168,2
Mohanur.II,119,4
Pachudiampatti,125,6
Belukurichi,103,7
Andikkadu,190,1
Pavithirampudur,110,4
Kariyampatti,178,10
Ernapuram,197,6
Avuthipalayam,198,9
Alanganatham,61,7
Chithalanthur,81,8
R.P.Kattur,128,3
Kondamanaickenaptti,170,4
Konnaiyar,141,4
Pachudiampattipudur,174,3
Vallipuram,149,5
Ramapuram,183,7
