Health Facility Name,Number_Of_Beds,Rating
PHSC Maram Khullen,90,2
PHSC Makhan Centre,171,9
PHSC Pani Kheti,129,1
PHSC Vaisiiichu,149,9
PHSC Leimakhong,94,4
Paomata PHC,50,1
Phaibung PHC,96,9
PHSC Tungjoy,198,4
Oinam Hills PHC,78,1
PHSC Laii Shirafii,113,3
PHSC Maiba,197,5
Tadubi PHC,117,2
PHSC Hengbung,111,10
PHSC Purul,53,2
PHSC Wainem,135,7
PHSC Solitokho,115,5
PHSC Ramlung,51,9
PHSC Rajaimei,99,8
PHSC Thingba Khunou,96,5
PHSC Maram Khunou,164,4
PHSC Makui,168,6
Maram PHC,52,2
Kalapahar PHC,154,4
PHSC Thiwa,80,6
PHC Khongdei,57,10
PHSC Willong,127,8
Laii PHC,168,2
PHSC Manedara,164,6
PHSC Koide,180,7
PHSC Keithelmanbi,147,3
PHSC Khamson,121,9
PHSC Khongnangpokpi,66,5
PHC Motbung,179,9
PHSC Thonglan Akutpa,92,10
PHC Gamphazol,101,4
Kangpokpi CHC,80,3
PHSC Ngari,102,2
PHSC Punanamai,169,4
PHSC Lakhamai,76,2
PHSC T. Khullen,60,7
PHSC Kangchup Chiru,60,9
T Waichong PHC,131,3
PHSC Makhan,51,3
PHSC Oklong,190,7
PHSC Parsain,50,4
PHSC Dolangkhunou,196,3
PHSC Pudunamai,122,6
PHSC Shajouba,116,3
PHSC Charoipandongba,142,2
PHSC Karong,148,2
PHSC Tobumai,156,3
PHSC Naibet,160,6
PHSC Tingsong,87,4
PHSC Liyai,51,4
PHSC Lairouching,139,4
Mao CHC,137,7
PHSC Kotlen,112,1
PHSC Phuba,142,2
PHSC Lhungphou,197,8
PHSC Maram Khullen,132,7
PHSC Makhan Centre,135,3
PHSC Pani Kheti,78,6
PHSC Vaisiiichu,134,9
PHSC Leimakhong,179,7
Paomata PHC,95,5
Phaibung PHC,94,7
PHSC Tungjoy,54,2
Oinam Hills PHC,186,5
PHSC Laii Shirafii,180,1
PHSC Maiba,171,7
Tadubi PHC,58,1
PHSC Hengbung,152,3
PHSC Purul,130,6
PHSC Wainem,119,5
PHSC Solitokho,84,2
PHSC Ramlung,136,1
PHSC Rajaimei,86,9
PHSC Thingba Khunou,87,8
PHSC Maram Khunou,70,8
PHSC Makui,199,4
Maram PHC,180,3
Kalapahar PHC,173,9
PHSC Thiwa,198,3
PHC Khongdei,117,6
PHSC Willong,133,7
Laii PHC,107,8
PHSC Manedara,139,7
PHSC Koide,199,3
PHSC Keithelmanbi,153,5
PHSC Khamson,162,3
PHSC Khongnangpokpi,72,5
PHC Motbung,74,5
PHSC Thonglan Akutpa,146,1
PHC Gamphazol,51,5
Kangpokpi CHC,179,3
PHSC Ngari,189,7
PHSC Punanamai,179,3
PHSC Lakhamai,113,5
PHSC T. Khullen,130,9
PHSC Kangchup Chiru,86,7
T Waichong PHC,197,3
PHSC Makhan,156,1
PHSC Oklong,181,10
PHSC Parsain,148,1
PHSC Dolangkhunou,95,6
PHSC Pudunamai,94,2
PHSC Shajouba,158,8
PHSC Charoipandongba,61,5
PHSC Karong,50,2
PHSC Tobumai,150,4
PHSC Naibet,73,4
PHSC Tingsong,84,5
PHSC Liyai,50,6
PHSC Lairouching,118,4
Mao CHC,107,1
PHSC Kotlen,129,5
PHSC Phuba,181,6
PHSC Lhungphou,66,3
