Health Facility Name,Number_Of_Beds,Rating
Sivana,69,9
PHC Bagra,135,6
CHC Siyana,179,2
Urban PHC Jalore,71,4
Nosara,163,4
NOTIONAL Akoli,81,7
Bakli,115,7
Dugaon,192,6
Khetlawas,50,1
Aalwada,150,1
Dudasi,156,1
Medajagir,130,10
Dhoorwa,176,4
Kaleti,77,10
Dhumbriya,77,8
Javiya,190,4
Dhansa,71,4
NOTIONAL Dhumbriya,64,4
Ropsi,89,6
Rampura,124,3
Karola,54,6
Bala,158,10
Naya Wada,122,5
Mudi,52,4
Bibalsar,103,2
Sarthala,55,5
Munthalakamba,191,8
Deora,121,1
Golana,196,8
Bhadrun,154,6
Bhawatda,139,4
Jiwana,171,9
Bargoan,172,9
Luniasar,196,5
NOTIONAL Arnai,97,9
Dadal,173,4
NOTIONAL Pachla,167,8
Dhamsin,136,7
Tikhi,109,8
Sarat,63,8
NOTIONAL Chandrai,59,5
Norwa,73,3
Santru,104,2
Sauokidhani,121,3
Sevadia,182,1
Dantlawas,121,3
Ramsin,169,9
NOTIONAL Jakhri,93,2
Madgaon,198,4
Akhrad,161,2
NOTIONAL Bhinmal,129,1
Wada Bhadavi,51,6
Juni Bali,192,8
Arnai,53,7
Bawarla,61,4
Kandar,189,9
Jesawas,181,4
Khari,108,7
Silasan,59,2
Sarvana,175,5
Sedariyabalotan,93,1
Bokda,144,5
Phagotara,177,1
NOTIONAL Jaswantpura,156,5
Kaniwada,117,7
Achalpur,98,5
NOTIONAL Daspan,187,1
Thobau,94,4
Jhaab,145,8
Gudahema,181,2
Selli,183,9
Mindawas,98,2
Agar,155,1
Akoli,148,7
Jhotda,73,4
Paladi,105,10
Revat,169,3
Paladar,196,10
Morsim,68,8
Virana,67,8
NOTIONAL Ummedabad,69,10
Maruwada,119,5
Rampura K,71,4
Dharda Pawati,141,8
Muleva,148,2
Kotda,125,7
Surawa,62,8
Medauparla,122,4
Sankar,108,1
Kotkasta,115,6
Raniwada Khurd,97,2
Gundau,88,1
Bhatki,188,8
Sanchor,173,7
Dabal,81,3
Mandvla,158,6
Bhinmal Chak,56,7
Bishangad,87,5
Mokanikheda,69,9
Meda,71,5
Bedana,94,2
Panseri,189,7
Thalwad,191,10
Adwada,159,6
Lakhni,83,6
Bhadrajune,178,10
NOTIONAL Mandoli,194,1
Punrau,96,5
Sugaliajodha,146,1
Bhadwal,142,6
Kesuri,81,8
Badi Virol,180,10
Jalera Kallan,126,8
City Dispensary Jalore,94,10
Dhanta,99,9
NOTIONAL Bhuti,83,1
Mithadi,147,7
Oatwala,184,3
Bhalni,84,7
Chhiparwada,72,2
NOTIONAL Ramsin,72,2
NOTIONAL Kuda,62,4
Katrasan,152,3
Panwa,106,2
NOTIONAL Koridhwecha,82,10
NOTIONAL Bagra,161,6
Dawal,109,10
Dhamana,197,3
Navapurachopawtan,116,1
Rewtra,106,5
Dhanpur,88,2
Desu,181,1
NOTIONAL Bagora,61,5
Kavrada,62,7
NOTIONAL Morsim,100,6
Safada,59,2
Titop,152,3
NOTIONAL Raniwada,134,4
Sajanpura,187,6
Pal,92,10
Chavarcha,139,3
Nosara,190,6
Police Dispensary Jalore,114,6
Varnawa,176,3
Maheshpura,165,6
Narwada,154,1
NOTIONAL Sirana,156,3
Tetrol Rathodan,154,5
Sayda,147,2
Khejdiyali,161,5
Punasa,93,6
Taliyana,135,5
NOTIONAL Oadwada,71,4
Kalji ki Beri,103,8
Rajpura,158,2
Dantwada,123,6
Nandiya,192,3
Mokhatara,173,4
NOTIONAL Dungri,85,4
Kuda,61,9
Tura,192,10
NOTIONAL Padrali,93,8
Pamana,182,8
Jodwas,149,1
Guda Balotan,77,9
Thanwla,160,5
NOTIONAL Siyana,147,1
Godan,180,4
Oadwada,51,7
NOTIONAL Handecha,58,10
Harji,97,5
Rah,64,3
Virawa,63,6
Gawadi,184,4
NOTIONAL Dhansa,90,1
Raji Ka Bas,185,9
Madalpura Khejadla,105,3
Dahipur,91,6
Ummedpur,119,9
Koliyo Ki Gadi,146,3
Noon,111,3
NOTIONAL Bandanwari,142,7
Woda,174,9
Sirana,85,9
Ledarmer,141,2
Bilad,181,4
Walera,71,10
Dungari,99,3
Koridhwecha,89,8
NOTIONAL Maalwara,64,10
District Hospital Jalore,143,10
Choura,159,10
Loor,52,2
Somta,107,3
Degaon,152,6
Bhinmal,161,5
Chhajara,197,1
Prajapati Nagar,86,10
Kheda Borta,80,8
NOTIONAL Sarnau,138,4
Devaki,146,1
Jalampura,163,1
Karawadi,183,6
NOTIONAL Punasa,179,6
Aamli,51,1
Devada,131,7
Bhagalipurohitan,156,5
Kavtara,106,9
Tatol,81,1
Bamanwada,115,5
Samrani,100,9
Rundmal Ki Dhani,82,7
NOTIONAL Sarat,192,7
NOTIONAL Jiwana,161,5
NOTIONAL Surana,78,9
Dugarwa,135,8
NOTIONAL Gong,70,8
Dadoki,97,2
Bhatip,68,1
Ratunja,123,8
Dadusan,120,3
Datiwas,100,3
Guda Indrapura,83,7
Narpada,170,7
Raipuriya,63,7
Bhetala,192,8
Sathu,131,6
Bijaliya,115,9
Dodiyali,189,2
Pawali,116,4
Karwada,84,5
Rohinwada,141,1
Shankhwali,89,10
Mandhar,140,1
NOTIONAL Bakaragaon,98,1
NOTIONAL Sivana,73,5
Nimbla,161,10
Bakaragaon,188,8
Bhadrajune Dhani,83,10
Daspan,119,8
Jaswantpura,59,2
Narsana,193,9
Oun,63,6
Kilwa,93,6
Kamalpura,122,2
Meda,72,5
Aagdawa,160,2
Chura,114,9
Kot Ki Dhani,182,2
Sedia,171,5
Jetu,193,10
Surana,162,10
NOTIONAL Patheri,102,5
Harmu,51,7
Lodrau,71,7
Duthawa,171,10
Savidhar,173,7
Bhorda,120,9
Ajitpura,149,5
Sanwada,79,8
Jhak,187,6
Bhundawa,93,10
Barlawas,100,10
Anakhol,149,1
Bhuti,53,5
Sundhamata Ji,117,4
Wak,189,10
Bavtara,126,9
Ruchiyar,156,7
NOTIONAL Guda Balotan,154,2
Kodaka,193,9
Jetpura,65,5
Dagra,164,5
Pahadpura,198,2
Rama,89,5
Bakraroad,64,3
Nimbora,112,6
Mandardi,172,3
NOTIONAL Modra,75,7
NOTIONAL Godan,67,1
Sesawa,68,2
Bichwari,58,4
Chunda,171,8
Chainpura,193,10
Meerpura,65,4
Pur,146,9
Joradar,81,4
Kotda,136,9
Rodala,87,4
Naimorsim,133,2
Chourau,72,10
Mohiwara,105,10
Dahiwa,85,10
Barva,118,10
Sardargarh,168,9
Puran,81,2
Devda Ka Goliya,180,7
Manohar Ji ka Bas,184,4
Baori,192,5
Tonpi,59,4
NOTIONAL Duthawa,67,10
Daman,147,6
NOTIONAL Tabab,188,2
Aanwloj,98,7
Siwada,154,10
Galifa,130,1
Isrol,171,2
Delwada,55,8
NOTIONAL Raji Ka Bas,81,4
NOTIONAL Jhaab,183,1
Joda,75,1
CHC Ahore,132,8
Dayalpura I,78,6
Kagmala,188,3
Malwada,181,5
Bithuda,133,6
Khasarvi,181,10
NOTIONAL Kagmala,156,4
Harshwada,163,6
Raithal,98,6
NOTIONAL Sathu,170,6
Narsana,99,8
Kalapura,196,3
Nimbawas,144,8
Viyo ka Golia,62,1
PHC Ghana,86,2
Sobdawas,115,9
Janwi,152,9
Naya Chainpura,124,5
Debawas,130,10
Raniwada,92,4
Varetha,92,2
Kod,50,6
Lakhawas,125,5
Medak Kallan,183,2
Ummedabad,88,10
Bhutel,111,7
Ratanpura,73,2
Arnu,94,2
Bhadarla,189,5
Charli,196,1
Bhadaruna,154,7
Dhanadi,121,6
Chitalwana,124,4
NOTIONAL Thur,86,2
Kantol,131,1
Sewada,66,4
Thumba,120,4
Surajwada,121,1
Ghana,144,4
Jodhawas,171,1
Maalwara,177,1
Kuka,97,3
Khirodi,155,7
Danta,196,4
Pahadpura,98,10
Khara,103,10
Malgarh,54,2
Balera,127,1
Jodwara,133,7
NOTIONAL Chitalwana,143,4
Borta,113,7
Poshana,123,2
Lumba ki Dhani,110,9
Jakhal,62,7
Samuja,145,6
Waldara,157,9
Aladi,113,6
Wasan,153,5
Badsom,66,9
Chitrodi,195,8
Chardim,64,10
Aakoli,153,7
Wagawas,96,5
Balwada,130,1
Siyana,105,3
NOTIONAL Karda,185,10
Jalera Khurd,65,4
Chandur,123,8
Bhuwana,180,9
Wadal,125,7
NOTIONAL Sanchor,70,4
NOTIONAL Sewri,114,4
Kharal,103,9
Lachhiwad,59,10
Jodvirana,126,10
Wadlu,55,6
Ranchhor Nagar,95,4
NOTIONAL Sayla,179,5
Ranodar,79,6
Chhoti Virol,78,9
Dedawa,103,8
Panchota,65,10
Jogava,176,7
Dungri,184,5
Aalasan,131,3
Gomi,173,9
Singawas,63,9
Aagwari,188,6
Mudtarasilli,188,3
Suthri,120,3
Dudhwat,85,1
NOTIONAL Rewtra,100,10
Lunawas,171,1
Bhimpura,161,10
Basdadhanji,141,7
Borwada,72,1
NOTIONAL Aakoli,73,4
Madadi,151,10
Tiloda,189,8
Nimbau,141,5
Dudhwa,82,8
Jakhri,119,1
Jujani,147,9
NOTIONAL Suthri,118,6
Punawas,57,6
Kora,130,1
PHC Bhavrani,85,6
Ambatari,184,6
NOTIONAL Wada Bhadavi,99,7
Gajipura,59,6
Hariyali,194,8
Patheri,140,5
Lachhiwad Ka Goliya,115,9
Khandadeval,180,8
Chatwada,152,3
Tadawa,66,8
Kamba,56,6
NOTIONAL Harji,117,8
Megalva,147,4
Sarnau,114,5
Detakhurd,108,6
Dakatara,83,5
Thur,100,5
Vedia,120,3
Vandhar,157,1
Gajapura 1,100,8
Ajodar,159,4
Sayla,119,6
Sarana,79,3
Haliwaw,146,7
Bhadrajune,111,2
Raouta,182,2
Khara,145,7
Keriya,110,4
Aipura,152,6
Itada,102,9
Narta,197,3
Gong,94,2
Chandna,130,2
Bagora,163,4
Pavta,178,7
Chandrai,109,6
NOTIONAL Bichwari,98,4
Bhavrani,114,10
Sankarna,189,6
Rupwati Kalan,167,4
Kachhela,142,1
Karlu,191,10
Detakalla,159,8
Kavala,104,5
Modra,61,8
Hoti Gaon,116,4
Bhagalsefta,57,5
Chhajala,102,7
Kishangarh,110,1
Hariyali,149,10
Wasan Chauhan,77,5
NOTIONAL Keshwana,111,10
Dorda,148,3
Hadetar,138,7
Elana,50,6
Keshwana,160,1
Dantiya,83,5
Liyadara,94,2
NOTIONAL Sangana,111,9
Samtipura,52,3
Kodita,60,7
Unadi,50,9
Neelkanth,51,3
Khanpur,147,6
Mahilawas,193,5
NOTIONAL Thalwad,158,8
Parawa,61,9
Mandoli,156,3
nagoladi,79,9
Bedia,149,3
Aakuwa,158,4
Tavidar,113,10
Sewri,184,9
Sikwada,125,2
Dhaneria,190,7
Kushalpura,118,6
Siddheshwar,124,1
Pahadpura,158,2
Punkalla,197,9
Sawlawas,189,1
Khokha,50,7
Nainol,114,4
Bishala,109,4
Handecha,128,2
Bharudi,190,5
Kolar,118,5
Seldi,92,10
Nimblana,73,5
Khanpur,112,5
Padrali,166,4
Rangala,117,2
Pijopura,159,5
NOTIONAL Bargoan,118,5
Bugaon,94,10
Dhanol,108,6
Nasoli,92,6
Pratappura,114,3
NOTIONAL Karwada,140,3
Asana,152,4
Mugliyon ki dhani,139,3
Sandhara,101,7
Berath,162,7
NOTIONAL Revat,169,10
NOTIONAL Joradar,100,10
Bhagalisindhlan,129,6
Bandanwari,145,3
Pawati,172,9
Bagra,194,6
NOTIONAL Gudahema,177,7
Sangana,177,5
NOTIONAL Kodaka,170,4
Rampura,90,6
Golwada,89,5
Kalapura,89,6
Naibali,136,2
Dhawla,141,10
Raghunathpura,170,4
Deldari,179,1
Akha,79,7
Muli,160,7
Adeypura,88,1
Sangarwa,121,9
NOTIONAL Mandvla,81,8
Golasan,54,6
Jelatara,165,10
Metriwada,160,6
Kodichoupawtan,197,8
Ratanpur,118,7
Naya Rama,67,6
Leta,171,6
Roopawati Khurd,90,8
Dagara,183,3
PHC Bhorda,87,10
Pachla,161,3
Karda,142,8
Roda,74,5
NOTIONAL Sankar,78,5
Chandana,135,2
Surachand,116,6
NOTIONAL Vandhar,82,8
Moru,191,1
Ahore,105,7
NOTIONAL Bhadaruna,116,9
Bhagalbhim,72,9
Tabab,191,1
Degaon,52,8
NOTIONAL Keriya,90,7
Serana,177,1
Tejakiberi,82,1
Komta,131,6
Kuda,183,6
Bhenswada,175,9
Jeran,93,1
Sivana,57,6
PHC Bagra,121,9
CHC Siyana,114,2
Urban PHC Jalore,131,2
Nosara,164,4
NOTIONAL Akoli,100,6
Bakli,110,3
Dugaon,198,3
Khetlawas,173,8
Aalwada,121,8
Dudasi,139,6
Medajagir,99,9
Dhoorwa,196,6
Kaleti,98,7
Dhumbriya,59,1
Javiya,120,4
Dhansa,76,4
NOTIONAL Dhumbriya,177,8
Ropsi,181,2
Rampura,97,9
Karola,135,6
Bala,156,6
Naya Wada,166,8
Mudi,94,3
Bibalsar,89,7
Sarthala,186,9
Munthalakamba,127,1
Deora,186,1
Golana,51,3
Bhadrun,100,2
Bhawatda,165,2
Jiwana,158,7
Bargoan,185,6
Luniasar,131,1
NOTIONAL Arnai,125,3
Dadal,83,2
NOTIONAL Pachla,173,8
Dhamsin,121,10
Tikhi,136,4
Sarat,155,3
NOTIONAL Chandrai,140,6
Norwa,77,9
Santru,102,6
Sauokidhani,65,6
Sevadia,156,4
Dantlawas,199,4
Ramsin,186,5
NOTIONAL Jakhri,114,2
Madgaon,150,4
Akhrad,55,6
NOTIONAL Bhinmal,124,7
Wada Bhadavi,69,5
Juni Bali,128,4
Arnai,130,8
Bawarla,55,1
Kandar,110,8
Jesawas,173,7
Khari,95,10
Silasan,51,10
Sarvana,177,7
Sedariyabalotan,96,1
Bokda,59,6
Phagotara,150,4
NOTIONAL Jaswantpura,130,4
Kaniwada,127,5
Achalpur,118,7
NOTIONAL Daspan,182,5
Thobau,165,3
Jhaab,133,10
Gudahema,54,8
Selli,61,2
Mindawas,97,10
Agar,97,4
Akoli,58,8
Jhotda,166,8
Paladi,151,3
Revat,176,3
Paladar,54,6
Morsim,143,6
Virana,154,9
NOTIONAL Ummedabad,154,1
Maruwada,138,7
Rampura K,137,6
Dharda Pawati,166,2
Muleva,91,4
Kotda,92,9
Surawa,66,3
Medauparla,197,10
Sankar,170,9
Kotkasta,126,4
Raniwada Khurd,89,8
Gundau,65,10
Bhatki,88,4
Sanchor,121,2
Dabal,82,6
Mandvla,185,8
Bhinmal Chak,180,5
Bishangad,92,1
Mokanikheda,95,7
Meda,122,5
Bedana,169,7
Panseri,54,6
Thalwad,198,8
Adwada,166,6
Lakhni,134,1
Bhadrajune,165,4
NOTIONAL Mandoli,98,3
Punrau,157,9
Sugaliajodha,121,5
Bhadwal,171,6
Kesuri,159,4
Badi Virol,125,7
Jalera Kallan,197,10
City Dispensary Jalore,122,9
Dhanta,99,1
NOTIONAL Bhuti,71,6
Mithadi,142,5
Oatwala,132,10
Bhalni,122,4
Chhiparwada,107,6
NOTIONAL Ramsin,121,7
NOTIONAL Kuda,189,9
Katrasan,77,4
Panwa,141,1
NOTIONAL Koridhwecha,82,5
NOTIONAL Bagra,170,3
Dawal,115,4
Dhamana,153,2
Navapurachopawtan,122,1
Rewtra,191,1
Dhanpur,73,2
Desu,126,8
NOTIONAL Bagora,82,2
Kavrada,107,8
NOTIONAL Morsim,149,7
Safada,77,9
Titop,153,1
NOTIONAL Raniwada,129,4
Sajanpura,121,3
Pal,139,4
Chavarcha,157,8
Nosara,100,5
Police Dispensary Jalore,167,5
Varnawa,139,4
Maheshpura,194,3
Narwada,94,1
NOTIONAL Sirana,90,7
Tetrol Rathodan,176,6
Sayda,62,3
Khejdiyali,166,9
Punasa,96,3
Taliyana,192,6
NOTIONAL Oadwada,106,3
Kalji ki Beri,185,3
Rajpura,58,9
Dantwada,77,10
Nandiya,173,2
Mokhatara,165,3
NOTIONAL Dungri,173,1
Kuda,90,4
Tura,152,5
NOTIONAL Padrali,151,10
Pamana,153,10
Jodwas,113,9
Guda Balotan,122,3
Thanwla,85,7
NOTIONAL Siyana,147,1
Godan,152,4
Oadwada,66,6
NOTIONAL Handecha,113,10
Harji,54,10
Rah,156,2
Virawa,125,3
Gawadi,170,8
NOTIONAL Dhansa,51,8
Raji Ka Bas,148,6
Madalpura Khejadla,73,4
Dahipur,54,8
Ummedpur,187,10
Koliyo Ki Gadi,177,6
Noon,105,3
NOTIONAL Bandanwari,196,1
Woda,84,1
Sirana,107,1
Ledarmer,82,7
Bilad,103,6
Walera,155,5
Dungari,94,2
Koridhwecha,107,2
NOTIONAL Maalwara,115,4
District Hospital Jalore,63,2
Choura,64,7
Loor,166,9
Somta,81,10
Degaon,96,8
Bhinmal,98,8
Chhajara,60,6
Prajapati Nagar,52,4
Kheda Borta,52,10
NOTIONAL Sarnau,158,3
Devaki,109,4
Jalampura,102,1
Karawadi,109,4
NOTIONAL Punasa,167,9
Aamli,190,1
Devada,176,3
Bhagalipurohitan,63,10
Kavtara,110,8
Tatol,98,9
Bamanwada,130,9
Samrani,170,3
Rundmal Ki Dhani,151,5
NOTIONAL Sarat,167,9
NOTIONAL Jiwana,126,10
NOTIONAL Surana,156,5
Dugarwa,151,4
NOTIONAL Gong,143,7
Dadoki,56,3
Bhatip,116,3
Ratunja,198,10
Dadusan,96,1
Datiwas,138,10
Guda Indrapura,118,7
Narpada,119,5
Raipuriya,127,8
Bhetala,131,6
Sathu,94,4
Bijaliya,168,1
Dodiyali,56,4
Pawali,74,2
Karwada,56,3
Rohinwada,186,2
Shankhwali,99,5
Mandhar,172,1
NOTIONAL Bakaragaon,55,3
NOTIONAL Sivana,69,10
Nimbla,167,4
Bakaragaon,178,7
Bhadrajune Dhani,55,7
Daspan,143,7
Jaswantpura,81,1
Narsana,130,5
Oun,198,5
Kilwa,85,3
Kamalpura,75,6
Meda,64,6
Aagdawa,187,9
Chura,95,1
Kot Ki Dhani,96,7
Sedia,155,8
Jetu,84,8
Surana,146,2
NOTIONAL Patheri,120,6
Harmu,182,6
Lodrau,70,8
Duthawa,185,3
Savidhar,186,9
Bhorda,131,7
Ajitpura,198,3
Sanwada,56,5
Jhak,169,4
Bhundawa,159,6
Barlawas,116,6
Anakhol,121,2
Bhuti,174,8
Sundhamata Ji,160,2
Wak,193,3
Bavtara,175,8
Ruchiyar,94,1
NOTIONAL Guda Balotan,139,6
Kodaka,123,2
Jetpura,97,10
Dagra,172,8
Pahadpura,78,5
Rama,53,8
Bakraroad,62,8
Nimbora,57,3
Mandardi,129,3
NOTIONAL Modra,51,5
NOTIONAL Godan,117,4
Sesawa,50,8
Bichwari,134,8
Chunda,61,5
Chainpura,107,6
Meerpura,89,8
Pur,149,5
Joradar,127,4
Kotda,86,4
Rodala,77,3
Naimorsim,64,3
Chourau,106,1
Mohiwara,93,3
Dahiwa,77,4
Barva,72,5
Sardargarh,95,2
Puran,71,6
Devda Ka Goliya,99,1
Manohar Ji ka Bas,194,4
Baori,167,1
Tonpi,76,5
NOTIONAL Duthawa,95,1
Daman,105,7
NOTIONAL Tabab,76,1
Aanwloj,199,8
Siwada,53,7
Galifa,57,9
Isrol,83,2
Delwada,170,3
NOTIONAL Raji Ka Bas,69,8
NOTIONAL Jhaab,89,1
Joda,154,6
CHC Ahore,84,1
Dayalpura I,84,8
Kagmala,155,3
Malwada,154,3
Bithuda,166,8
Khasarvi,52,8
NOTIONAL Kagmala,97,6
Harshwada,56,2
Raithal,98,5
NOTIONAL Sathu,193,8
Narsana,116,5
Kalapura,169,3
Nimbawas,125,9
Viyo ka Golia,187,8
PHC Ghana,83,6
Sobdawas,189,8
Janwi,57,1
Naya Chainpura,77,5
Debawas,102,9
Raniwada,162,5
Varetha,89,10
Kod,181,6
Lakhawas,67,10
Medak Kallan,141,3
Ummedabad,76,6
Bhutel,71,6
Ratanpura,145,9
Arnu,52,2
Bhadarla,128,1
Charli,188,8
Bhadaruna,88,3
Dhanadi,123,10
Chitalwana,121,9
NOTIONAL Thur,152,1
Kantol,142,7
Sewada,104,5
Thumba,121,3
Surajwada,192,1
Ghana,90,8
Jodhawas,187,8
Maalwara,154,8
Kuka,104,7
Khirodi,107,10
Danta,197,6
Pahadpura,133,7
Khara,163,2
Malgarh,154,5
Balera,172,7
Jodwara,188,9
NOTIONAL Chitalwana,182,4
Borta,171,4
Poshana,116,7
Lumba ki Dhani,88,4
Jakhal,116,10
Samuja,71,9
Waldara,135,4
Aladi,61,10
Wasan,159,7
Badsom,153,1
Chitrodi,196,5
Chardim,135,1
Aakoli,192,2
Wagawas,183,7
Balwada,102,2
Siyana,108,1
NOTIONAL Karda,87,10
Jalera Khurd,99,4
Chandur,87,9
Bhuwana,86,4
Wadal,112,10
NOTIONAL Sanchor,95,9
NOTIONAL Sewri,119,9
Kharal,135,3
Lachhiwad,125,6
Jodvirana,150,1
Wadlu,181,5
Ranchhor Nagar,155,2
NOTIONAL Sayla,99,8
Ranodar,71,5
Chhoti Virol,100,5
Dedawa,56,2
Panchota,147,6
Jogava,170,7
Dungri,180,2
Aalasan,138,1
Gomi,78,5
Singawas,94,2
Aagwari,60,1
Mudtarasilli,149,10
Suthri,123,8
Dudhwat,105,2
NOTIONAL Rewtra,98,5
Lunawas,174,7
Bhimpura,177,8
Basdadhanji,137,10
Borwada,144,1
NOTIONAL Aakoli,73,4
Madadi,147,6
Tiloda,142,9
Nimbau,150,8
Dudhwa,57,3
Jakhri,61,2
Jujani,100,7
NOTIONAL Suthri,121,5
Punawas,153,3
Kora,177,2
PHC Bhavrani,89,8
Ambatari,185,2
NOTIONAL Wada Bhadavi,150,7
Gajipura,102,2
Hariyali,184,3
Patheri,133,5
Lachhiwad Ka Goliya,156,7
Khandadeval,88,2
Chatwada,60,6
Tadawa,91,2
Kamba,74,9
NOTIONAL Harji,55,5
Megalva,121,4
Sarnau,166,2
Detakhurd,60,6
Dakatara,94,6
Thur,80,1
Vedia,128,1
Vandhar,197,2
Gajapura 1,80,10
Ajodar,62,10
Sayla,175,10
Sarana,94,8
Haliwaw,56,10
Bhadrajune,76,9
Raouta,108,10
Khara,99,3
Keriya,127,4
Aipura,74,10
Itada,135,6
Narta,65,5
Gong,86,4
Chandna,199,6
Bagora,102,10
Pavta,61,9
Chandrai,61,7
NOTIONAL Bichwari,69,9
Bhavrani,197,1
Sankarna,167,9
Rupwati Kalan,52,4
Kachhela,163,3
Karlu,196,1
Detakalla,158,1
Kavala,138,4
Modra,81,5
Hoti Gaon,91,2
Bhagalsefta,77,3
Chhajala,66,6
Kishangarh,57,1
Hariyali,70,10
Wasan Chauhan,180,2
NOTIONAL Keshwana,83,4
Dorda,171,8
Hadetar,99,2
Elana,79,2
Keshwana,75,7
Dantiya,198,5
Liyadara,161,5
NOTIONAL Sangana,149,2
Samtipura,124,10
Kodita,158,9
Unadi,148,9
Neelkanth,163,2
Khanpur,76,10
Mahilawas,97,6
NOTIONAL Thalwad,187,5
Parawa,156,8
Mandoli,114,1
nagoladi,81,5
Bedia,87,7
Aakuwa,95,9
Tavidar,59,4
Sewri,157,6
Sikwada,164,3
Dhaneria,58,8
Kushalpura,142,4
Siddheshwar,156,7
Pahadpura,122,3
Punkalla,169,7
Sawlawas,166,2
Khokha,123,10
Nainol,72,2
Bishala,51,3
Handecha,109,8
Bharudi,191,9
Kolar,147,1
Seldi,153,1
Nimblana,62,8
Khanpur,175,9
Padrali,126,4
Rangala,78,3
Pijopura,186,10
NOTIONAL Bargoan,88,6
Bugaon,51,10
Dhanol,179,4
Nasoli,148,4
Pratappura,135,7
NOTIONAL Karwada,53,7
Asana,74,1
Mugliyon ki dhani,126,6
Sandhara,117,7
Berath,157,9
NOTIONAL Revat,173,3
NOTIONAL Joradar,95,3
Bhagalisindhlan,99,10
Bandanwari,88,6
Pawati,154,3
Bagra,68,9
NOTIONAL Gudahema,189,6
Sangana,89,3
NOTIONAL Kodaka,171,2
Rampura,87,1
Golwada,79,7
Kalapura,182,10
Naibali,86,7
Dhawla,161,8
Raghunathpura,71,3
Deldari,64,4
Akha,173,8
Muli,61,10
Adeypura,92,2
Sangarwa,126,9
NOTIONAL Mandvla,65,7
Golasan,197,9
Jelatara,192,2
Metriwada,145,8
Kodichoupawtan,197,10
Ratanpur,128,4
Naya Rama,71,10
Leta,125,4
Roopawati Khurd,195,10
Dagara,73,9
PHC Bhorda,130,4
Pachla,183,6
Karda,89,7
Roda,105,3
NOTIONAL Sankar,159,4
Chandana,123,3
Surachand,96,9
NOTIONAL Vandhar,123,9
Moru,109,9
Ahore,146,3
NOTIONAL Bhadaruna,115,4
Bhagalbhim,84,2
Tabab,70,3
Degaon,71,8
NOTIONAL Keriya,87,3
Serana,87,7
Tejakiberi,118,9
Komta,107,9
Kuda,74,3
Bhenswada,117,10
Jeran,124,10
