Health Facility Name,Number_Of_Beds,Rating
SHC Khairnara,163,6
SHC Pondi,60,5
UPHC Seoni,137,4
SHC Lakhanwara,141,10
SHC Patha Deori,77,10
SHC Barela,192,8
SHC Khamara,89,7
SHC Kalyanpur,56,1
SHC Deori Kala,66,2
SHC Jamuniya,138,6
SHC Ramngri,165,5
SHC Dhobi Sarra,142,3
PHC Ugli,117,3
SHC Udepani,155,2
SHC Chandorikala,120,10
SHC Bandol,174,10
SHC Ugli,76,5
SHC Bamhanwada,159,3
SHC Chhui,177,6
SHC Nagandeori B,128,8
SHC Pindrai Khurd,144,8
SHC Pandiwada,72,4
PHC Kedarpur,52,1
SHC Bineki,90,4
SHC Lugharwada,80,2
SHC Gorakhpur,97,4
SHC Ari,118,6
SHC Kaniwada,175,8
SHC Jhurki,110,6
SHC KhapaBazer,100,9
SHC Sagar,71,4
SHC Sakari,74,10
SHC Purwamal,146,1
PHC Bhimgarh,167,2
PHC Chamari,185,1
SHC Pahadi,191,5
SHC Bandeli,173,3
SHC Pindaraikala,100,1
SHC Kalarbanki,108,8
SHC Dodi Wada,153,4
SHC Pindrai,185,4
SHC Keolari,149,7
PHC Piparwani,120,6
SHC Bhimghar,51,1
PHC Behrai,145,3
PHC Chauki,73,4
SHC Sillor,145,9
SHC Manegaon,174,1
PHC Bandol,64,5
PHC Kanhiwada,111,3
SHC Ganeshganj,72,9
SHC Khair Ranji,63,7
SHC Bijadeori,61,3
SHC Dharpatha,119,6
SHC Kamta,86,1
SHC Malara,103,4
SHC Manegaon Kala,54,9
SHC Dhobi Sarra,168,8
SHC Ramli,54,6
PHC Chhui,59,3
SHC Mohgaon Kala,92,3
SHC Bongakheda,159,1
SHC Patan,113,7
SHC Jogiwada,182,9
SHC Sunwara,152,4
SHC Baroda,140,4
SHC Bakhari,169,3
SHC Devgaon,96,3
SHC Kosmi,87,8
SHC Ghisi,156,8
SHC Sirolipar,108,1
PHC Ari,186,7
SHC Sahasna,95,6
SHC Jamrapani,161,9
SHC Lakwaha,134,8
SHC Lakhnadon A,63,1
SHC Fulara,115,7
SHC Sarasdol,147,7
SHC Sunhera,90,6
SHC Karkoti,193,3
SHC Dhan Kakadi,170,9
SHC Kachhari,195,8
PHC Mugwani,106,5
SHC Gohna,50,3
CHC Barghat,121,6
SHC Murghai,182,3
SHC Kamariya Gosai,187,8
SHC Dalka,89,4
SHC Chamari Khurd,190,10
SHC Katiya,138,2
SHC Barghat,152,1
SHC Bhilai,82,7
SHC Madva,111,8
PHC Palari,119,4
SHC Aloni Khapa,111,2
SHC Keshla,151,1
SHC Jhiri,109,8
SHC Badalpar,128,2
SHC Palari,189,3
CHC Lakhnadon,67,7
SHC Pauniya,145,4
SHC Belpeth,147,9
SHC Kedarpur,122,1
SHC Jowa,85,3
SHC Gwari,71,2
SHC Deovritika,58,5
SHC Kudwa,52,10
SHC Agariya,100,6
SHC Lopa,118,1
SHC Dhuma A,52,1
SHC Aloniya,128,5
SHC Chhapara A,155,7
SHC Nidhani,67,9
SHC Paundi,172,9
SHC Khamkhareli,128,5
SHC Sadak Seoni,133,9
SHC Kenkada,54,8
SHC Kalyanpur,121,9
SHC Lakhnadon B,102,4
SHC Balarpur,188,9
SHC Parasiya,78,2
SHC Turiya,168,8
SHC Bamhani,117,8
SHC Baigapipariya,160,3
SHC Lungsa,70,7
PHC Durjanpur,154,3
SHC Mothar,104,1
SHC Bihiriya,174,5
SHC Pandiya Chhapara,126,9
CHC Gopalganj,85,7
SHC Son Khar,135,9
SHC Tikari,106,5
SHC Katarwada,195,1
SHC Khamariya,74,7
SHC Pipariya,183,6
SHC Ghoghri,65,6
SHC POUNDI,194,8
SHC Diwari,87,8
SHC Khapa,98,10
SHC Pandarwani,138,9
SHC Asta,59,9
SHC Darasikala,164,5
SHC Dundaseoni,61,2
SHC Hinotiya Chhui,178,1
SHC Nidhani,177,1
SHC Riddi,171,6
SHC Kahani,138,10
SHC KANHAN PIPARIYA,142,7
SHC Patan,110,7
SHC Chhapara C,96,5
SHC Chhida,138,5
SHC Maharabodi,183,7
PHC Gwari,141,1
SHC Jogigupha,157,5
SHC Gokalpur,65,9
SHC Bakodi,149,2
SHC Patrai,54,8
CHC Chhapara,195,9
PHC Kahani,188,5
SHC Mohbarra,161,10
SHC Godegaon,143,5
SHC Mohgeon Yadav,184,8
SHC Bakoda Seoni,102,9
PHC Adegon,98,5
CHC Ghansore,157,6
SHC Khawasa,183,10
SHC Payali Kodiya,187,3
SHC Sarasdol,61,5
SHC Rampuri,99,5
PHC Dhobi Sarra,158,8
SHC Mehrapipariya,133,6
SHC Baghai,142,6
SHC Baglai,78,8
SHC Mau,168,5
SHC Machwada,88,9
SHC Bawali,150,6
SHC HINOTIYA Mungwani,66,8
SHC Piparwani,65,7
SHC Kekdai,101,3
SHC Nayegaon,79,9
SHC Bamhodi,65,6
CHC Dhanora,171,2
SHC Dalal,104,1
SHC Gubariya,149,7
SHC Pindrai,72,10
SHC Aujhera,95,8
SHC Luhara,103,10
SHC Auriya Ryt,56,10
SHC kharsaru,77,6
SHC Sajpani,104,1
SHC Tuwa Ghoghra,196,4
SHC Ramgarh,107,10
SHC Dhutera Ugli,143,5
SHC Pakhara,98,10
SHC Chandrapur,117,1
SHC Chutka,107,7
SHC Thanwri,189,6
SHC Suhagpur,58,2
SHC Chakki Khamriya,77,2
SHC Patan,144,1
SHC Ghansore,146,2
SHC Jamunpani,160,2
SHC Amanala,54,6
SHC Sakri,51,9
SHC Dighori,68,2
SHC Nachanwahi,86,1
SHC Jheetarra,105,1
SHC Malhan wada,124,1
SHC Chhapara B,180,4
SHC Banki,62,4
SHC Ahirwada,132,9
SHC Mandi,99,4
SHC Kurai,118,5
PHC Andiya,125,5
SHC Pipariya Kala,120,5
SHC Byohari,136,10
SHC Vijaypani,69,8
SHC Chandanwada,160,7
CHC Kurai,103,3
CHC Keolari,98,1
SHC Banjari,169,7
PHC Kudari,113,4
SHC Ghatkohka,138,8
SHC Khamariya,80,3
SHC Payali Khurd,110,7
SHC Khursipar Khurd,58,1
SHC Nayegaon,106,5
PHC Gorakhpur,144,9
PHC Bakhari,161,6
SHC Gopalganj,165,10
SHC Mehata,76,9
SHC Anjaniya,185,8
SHC Harduli,139,9
SHC Kohka,161,2
PHC Rumal,57,3
SHC Bhoma,125,5
SHC Dhanora,153,9
SHC Balpur,185,3
SHC Takhla Kala,71,7
SHC Sihora,140,4
SHC Gangpur,64,10
SHC Amakola,195,9
SHC Jam,87,9
SHC Majhgawa,110,8
SHC Shikara,170,10
SHC Borikala,191,6
SHC Gourabibi,80,8
SHC Tali,76,5
SHC Khari,108,9
SHC Sanaidongri,64,8
SHC Jugrai,84,10
PHC Dhapara,70,1
SHC Ulat,179,9
SHC JITPURKALA,92,9
SHC Kamkasur,148,5
SHC Panjra,176,6
SHC Partapur,196,4
PHC Sunwara,177,6
SHC Mohli,134,10
SHC Lalpur,159,4
SHC MUNGWANIKALA,175,10
SHC CHAOWDI,186,2
SHC Boriya,88,3
SHC Bhasuda Pipriya,50,6
PHC Dhuma,78,4
SHC Atariya,106,6
SHC Mungapar,88,5
SHC Jivnara,111,2
SHC Ghotkhera,136,8
SHC Dharna Kala,121,5
SHC Adegon B,124,4
SHC Khursara,172,4
SHC Darot Khurd,198,8
PHC Bhoma,68,1
SHC Hathnapur,141,3
SHC Dhutera,91,2
SHC Ghurwara,197,6
SHC Khursipar mal,69,9
SHC Tilbodi,136,7
SHC Rumal,94,3
SHC Bijasen,111,9
SHC Nagandeori A,77,9
SHC Sukri,181,4
SHC Baglai,107,2
SHC Khairi,64,5
DH SEONI,187,7
SHC Gwari,136,7
PHC Deori Kala,137,4
SHC Khamariya,114,8
PHC Pandiya Chhapara,179,6
PHC Dhutera,144,1
SHC Dargada,68,2
PHC Khawasa,134,7
SHC Ugdiwada,90,8
SHC Pondi,161,3
SHC Niwari,96,3
SHC Madhi,134,1
SHC Sirmagni,142,9
SHC Sarasdol,93,9
SHC Jamunpani,159,8
SHC Gangatola,64,10
SHC SINGODI,130,4
SHC Bangideori,121,3
SHC Sarekha Kala,102,7
SHC Dhapara,63,2
SHC Adegon A,185,10
SHC Chhatarpur,50,10
SHC Khairnara,78,9
SHC Pondi,122,8
UPHC Seoni,134,10
SHC Lakhanwara,173,8
SHC Patha Deori,88,2
SHC Barela,55,9
SHC Khamara,109,3
SHC Kalyanpur,164,10
SHC Deori Kala,198,5
SHC Jamuniya,95,6
SHC Ramngri,183,1
SHC Dhobi Sarra,101,7
PHC Ugli,191,6
SHC Udepani,170,9
SHC Chandorikala,81,1
SHC Bandol,92,8
SHC Ugli,82,8
SHC Bamhanwada,150,8
SHC Chhui,191,1
SHC Nagandeori B,109,8
SHC Pindrai Khurd,85,6
SHC Pandiwada,197,10
PHC Kedarpur,161,2
SHC Bineki,195,7
SHC Lugharwada,176,10
SHC Gorakhpur,124,6
SHC Ari,187,10
SHC Kaniwada,146,2
SHC Jhurki,65,5
SHC KhapaBazer,141,8
SHC Sagar,69,4
SHC Sakari,134,4
SHC Purwamal,173,10
PHC Bhimgarh,124,5
PHC Chamari,94,2
SHC Pahadi,151,9
SHC Bandeli,109,4
SHC Pindaraikala,84,4
SHC Kalarbanki,61,9
SHC Dodi Wada,131,9
SHC Pindrai,143,4
SHC Keolari,199,1
PHC Piparwani,69,10
SHC Bhimghar,63,5
PHC Behrai,184,1
PHC Chauki,104,4
SHC Sillor,177,3
SHC Manegaon,177,6
PHC Bandol,72,1
PHC Kanhiwada,181,1
SHC Ganeshganj,150,8
SHC Khair Ranji,94,6
SHC Bijadeori,123,7
SHC Dharpatha,153,7
SHC Kamta,129,5
SHC Malara,93,7
SHC Manegaon Kala,193,7
SHC Dhobi Sarra,143,7
SHC Ramli,64,4
PHC Chhui,171,2
SHC Mohgaon Kala,149,8
SHC Bongakheda,120,3
SHC Patan,141,8
SHC Jogiwada,190,4
SHC Sunwara,89,8
SHC Baroda,167,6
SHC Bakhari,167,1
SHC Devgaon,181,6
SHC Kosmi,197,4
SHC Ghisi,90,4
SHC Sirolipar,151,5
PHC Ari,174,4
SHC Sahasna,125,8
SHC Jamrapani,99,10
SHC Lakwaha,88,7
SHC Lakhnadon A,194,2
SHC Fulara,146,9
SHC Sarasdol,176,3
SHC Sunhera,179,10
SHC Karkoti,123,6
SHC Dhan Kakadi,174,6
SHC Kachhari,73,4
PHC Mugwani,51,9
SHC Gohna,74,5
CHC Barghat,65,8
SHC Murghai,71,9
SHC Kamariya Gosai,57,7
SHC Dalka,115,9
SHC Chamari Khurd,184,5
SHC Katiya,148,10
SHC Barghat,101,4
SHC Bhilai,147,8
SHC Madva,82,5
PHC Palari,103,10
SHC Aloni Khapa,176,2
SHC Keshla,160,4
SHC Jhiri,118,9
SHC Badalpar,77,8
SHC Palari,69,7
CHC Lakhnadon,75,4
SHC Pauniya,184,10
SHC Belpeth,158,9
SHC Kedarpur,177,3
SHC Jowa,187,6
SHC Gwari,114,4
SHC Deovritika,149,9
SHC Kudwa,149,1
SHC Agariya,82,6
SHC Lopa,123,7
SHC Dhuma A,113,9
SHC Aloniya,89,3
SHC Chhapara A,149,2
SHC Nidhani,191,5
SHC Paundi,56,4
SHC Khamkhareli,182,4
SHC Sadak Seoni,170,1
SHC Kenkada,180,3
SHC Kalyanpur,75,2
SHC Lakhnadon B,136,7
SHC Balarpur,109,10
SHC Parasiya,61,7
SHC Turiya,195,3
SHC Bamhani,50,8
SHC Baigapipariya,183,9
SHC Lungsa,190,8
PHC Durjanpur,128,1
SHC Mothar,193,3
SHC Bihiriya,140,2
SHC Pandiya Chhapara,185,8
CHC Gopalganj,138,7
SHC Son Khar,186,10
SHC Tikari,99,7
SHC Katarwada,165,5
SHC Khamariya,149,3
SHC Pipariya,151,7
SHC Ghoghri,72,9
SHC POUNDI,82,5
SHC Diwari,93,10
SHC Khapa,176,7
SHC Pandarwani,196,4
SHC Asta,159,3
SHC Darasikala,114,1
SHC Dundaseoni,90,4
SHC Hinotiya Chhui,164,4
SHC Nidhani,103,6
SHC Riddi,63,10
SHC Kahani,69,8
SHC KANHAN PIPARIYA,92,5
SHC Patan,177,3
SHC Chhapara C,54,9
SHC Chhida,108,10
SHC Maharabodi,180,9
PHC Gwari,165,7
SHC Jogigupha,194,7
SHC Gokalpur,56,8
SHC Bakodi,171,9
SHC Patrai,122,7
CHC Chhapara,174,7
PHC Kahani,119,9
SHC Mohbarra,57,2
SHC Godegaon,104,9
SHC Mohgeon Yadav,144,2
SHC Bakoda Seoni,127,10
PHC Adegon,105,3
CHC Ghansore,169,3
SHC Khawasa,198,4
SHC Payali Kodiya,79,1
SHC Sarasdol,157,7
SHC Rampuri,82,8
PHC Dhobi Sarra,58,10
SHC Mehrapipariya,91,8
SHC Baghai,183,3
SHC Baglai,173,5
SHC Mau,80,1
SHC Machwada,104,8
SHC Bawali,151,6
SHC HINOTIYA Mungwani,196,6
SHC Piparwani,124,4
SHC Kekdai,191,3
SHC Nayegaon,79,1
SHC Bamhodi,104,3
CHC Dhanora,173,10
SHC Dalal,70,5
SHC Gubariya,108,6
SHC Pindrai,180,2
SHC Aujhera,68,8
SHC Luhara,72,1
SHC Auriya Ryt,70,5
SHC kharsaru,59,6
SHC Sajpani,86,7
SHC Tuwa Ghoghra,163,4
SHC Ramgarh,54,6
SHC Dhutera Ugli,106,7
SHC Pakhara,154,4
SHC Chandrapur,120,8
SHC Chutka,86,4
SHC Thanwri,66,10
SHC Suhagpur,183,10
SHC Chakki Khamriya,170,4
SHC Patan,159,5
SHC Ghansore,134,1
SHC Jamunpani,132,6
SHC Amanala,109,1
SHC Sakri,114,7
SHC Dighori,135,10
SHC Nachanwahi,79,9
SHC Jheetarra,154,4
SHC Malhan wada,163,9
SHC Chhapara B,134,2
SHC Banki,115,7
SHC Ahirwada,164,1
SHC Mandi,115,10
SHC Kurai,98,7
PHC Andiya,174,5
SHC Pipariya Kala,63,7
SHC Byohari,140,10
SHC Vijaypani,196,8
SHC Chandanwada,69,7
CHC Kurai,136,7
CHC Keolari,124,7
SHC Banjari,93,8
PHC Kudari,116,7
SHC Ghatkohka,176,3
SHC Khamariya,125,5
SHC Payali Khurd,164,5
SHC Khursipar Khurd,152,8
SHC Nayegaon,115,3
PHC Gorakhpur,149,2
PHC Bakhari,86,10
SHC Gopalganj,92,6
SHC Mehata,133,6
SHC Anjaniya,85,2
SHC Harduli,194,1
SHC Kohka,140,7
PHC Rumal,190,5
SHC Bhoma,154,4
SHC Dhanora,124,10
SHC Balpur,160,1
SHC Takhla Kala,144,9
SHC Sihora,196,9
SHC Gangpur,169,6
SHC Amakola,70,3
SHC Jam,170,8
SHC Majhgawa,151,3
SHC Shikara,56,9
SHC Borikala,135,2
SHC Gourabibi,132,1
SHC Tali,148,5
SHC Khari,123,4
SHC Sanaidongri,113,8
SHC Jugrai,163,1
PHC Dhapara,182,4
SHC Ulat,57,4
SHC JITPURKALA,196,1
SHC Kamkasur,58,8
SHC Panjra,85,3
SHC Partapur,92,7
PHC Sunwara,151,10
SHC Mohli,109,1
SHC Lalpur,193,3
SHC MUNGWANIKALA,143,9
SHC CHAOWDI,111,1
SHC Boriya,83,2
SHC Bhasuda Pipriya,181,6
PHC Dhuma,109,7
SHC Atariya,177,2
SHC Mungapar,70,1
SHC Jivnara,115,2
SHC Ghotkhera,105,6
SHC Dharna Kala,164,4
SHC Adegon B,176,8
SHC Khursara,154,8
SHC Darot Khurd,50,9
PHC Bhoma,124,5
SHC Hathnapur,57,2
SHC Dhutera,64,10
SHC Ghurwara,101,5
SHC Khursipar mal,182,1
SHC Tilbodi,155,6
SHC Rumal,59,7
SHC Bijasen,115,4
SHC Nagandeori A,119,10
SHC Sukri,166,6
SHC Baglai,154,9
SHC Khairi,187,5
DH SEONI,70,3
SHC Gwari,81,8
PHC Deori Kala,64,1
SHC Khamariya,177,9
PHC Pandiya Chhapara,143,2
PHC Dhutera,96,3
SHC Dargada,144,1
PHC Khawasa,107,1
SHC Ugdiwada,172,7
SHC Pondi,111,7
SHC Niwari,162,8
SHC Madhi,60,10
SHC Sirmagni,193,10
SHC Sarasdol,174,7
SHC Jamunpani,185,7
SHC Gangatola,91,9
SHC SINGODI,189,4
SHC Bangideori,193,3
SHC Sarekha Kala,84,10
SHC Dhapara,107,9
SHC Adegon A,126,10
SHC Chhatarpur,195,10
