Health Facility Name,Number_Of_Beds,Rating
Mukihal,175,1
SIDDAPURA,188,10
HONNUTAGI,67,9
Kolara B,169,6
Nidagundi B,148,10
Chadachan B,179,4
Chadachana-B,182,1
Shegunasi,132,8
Tamba,170,3
Madari,90,5
Kanakala,96,6
Sindagi,65,4
Hiremasali,52,4
Donur,145,8
KENGUALAGUTTI,92,5
Tamadaddi,171,1
DHANNARAGI,106,9
B. Salavadagi,66,6
Kolara A,64,5
KUMATE,179,4
Chikbevanur,101,3
Horti-A,166,10
BABALESHWARA (24X7),59,6
ALIYABADA,70,4
Yalagur,101,1
Dhvalagi B,171,4
Manura,62,9
Alamel B,170,8
Chikbevanur,72,10
Atharga-A,102,5
CHC B BAGEWADI,171,9
MUDDEBIHAL TH,190,10
Kavadimatti,119,10
Hadalasanga,102,10
Geddalamari,58,9
Balaganur,173,9
SARAWADA A,66,9
Hirerugi,169,8
Golasangi-B,94,4
MAMDAPURA,158,1
TIDAGUNDI,165,7
Kalagi-A,195,1
HONAWADA-A,126,3
KANABURA,51,10
Zalaki,184,2
BASAVANABAGEVADI TH,86,5
Byrawadgi,108,8
YOGAPUR 1,88,4
THIKOTA-A,183,4
Chattaraki,171,7
MUDDEBIHAL TH,155,4
Kadani,141,1
Gornal,112,3
Managoli-A,130,6
BIJAPUR DH,129,2
DANYAL,116,7
BABALESHWARA B,68,10
Tamba-B,85,8
Alamel,120,6
Kubakaddi,121,10
Muddebihal CHC,86,9
Miragi,148,10
Lachyan,72,3
HONNUTAGI (24X7),61,4
Kolara,172,9
KODABAGI,97,7
Nalatawada-B,55,4
YOGAPUR UPHC,174,10
Kalakeri-A,149,7
Baradola,58,2
Tadavalaga,70,9
NAUBAG 2,164,4
Bekinala,87,7
Halasangi B,67,9
Nada.K.D.,144,4
NAGATANA,107,6
Alamatti,63,6
SARWADA B,91,2
KANNUR,80,6
Hattarakihala,127,8
Kalagi CHC,95,8
Nandaragi,99,6
Domanala,132,8
HANCHINALA,70,4
Otihal,177,8
Yankanchi,131,9
Garasangi,195,8
Hirebevanur,153,5
Umaraj,144,6
Kokatanur,122,1
Markappanalli,112,10
Telagi,156,5
Nimbala,171,9
Almel,161,3
Golageri,79,5
Jigagivanagi,132,10
Moratagi,130,10
Vadavadagi B,66,7
Madabala,101,3
Wadavadagi,54,5
Zalaki,160,3
SINDIDAPUR K,155,9
Yaragala B K,117,2
Itagi,153,1
Loni.B.K.,144,9
HITNALLI,190,1
Gabasavalagi,148,9
Kalagi CHC,59,7
Hattahalli,145,8
INDI TH,111,3
Chikkasindagi,189,6
Takkalagi,101,3
K.Salavadgi-B,184,10
Salootagi-A,142,10
Havinala,194,1
BIJJARAGI,165,9
SHIVANAGI B,125,5
Yankanchi,150,10
Ahirsang,170,10
Muttagi,113,7
GUNADALA,141,3
Chabanura,95,7
Vandal-B,123,8
Tangadagi,111,7
KAKHANDAKI-A,125,10
Kotyala,54,3
Nalatwad CHC,58,2
Sasanur,153,3
Ballolli,108,5
Muddebihal,173,1
Kakkalmeli,93,2
Satalagaov PI,79,1
Horti-B,125,8
Jambagi,51,9
Nalatawada,94,7
Ronihala-A,101,6
YEKKUNDI,110,5
Jalavada,51,4
HALAGANI,141,9
HONAWADA (24X7),124,6
YOGAPUR 2,167,1
Ingaleshwara,100,1
Yarazari,89,4
Gadisomanal,130,6
Masibnal,115,4
H.Hipparagi -A,88,9
YOGAPUR 3,105,9
Malaghana,102,2
Devanagaov,176,8
Takkalaki,84,2
Tadavalaga-B,152,9
Dindavara,131,6
Sindagi CHC,155,5
BABANAGARA,147,10
KATNALLI,186,5
Kariganur,52,5
Aski,133,4
Golasangi,137,2
Nagura,128,3
Mulawad,68,9
KAMBAGI,72,1
Vanahalli,106,7
Mulawada B,55,6
Babalad,149,2
SOMADEVARHATTI,143,3
K.Salavadgi-A,86,6
HADAGALI,170,1
Madikeshwar,69,7
Balaganur,195,9
Chimalagi,66,1
Ganganalli,110,3
Tadawalaga CHC,72,3
Sasanur,192,7
Devar.Nimbaragi,198,5
Madikeshwar,144,5
Umarani,141,2
Devur,73,6
HONAWADA-B,99,7
Chadachan CHC,80,9
Savalasang,144,7
Malaghan,139,2
Mulawada A,188,3
K.Salavadgi,79,9
Nebagiri,138,9
NAUBAG 1,113,2
Veereshanagar,79,4
Banthanal,132,6
Nivaragi,74,10
HEGDIHALA,97,3
Navadagi,133,8
Ukkali,57,5
Padanur,80,8
Golasara,92,7
Ankalagi,127,8
DARGA UPHC,90,1
Bidarakundi,60,1
THIKOTA 24X7,58,9
Chikkaroogi,120,5
Asantapura,193,2
RATNAPUR,180,6
Talewad,163,1
Tumbagi,192,10
Athalatti,114,8
Chadachana-A,132,9
Kariganur,187,1
D.Hipparagi B,131,10
Unnebhavi,178,5
Benakanahalli,103,5
Jigagivanagi,124,10
Korawara,140,3
BOLCHIKKALAKI,119,8
Kalakeri-B,93,4
Jalageri,156,5
Kalagi,191,8
Yalawar,136,1
BABALESHWARA  A,66,7
Kuntoji,53,4
Kathrala,85,7
Tamba-A,50,1
Hanamapura,50,4
Tadavalaga-A,84,6
Ukkali-A,78,6
Bommanalli,53,8
Nagavi.BK,163,5
ARAKERI,97,5
Atharga,58,3
JUMANALA,185,4
Bantanur,178,2
H Hipparagi,184,5
Managuli,96,8
MAKANAPURA,155,8
Sindagi CHC,111,9
Ganihar,159,5
Kerutagi,171,6
NAUBAG UPHC,193,6
Rudagi,196,9
Thelagi,91,3
Shirnal,87,4
B.B.Ingalagi,92,3
KAKHANDAKI,100,9
Ingalageri,176,4
Korawara,92,4
BARATAGI,177,6
Salootagi-B,178,3
Hunashyala PB,132,9
THIKOTA-B,53,1
KANNUR,154,10
Nidagundi,70,7
Satalagaov PB,136,8
Rampur Pa,63,6
Moratagi,109,2
Indi CHC,74,8
Bommanalli,120,10
D.Hipparagi A,91,8
Agasanal,98,7
Aheri,128,8
Golageri,192,4
Hosur,89,8
Jevur,148,9
YAKKUNDI 24X7,183,7
SINDGI TH,172,3
Bagalur,84,9
Bavura,157,4
Koluragi,52,4
Hullur,80,7
Adavi Hulagabal,67,2
Ronihal,65,2
Taddewadi,144,6
Boragi,101,8
Kowlagi,86,10
NAUBAG 3,176,8
Talikoti  CHC,81,2
Kanakal,183,1
Kamanakeri,69,6
Golasangi-A,146,3
Managoli-B,107,9
Benala,161,7
BUTHANALA,170,1
Bagewadi CHC,146,10
Ukkali-A,70,9
Tamadaddi,91,5
Balabatti,100,3
Hangaragi,88,6
Agarkheda,106,10
Chandkavate,130,1
Gunaki,184,5
Bommanalli,170,3
Basavan Bagewadi-C,152,9
Basarakoda,93,4
Dhulkhed,185,3
D.Hipparagi,140,1
Somajalya,106,1
NIDONI,175,5
BIJAPUR DH,179,9
Hittnalli.L.T,84,10
Inchageri,147,6
JAINAPURA,74,2
Madabhavi,168,4
UTNAL,78,7
Chadachana,189,6
Hanjagi,87,3
YATHNALA,133,8
NAGATANA (24X7),153,5
Agarkheda-A,189,6
SINDGI TH,148,8
Alamel A,175,3
Alura,175,10
Nagarabetta,163,5
AINAPUR,160,7
Tadavalaga-B,185,1
BASAVANABAGEVADI TH,59,9
Konnur,93,8
Yalawara,180,7
D.Navadagi,114,5
Sathihala,95,10
Narasalagi,192,6
BELLUBBI,88,5
Kannolli,83,8
Hiremurala,136,5
INDI TH,141,7
Kudagi-B,155,10
Golasangi,160,3
Sarur,110,6
KANAMADI (24X7),199,3
Jammaladinni,162,4
Konnur B,102,6
Nalatwad CHC,142,9
Yambatnal,197,2
Narasalagi,53,1
Loni.B.K.,60,3
Dhvalagi,103,1
ALAGUR,195,10
Kalkere CHC,109,3
Balavata,50,2
Bantanur,68,8
DEVARGENNUR,152,6
PAILAVANGALLI,59,2
Vandal-A,176,7
Honaganahalli,75,9
Bammanajogi,181,2
THORAVI B,144,5
Madnalli,124,7
Ronihala-B,65,5
KAGGODA,172,10
Kudagi,68,2
Chandkavate,193,6
Basavan Bagewadi-A,157,3
Agarkheda-B,192,2
TAJAPURA,169,7
HONAGANAHALLI,161,9
H.Hipparagi-B,130,6
Hebbala,113,1
Malaghana,149,5
SHIVANAGI A,192,10
Kalakeri,74,7
Hirur,129,6
Chirkanakal,67,8
Basavan Bagewadi-B,158,9
KARAJOLA,139,5
Lachyan,107,4
ALLAPURBASE,142,7
Vandal,105,3
Almelu CHC,60,6
Halasangi A,177,6
Minajagi,54,8
DYABERI,115,9
ARJUNAGI,163,5
Aski,92,3
Beeraladinni,197,8
ITTANGIHALA,79,3
Garasangi,106,4
Kolur,104,9
KAMBAGI,78,10
Nalatawada-A,160,8
Bhatagunaki,87,3
Alur,128,9
Indi taluka hospital,156,5
Halasangi,161,4
Vadavadagi A,188,2
Khanapur,163,7
Nidagundi A,144,9
Yaranala,95,2
Baradola,97,3
Masuti,154,9
Tadawalaga CHC,72,3
Inchageri,74,5
GYANGBAWADI,179,5
Bijjur,61,1
Mulasavalagi,188,8
Kalkere CHC,95,2
Badagi,146,6
Handiganur,76,7
ALAVIMASUTHI,117,5
Vandala-B,54,4
KANAMADI,52,7
Kubakaddi,119,6
Kudagi-A,190,8
Tangadagi,171,5
Rakkasagi,65,2
THORAVI A,110,5
Ukkali-B,178,4
Dhvalagi A,184,2
KAKHANDAKI-B,109,2
Bantanur,65,4
Harnal,168,9
Anjutagi,62,6
MAMDAPURA (24X7),129,2
Revatagaov,103,2
Konnur A,133,1
Horti,194,10
Atharga-B,170,9
Talikoti,64,6
Gubbewad,166,4
Pirapura,78,1
Sungatana,63,10
SHANTINAGAR UPHC,168,8
Shirashyad,100,3
MINCHANALA,118,4
Gonasagi,145,10
K.Salawadagi-A,75,5
Tadavalaga-A,148,3
Mukihal,175,3
SIDDAPURA,61,6
HONNUTAGI,127,6
Kolara B,80,4
Nidagundi B,86,10
Chadachan B,97,1
Chadachana-B,108,7
Shegunasi,78,6
Tamba,176,2
Madari,93,3
Kanakala,101,6
Sindagi,137,9
Hiremasali,50,6
Donur,123,6
KENGUALAGUTTI,54,9
Tamadaddi,106,6
DHANNARAGI,115,10
B. Salavadagi,128,9
Kolara A,99,4
KUMATE,132,9
Chikbevanur,57,3
Horti-A,152,2
BABALESHWARA (24X7),90,5
ALIYABADA,142,1
Yalagur,104,7
Dhvalagi B,123,2
Manura,97,6
Alamel B,122,1
Chikbevanur,61,3
Atharga-A,129,8
CHC B BAGEWADI,133,4
MUDDEBIHAL TH,84,7
Kavadimatti,140,2
Hadalasanga,95,7
Geddalamari,183,10
Balaganur,137,10
SARAWADA A,122,5
Hirerugi,171,10
Golasangi-B,166,8
MAMDAPURA,67,3
TIDAGUNDI,112,7
Kalagi-A,66,8
HONAWADA-A,51,3
KANABURA,66,2
Zalaki,95,3
BASAVANABAGEVADI TH,150,6
Byrawadgi,102,3
YOGAPUR 1,100,2
THIKOTA-A,199,10
Chattaraki,57,5
MUDDEBIHAL TH,119,1
Kadani,172,5
Gornal,186,7
Managoli-A,132,8
BIJAPUR DH,70,7
DANYAL,176,3
BABALESHWARA B,198,2
Tamba-B,85,8
Alamel,182,10
Kubakaddi,81,2
Muddebihal CHC,197,7
Miragi,64,6
Lachyan,137,9
HONNUTAGI (24X7),69,9
Kolara,123,5
KODABAGI,197,8
Nalatawada-B,87,3
YOGAPUR UPHC,172,3
Kalakeri-A,136,1
Baradola,121,8
Tadavalaga,125,8
NAUBAG 2,118,4
Bekinala,69,7
Halasangi B,169,4
Nada.K.D.,123,7
NAGATANA,113,8
Alamatti,70,2
SARWADA B,90,6
KANNUR,125,1
Hattarakihala,119,4
Kalagi CHC,174,7
Nandaragi,108,7
Domanala,74,2
HANCHINALA,75,8
Otihal,199,1
Yankanchi,172,4
Garasangi,127,5
Hirebevanur,166,2
Umaraj,94,7
Kokatanur,123,3
Markappanalli,83,8
Telagi,81,1
Nimbala,106,3
Almel,135,9
Golageri,135,1
Jigagivanagi,132,1
Moratagi,115,8
Vadavadagi B,108,6
Madabala,125,3
Wadavadagi,103,8
Zalaki,109,1
SINDIDAPUR K,111,10
Yaragala B K,101,2
Itagi,108,2
Loni.B.K.,84,10
HITNALLI,115,2
Gabasavalagi,172,1
Kalagi CHC,89,1
Hattahalli,91,1
INDI TH,96,6
Chikkasindagi,171,6
Takkalagi,64,6
K.Salavadgi-B,55,5
Salootagi-A,67,9
Havinala,52,8
BIJJARAGI,128,5
SHIVANAGI B,82,1
Yankanchi,150,3
Ahirsang,197,8
Muttagi,106,8
GUNADALA,67,8
Chabanura,154,2
Vandal-B,84,4
Tangadagi,195,2
KAKHANDAKI-A,142,9
Kotyala,100,6
Nalatwad CHC,50,8
Sasanur,190,7
Ballolli,77,10
Muddebihal,172,9
Kakkalmeli,153,8
Satalagaov PI,187,10
Horti-B,80,1
Jambagi,188,8
Nalatawada,62,7
Ronihala-A,138,10
YEKKUNDI,54,2
Jalavada,196,10
HALAGANI,112,6
HONAWADA (24X7),175,8
YOGAPUR 2,54,9
Ingaleshwara,138,6
Yarazari,190,1
Gadisomanal,85,10
Masibnal,155,7
H.Hipparagi -A,67,2
YOGAPUR 3,135,8
Malaghana,128,4
Devanagaov,196,5
Takkalaki,118,1
Tadavalaga-B,178,9
Dindavara,116,10
Sindagi CHC,196,7
BABANAGARA,127,2
KATNALLI,123,3
Kariganur,127,7
Aski,126,10
Golasangi,181,1
Nagura,163,10
Mulawad,98,4
KAMBAGI,103,10
Vanahalli,64,4
Mulawada B,111,3
Babalad,124,8
SOMADEVARHATTI,63,6
K.Salavadgi-A,65,6
HADAGALI,196,7
Madikeshwar,167,7
Balaganur,170,6
Chimalagi,108,6
Ganganalli,169,9
Tadawalaga CHC,143,10
Sasanur,188,9
Devar.Nimbaragi,58,1
Madikeshwar,140,1
Umarani,53,2
Devur,120,5
HONAWADA-B,124,9
Chadachan CHC,98,7
Savalasang,144,1
Malaghan,189,5
Mulawada A,186,10
K.Salavadgi,102,5
Nebagiri,143,10
NAUBAG 1,192,9
Veereshanagar,144,8
Banthanal,84,7
Nivaragi,122,7
HEGDIHALA,163,7
Navadagi,58,4
Ukkali,59,4
Padanur,79,5
Golasara,61,5
Ankalagi,165,3
DARGA UPHC,77,1
Bidarakundi,155,3
THIKOTA 24X7,192,2
Chikkaroogi,180,2
Asantapura,50,1
RATNAPUR,157,3
Talewad,73,6
Tumbagi,77,5
Athalatti,187,2
Chadachana-A,196,1
Kariganur,128,8
D.Hipparagi B,115,1
Unnebhavi,88,4
Benakanahalli,124,10
Jigagivanagi,188,9
Korawara,78,5
BOLCHIKKALAKI,176,5
Kalakeri-B,155,10
Jalageri,64,10
Kalagi,198,3
Yalawar,97,8
BABALESHWARA  A,76,10
Kuntoji,68,7
Kathrala,96,9
Tamba-A,132,3
Hanamapura,137,10
Tadavalaga-A,90,4
Ukkali-A,88,9
Bommanalli,83,4
Nagavi.BK,186,6
ARAKERI,88,8
Atharga,133,1
JUMANALA,99,7
Bantanur,127,4
H Hipparagi,76,9
Managuli,78,9
MAKANAPURA,60,4
Sindagi CHC,166,7
Ganihar,139,3
Kerutagi,56,9
NAUBAG UPHC,78,4
Rudagi,148,5
Thelagi,181,2
Shirnal,60,2
B.B.Ingalagi,160,3
KAKHANDAKI,113,8
Ingalageri,143,2
Korawara,184,7
BARATAGI,77,7
Salootagi-B,150,1
Hunashyala PB,68,8
THIKOTA-B,168,9
KANNUR,198,9
Nidagundi,144,1
Satalagaov PB,83,9
Rampur Pa,195,5
Moratagi,93,4
Indi CHC,88,5
Bommanalli,173,3
D.Hipparagi A,186,5
Agasanal,138,5
Aheri,107,2
Golageri,195,9
Hosur,150,4
Jevur,108,9
YAKKUNDI 24X7,50,9
SINDGI TH,185,7
Bagalur,82,10
Bavura,128,7
Koluragi,84,7
Hullur,81,3
Adavi Hulagabal,104,7
Ronihal,75,1
Taddewadi,87,5
Boragi,188,6
Kowlagi,171,5
NAUBAG 3,134,9
Talikoti  CHC,162,6
Kanakal,130,2
Kamanakeri,125,7
Golasangi-A,67,7
Managoli-B,115,2
Benala,59,2
BUTHANALA,159,10
Bagewadi CHC,76,6
Ukkali-A,180,6
Tamadaddi,99,9
Balabatti,179,9
Hangaragi,106,2
Agarkheda,64,2
Chandkavate,166,9
Gunaki,139,9
Bommanalli,145,5
Basavan Bagewadi-C,190,7
Basarakoda,190,6
Dhulkhed,90,4
D.Hipparagi,112,3
Somajalya,153,1
NIDONI,151,3
BIJAPUR DH,104,6
Hittnalli.L.T,96,5
Inchageri,70,2
JAINAPURA,196,10
Madabhavi,85,9
UTNAL,53,7
Chadachana,58,8
Hanjagi,170,10
YATHNALA,69,10
NAGATANA (24X7),163,3
Agarkheda-A,88,4
SINDGI TH,57,2
Alamel A,141,3
Alura,162,9
Nagarabetta,111,2
AINAPUR,173,9
Tadavalaga-B,80,6
BASAVANABAGEVADI TH,128,6
Konnur,59,1
Yalawara,129,7
D.Navadagi,151,3
Sathihala,148,6
Narasalagi,66,3
BELLUBBI,107,1
Kannolli,91,2
Hiremurala,174,7
INDI TH,178,6
Kudagi-B,108,8
Golasangi,131,6
Sarur,74,1
KANAMADI (24X7),68,1
Jammaladinni,122,8
Konnur B,180,2
Nalatwad CHC,178,3
Yambatnal,81,2
Narasalagi,112,4
Loni.B.K.,137,7
Dhvalagi,188,7
ALAGUR,157,6
Kalkere CHC,134,3
Balavata,125,9
Bantanur,85,10
DEVARGENNUR,74,9
PAILAVANGALLI,199,4
Vandal-A,118,5
Honaganahalli,162,4
Bammanajogi,105,4
THORAVI B,100,7
Madnalli,189,5
Ronihala-B,113,4
KAGGODA,134,7
Kudagi,172,10
Chandkavate,146,10
Basavan Bagewadi-A,166,7
Agarkheda-B,177,6
TAJAPURA,156,7
HONAGANAHALLI,86,3
H.Hipparagi-B,171,5
Hebbala,136,9
Malaghana,172,9
SHIVANAGI A,108,2
Kalakeri,109,10
Hirur,166,6
Chirkanakal,61,9
Basavan Bagewadi-B,199,2
KARAJOLA,187,1
Lachyan,52,4
ALLAPURBASE,59,1
Vandal,101,1
Almelu CHC,81,7
Halasangi A,100,8
Minajagi,135,2
DYABERI,131,10
ARJUNAGI,73,5
Aski,196,10
Beeraladinni,163,8
ITTANGIHALA,172,9
Garasangi,190,8
Kolur,59,4
KAMBAGI,193,8
Nalatawada-A,138,4
Bhatagunaki,192,7
Alur,135,7
Indi taluka hospital,151,1
Halasangi,140,1
Vadavadagi A,72,9
Khanapur,187,2
Nidagundi A,126,5
Yaranala,77,5
Baradola,178,3
Masuti,167,8
Tadawalaga CHC,62,3
Inchageri,140,7
GYANGBAWADI,83,9
Bijjur,61,5
Mulasavalagi,102,6
Kalkere CHC,75,6
Badagi,189,7
Handiganur,118,5
ALAVIMASUTHI,87,7
Vandala-B,166,3
KANAMADI,108,3
Kubakaddi,196,8
Kudagi-A,58,1
Tangadagi,144,1
Rakkasagi,128,5
THORAVI A,108,9
Ukkali-B,67,5
Dhvalagi A,52,4
KAKHANDAKI-B,190,3
Bantanur,152,7
Harnal,168,1
Anjutagi,170,8
MAMDAPURA (24X7),73,3
Revatagaov,188,3
Konnur A,162,3
Horti,82,3
Atharga-B,55,1
Talikoti,141,3
Gubbewad,118,4
Pirapura,116,10
Sungatana,56,9
SHANTINAGAR UPHC,117,6
Shirashyad,95,5
MINCHANALA,59,6
Gonasagi,166,6
K.Salawadagi-A,197,4
Tadavalaga-A,183,7
