Health Facility Name,Number_Of_Beds,Rating
Jalakamaladinni,196,1
Gudur,109,1
Dhannur,60,1
Chikkapadasalgi,140,2
Belagali-A,50,10
Chimmad,140,7
Bhagavati,164,5
Ilkal CHC,101,5
Kulageri,138,5
Kalligudda,117,5
Katharaki,166,8
Sulibhavi-B,94,6
Pattadakall B,125,9
Savalagi,127,3
G H Ilkal,101,4
Hiregulabal,181,4
Kaladagi,141,6
Hirebadawadgi,115,2
Kandgal-B,103,10
Ilkal CHC,79,2
Hire-Hodlur,56,1
Muradi,198,8
Kakanur,127,3
Halingali,74,5
Mareguddi,72,2
Gothe,103,6
Tungal,95,10
Halakurki,157,6
HUNGUND TH,113,3
Kankanawadi,132,4
Sangam,178,2
Gani,184,10
Kamatagi,184,9
Yandigeri,79,9
Kandagal,50,2
Dhavaleshwar,54,5
Lokapur-B,127,3
Jagadal,59,7
Kerur CHC,153,6
Badami A,75,6
Ilkal-A,141,7
Narasapur,164,6
Bevoor-B,172,7
Kajibilgi,110,4
Aihole,145,5
Mahalingapur,182,4
Nandikeshwar,147,5
Yaragoppa.S.B,198,9
Bilgi-B,105,5
Todalbagi,91,8
Yankanchi,148,7
Guledgudda,68,9
Gothe,138,3
Nagur,168,3
Thogunashi,61,2
Girisagar,195,4
Pattadakall,167,4
Bilgi-A,94,7
Pattadakall A,117,10
Kadampur,151,9
Arakeri,108,6
Terdal-B,108,9
Kelur,115,1
HUNGUND TH,174,2
Katarki,145,9
Girisagara CHC,138,4
Haligeri,111,4
Sutagundar,159,4
Rabakavi Banahatti CHC,140,9
Bidari,63,7
Muttalageri,125,1
Ganjihal,117,4
Urban Health Centre Navanagar,96,3
Chelaapura,54,1
SHIROL,122,8
Mustigeri,98,1
Kelawadi,122,6
Belur,109,6
Turamari,154,8
Chikadapur,159,8
Hoolageri,139,6
Havaragi,154,7
Sulla,147,10
Honnihal,117,10
Halakurki A,196,10
Kaladgi B,57,2
Bommanagi,72,6
Hanapur.S.P.,97,6
Govanakoppa,82,1
Badami CHC,73,4
Halaki,104,4
Adagal,83,9
Kirasur,69,7
Gudur-B,51,1
Badgi,108,3
Dadanatti,61,10
JAMKHANDI TH,65,9
Hallur,108,7
Sirur A,71,4
JAMKHANDI TH,130,5
CHC RABAKAVI BANAHATTI,92,9
Konnur,53,8
Katageri,77,9
Kerur (Rural) A,164,6
Thogunashi,187,10
Savalagi-A,92,6
Jakanur,73,8
Badami B,183,7
Kagalagomba,116,9
Benakatti,161,1
R.Banhatti,180,7
Marol,151,4
BAGALKOT DH,74,2
Bhimanagad,117,9
Kadiwal(Inam),79,3
Hire-Shellikeri,169,10
Hosakoti,117,1
Karadigudd S.A.,106,9
Banhatti-13,120,1
Cholachagudda,121,9
Nagur-B,130,6
Golbhavi,149,7
Kandagal,82,2
Banhatti-12,50,8
Bilagi CHC,195,3
Muranal,117,9
Kandgal-A,127,3
Terdal-C,69,7
Bennur,95,3
Bevoor,173,8
Mudhol CHC,61,8
Nandavadgi,118,6
Hiremagi,174,8
Tulasigeri,147,8
Kalabilagi,117,4
Kodihal,190,2
Huliginal,166,4
Kamatgi-A,52,1
Galagali-B,87,7
Agasanakoppa,185,8
Hangaragi,193,8
Yankanchi,71,3
Kudalasangama CHC,85,5
Badagandi,195,5
Mahalingapur CHC,144,2
CHITTARGI,149,10
Jamkhandi,148,1
Heggur,156,3
Bevoor-A,142,5
Linganur,152,10
Hangandi,84,5
Asangi,198,9
Alagur,128,8
Budni(P.M),182,10
Bavalatti,196,10
Belur,72,9
Bannihatti,146,1
MUDHOL TH,193,8
HIREBADAWADGI,120,4
Uttur,172,3
Balakundi,198,6
Hebbal,133,7
Jalageri,129,9
Rabkavi-9,162,9
Kakanur,123,10
Kutakanakeri,100,3
Sonna,78,10
Kesrakoppa,169,2
Anawal,139,10
Malali,139,1
Chimmad,134,2
Tumba,197,10
Uttur,54,10
Aminagad-A,163,3
Belagali-B,60,1
Saidapur,132,6
BILAGI TH,114,9
Hunnur,118,5
Katageri,145,6
Rabkavi-8,112,2
TALUK HOSPITAL  BAGALKOTE,128,3
Mugalkhod,177,5
Belagali,65,4
Yadahalli,190,8
Hipparagi,58,2
Chikkalgundi,116,8
Adihudi,63,7
Sitimani,121,5
Hungund-A,107,5
Madarkhandi,143,6
Kerur (Rural) B,67,1
Gaddyal,152,10
Hiresinganagutti,93,8
Nandikeshwar,107,9
Gudur-A,187,4
Neelagund,155,8
Bagalkot B,127,8
Halakurki B,152,5
Yallatti,143,3
Hunashikatti,181,8
MUDHOL TH,174,5
Kannolli,133,10
Kundargi,100,6
Chikkur,128,10
Sulebhavi,187,8
Belgal,122,4
Shirur,139,8
Kotikall,131,9
Hungund-B,158,1
Kerur CHC,154,10
HUNGUND-B,60,7
Amarawati,151,1
Girisagar,103,1
Amarawadgi,71,1
Gorbal,151,9
Lokapur,128,5
Hosur,118,8
Karadi,151,4
Mudapaljivi,153,1
Aminagad,56,9
Albal,176,1
Niralkeri,74,5
Mudhol,150,2
Bisaladinni,66,7
Kunchanur,102,5
Kaladgi A,62,2
Dhannur,163,4
Hansanoor,119,5
Janamatti,87,7
Haladur,195,10
District Hospital Navanagar,159,10
Halakurki,123,4
Shirabadagi,66,7
Tallikeri,156,4
K.sangam,54,6
Karadi,70,9
Hanchinal(Inam),80,5
Kulhalli,97,8
Shirol,156,10
Aminagad-B,92,8
BADAMI TH,168,3
Girisagara CHC,82,6
Bodanayakdinni,74,8
Muchakhandi,142,10
Mugalalli,142,3
Yadahalli,142,5
Layadagundi,195,3
Malali,173,3
BILAGI TH,197,1
Agasarakoppa,177,2
Hosur,127,5
Jamkhandi,126,1
Mamatageri,66,5
Marol,155,1
Herkal,144,8
Mahalingapur CHC,145,5
Bagalkot  A,62,9
Bilgi,154,3
Mudhol CHC,102,10
Kolur,162,8
Neeralakeri,111,6
Terdal,184,7
Teggi,120,3
MudholB,136,2
Savalagi-B,158,10
Navalgi,95,1
Rampur,139,9
Maigur,142,5
Nagaral,119,9
District Hospital Navanagar,96,3
Hulyal,81,10
Lokapur-A,143,4
Sutagundar,162,2
Bilagi CHC,118,4
Hipparagi,118,2
H.S.gutti,81,6
Kulageri,176,3
Terdal-A,128,1
Kundalasangama CHC,191,3
Nagur-A,50,7
BADAMI TH,158,8
METAGUDD,145,8
Sunaga,189,5
Chittaragi,199,3
Mustigeri,153,7
Hebballi,117,5
Kamatgi-B,138,5
Konnur,97,4
Kadapatti,188,1
Hosakoti,105,1
Hirepadasalgi,179,10
Siddapur,110,9
CHC BADAMI,108,1
Mudhol-B,130,8
BAGALKOT DH,132,6
Chinchakhandi(K.D),111,8
Galagali-A,94,6
Belagali-C,74,5
Urban Health Centre Navanagar,74,8
Iddalgi,188,7
Halagali,75,3
Alagundi(B.K),137,8
Sulibhavi-A,101,8
Hunagund,183,8
Ramapur,88,2
Chikkalaki,177,2
Havaragi,151,1
HUNGUND-A,80,9
Vajjaramatti,60,2
Yadahalli,147,10
Mudhol-A,187,4
Khajjidoni,138,3
Kerur,60,3
Halagali,80,2
Metagudd,60,6
Kumbarhal,192,3
Nainegali,122,4
Mantur,196,7
Sirur B,151,8
Gaddankeri,156,10
Bennur,152,7
Ballur,148,6
Bilkerur,152,9
Rampur,177,7
Mardibudihal,106,5
Galagali,133,10
Linganur,126,10
Mirji,152,10
Chickmagi,194,7
INGALAGI,115,3
K. Jambgi(B.K),104,3
Guledgudd CHC,131,7
Siddapur,137,9
Shurpali,136,10
Jalihal,123,8
Guledgudd CHC,170,10
Hirekodagali,192,7
Hire-Otageri,149,3
Aiahole,168,2
Melligeri,146,7
Tummarmatti,108,6
Kundargi,142,2
Guledgudda A,170,3
Jambagi.(B.K.),75,1
Vadageri,140,5
Banhatti-14,50,3
Jalakamaladinni,103,10
Gudur,144,4
Dhannur,161,8
Chikkapadasalgi,183,5
Belagali-A,91,4
Chimmad,134,6
Bhagavati,157,10
Ilkal CHC,82,8
Kulageri,187,1
Kalligudda,183,1
Katharaki,66,6
Sulibhavi-B,104,10
Pattadakall B,94,5
Savalagi,190,3
G H Ilkal,55,4
Hiregulabal,188,9
Kaladagi,190,6
Hirebadawadgi,114,3
Kandgal-B,167,8
Ilkal CHC,183,10
Hire-Hodlur,111,7
Muradi,129,7
Kakanur,115,7
Halingali,191,8
Mareguddi,70,9
Gothe,172,7
Tungal,102,1
Halakurki,79,9
HUNGUND TH,85,5
Kankanawadi,145,9
Sangam,101,5
Gani,100,8
Kamatagi,182,8
Yandigeri,186,3
Kandagal,113,6
Dhavaleshwar,170,10
Lokapur-B,192,5
Jagadal,196,10
Kerur CHC,74,9
Badami A,66,8
Ilkal-A,174,9
Narasapur,109,10
Bevoor-B,95,7
Kajibilgi,59,2
Aihole,179,4
Mahalingapur,92,8
Nandikeshwar,149,2
Yaragoppa.S.B,100,5
Bilgi-B,182,10
Todalbagi,159,1
Yankanchi,191,4
Guledgudda,130,8
Gothe,180,3
Nagur,132,4
Thogunashi,172,4
Girisagar,123,1
Pattadakall,69,4
Bilgi-A,55,1
Pattadakall A,109,8
Kadampur,58,10
Arakeri,124,8
Terdal-B,135,5
Kelur,107,4
HUNGUND TH,105,8
Katarki,77,2
Girisagara CHC,103,1
Haligeri,123,10
Sutagundar,99,6
Rabakavi Banahatti CHC,123,5
Bidari,93,8
Muttalageri,115,4
Ganjihal,153,8
Urban Health Centre Navanagar,150,8
Chelaapura,189,5
SHIROL,140,4
Mustigeri,177,3
Kelawadi,131,4
Belur,65,8
Turamari,166,9
Chikadapur,176,9
Hoolageri,174,10
Havaragi,197,5
Sulla,97,5
Honnihal,163,5
Halakurki A,106,8
Kaladgi B,82,5
Bommanagi,142,1
Hanapur.S.P.,68,6
Govanakoppa,196,8
Badami CHC,86,10
Halaki,141,10
Adagal,155,4
Kirasur,166,1
Gudur-B,132,3
Badgi,136,10
Dadanatti,169,3
JAMKHANDI TH,98,9
Hallur,145,4
Sirur A,175,10
JAMKHANDI TH,155,5
CHC RABAKAVI BANAHATTI,162,1
Konnur,166,6
Katageri,97,5
Kerur (Rural) A,85,5
Thogunashi,67,8
Savalagi-A,111,7
Jakanur,166,8
Badami B,52,6
Kagalagomba,196,5
Benakatti,199,5
R.Banhatti,60,2
Marol,134,7
BAGALKOT DH,55,6
Bhimanagad,121,10
Kadiwal(Inam),53,1
Hire-Shellikeri,176,2
Hosakoti,88,4
Karadigudd S.A.,53,7
Banhatti-13,97,5
Cholachagudda,146,8
Nagur-B,192,9
Golbhavi,111,5
Kandagal,77,6
Banhatti-12,181,7
Bilagi CHC,111,6
Muranal,77,7
Kandgal-A,166,2
Terdal-C,150,2
Bennur,187,3
Bevoor,173,3
Mudhol CHC,139,5
Nandavadgi,97,10
Hiremagi,183,1
Tulasigeri,109,1
Kalabilagi,177,2
Kodihal,185,5
Huliginal,59,1
Kamatgi-A,135,6
Galagali-B,150,1
Agasanakoppa,185,3
Hangaragi,86,6
Yankanchi,138,2
Kudalasangama CHC,163,2
Badagandi,120,10
Mahalingapur CHC,172,2
CHITTARGI,74,6
Jamkhandi,153,9
Heggur,63,10
Bevoor-A,173,10
Linganur,67,10
Hangandi,158,2
Asangi,106,1
Alagur,72,5
Budni(P.M),147,5
Bavalatti,111,3
Belur,161,7
Bannihatti,99,5
MUDHOL TH,127,3
HIREBADAWADGI,78,3
Uttur,188,7
Balakundi,69,10
Hebbal,100,9
Jalageri,164,9
Rabkavi-9,131,5
Kakanur,123,6
Kutakanakeri,69,2
Sonna,144,1
Kesrakoppa,151,1
Anawal,186,8
Malali,189,1
Chimmad,135,6
Tumba,127,6
Uttur,103,5
Aminagad-A,147,10
Belagali-B,83,8
Saidapur,140,10
BILAGI TH,135,9
Hunnur,105,2
Katageri,165,6
Rabkavi-8,198,5
TALUK HOSPITAL  BAGALKOTE,82,6
Mugalkhod,65,10
Belagali,112,1
Yadahalli,109,6
Hipparagi,81,10
Chikkalgundi,171,6
Adihudi,96,10
Sitimani,140,2
Hungund-A,168,2
Madarkhandi,140,8
Kerur (Rural) B,138,9
Gaddyal,90,6
Hiresinganagutti,79,10
Nandikeshwar,83,10
Gudur-A,102,3
Neelagund,76,3
Bagalkot B,165,5
Halakurki B,112,1
Yallatti,92,9
Hunashikatti,133,10
MUDHOL TH,136,10
Kannolli,113,3
Kundargi,155,1
Chikkur,50,7
Sulebhavi,92,2
Belgal,99,4
Shirur,74,3
Kotikall,51,2
Hungund-B,66,2
Kerur CHC,156,1
HUNGUND-B,93,4
Amarawati,82,5
Girisagar,70,8
Amarawadgi,158,5
Gorbal,62,8
Lokapur,165,3
Hosur,50,7
Karadi,96,4
Mudapaljivi,71,3
Aminagad,116,5
Albal,117,1
Niralkeri,198,7
Mudhol,111,7
Bisaladinni,63,2
Kunchanur,126,8
Kaladgi A,186,4
Dhannur,129,7
Hansanoor,190,10
Janamatti,159,7
Haladur,107,5
District Hospital Navanagar,98,5
Halakurki,169,4
Shirabadagi,140,1
Tallikeri,131,9
K.sangam,70,4
Karadi,187,2
Hanchinal(Inam),178,1
Kulhalli,197,9
Shirol,155,6
Aminagad-B,78,3
BADAMI TH,139,1
Girisagara CHC,93,10
Bodanayakdinni,107,10
Muchakhandi,159,1
Mugalalli,189,3
Yadahalli,123,9
Layadagundi,59,9
Malali,117,1
BILAGI TH,153,6
Agasarakoppa,193,2
Hosur,81,10
Jamkhandi,71,6
Mamatageri,146,5
Marol,69,6
Herkal,119,8
Mahalingapur CHC,108,1
Bagalkot  A,175,6
Bilgi,100,6
Mudhol CHC,173,3
Kolur,181,6
Neeralakeri,63,8
Terdal,56,9
Teggi,85,1
MudholB,103,4
Savalagi-B,93,2
Navalgi,199,2
Rampur,80,2
Maigur,54,2
Nagaral,164,7
District Hospital Navanagar,102,9
Hulyal,93,3
Lokapur-A,72,5
Sutagundar,170,1
Bilagi CHC,137,9
Hipparagi,151,8
H.S.gutti,64,10
Kulageri,166,6
Terdal-A,122,3
Kundalasangama CHC,116,7
Nagur-A,145,1
BADAMI TH,123,10
METAGUDD,93,10
Sunaga,133,10
Chittaragi,141,3
Mustigeri,51,3
Hebballi,171,5
Kamatgi-B,97,10
Konnur,59,4
Kadapatti,80,6
Hosakoti,119,9
Hirepadasalgi,157,10
Siddapur,69,2
CHC BADAMI,92,1
Mudhol-B,87,5
BAGALKOT DH,54,5
Chinchakhandi(K.D),188,5
Galagali-A,63,2
Belagali-C,86,9
Urban Health Centre Navanagar,114,4
Iddalgi,66,4
Halagali,150,4
Alagundi(B.K),53,2
Sulibhavi-A,138,6
Hunagund,169,5
Ramapur,60,7
Chikkalaki,105,2
Havaragi,166,2
HUNGUND-A,106,8
Vajjaramatti,150,5
Yadahalli,62,4
Mudhol-A,83,4
Khajjidoni,82,8
Kerur,113,2
Halagali,61,3
Metagudd,65,6
Kumbarhal,109,4
Nainegali,165,9
Mantur,175,1
Sirur B,180,3
Gaddankeri,61,1
Bennur,61,10
Ballur,50,5
Bilkerur,192,1
Rampur,98,3
Mardibudihal,105,6
Galagali,124,4
Linganur,139,8
Mirji,123,8
Chickmagi,147,9
INGALAGI,187,1
K. Jambgi(B.K),61,8
Guledgudd CHC,181,6
Siddapur,160,9
Shurpali,50,3
Jalihal,145,3
Guledgudd CHC,55,7
Hirekodagali,134,4
Hire-Otageri,78,8
Aiahole,120,5
Melligeri,95,2
Tummarmatti,134,9
Kundargi,191,2
Guledgudda A,54,5
Jambagi.(B.K.),69,4
Vadageri,143,7
Banhatti-14,106,7
