Health Facility Name,Number_Of_Beds,Rating
Urban-PHC,86,10
Bhagwanpur Khadar,107,4
Sher Ganj,50,4
Chauhattar Kala,103,2
CHC Tulsipur,143,3
Jyonar,106,3
Mangra Kohal,93,1
Godwa,116,10
Pipra Grant,195,3
CHC Pachperwa,156,7
Chamrupur,89,4
Bhairampur,79,8
Husainabad,54,8
Uttrula E,195,8
Bankatwa,159,2
Ranijot Dewariya,92,6
Kishunpur Grant,67,6
Baraeepur,145,10
Amrahwa,123,7
Harhata,193,2
Main Centre 2,191,4
Jhauwa,184,1
Baghel Khand,63,6
Gurdayal Deeh,142,2
Kathauwa,114,7
Baldeo Nagar,160,8
Mahuwa Ibrahim,122,6
Katiya,85,6
Gugauli,107,5
Gurchihwa,132,8
Bhojpur Tharu,124,6
Fattejot,109,9
Sikandar Bojhi,146,6
Pidiya Bujurg,110,6
Chulhabhari,117,9
Gaura Trikoliya,152,2
Hariharganj,155,9
Gopalipur,52,2
Imliya,80,5
Bank bhawanipur,180,10
Gwalier Grint,149,5
Dewariya Mubarakpur,174,1
Badgo,177,9
BPHC Rehrabazar,93,2
Gaijahwa,104,1
Saraikhas,176,5
Jigna,82,8
Basantpur,143,3
Kauwapur,88,8
Surat Singh Deeh,136,2
Vishunpur Kala,93,6
Salempur,118,2
Vishunpur Vishram,128,1
Pipra Durga Nagar,124,1
Jeetpur,133,10
Achalpur Ghat,101,2
NPHC Pipra,122,9
Purani Bazar Pachperwa,112,8
Sukhrampur,144,8
Arjunpur,120,8
Manapar,138,6
Lalpurvishunpur,169,8
Fatehnagra,107,9
Ghughulpur,173,10
Badhya Pakri,121,2
Sonpur,89,5
Dewariya Meinaha,94,5
Bahadur ganj,187,7
Chaudhary Deeh,149,5
Puraina Buland,68,7
Gulaharia Hisrampur,167,2
Badhya Fareed kha,66,4
PHC Mahdeiya,153,3
Baghani,162,10
Chandanpur,107,9
Nandnagar,91,2
Achalpur Chaudhari,130,5
Chandapur,51,3
Bankatawa,187,8
Achalpur Roop,62,3
Kapauwa Sherpur,152,8
Ganeshpur,131,6
Gandrahiya,62,6
Ram Nagar,154,4
Naubasta,71,3
Pipra Ekdanga,190,6
Januka januki,109,8
Itairampur,116,6
Mahadeo Aterpari,69,5
Shankarpur,63,4
Mahdayya,85,4
Rehra Jangal,174,1
CHC Sheopura,181,8
Sadullanagar,76,5
CHC Uttroula,99,9
Majhgawan,198,8
Mohanjot,126,9
Srinagar,111,4
Gumari,187,4
Bhagwanpur Khadar,154,1
NPHC Nachaura,143,10
Suganagar,171,9
Dhanoura,83,3
Kohargaddi,76,3
Main Centre 1,148,9
Madhpur,135,10
Maharajganj Tarai,90,5
District Women Hospital Balrampur,179,9
Udaipur,60,2
Matehna,110,1
Ram Pur Grant,56,3
Rehra Jangal,70,8
SinghPur,184,4
Purebakash,132,6
Tilkhi,108,8
Banghushari,156,7
Dhampur,196,6
Bardahawa,71,2
Nandnagar,192,7
Balpur,70,3
Belwa Sultanjot,94,5
Dhudhwalia,68,3
Terhi Paras,165,8
Malda,127,10
Uttrula W,105,10
Majgawan Kala,173,7
Premnagar,132,5
Parsiya Gonsai,187,10
Laukiya Tahir,186,10
Gainsari,162,5
Puraina wazad,150,7
Belikhurda,142,1
Bhathar,75,7
Rajghat,154,1
Koluhiya Bhojpur,64,2
Jafrabad,50,5
Barhwa,127,7
Pranpur,78,4
Allauddinpur,137,9
Pipraekdanga,90,2
Manapar,142,6
Bahere Kuiyan,87,4
Badhya Bhainsahi,158,1
Main Center A,82,10
Main Center B,68,4
Achakwapur,51,1
Dhaurhara,158,1
Galibpur,78,9
Pehar,51,1
Ramwapur Khurd,50,9
Dhawai,176,6
Shivanagar,90,3
Shekharpur,81,6
Pipara,116,4
Lal bojhi,73,1
Ganeshpur,94,7
Sonpur,155,7
Ailara,60,9
Vishunpur Kharhana,132,8
Saraikhas,128,1
Laxmi Nagar,147,9
Baluha Blui,172,4
Sekhuniya kala,90,5
Murila,125,5
Laxmi Nagar,94,4
Katra Shankarnagar,75,7
Lalnagar,175,9
Kanhara,145,1
Narchahwa Saif,121,10
Sonpur,80,6
Sanjhwal,70,7
Baybheet,79,10
Kharika Masoompur,196,5
Shivanagar,194,6
Khagaijot,67,3
Bhagwanpur,110,8
Bargadwa Kala,113,7
Ram Nagar,134,1
Vishunpur Tantanwa,101,9
Ramwapur,178,3
Nai Bazar Pachperwa,186,9
Rampur Banghusra,166,9
Main Centre b,106,2
Banjariya,189,3
Mathra,175,4
Khamahria,161,10
Main Centre A,145,1
Lamuiya,152,7
Ram Nagar,106,2
Mirja pur,58,9
Hariharpur,87,5
Pharenda,126,6
Mankaura Kashiram,73,6
Mubarakpur,88,2
Kather,164,3
District Combind Hospital Balrampur,76,8
Sankar Nagar,199,4
Madauchaura,137,3
Nayanagar,157,2
NewalGarh,165,4
Sisaee,155,1
NPHC Mahuwa,65,5
Laukahwa,108,10
District Male Hospital Balrampur,140,4
Jahandaria,191,9
Sonapar,172,3
Sahpur Itai,109,1
Mahuwa,112,1
Amrahwa,170,9
Bardauliya,59,1
Bhusailiya,162,2
Rashoolabad,194,2
Datlupur,92,1
Jarwa,181,3
Mankapur,103,9
Laliya,133,7
NPHC Itairampur,187,2
Maniyariya,172,6
Piprayakoob,192,9
Kondri,142,2
Semrahwa,95,4
Main Centre,132,10
Bhagwanpur,194,4
Mhuwadani,142,4
Bagahi Seer,56,8
CHC Gaidasbujurg,134,5
Oberydeeh,189,6
Bhagwanpur,190,9
Parsa,147,4
Balrampur,129,8
Sisaee,124,4
Gajpur Grant,154,10
Main Center,102,6
Abar,153,9
Jabdahi,109,3
Sriganj,80,7
Sadulla Nagar,53,1
Jaitapur,113,9
Visrampur,191,2
Bargadahi,173,6
Baksariya,198,3
Jignihwa,97,1
Budhipur,94,1
Bhikhpur,66,8
Gainsari,76,3
Nagwa,112,9
Tenduwatakiya,161,10
Urban-PHC,100,7
Bhagwanpur Khadar,150,1
Sher Ganj,101,9
Chauhattar Kala,98,8
CHC Tulsipur,194,8
Jyonar,167,9
Mangra Kohal,183,5
Godwa,63,1
Pipra Grant,181,6
CHC Pachperwa,87,2
Chamrupur,116,4
Bhairampur,171,4
Husainabad,85,2
Uttrula E,133,6
Bankatwa,103,5
Ranijot Dewariya,53,1
Kishunpur Grant,173,2
Baraeepur,138,2
Amrahwa,88,9
Harhata,114,2
Main Centre 2,186,5
Jhauwa,136,3
Baghel Khand,106,5
Gurdayal Deeh,186,6
Kathauwa,64,2
Baldeo Nagar,83,6
Mahuwa Ibrahim,99,3
Katiya,93,6
Gugauli,130,4
Gurchihwa,88,3
Bhojpur Tharu,113,3
Fattejot,147,2
Sikandar Bojhi,195,2
Pidiya Bujurg,108,3
Chulhabhari,192,8
Gaura Trikoliya,194,4
Hariharganj,143,9
Gopalipur,184,6
Imliya,53,6
Bank bhawanipur,177,8
Gwalier Grint,73,1
Dewariya Mubarakpur,60,8
Badgo,163,7
BPHC Rehrabazar,56,4
Gaijahwa,76,1
Saraikhas,67,1
Jigna,152,4
Basantpur,151,5
Kauwapur,71,2
Surat Singh Deeh,111,2
Vishunpur Kala,193,9
Salempur,183,9
Vishunpur Vishram,122,3
Pipra Durga Nagar,170,7
Jeetpur,74,4
Achalpur Ghat,57,8
NPHC Pipra,189,2
Purani Bazar Pachperwa,175,4
Sukhrampur,85,10
Arjunpur,102,9
Manapar,50,5
Lalpurvishunpur,70,10
Fatehnagra,91,3
Ghughulpur,137,1
Badhya Pakri,85,7
Sonpur,131,9
Dewariya Meinaha,180,7
Bahadur ganj,194,10
Chaudhary Deeh,168,2
Puraina Buland,122,7
Gulaharia Hisrampur,157,8
Badhya Fareed kha,187,4
PHC Mahdeiya,171,9
Baghani,119,9
Chandanpur,51,5
Nandnagar,187,6
Achalpur Chaudhari,59,5
Chandapur,173,4
Bankatawa,165,8
Achalpur Roop,65,2
Kapauwa Sherpur,139,1
Ganeshpur,195,5
Gandrahiya,120,1
Ram Nagar,155,7
Naubasta,155,4
Pipra Ekdanga,68,6
Januka januki,121,5
Itairampur,89,3
Mahadeo Aterpari,156,7
Shankarpur,183,1
Mahdayya,199,1
Rehra Jangal,154,2
CHC Sheopura,143,5
Sadullanagar,152,3
CHC Uttroula,144,9
Majhgawan,139,3
Mohanjot,168,1
Srinagar,153,5
Gumari,124,2
Bhagwanpur Khadar,78,10
NPHC Nachaura,145,6
Suganagar,146,7
Dhanoura,116,1
Kohargaddi,86,5
Main Centre 1,155,7
Madhpur,70,9
Maharajganj Tarai,66,10
District Women Hospital Balrampur,159,6
Udaipur,53,6
Matehna,66,2
Ram Pur Grant,89,6
Rehra Jangal,158,7
SinghPur,198,10
Purebakash,100,3
Tilkhi,167,9
Banghushari,108,2
Dhampur,97,10
Bardahawa,119,7
Nandnagar,157,9
Balpur,53,9
Belwa Sultanjot,178,7
Dhudhwalia,149,3
Terhi Paras,120,4
Malda,151,9
Uttrula W,169,5
Majgawan Kala,53,2
Premnagar,150,2
Parsiya Gonsai,56,2
Laukiya Tahir,79,5
Gainsari,99,10
Puraina wazad,164,10
Belikhurda,122,7
Bhathar,160,2
Rajghat,63,5
Koluhiya Bhojpur,112,10
Jafrabad,103,2
Barhwa,160,10
Pranpur,195,6
Allauddinpur,183,5
Pipraekdanga,95,7
Manapar,150,5
Bahere Kuiyan,62,8
Badhya Bhainsahi,131,9
Main Center A,146,4
Main Center B,118,9
Achakwapur,84,8
Dhaurhara,87,3
Galibpur,92,4
Pehar,119,4
Ramwapur Khurd,164,3
Dhawai,103,1
Shivanagar,160,7
Shekharpur,94,10
Pipara,110,3
Lal bojhi,186,2
Ganeshpur,93,6
Sonpur,120,4
Ailara,162,4
Vishunpur Kharhana,111,5
Saraikhas,164,2
Laxmi Nagar,67,3
Baluha Blui,148,6
Sekhuniya kala,135,3
Murila,132,5
Laxmi Nagar,64,5
Katra Shankarnagar,138,3
Lalnagar,92,3
Kanhara,172,2
Narchahwa Saif,67,6
Sonpur,100,8
Sanjhwal,185,9
Baybheet,147,1
Kharika Masoompur,157,6
Shivanagar,67,6
Khagaijot,150,7
Bhagwanpur,172,9
Bargadwa Kala,189,6
Ram Nagar,117,3
Vishunpur Tantanwa,183,2
Ramwapur,165,10
Nai Bazar Pachperwa,173,8
Rampur Banghusra,129,7
Main Centre b,164,6
Banjariya,68,8
Mathra,82,1
Khamahria,101,9
Main Centre A,70,4
Lamuiya,58,5
Ram Nagar,88,1
Mirja pur,84,7
Hariharpur,51,6
Pharenda,176,6
Mankaura Kashiram,115,5
Mubarakpur,140,9
Kather,51,7
District Combind Hospital Balrampur,118,6
Sankar Nagar,185,2
Madauchaura,127,8
Nayanagar,86,2
NewalGarh,155,3
Sisaee,182,10
NPHC Mahuwa,67,1
Laukahwa,131,9
District Male Hospital Balrampur,95,2
Jahandaria,154,5
Sonapar,198,4
Sahpur Itai,122,1
Mahuwa,147,4
Amrahwa,96,1
Bardauliya,88,8
Bhusailiya,102,6
Rashoolabad,76,7
Datlupur,151,5
Jarwa,51,2
Mankapur,114,2
Laliya,191,4
NPHC Itairampur,87,9
Maniyariya,86,7
Piprayakoob,132,8
Kondri,133,6
Semrahwa,90,3
Main Centre,155,8
Bhagwanpur,152,9
Mhuwadani,66,8
Bagahi Seer,80,10
CHC Gaidasbujurg,50,7
Oberydeeh,140,10
Bhagwanpur,65,7
Parsa,163,3
Balrampur,193,7
Sisaee,194,10
Gajpur Grant,108,1
Main Center,156,4
Abar,175,1
Jabdahi,95,4
Sriganj,153,7
Sadulla Nagar,91,8
Jaitapur,93,1
Visrampur,85,7
Bargadahi,188,4
Baksariya,99,6
Jignihwa,64,3
Budhipur,120,6
Bhikhpur,108,3
Gainsari,108,10
Nagwa,65,7
Tenduwatakiya,166,2
