Health Facility Name,Number_Of_Beds,Rating
Habibpur,131,10
Karnpura,111,5
APHC Rupnarayanpur,172,5
Soharthi,78,7
APHC Mallikpur,58,4
Jafrabad,186,6
Murtzapur Dumri,63,5
Chandpura,51,4
Rasalpur,116,10
Karmopur,56,4
Bhikhanpura,91,4
Himmatpur,93,8
Sihma,85,2
APHC Sain,125,2
Dhandhua,63,1
Kanhauli,129,2
Jayantigram,137,9
Patedha Bujurg,149,6
Haleya,168,7
UHC Mahnar,107,9
APHC Kathara,192,6
Bidupur,178,3
Madhoul,176,8
Akbar Malahi,132,8
Thanpur,56,8
Ababakarpur,164,5
Loma,97,10
Rajapakar South,154,6
Maudah Bujurg,119,1
Chhitrouli,158,3
Purainia,105,4
Hariharpur,151,2
Basauli,61,10
Ratanpura,86,6
Bishanpur,74,6
Narikala,162,5
Gadai Sarai,164,4
Ranipokhar,189,10
Panapur Silauthar,98,2
Bahrampur,107,8
Kutubpur Rajauli,120,6
Vaishali,157,10
Baranti,80,5
APHC Anirudh Belsar,184,2
Sarsai,132,7
Chandwara East,196,6
Jasparha,122,5
Chaklahlad,72,5
Kamtaulia,75,3
Badewa,137,3
Raghopur Paschami,133,8
Piroi,153,7
Bariyarpur,82,7
APHC Jurawanpur,97,4
Bela Dargah,199,7
Rampur Bakhra,198,7
Dayalpur,114,9
Daudnagar,65,5
Balatar,51,7
APHC Hauzpura Hat,105,4
Chehra Kalan,167,8
Asoi,63,5
Kakarhatta,178,2
Harpur Mukund,163,5
Cakgadho,71,4
Porar,135,5
Jahangirpur Patedha,151,1
Terasia,169,4
Maricha Ram,65,9
Panapur Batesarnath,51,5
Paunihasanpur,193,3
APHC Pohiyaar,132,9
Nirpur,131,8
Bajitpur,110,7
SDH Mahua,98,1
Taiyabpur,75,4
Rampur Khairi,140,2
Arra,175,8
Shahpur,134,5
Adampur,186,7
Harpurbelwa,112,2
Belsar,127,7
Kadhiyo,66,9
Ijra,177,8
Rukmanijri,56,5
Khanpur Pakari,140,4
Bakadh,111,8
Deewantok,113,2
Chakmohizama,84,6
Jandaha,136,8
Hasanpur Hawraha,53,10
Chandralay,127,4
Rampur Karari,112,2
Khopi,137,3
Mandaidih,69,10
Toi math,131,1
Narikhurd,53,4
Gajipur,90,10
Loma,118,8
APHC Partap Tanr,137,3
Mohanpur,86,3
Raghopur Narsanda,81,10
Gurmishwa,130,7
Gurmiya,68,7
Manganpur,136,4
Sahdullahpur,70,6
Kushdey,126,4
Peerapur,119,8
Chaurahi,138,2
Harprasad,69,8
Kanti,63,7
APHC Bhagwanpur Ratti,79,10
Sukumarpur,170,3
Baidyanathpur,68,3
Chakvyas,171,5
Patedhi Belsar,107,7
APHC Shubhai,176,3
Hargobindpur,80,6
Sarmastpur,182,6
APHC Ghoswar,58,1
Taraura,67,2
Sukki,151,6
Panapur,81,1
Karnauti,125,3
Lalganj,180,5
Pahetiya,161,7
Baksama,169,3
Chintamanipur,72,9
Bitandipur,196,4
Maudah Chatur,147,5
Haharo,140,4
Bahadurpur,89,1
Jalalpur,117,10
Murtujapur,194,9
Adalpur,150,5
Bhagwanpur,109,2
Dih Buchauli,95,3
Murawatpur,50,4
APHC Dhabauli,96,8
Kartaha,68,8
Bahuara,50,9
Rahimpur,144,1
Keshopur,110,2
Sahdai Buzurg,196,5
"Sadar Hospital, Hajipur",178,9
APHC Chand Sarai,178,7
Rampur Baghel,103,9
Rampur Ramhar,77,6
Dhanushi,116,9
APHC Chaksikander,118,10
Margi,151,8
Pojhiya,132,9
Rajapakar Uttari,196,5
Fatehpur,115,8
Bejha,64,9
Mahua,143,5
Malpur,189,10
Bhadwas,125,9
Manikpur Pakri,159,6
Nayagaon,164,3
Chakeyaaj,124,8
Kharika,90,2
Kalyanpur,114,10
Suratpur,106,2
Rampurani,79,7
Khanjaha Chak,193,7
Bishanpur,192,4
Mail,61,4
Shivnagar,50,2
Chakmajahid,108,6
Rahsa,169,3
Dabhaichh,88,3
Lalpura,87,8
Madhaul,116,3
Mishratola Alahdad,141,6
Dumari,159,6
Bajitpur,105,7
Kheshrahi,92,5
Hilalpur,163,10
Sahtha,121,1
APHC Madarna,147,5
Alinagar Levdhan,96,10
Bijhrauli,89,9
Chandpura,93,10
Khilwat,166,2
Sitalpur,91,3
Ismailpur,155,6
APHC Paterha Sarai,192,3
APHC Mahisaur,171,9
Mishraulia,165,4
Banthu,95,1
Salkhanni,89,6
Chandsarai,123,1
APHC Ghataro,78,10
Gorigama,92,5
Kiratpur,80,1
APHC Malanghat,55,3
Turkyvande,178,2
Bhan Borha,86,1
Bardiha,75,8
Nenha,199,7
Kashipur,105,10
Husenipur,130,2
Chechar,195,4
baikunthpur,63,4
Pirapur,122,5
APHC Nasratpur,143,4
Jagdishpur,145,7
Jahangirpur Sham,76,10
Phatikwara,177,2
Balwa Koari,110,7
Lalganj,82,6
Desari,107,6
Jagdishpur,155,5
Bibipur,67,10
APHC Sondho,52,6
Manjhauli,65,7
Rampur Chaklala,192,7
Chaksingar,159,10
Kailajalalpur,124,7
Sahpur Chandan,144,9
Narendra Prabodhi,134,7
RH Raghopur,187,4
APHC Chamrahra,134,8
Abhwan,110,9
Izara Bishanpur,174,1
Ajijpur Chande,157,5
Parmanandpur,121,10
Nauwachak,150,6
Teetra,88,9
Senduari,96,3
Mukundpur Bhath,77,4
APHC Tisiauta,182,9
Chakramdas,183,4
Gaushpur,190,8
Bithauli,62,8
Purkhauli,100,2
Karneji,188,9
Hudhudpur,161,8
Kuttubpur,112,2
Chapaith,146,9
Belwar,163,3
Bakhari Supayan,131,1
APHC Karnpura,55,9
APHC Hansi Malahi,152,1
Teknari,131,6
Marui,112,1
Kumharkol,147,8
Sumerganj,187,2
Jalalpur,64,3
Bhathandi,196,4
Dighi Kala Paschmi,53,1
Baghnocha,175,10
APHC Baligaon,144,3
Maniyarpur,114,4
Chandwara Paschim,135,1
Lawapur Mahnar,199,2
Chakgulamuddin,196,9
Jahangirpur,133,4
Mahnar,69,8
Nilorukandpur,189,8
Kishanpura,156,10
APHC Harauli,145,4
Paharpur,75,10
Jalalpur,158,1
Barahrup,170,2
Manjhauli,57,7
Fatehpur,126,6
Erajee KanchanPur,173,7
Kailitand,51,3
Lawapur Narayan,171,6
Ufraul,103,7
Boraha,133,6
Kamalpur,133,7
Chiknauta,146,10
Sahori,89,5
Ebrahimabad,53,10
bhojpatti,104,7
Inayatpur Parbodhi,52,9
Imadpur,123,2
Khalshaghat,114,5
Afzalpur Puraina,81,2
Bhairokhara,78,7
Bhathadasi,66,6
Raja Pakar,198,7
Husaina Raghav,184,6
Alipur Hatta,89,6
Fulwaria,122,4
Amritpur,67,9
Rustampur,103,3
Sirsa Biran,75,3
Koari Buzurg,177,9
Pokhraira,72,9
Paharpur Purvi,87,2
Pattibandhu Rai,161,7
Mathura,112,1
Navanagar,69,3
Shital Bhakurahar,151,2
Chehrakala,152,3
Majrohi,144,1
Balwa Jairam,155,8
Lodipur,94,1
Kadilpur,60,6
Kwahi,122,2
Husena Khurd,115,3
Mohanpur,120,3
Sehan,140,9
APHC Jarang,70,5
Panapur Langa,194,5
Bilandpur,55,3
Jafarpatti,176,5
Matiyara,156,7
Bakhri Dua,154,5
Jatkauli,96,7
APHC Sarai Patedha,110,6
APHC Basudevpur,108,5
Rampur Shyamchand,143,9
Singhara,170,8
Dilawarpur,66,10
Shahdullahpur,133,4
Ajampur,71,9
Mathna,118,8
Hasanpur Naya,82,1
Nami Dih,192,10
Salha Mamsai,174,10
Akhtiyarpur,144,2
Gobindpur Bela,50,4
Saidpur Dumra,155,7
Mamrejpur,163,10
Sultanpur,74,8
Raghopur Purvi,73,10
Karhari,89,10
Thathan,112,3
Rohua,165,6
Hakimpur,168,3
Shahpur,187,7
Narayanpur,61,1
Hajipur,178,2
Mansoorpur,178,8
Hasanpur Purana,150,8
Purantand,141,9
Jahangirpur,162,4
Madhurapur,57,1
Jaitipur,92,7
Jagdishpur,101,10
Khoksa,161,6
Mirzanagar,175,6
Kutubpur Dumari,168,2
APHC Garanhi,98,7
Dadhua,118,9
Kushar,89,6
Simarwara,163,3
Bathna,50,4
Kowari,138,5
Rupsipur,145,9
Salempur,169,6
Dharampur,123,3
UHC Lalganj,117,10
Gopalpur,81,8
Saidabad,167,3
Kanchanpur,68,7
Sirsa Ram Rai,187,8
Anjani,87,7
Patepur,185,7
Laxmi Narayanpur,170,5
Ismilepur,198,10
Bhathahi,131,4
Agrail,64,4
Gangti,158,5
APHC Birpur,87,2
APHC Pakauli,168,5
Chandpura,102,6
Nilkanthpur,157,2
Sathiauta,142,3
Jouaj,155,2
Khajechand Chhapra,130,6
Dhobghatti,175,4
Bahuara,117,10
Nagwan,162,4
Jagodih,53,10
Goraul,181,5
Mahti Dharamchand,167,7
Narharpur,184,4
Madhopur,93,9
Madusudan Pakri,126,7
Pojha,57,7
Ramdauli,152,8
Hassanpur Wosti,56,2
Boariya,186,5
Chhatwara,123,7
Jagarnathpur,58,3
Balughat,62,7
Habibpur,183,10
Karnpura,84,1
APHC Rupnarayanpur,199,6
Soharthi,65,8
APHC Mallikpur,152,7
Jafrabad,64,2
Murtzapur Dumri,119,7
Chandpura,190,3
Rasalpur,105,10
Karmopur,120,7
Bhikhanpura,134,6
Himmatpur,103,3
Sihma,186,7
APHC Sain,87,2
Dhandhua,169,6
Kanhauli,107,5
Jayantigram,107,3
Patedha Bujurg,90,1
Haleya,93,10
UHC Mahnar,69,8
APHC Kathara,152,4
Bidupur,177,3
Madhoul,176,5
Akbar Malahi,57,4
Thanpur,96,8
Ababakarpur,164,3
Loma,186,7
Rajapakar South,156,10
Maudah Bujurg,89,1
Chhitrouli,66,1
Purainia,191,7
Hariharpur,96,10
Basauli,140,4
Ratanpura,56,1
Bishanpur,177,10
Narikala,164,1
Gadai Sarai,109,3
Ranipokhar,120,1
Panapur Silauthar,124,6
Bahrampur,60,7
Kutubpur Rajauli,143,4
Vaishali,121,1
Baranti,136,2
APHC Anirudh Belsar,64,5
Sarsai,51,1
Chandwara East,60,9
Jasparha,73,7
Chaklahlad,97,3
Kamtaulia,81,9
Badewa,106,6
Raghopur Paschami,65,1
Piroi,94,4
Bariyarpur,87,10
APHC Jurawanpur,178,10
Bela Dargah,193,5
Rampur Bakhra,120,1
Dayalpur,136,6
Daudnagar,111,4
Balatar,144,6
APHC Hauzpura Hat,79,4
Chehra Kalan,192,6
Asoi,66,1
Kakarhatta,165,10
Harpur Mukund,93,1
Cakgadho,81,4
Porar,123,2
Jahangirpur Patedha,177,6
Terasia,155,4
Maricha Ram,107,5
Panapur Batesarnath,182,5
Paunihasanpur,174,4
APHC Pohiyaar,127,6
Nirpur,64,8
Bajitpur,69,2
SDH Mahua,57,7
Taiyabpur,137,3
Rampur Khairi,198,5
Arra,109,10
Shahpur,79,10
Adampur,197,5
Harpurbelwa,78,2
Belsar,65,4
Kadhiyo,156,9
Ijra,150,6
Rukmanijri,110,2
Khanpur Pakari,86,4
Bakadh,92,1
Deewantok,104,7
Chakmohizama,169,8
Jandaha,136,7
Hasanpur Hawraha,172,2
Chandralay,99,2
Rampur Karari,171,5
Khopi,128,3
Mandaidih,195,2
Toi math,157,2
Narikhurd,59,9
Gajipur,185,4
Loma,68,8
APHC Partap Tanr,143,9
Mohanpur,122,8
Raghopur Narsanda,152,4
Gurmishwa,133,2
Gurmiya,108,2
Manganpur,59,6
Sahdullahpur,84,9
Kushdey,70,9
Peerapur,54,1
Chaurahi,100,3
Harprasad,138,10
Kanti,168,8
APHC Bhagwanpur Ratti,176,8
Sukumarpur,66,6
Baidyanathpur,120,9
Chakvyas,156,8
Patedhi Belsar,195,2
APHC Shubhai,74,1
Hargobindpur,85,4
Sarmastpur,64,10
APHC Ghoswar,102,7
Taraura,122,1
Sukki,185,3
Panapur,130,8
Karnauti,111,3
Lalganj,174,4
Pahetiya,70,7
Baksama,138,9
Chintamanipur,181,6
Bitandipur,102,10
Maudah Chatur,145,10
Haharo,199,1
Bahadurpur,70,4
Jalalpur,195,9
Murtujapur,70,5
Adalpur,110,8
Bhagwanpur,149,8
Dih Buchauli,68,1
Murawatpur,70,6
APHC Dhabauli,78,8
Kartaha,180,1
Bahuara,51,7
Rahimpur,132,8
Keshopur,184,1
Sahdai Buzurg,191,4
"Sadar Hospital, Hajipur",156,9
APHC Chand Sarai,154,4
Rampur Baghel,178,5
Rampur Ramhar,147,5
Dhanushi,111,2
APHC Chaksikander,133,10
Margi,123,8
Pojhiya,171,9
Rajapakar Uttari,141,6
Fatehpur,154,5
Bejha,129,1
Mahua,103,1
Malpur,121,10
Bhadwas,54,9
Manikpur Pakri,192,10
Nayagaon,183,9
Chakeyaaj,76,1
Kharika,140,7
Kalyanpur,180,2
Suratpur,134,9
Rampurani,166,2
Khanjaha Chak,83,6
Bishanpur,149,4
Mail,187,3
Shivnagar,136,9
Chakmajahid,62,7
Rahsa,136,8
Dabhaichh,53,7
Lalpura,111,3
Madhaul,131,2
Mishratola Alahdad,136,7
Dumari,168,4
Bajitpur,167,1
Kheshrahi,188,8
Hilalpur,152,4
Sahtha,153,9
APHC Madarna,92,6
Alinagar Levdhan,77,3
Bijhrauli,67,1
Chandpura,140,2
Khilwat,61,10
Sitalpur,121,1
Ismailpur,188,4
APHC Paterha Sarai,149,1
APHC Mahisaur,60,1
Mishraulia,137,8
Banthu,67,1
Salkhanni,60,2
Chandsarai,164,2
APHC Ghataro,113,10
Gorigama,113,5
Kiratpur,188,5
APHC Malanghat,146,4
Turkyvande,183,8
Bhan Borha,167,6
Bardiha,198,3
Nenha,52,9
Kashipur,150,1
Husenipur,193,9
Chechar,126,4
baikunthpur,97,1
Pirapur,163,8
APHC Nasratpur,173,4
Jagdishpur,54,3
Jahangirpur Sham,50,1
Phatikwara,104,6
Balwa Koari,126,8
Lalganj,100,5
Desari,160,7
Jagdishpur,158,10
Bibipur,153,3
APHC Sondho,56,2
Manjhauli,136,7
Rampur Chaklala,177,6
Chaksingar,141,6
Kailajalalpur,131,8
Sahpur Chandan,55,8
Narendra Prabodhi,144,5
RH Raghopur,190,4
APHC Chamrahra,128,4
Abhwan,117,5
Izara Bishanpur,81,2
Ajijpur Chande,135,9
Parmanandpur,100,9
Nauwachak,81,4
Teetra,136,8
Senduari,122,6
Mukundpur Bhath,131,9
APHC Tisiauta,178,8
Chakramdas,89,9
Gaushpur,166,3
Bithauli,157,2
Purkhauli,91,1
Karneji,132,10
Hudhudpur,158,10
Kuttubpur,138,8
Chapaith,97,3
Belwar,117,8
Bakhari Supayan,131,6
APHC Karnpura,111,8
APHC Hansi Malahi,150,5
Teknari,154,8
Marui,146,7
Kumharkol,122,5
Sumerganj,187,5
Jalalpur,139,10
Bhathandi,141,6
Dighi Kala Paschmi,131,5
Baghnocha,188,10
APHC Baligaon,198,1
Maniyarpur,127,1
Chandwara Paschim,152,3
Lawapur Mahnar,145,6
Chakgulamuddin,161,9
Jahangirpur,133,1
Mahnar,136,6
Nilorukandpur,78,4
Kishanpura,192,2
APHC Harauli,169,3
Paharpur,124,7
Jalalpur,199,8
Barahrup,125,6
Manjhauli,154,8
Fatehpur,61,8
Erajee KanchanPur,93,10
Kailitand,149,4
Lawapur Narayan,62,2
Ufraul,181,3
Boraha,58,8
Kamalpur,157,9
Chiknauta,173,10
Sahori,54,1
Ebrahimabad,123,10
bhojpatti,69,7
Inayatpur Parbodhi,195,5
Imadpur,128,8
Khalshaghat,161,5
Afzalpur Puraina,133,8
Bhairokhara,116,2
Bhathadasi,192,3
Raja Pakar,191,5
Husaina Raghav,67,7
Alipur Hatta,120,6
Fulwaria,118,2
Amritpur,143,8
Rustampur,57,4
Sirsa Biran,75,7
Koari Buzurg,170,2
Pokhraira,120,5
Paharpur Purvi,190,1
Pattibandhu Rai,138,6
Mathura,80,6
Navanagar,78,6
Shital Bhakurahar,108,8
Chehrakala,189,7
Majrohi,54,4
Balwa Jairam,176,1
Lodipur,156,10
Kadilpur,50,1
Kwahi,183,5
Husena Khurd,112,9
Mohanpur,135,6
Sehan,67,10
APHC Jarang,182,6
Panapur Langa,63,8
Bilandpur,84,10
Jafarpatti,126,3
Matiyara,187,1
Bakhri Dua,97,9
Jatkauli,190,3
APHC Sarai Patedha,150,9
APHC Basudevpur,99,4
Rampur Shyamchand,194,6
Singhara,196,6
Dilawarpur,130,10
Shahdullahpur,125,10
Ajampur,140,8
Mathna,177,9
Hasanpur Naya,91,3
Nami Dih,79,3
Salha Mamsai,71,10
Akhtiyarpur,195,10
Gobindpur Bela,85,1
Saidpur Dumra,173,8
Mamrejpur,104,4
Sultanpur,160,2
Raghopur Purvi,104,4
Karhari,119,7
Thathan,176,3
Rohua,98,8
Hakimpur,140,4
Shahpur,182,5
Narayanpur,155,3
Hajipur,181,9
Mansoorpur,98,7
Hasanpur Purana,189,7
Purantand,199,8
Jahangirpur,190,4
Madhurapur,186,9
Jaitipur,82,8
Jagdishpur,167,6
Khoksa,115,7
Mirzanagar,164,6
Kutubpur Dumari,120,6
APHC Garanhi,105,9
Dadhua,113,10
Kushar,136,4
Simarwara,112,10
Bathna,103,7
Kowari,151,6
Rupsipur,68,1
Salempur,121,3
Dharampur,108,8
UHC Lalganj,182,6
Gopalpur,107,10
Saidabad,105,1
Kanchanpur,90,9
Sirsa Ram Rai,80,1
Anjani,169,5
Patepur,80,7
Laxmi Narayanpur,187,3
Ismilepur,194,7
Bhathahi,149,4
Agrail,120,5
Gangti,59,8
APHC Birpur,51,4
APHC Pakauli,122,10
Chandpura,76,10
Nilkanthpur,166,7
Sathiauta,189,9
Jouaj,163,7
Khajechand Chhapra,198,8
Dhobghatti,91,10
Bahuara,74,10
Nagwan,61,6
Jagodih,95,6
Goraul,87,6
Mahti Dharamchand,167,5
Narharpur,169,8
Madhopur,161,10
Madusudan Pakri,158,5
Pojha,123,4
Ramdauli,177,4
Hassanpur Wosti,159,7
Boariya,52,2
Chhatwara,161,6
Jagarnathpur,108,10
Balughat,188,2
