Health Facility Name,Number_Of_Beds,Rating
Koli,129,2
APHC Davtori,55,8
Luxmipur,106,10
Faizganj,123,4
SC Mannunagar,93,1
URBAN HEALTH POST NEKPUR,194,4
Haiderpur,73,2
Bhau Nagala,132,3
Roopapur,136,7
Mugarra,176,1
Khajuriya,137,9
NOORPUR PINAUNI,53,8
Shakari jangel,91,10
Gobind Pur,119,3
Lahi Faridpur,120,7
CHC Bisauli,61,10
Ghatiyari,106,5
Gathona,186,9
Jagat 2,199,10
Pinoni,119,7
Mirzapur Sohra,63,6
Kott,164,7
Guvindpur,172,3
Darela,150,1
KUNWARGAON,88,1
Pusgwan,146,9
Bhoyas,59,1
Mujhiyana,59,1
Mohd. Nagar Sulra,164,6
Mudiya Dhureki,136,10
Bhatoli,167,9
Kundra Majhara,59,3
Kriya Mai,126,9
Shadipur,53,6
Kheda Das,152,10
Kunwargaon,166,1
Bela Dandi,195,5
Hajratpur,126,2
Asis,104,4
Kandela,186,9
PHC Usawan,109,6
Pachdevaria,137,3
Mahtab Pur,108,8
Faizganj Behta,145,3
katinna,73,2
Kundavali,198,6
Baksena,132,10
Girdhaul,86,10
Dugaraiya,180,10
Jagat Main Center,106,4
Bichola,83,7
Nosera,150,10
Kartouli,192,8
Bajur,100,3
Jalalpur,114,9
Basbarouliya,53,7
Rasoolpur kala,61,6
APHC Asrasi,178,2
Ghaghosi,158,2
Rota,104,8
Byor,64,9
Pindoul,148,6
Hajratpur,98,8
Gotha,125,9
Bangadh,140,6
Dakpura Meerapur,87,8
ASARASI,74,3
Khandak,160,7
PHC Saidpur,155,8
Bamiyana,190,2
Jhuksa,176,8
Taalgaon,72,3
Gurgaon,61,3
Pepal,132,3
Ahirwara,127,6
Aipura,112,9
Baramay Kheda,156,2
Siddhpur,83,10
Ughaiti,149,7
Khiriya,191,10
BHAVIPUR,181,6
Pepal,51,5
Garuiya,121,6
Mujariya,123,8
Dadmai,113,8
Behta Gusai,116,3
Mohkampur,156,8
Rafi Nagar,128,3
CHC Dataganj,121,9
Parvez Nagar,68,7
BhamorI,153,8
Gandah,131,5
Barahi,106,3
Sareli,85,4
Saraira,73,9
Khunak,132,1
Bhundi,106,1
Noli harnathpur,151,10
Bhitara,183,8
Sidha Pur,98,5
Haidalpur,75,7
PHC Isalamnagar,175,9
Kakoda,171,2
APHC Bhadroul,105,3
Sahan Pur,193,2
Mion II,96,2
Ujhani I,126,4
Rasolpur,190,5
Pasei,151,2
Khajuriya,50,9
Kachla,181,9
Bilsi,158,4
Garhi Khanpur,103,8
Maithara,105,10
Badullaganj,119,10
Bisauli,134,6
Sirsa Khurd,137,3
KHANDUA,138,7
Allhaipur samaspur,75,5
Navi Ganj,64,10
Hajratganj,52,2
Paroli,66,1
Jaipal Pur,170,6
Nagpur,81,4
Mahera,183,3
Mirjapur,183,1
Rehadiya,67,10
Sakhanu,135,10
Patsa,180,9
Bagrain,176,7
Biyoli,195,4
kachora,134,10
Basawanpur,98,1
Aamgaon,123,4
Parouli,185,10
Aoranga bad     Tappa jamini,173,4
Bhusaya,124,2
Khukadi,193,7
Bemnosi,183,2
Danvri,189,2
CHC Asafpur,120,9
Bothariya,164,5
Kheda Bujurg,84,3
Singthara,118,9
Andharau,100,4
Mohsanpur,83,2
Ughaiti,124,1
Ghaghonsi,131,4
KARANPUR,155,4
Shekhupur,64,3
RUDAYAN,82,10
Kour,186,8
Malgaoon,192,4
Chandoee,64,3
Koda Jaikran,76,6
Jarenda,66,5
Shekhupur II,58,5
Gandah,125,7
Bachi,168,7
Varisamaspur,76,2
Bela dandi,135,2
Sikri,121,4
Sareli,69,2
Ramzanpur,182,3
Khera-Bujurg,198,4
Badenia,58,3
Jalalpur,165,10
Behta,199,8
Siratol,171,4
Noorpur Pinouni,143,1
Khitoura,144,3
Sataiti,117,9
Eakri,126,4
Dumaira,119,1
Kishani mahera,192,1
Sithouli,120,9
Kadrabad,57,3
Badulla ganj,50,8
APHC Kachhala,56,5
Bhadrol,82,5
Padua,86,4
Pipri,186,7
Bitroee,75,4
Bhundi,130,3
Amgaon,172,7
Amratpur,137,7
Nouli,87,9
Surahi,70,9
Kisarua,118,9
Paliya Gujar,155,4
Mongar,83,3
Katgaw,186,7
Dugraiya,150,5
ushait,174,1
Salarpur,192,3
Kundara,175,4
Lakhanpur,63,10
Paliya Lattu,165,5
Shekhupur,179,4
Jhuksa,70,1
Guladiya,127,5
Kakoda,83,5
Kerkhedi,168,4
Rasoolpur Bela,100,1
Qaderchowk II,130,7
Iekh Kheda,98,1
Sukhora,74,3
Nagriya Chikan,55,2
Sikrodi,157,10
Nasir Pur,89,3
Arsis,161,2
Haibatpur,128,4
APHC BADULLAGANJJ,87,3
Paroli,153,1
Kaur Mankapur,92,5
Upraila,60,8
Nijampur,151,8
Bamiyana,180,9
Mithamai,186,1
Ismailpur,95,6
Daherpur Khurd,82,3
CHC WAJEERGANJ,156,6
APHC Majhara,155,6
Khajuriya,197,9
Silahari,172,4
APHC Bagrain,133,1
Kundawali,131,6
Saijani,166,10
APHC KHITAURA,189,8
Shahzadnagar,76,3
Majhara,138,4
Pindol,144,4
Baror,162,9
CHC Bilsi,60,9
Pusgawa,162,5
Chitora,90,9
Labhari,94,7
Binawar,193,4
Mo. Ganj,154,3
Lakhanpur,77,9
Biyor Kasimpur,174,9
Muhammad Nagar Sulara,156,5
Ghilor,146,5
Nadha,189,9
Sakari,145,6
Sangrampur,176,7
Behata Pathak,141,8
Dumera,196,9
Dalel Nager,62,10
Alapur Ist,91,4
Sisiyan GOSAI,156,2
Rinaeya,180,8
CHC Sahaswan,187,1
Main Centre Saidpur,139,8
ughaiti,95,9
Bhakroli,143,1
Amratpur,157,10
Katara Saadatganj,66,3
Ramjan Pura,172,10
Riyonai,109,6
Pipri,193,1
Nagala Varah,127,8
Bachi,73,3
Kurau,165,7
Behata Gosai,128,10
Kartoli,87,7
Vitroe,69,8
Karanpur,146,7
Chandoe,162,7
APHC  Behata Gosai,76,2
Byor,141,1
Sukhoura,78,7
Versua,132,9
Main Center Qaderchowk,153,7
Amanpur,108,8
Sakri,172,10
Mion I,137,3
Asouli,108,3
Nagla Barah,57,1
Akberpur,91,10
Dahgawan,120,2
Usawan Dehat,99,2
Changasi,105,8
Sursena,197,6
Arif pur Navada,125,1
Nana Kheda,106,9
APHC NADHA,131,3
Kheda jamalpur,163,3
Jamalpur,195,2
Hathra,115,6
Hasanpur,98,1
Danur,94,4
Puraini,193,7
Mujhiyana,172,9
Rinuia,76,7
Bangar,86,3
Kama,185,4
Jhandpur,184,7
Surae,72,8
Khukhdi,97,10
Sahaswan II,140,7
Khandua,141,3
Jarainda,62,5
Khiriya Bakarpur,158,5
Sateti,101,6
APHC Noli harnathpur,136,9
Pahadpur,185,10
Husiapur,187,9
Veramay Kheda,139,2
Mohasanpur,178,9
Phoolpur,132,3
Kisarua,97,2
Baraimai Khera,90,8
Patsa,94,3
Chandau,181,5
Butala I,147,6
Usaman Pur,196,1
Gura,171,7
Harre Nagala,140,4
Hotipur,87,4
PHC Dehgawan,86,2
Ujhani II,109,6
Guladiya,140,3
Jarif Nagar,61,8
Karan Pur,169,7
Patarchoha,106,2
Kaili,146,1
LAHI-FARIDPUR,178,6
Panodi,135,8
Khandua,109,4
Sisora,155,4
Katra Sadatganj,166,9
Tigulapur,172,9
Hazratganj,96,3
Dabtori,190,10
Pasaiyee,146,8
Azampur,133,10
Haivat Pur,153,10
Kheda Jalalpur,183,4
Chandau,80,1
Kadeka,174,7
Salempur,148,10
APHC Alapur,132,9
Sakri Jangal,167,4
Ghatpuri,195,10
Pushgawan,198,5
Gidhoul,96,8
Main Centre Islamngar,110,2
Sarh Baroliya,176,3
Malgaon,155,10
Lakshmipur,104,10
Puthi,123,8
Khunak,163,9
Butala Daulat,88,8
Kariya vain,136,2
Kariyamay,192,3
Kakrala,134,1
Asarasi,112,1
APHC Gura,61,9
Parsona,79,8
Riyonai,156,3
Kaili,72,4
Daherpur,151,4
Harendi,151,1
APHC Mohkampur,86,2
Baans Baroliya,199,10
Barour,176,9
Sidhouli,192,1
Bhatpura,187,1
Katiya,173,1
Nogawa Nasi Nager,53,2
District Male Hospital Budaun,78,7
Mudiya Satasi,54,2
Butla,174,1
Alapur IInd,94,5
Kadarabad,125,8
Bilahari,110,10
Sadullaganj,93,4
Samastpur,172,5
APHC GANDAH,174,8
Phoolpur,56,1
Sahaswan I,195,3
Mongar,137,1
Mustafa bad,52,8
Labhari,190,8
Bhanpur,135,10
Bhakrouli,111,3
Gadi Khanpur,80,8
Sarai Piparia,123,4
Sisarka,54,1
Nana Khera,158,3
Nijampur,92,2
Lilva,134,10
Parsona,66,8
Barahi,54,8
Samas Pur Bhund,155,9
Abdulla Ganj,169,9
Sirasaul,141,2
Butala II,110,6
Mudiya,158,6
Malpur,154,8
Gidhaul,149,5
Binawar II,163,9
District Women Hospital Budaun,119,6
Talgaon,135,9
Rijola,97,4
Bharatpur,62,6
Abdullaganj,90,8
Mohamadpur May,163,6
Salempur,156,3
Ahirwara,130,5
Bilahat,121,1
Lalpur Khadar,125,1
Samrer,75,4
PHC Samarer,192,8
Dugo Lehara,71,8
Uraina,74,8
Sanjar Pur,68,8
Silhari,79,3
APHC Sataiti,141,7
Shah Barauliya,132,4
Sisaiya,144,10
Allahpur,53,5
Gotara,185,3
Bamas Nagla,155,3
APHC Sadullahganj,117,7
Tiklapur,157,9
Tikuri,116,7
Varsua,180,8
Simrra,156,9
Nizampur,78,9
Uraina,184,4
Dharmpur,154,2
Arif pur Navada,168,8
Ghatiyari,143,7
Yapura,176,10
Hasanpur,97,6
Oeya,85,6
Kundra Khanu,105,1
Sirasoul,174,7
CHC Kaderchowk,108,2
Main Centre Asafpur,170,7
Kurau,127,4
Dakara Pukta,137,10
Eswari Nagala,75,8
Gura II,136,10
Aliganj,109,3
Dharmpur,168,5
Sathara,79,1
Sirtoul,64,5
Puraini,186,6
Jareefpur Gadiya,74,8
Nizampur Shah,88,3
Sadullaganj,194,1
Kolihai,196,5
Gudani,123,7
Simarra Bhojpur,85,5
Sadpur,151,6
CHC Jagat,140,7
Jaitpur,114,10
Rasoolpur Kalan,109,2
BILSI,68,4
Ekha Khera,92,4
PHC Myanu,98,10
Dihora Shekhapur,69,4
Marauri,123,2
Kchoura,144,4
RASOOLPUR,172,8
Kor,147,7
Gadhouna,108,4
Salarpur,115,1
Vasavanpur,84,5
Lahi-Faridpur,55,6
Silahari,71,8
Risauli,167,8
Kakrala,181,2
Gudhni,67,5
Musaya,103,4
Nagriya Khanu,164,1
RASOOLPUR,60,5
Ushait,109,4
Baramai Kheda,78,7
Behta Pathak,128,2
Bhoodh Bisauli,109,4
Kot,80,8
Machlai,87,1
Shahjad Nagar,122,8
Kunwar Gaoon,83,3
Achora,99,2
Sujawali,169,9
CHC Binawar,156,8
Kuwergawn,65,5
Barategdar,177,10
Koli,85,1
APHC Davtori,101,5
Luxmipur,185,5
Faizganj,111,8
SC Mannunagar,135,10
URBAN HEALTH POST NEKPUR,75,10
Haiderpur,184,5
Bhau Nagala,155,10
Roopapur,163,2
Mugarra,86,8
Khajuriya,137,5
NOORPUR PINAUNI,131,5
Shakari jangel,68,10
Gobind Pur,162,5
Lahi Faridpur,63,1
CHC Bisauli,128,5
Ghatiyari,70,9
Gathona,115,8
Jagat 2,121,2
Pinoni,162,8
Mirzapur Sohra,90,10
Kott,106,5
Guvindpur,123,10
Darela,61,7
KUNWARGAON,146,1
Pusgwan,182,6
Bhoyas,99,5
Mujhiyana,171,8
Mohd. Nagar Sulra,61,1
Mudiya Dhureki,165,5
Bhatoli,148,5
Kundra Majhara,155,10
Kriya Mai,65,5
Shadipur,159,5
Kheda Das,187,3
Kunwargaon,140,4
Bela Dandi,144,7
Hajratpur,104,5
Asis,102,5
Kandela,107,7
PHC Usawan,135,10
Pachdevaria,113,3
Mahtab Pur,141,9
Faizganj Behta,141,2
katinna,76,1
Kundavali,93,4
Baksena,158,3
Girdhaul,76,6
Dugaraiya,138,10
Jagat Main Center,110,5
Bichola,165,4
Nosera,135,9
Kartouli,122,1
Bajur,56,1
Jalalpur,126,4
Basbarouliya,64,3
Rasoolpur kala,184,6
APHC Asrasi,71,3
Ghaghosi,123,8
Rota,139,10
Byor,59,5
Pindoul,117,5
Hajratpur,171,2
Gotha,151,1
Bangadh,138,2
Dakpura Meerapur,86,6
ASARASI,193,4
Khandak,111,9
PHC Saidpur,132,1
Bamiyana,190,6
Jhuksa,71,9
Taalgaon,63,3
Gurgaon,179,10
Pepal,111,5
Ahirwara,89,4
Aipura,142,5
Baramay Kheda,139,1
Siddhpur,118,6
Ughaiti,53,3
Khiriya,86,1
BHAVIPUR,72,4
Pepal,142,9
Garuiya,101,2
Mujariya,60,3
Dadmai,68,4
Behta Gusai,156,7
Mohkampur,188,5
Rafi Nagar,146,9
CHC Dataganj,77,4
Parvez Nagar,126,5
BhamorI,185,7
Gandah,196,10
Barahi,151,1
Sareli,159,8
Saraira,71,9
Khunak,177,9
Bhundi,101,5
Noli harnathpur,162,8
Bhitara,160,6
Sidha Pur,70,2
Haidalpur,146,1
PHC Isalamnagar,192,1
Kakoda,115,1
APHC Bhadroul,111,10
Sahan Pur,74,6
Mion II,157,1
Ujhani I,180,5
Rasolpur,194,3
Pasei,173,8
Khajuriya,84,5
Kachla,192,7
Bilsi,121,2
Garhi Khanpur,194,5
Maithara,178,7
Badullaganj,181,2
Bisauli,87,10
Sirsa Khurd,184,7
KHANDUA,129,7
Allhaipur samaspur,138,9
Navi Ganj,192,3
Hajratganj,165,7
Paroli,84,4
Jaipal Pur,54,7
Nagpur,166,1
Mahera,181,6
Mirjapur,65,10
Rehadiya,116,8
Sakhanu,116,2
Patsa,85,8
Bagrain,127,7
Biyoli,98,10
kachora,112,8
Basawanpur,141,6
Aamgaon,105,5
Parouli,52,2
Aoranga bad     Tappa jamini,115,1
Bhusaya,168,4
Khukadi,170,3
Bemnosi,144,8
Danvri,176,3
CHC Asafpur,160,7
Bothariya,83,7
Kheda Bujurg,97,9
Singthara,128,4
Andharau,166,5
Mohsanpur,152,5
Ughaiti,107,10
Ghaghonsi,74,3
KARANPUR,55,10
Shekhupur,143,1
RUDAYAN,70,7
Kour,121,4
Malgaoon,80,8
Chandoee,150,8
Koda Jaikran,82,1
Jarenda,127,7
Shekhupur II,174,5
Gandah,86,4
Bachi,146,7
Varisamaspur,75,6
Bela dandi,189,3
Sikri,177,3
Sareli,107,3
Ramzanpur,102,9
Khera-Bujurg,133,4
Badenia,59,10
Jalalpur,180,5
Behta,100,8
Siratol,127,10
Noorpur Pinouni,93,2
Khitoura,173,7
Sataiti,173,10
Eakri,162,4
Dumaira,125,6
Kishani mahera,83,7
Sithouli,50,7
Kadrabad,101,2
Badulla ganj,137,8
APHC Kachhala,56,8
Bhadrol,132,3
Padua,130,1
Pipri,75,7
Bitroee,156,9
Bhundi,78,9
Amgaon,189,7
Amratpur,169,4
Nouli,196,1
Surahi,62,3
Kisarua,158,7
Paliya Gujar,115,2
Mongar,129,3
Katgaw,156,3
Dugraiya,176,9
ushait,164,9
Salarpur,76,5
Kundara,131,3
Lakhanpur,114,9
Paliya Lattu,172,5
Shekhupur,137,7
Jhuksa,171,10
Guladiya,51,1
Kakoda,57,5
Kerkhedi,57,6
Rasoolpur Bela,130,1
Qaderchowk II,63,1
Iekh Kheda,134,5
Sukhora,85,10
Nagriya Chikan,138,5
Sikrodi,105,8
Nasir Pur,77,1
Arsis,101,7
Haibatpur,59,3
APHC BADULLAGANJJ,54,5
Paroli,198,1
Kaur Mankapur,122,2
Upraila,104,6
Nijampur,141,2
Bamiyana,180,6
Mithamai,114,4
Ismailpur,66,6
Daherpur Khurd,191,8
CHC WAJEERGANJ,139,6
APHC Majhara,98,1
Khajuriya,78,8
Silahari,198,9
APHC Bagrain,171,3
Kundawali,106,4
Saijani,180,4
APHC KHITAURA,98,10
Shahzadnagar,74,5
Majhara,54,10
Pindol,114,1
Baror,178,3
CHC Bilsi,56,3
Pusgawa,136,4
Chitora,189,7
Labhari,151,8
Binawar,189,2
Mo. Ganj,193,3
Lakhanpur,134,10
Biyor Kasimpur,97,9
Muhammad Nagar Sulara,149,7
Ghilor,198,2
Nadha,118,10
Sakari,131,4
Sangrampur,142,5
Behata Pathak,115,5
Dumera,183,6
Dalel Nager,129,9
Alapur Ist,64,7
Sisiyan GOSAI,160,6
Rinaeya,83,3
CHC Sahaswan,116,3
Main Centre Saidpur,62,9
ughaiti,176,7
Bhakroli,199,2
Amratpur,97,2
Katara Saadatganj,167,6
Ramjan Pura,115,3
Riyonai,76,10
Pipri,118,1
Nagala Varah,60,1
Bachi,128,2
Kurau,127,7
Behata Gosai,51,7
Kartoli,190,7
Vitroe,142,2
Karanpur,132,1
Chandoe,194,7
APHC  Behata Gosai,110,4
Byor,106,3
Sukhoura,154,8
Versua,76,1
Main Center Qaderchowk,80,4
Amanpur,100,7
Sakri,163,6
Mion I,63,4
Asouli,119,7
Nagla Barah,161,8
Akberpur,158,8
Dahgawan,76,8
Usawan Dehat,144,10
Changasi,104,1
Sursena,188,10
Arif pur Navada,122,8
Nana Kheda,138,3
APHC NADHA,87,5
Kheda jamalpur,50,2
Jamalpur,183,10
Hathra,138,6
Hasanpur,147,9
Danur,147,9
Puraini,71,5
Mujhiyana,179,2
Rinuia,183,7
Bangar,166,2
Kama,74,4
Jhandpur,56,3
Surae,196,10
Khukhdi,166,2
Sahaswan II,50,3
Khandua,106,6
Jarainda,63,4
Khiriya Bakarpur,156,7
Sateti,153,2
APHC Noli harnathpur,179,7
Pahadpur,79,10
Husiapur,192,8
Veramay Kheda,131,4
Mohasanpur,72,10
Phoolpur,62,3
Kisarua,66,4
Baraimai Khera,195,1
Patsa,102,1
Chandau,122,8
Butala I,146,4
Usaman Pur,89,3
Gura,185,7
Harre Nagala,90,6
Hotipur,50,7
PHC Dehgawan,52,6
Ujhani II,76,3
Guladiya,175,7
Jarif Nagar,146,2
Karan Pur,163,6
Patarchoha,182,9
Kaili,58,1
LAHI-FARIDPUR,109,7
Panodi,165,8
Khandua,192,9
Sisora,95,10
Katra Sadatganj,65,2
Tigulapur,159,4
Hazratganj,182,10
Dabtori,56,9
Pasaiyee,141,7
Azampur,162,2
Haivat Pur,76,1
Kheda Jalalpur,180,5
Chandau,191,9
Kadeka,176,8
Salempur,155,6
APHC Alapur,68,10
Sakri Jangal,192,10
Ghatpuri,143,6
Pushgawan,194,8
Gidhoul,174,7
Main Centre Islamngar,111,1
Sarh Baroliya,66,6
Malgaon,169,1
Lakshmipur,91,2
Puthi,186,10
Khunak,126,8
Butala Daulat,122,5
Kariya vain,131,10
Kariyamay,163,10
Kakrala,106,9
Asarasi,51,1
APHC Gura,193,9
Parsona,111,8
Riyonai,153,9
Kaili,88,3
Daherpur,91,10
Harendi,51,3
APHC Mohkampur,184,5
Baans Baroliya,54,8
Barour,80,2
Sidhouli,123,5
Bhatpura,102,3
Katiya,54,10
Nogawa Nasi Nager,61,3
District Male Hospital Budaun,151,6
Mudiya Satasi,108,5
Butla,147,6
Alapur IInd,67,10
Kadarabad,96,4
Bilahari,61,7
Sadullaganj,188,3
Samastpur,73,6
APHC GANDAH,167,6
Phoolpur,113,7
Sahaswan I,77,2
Mongar,192,9
Mustafa bad,60,5
Labhari,116,8
Bhanpur,124,3
Bhakrouli,110,1
Gadi Khanpur,86,2
Sarai Piparia,113,4
Sisarka,177,2
Nana Khera,129,6
Nijampur,88,5
Lilva,156,5
Parsona,128,2
Barahi,102,3
Samas Pur Bhund,84,8
Abdulla Ganj,98,8
Sirasaul,187,5
Butala II,193,8
Mudiya,168,6
Malpur,193,3
Gidhaul,130,3
Binawar II,58,4
District Women Hospital Budaun,149,6
Talgaon,99,2
Rijola,51,5
Bharatpur,161,6
Abdullaganj,153,9
Mohamadpur May,63,1
Salempur,184,6
Ahirwara,100,4
Bilahat,159,5
Lalpur Khadar,171,9
Samrer,160,8
PHC Samarer,56,2
Dugo Lehara,142,9
Uraina,123,3
Sanjar Pur,71,7
Silhari,125,2
APHC Sataiti,163,1
Shah Barauliya,199,5
Sisaiya,51,7
Allahpur,134,6
Gotara,169,5
Bamas Nagla,54,10
APHC Sadullahganj,196,1
Tiklapur,95,3
Tikuri,183,3
Varsua,73,4
Simrra,172,9
Nizampur,95,9
Uraina,110,9
Dharmpur,139,9
Arif pur Navada,150,7
Ghatiyari,122,6
Yapura,63,3
Hasanpur,193,3
Oeya,85,1
Kundra Khanu,116,5
Sirasoul,148,7
CHC Kaderchowk,161,5
Main Centre Asafpur,164,7
Kurau,133,6
Dakara Pukta,93,5
Eswari Nagala,78,8
Gura II,62,5
Aliganj,149,10
Dharmpur,79,2
Sathara,156,3
Sirtoul,172,6
Puraini,138,7
Jareefpur Gadiya,171,10
Nizampur Shah,194,2
Sadullaganj,150,6
Kolihai,187,7
Gudani,129,10
Simarra Bhojpur,118,3
Sadpur,89,8
CHC Jagat,83,10
Jaitpur,192,5
Rasoolpur Kalan,175,1
BILSI,89,4
Ekha Khera,67,7
PHC Myanu,87,3
Dihora Shekhapur,176,3
Marauri,199,4
Kchoura,87,5
RASOOLPUR,159,4
Kor,69,10
Gadhouna,111,9
Salarpur,170,4
Vasavanpur,155,10
Lahi-Faridpur,159,8
Silahari,126,9
Risauli,79,8
Kakrala,121,3
Gudhni,65,8
Musaya,135,5
Nagriya Khanu,70,10
RASOOLPUR,161,5
Ushait,193,7
Baramai Kheda,176,1
Behta Pathak,99,6
Bhoodh Bisauli,133,4
Kot,198,5
Machlai,108,9
Shahjad Nagar,76,5
Kunwar Gaoon,93,10
Achora,188,3
Sujawali,181,5
CHC Binawar,135,1
Kuwergawn,52,7
Barategdar,153,10
