Health Facility Name,Number_Of_Beds,Rating
DMO Raigad,71,4
Nhave,186,5
RH Chowk,169,8
Paithan,97,10
Vaje,158,1
Dhavate,117,8
Vavanje,197,8
RH Poladpur,159,10
Hetvane,134,2
Sugave,161,9
Talwali,77,6
Khamgaon,73,5
Rave,180,10
Warandh,173,8
Are Khurd,86,3
Shihu,121,7
Valake,170,10
KASHELE,83,5
RH Mahad,116,9
Kurdus,93,3
Ptisai,50,3
Garbhat,169,2
Navgaon,76,4
Washi,91,2
Kon,85,5
Nagothane,127,1
Nandvi,85,10
Pinglas,155,3
Khandape,130,2
Awas,139,4
Mangaon,121,9
Kharwali,117,6
Ashte,60,4
Mothe Shahapur,88,10
Amtem,176,2
Chochinde,122,4
Sarsoli,140,10
Kharamboli,194,8
Vinhere,160,7
Borgaon,149,10
Umarath,176,1
Jambhul,132,10
Municipal Dispensary Khopoli,139,2
Kopar,124,8
Kudali,113,8
Nigudshet,63,5
Ghosale,144,3
Kandhroli,168,2
Jamrung,198,8
Pathraj,152,9
Ramraj,93,8
Koproli,179,9
Khamgaon,121,8
Khamb,163,6
Vaijanath,174,1
Nate,125,8
Kadape,108,10
Manghrun,113,9
Amdoshi,172,7
Mulgaon,95,1
Gulsunde,182,2
Khandala,62,5
Bhanang,127,3
Kharghar,102,10
Shirki,70,7
Kokban,140,9
Kashid,150,5
Vahal,51,1
Vani,115,5
Mahagaon,101,7
BorliPanchatan,118,6
Ritghar,145,5
Sawad,154,9
Poshir,77,9
Nere,118,8
Vashivali,166,7
Pedhambe,55,9
Antore,100,7
Gharapuri,76,1
Lohop,115,4
Navkhar,191,3
Sheltoli,149,10
Shinghre,54,5
Borgaon,147,9
Dasgaon,181,2
Walvati,70,3
Shilar,173,4
Wallen khurd,88,3
Vaghode,120,3
Indapur2,111,7
RH Panvel,66,3
Koproli,107,6
Apta,107,6
Vavoshi,115,4
Koleti,58,6
Kumbale,101,8
Kirawali,94,4
Talwade,144,1
Gadab,182,7
Chimbhave,180,1
Jasai,76,1
Sakhar,124,1
Shirwali,87,1
Vaveghar,81,8
Balvali,170,3
Aambavade,162,8
Dighi,50,7
Varap,181,8
Washi,197,4
Poynad,105,9
Siddheshwar,100,9
Dhamani,128,4
Dapoli,50,9
Ambivali,55,10
Adgaon,51,6
Kalamboli,74,9
Rajpuri,129,5
Manjravane,52,10
Mani Bhute,97,8
Kokban,162,5
Borlipanchatan,152,5
Dahigaon,198,4
Waral,54,6
SDH Pen,103,2
Rajewadi,148,1
Nandgaon,100,7
Morbe,132,4
Mendadi,172,2
Kalhe,69,4
Uddhar,155,5
Indapur,188,4
Yashvantkhar,163,5
Chanje,83,6
Mendadi,179,1
Palas,176,10
Owale,116,8
Chirner,159,9
Wasambe,55,1
Nagaon,75,3
Ambiwali,66,5
Beed,139,8
Karenjadi,74,10
Hamrapur,99,4
Palekhurd,52,8
Mapgaon,170,4
Shelu,135,1
Ajivali,164,10
Talegaon,73,5
Khumbheshivthar,77,3
Varsai,157,5
Gagode Bd.,165,9
Pali,171,10
Palasgaon Bd,124,1
Kurul,166,8
Pedhambe,93,10
Apatwane,198,7
Kodiwale,64,3
Khalapur,193,9
Ambewadi,165,3
Virzoli,102,8
Koste Kd,120,10
Sarebhag,194,8
Anjap,170,5
Chafewadi,54,3
Bori,188,10
Jamrung,139,4
Kalamb,51,5
Mohopada,82,7
Sawali,92,3
Rabgaon,138,4
Nigede,66,5
Rovla,62,8
Pachad,95,7
Lonere,134,5
Dasgaon,110,3
Vadhav,96,5
Parhurpada,130,8
Chinchawali,159,2
Govele,151,1
Navghar,147,8
Mankiwali,116,6
Jambhulpada,63,2
Taloja,115,7
Nawade,52,4
SDH Mangaon,192,6
Alibag,167,1
Bhal,76,8
Agardanda,70,6
Turbhe,159,9
Khandas,75,7
Agrao,84,2
Nijampur,96,3
Shirdhon,59,2
Mahagaon,174,9
Panheli,183,2
Gourkamath,133,9
Walavati,116,7
Nadsur,187,1
Ambivali,174,9
Kumbhivali,63,10
Rees,75,6
Tol,82,7
Asudgaon,55,9
RH Jasawali,64,8
Posari,179,5
Gunjis,195,1
Jaskhar,121,3
Barane,198,7
Kondivade,100,5
Tambas,195,4
Hatnoli,161,8
Nandgaon,52,10
Chouk,121,6
Nijampur,178,10
Velas,145,8
konzar,199,1
Beed,93,6
Sai,184,7
Medha,145,9
Kolkhe,167,2
Veshvi,103,5
Benase,139,6
Chinchoti,112,3
Chouk,173,6
Neral 1,141,7
pansai,119,9
Tala,73,2
Mandad,172,7
Wali,87,3
Vaghran,135,4
Mhasala,131,6
Bamangaon,53,9
Kapde Bk.,81,6
Achaloli,111,10
Rohinjan,53,1
Parali,52,10
Vavoshi,166,1
Majgaon,184,4
Ajivali,52,7
Kadav,111,6
Ambet,136,10
Hatond,197,9
Matheran MCL,79,7
Khanav,127,10
Jite,70,1
Indapur,67,5
Bhalgaon,78,10
SDH Karjat,111,1
Jite,108,8
Kamarli,73,2
Bekare,190,8
Bagmandala,115,5
Nere,179,7
Kalundre,146,3
Palchil,123,3
vighawali,73,7
Roha,103,3
Zirad,146,1
Gangawli,65,3
Vakrul,189,1
Valap,100,10
Kamarli,193,7
Borwadi,78,7
Patnus,112,6
Deshmukh Kambale,158,10
Mahalor,50,6
Cheher,92,7
Dhatav,177,6
Tadvagle,132,3
Vindhane,172,9
Tamhne,149,7
Pashane,199,4
Wave Tarfe Asare,82,8
Esane Kambale,80,3
Birwadi,129,5
Uppar Tudil,144,10
Navghar,66,6
Kudpan,89,2
Bhagad,93,1
Nagaon,118,1
Shrivardhan,151,8
BorliMandla,104,7
Wave,57,1
Neral 2,113,9
Olman,76,2
Bhave,123,7
Mohili,169,5
Ratwad,151,9
Kashele,122,9
Revdanda,94,6
Umbare,166,5
Walen Budruk,57,10
Devali,140,3
Nevrul,181,8
Dahiwad,183,6
Saswane,84,9
Goregaon,107,7
Vavanje,125,10
Warandh,70,2
Lakhapale,119,8
Honad,76,7
Umbarde,82,9
Goregaon,93,1
Maniwali,73,6
Kadav,80,8
Wave,71,9
Neral,81,1
Gavhan,128,10
Dolvi,72,3
Kalote,107,6
Poyanje,196,8
Dhamandevi,198,8
Nhave,162,1
Choudharwadi,116,4
Korlai,136,7
RH Murud,168,2
Arav,192,2
Apte,76,1
Mandavkhar,196,1
Pedali,154,9
Sambhe,91,7
Nandgaon,102,3
Chai,80,10
Kharsai,196,10
Agardanda,90,5
Pabal,174,9
Saral,111,10
Chikhali,59,6
Sai,111,8
Kawade,113,10
Baliware,72,9
Shahabaj,175,3
Sutarwadi,85,3
Ainghar,182,3
Birwadi,153,9
Pitalwadi,123,8
Hareshwar,103,5
Dhokwade,186,5
Bhaliwadi,130,7
Wagholi,139,7
Telenge,139,10
Morba,189,6
Dadar,148,8
Nandvi,99,4
Shrigaon,100,7
RH Uran,135,8
Dandguri,132,8
Harkol,149,7
Kelvane,84,8
Vadhghar,85,2
Lohop,80,5
Vakas,186,8
Gavhan,50,3
Mumurshi,94,10
Usaroli,82,3
Pimpaloli,118,8
Nenwali,92,2
DMO Raigad,73,8
Nhave,94,5
RH Chowk,128,7
Paithan,123,6
Vaje,144,3
Dhavate,104,4
Vavanje,169,8
RH Poladpur,154,9
Hetvane,175,10
Sugave,142,7
Talwali,186,3
Khamgaon,194,8
Rave,52,10
Warandh,133,6
Are Khurd,191,2
Shihu,113,4
Valake,80,1
KASHELE,138,10
RH Mahad,198,7
Kurdus,145,8
Ptisai,52,5
Garbhat,196,4
Navgaon,80,8
Washi,116,9
Kon,95,10
Nagothane,121,3
Nandvi,160,6
Pinglas,142,7
Khandape,125,6
Awas,158,1
Mangaon,131,1
Kharwali,87,10
Ashte,55,5
Mothe Shahapur,189,5
Amtem,194,9
Chochinde,105,9
Sarsoli,108,7
Kharamboli,129,3
Vinhere,101,10
Borgaon,100,3
Umarath,118,2
Jambhul,105,7
Municipal Dispensary Khopoli,97,10
Kopar,151,8
Kudali,66,8
Nigudshet,131,9
Ghosale,52,10
Kandhroli,55,10
Jamrung,113,7
Pathraj,161,10
Ramraj,163,1
Koproli,170,6
Khamgaon,136,3
Khamb,106,2
Vaijanath,76,3
Nate,111,5
Kadape,83,10
Manghrun,85,7
Amdoshi,69,10
Mulgaon,160,8
Gulsunde,72,10
Khandala,118,8
Bhanang,194,10
Kharghar,189,4
Shirki,80,4
Kokban,91,10
Kashid,78,6
Vahal,122,6
Vani,88,10
Mahagaon,105,6
BorliPanchatan,130,3
Ritghar,124,2
Sawad,65,10
Poshir,88,8
Nere,175,1
Vashivali,140,9
Pedhambe,176,6
Antore,97,2
Gharapuri,160,8
Lohop,149,2
Navkhar,183,3
Sheltoli,149,2
Shinghre,99,5
Borgaon,183,9
Dasgaon,142,3
Walvati,178,9
Shilar,131,4
Wallen khurd,148,5
Vaghode,128,2
Indapur2,112,8
RH Panvel,95,6
Koproli,54,2
Apta,132,9
Vavoshi,171,5
Koleti,143,1
Kumbale,94,9
Kirawali,127,9
Talwade,152,5
Gadab,148,7
Chimbhave,59,4
Jasai,116,1
Sakhar,51,7
Shirwali,79,10
Vaveghar,193,4
Balvali,143,10
Aambavade,134,10
Dighi,91,7
Varap,105,8
Washi,177,1
Poynad,124,8
Siddheshwar,111,2
Dhamani,149,8
Dapoli,52,3
Ambivali,101,10
Adgaon,124,7
Kalamboli,60,1
Rajpuri,178,6
Manjravane,175,8
Mani Bhute,197,5
Kokban,111,3
Borlipanchatan,73,1
Dahigaon,190,8
Waral,136,4
SDH Pen,67,1
Rajewadi,59,9
Nandgaon,74,7
Morbe,78,2
Mendadi,53,7
Kalhe,162,1
Uddhar,125,7
Indapur,169,8
Yashvantkhar,123,3
Chanje,109,2
Mendadi,88,7
Palas,61,6
Owale,165,9
Chirner,104,1
Wasambe,75,6
Nagaon,128,5
Ambiwali,177,5
Beed,138,7
Karenjadi,111,4
Hamrapur,143,1
Palekhurd,146,7
Mapgaon,197,4
Shelu,137,9
Ajivali,50,5
Talegaon,67,7
Khumbheshivthar,183,7
Varsai,173,9
Gagode Bd.,150,7
Pali,57,8
Palasgaon Bd,103,6
Kurul,198,8
Pedhambe,50,2
Apatwane,55,3
Kodiwale,182,1
Khalapur,111,5
Ambewadi,189,4
Virzoli,180,10
Koste Kd,188,4
Sarebhag,175,8
Anjap,83,7
Chafewadi,198,8
Bori,65,4
Jamrung,184,7
Kalamb,60,9
Mohopada,77,2
Sawali,53,10
Rabgaon,161,4
Nigede,158,6
Rovla,55,1
Pachad,167,3
Lonere,88,4
Dasgaon,52,8
Vadhav,73,9
Parhurpada,138,6
Chinchawali,173,4
Govele,96,7
Navghar,147,8
Mankiwali,111,10
Jambhulpada,133,2
Taloja,112,6
Nawade,109,3
SDH Mangaon,112,7
Alibag,59,6
Bhal,152,10
Agardanda,184,8
Turbhe,171,5
Khandas,179,8
Agrao,106,5
Nijampur,69,4
Shirdhon,63,5
Mahagaon,123,4
Panheli,193,3
Gourkamath,102,10
Walavati,112,6
Nadsur,158,9
Ambivali,175,6
Kumbhivali,166,2
Rees,117,6
Tol,171,8
Asudgaon,145,3
RH Jasawali,97,3
Posari,106,5
Gunjis,131,6
Jaskhar,124,6
Barane,154,3
Kondivade,132,6
Tambas,75,7
Hatnoli,81,4
Nandgaon,125,1
Chouk,178,10
Nijampur,52,10
Velas,120,8
konzar,132,9
Beed,144,4
Sai,180,9
Medha,159,1
Kolkhe,194,9
Veshvi,107,1
Benase,72,7
Chinchoti,192,8
Chouk,67,10
Neral 1,159,1
pansai,138,7
Tala,174,10
Mandad,66,10
Wali,80,3
Vaghran,185,10
Mhasala,179,4
Bamangaon,183,8
Kapde Bk.,83,8
Achaloli,95,3
Rohinjan,157,7
Parali,198,5
Vavoshi,156,10
Majgaon,158,10
Ajivali,91,2
Kadav,79,1
Ambet,71,6
Hatond,144,8
Matheran MCL,188,1
Khanav,70,2
Jite,120,10
Indapur,144,4
Bhalgaon,55,5
SDH Karjat,108,7
Jite,76,2
Kamarli,101,7
Bekare,152,10
Bagmandala,110,1
Nere,176,8
Kalundre,52,9
Palchil,153,7
vighawali,119,1
Roha,149,10
Zirad,197,7
Gangawli,193,8
Vakrul,156,4
Valap,193,2
Kamarli,173,3
Borwadi,103,1
Patnus,82,9
Deshmukh Kambale,107,4
Mahalor,102,8
Cheher,85,10
Dhatav,99,5
Tadvagle,136,10
Vindhane,165,1
Tamhne,173,1
Pashane,79,5
Wave Tarfe Asare,187,1
Esane Kambale,164,6
Birwadi,145,9
Uppar Tudil,81,3
Navghar,73,9
Kudpan,50,8
Bhagad,162,7
Nagaon,184,10
Shrivardhan,62,8
BorliMandla,59,4
Wave,168,5
Neral 2,82,2
Olman,74,1
Bhave,128,1
Mohili,190,7
Ratwad,148,9
Kashele,165,3
Revdanda,146,3
Umbare,153,8
Walen Budruk,116,4
Devali,131,1
Nevrul,123,2
Dahiwad,64,9
Saswane,124,8
Goregaon,82,2
Vavanje,157,3
Warandh,120,10
Lakhapale,68,6
Honad,77,4
Umbarde,151,3
Goregaon,174,3
Maniwali,152,6
Kadav,89,1
Wave,68,10
Neral,59,9
Gavhan,127,8
Dolvi,85,10
Kalote,151,4
Poyanje,81,6
Dhamandevi,65,1
Nhave,131,10
Choudharwadi,194,10
Korlai,59,5
RH Murud,131,4
Arav,99,5
Apte,130,10
Mandavkhar,175,5
Pedali,123,6
Sambhe,106,2
Nandgaon,52,1
Chai,174,10
Kharsai,139,7
Agardanda,174,5
Pabal,147,6
Saral,134,6
Chikhali,86,2
Sai,82,4
Kawade,188,2
Baliware,62,5
Shahabaj,75,3
Sutarwadi,100,3
Ainghar,130,2
Birwadi,144,2
Pitalwadi,164,4
Hareshwar,55,1
Dhokwade,174,5
Bhaliwadi,184,4
Wagholi,82,8
Telenge,91,7
Morba,77,5
Dadar,74,8
Nandvi,139,5
Shrigaon,157,4
RH Uran,122,8
Dandguri,150,2
Harkol,131,2
Kelvane,58,10
Vadhghar,191,7
Lohop,95,8
Vakas,129,3
Gavhan,55,6
Mumurshi,59,9
Usaroli,178,7
Pimpaloli,160,4
Nenwali,132,5
