Health Facility Name,Number_Of_Beds,Rating
Anatongre SC,92,4
Amahator PHC,119,7
Pungro Vill SC,102,7
Phisami SC,83,5
Chomi SC,158,2
Thanamir,194,6
Seyochung Village SC,93,5
Thanamir SC,52,3
Singrep SC,93,4
Kisetong SC,157,3
Thanamir,95,1
Sitimi PHC,122,4
Salumi,185,1
Zimkiur SC,93,8
Likhimro PHC,134,9
Longmatra SC,95,1
Phelunger SC,193,9
Seyochung,173,1
Seyochung PHC,146,4
Likhimro SC,95,7
Kiusam SC,161,3
Mimi SC,102,1
Pungro CHC,59,5
Sitimi,199,1
Longmatra,78,3
Zanger SC,157,3
Samphure SC,54,2
Salumi,130,6
Pungro,73,1
Longya SC,156,7
Kichang SC,94,6
Amahator PHC,88,8
Salumi SC,102,5
Kiphire DH,63,9
Purrer SC,114,1
Kiusam SC,115,2
Anatongre SC,64,9
Amahator PHC,146,5
Pungro Vill SC,146,1
Phisami SC,82,5
Chomi SC,133,9
Thanamir,114,5
Seyochung Village SC,62,10
Thanamir SC,175,8
Singrep SC,189,9
Kisetong SC,145,5
Thanamir,98,1
Sitimi PHC,98,9
Salumi,107,6
Zimkiur SC,76,1
Likhimro PHC,128,10
Longmatra SC,83,4
Phelunger SC,110,7
Seyochung,150,7
Seyochung PHC,81,2
Likhimro SC,117,7
Kiusam SC,122,3
Mimi SC,107,10
Pungro CHC,167,8
Sitimi,153,2
Longmatra,72,7
Zanger SC,104,2
Samphure SC,175,1
Salumi,169,1
Pungro,185,1
Longya SC,58,2
Kichang SC,162,3
Amahator PHC,121,3
Salumi SC,153,8
Kiphire DH,107,10
Purrer SC,90,8
Kiusam SC,79,7
