Health Facility Name,Number_Of_Beds,Rating
Bijlipur,194,3
PHC Mullanpur,189,6
RC Model Gram,82,10
Jassowal,198,3
Manki,155,4
Jaspalon,107,10
UFPU Model Town,105,4
Jawaddi,146,4
Dehru,72,6
RC Dhandari Khurd,101,5
Daumajra,197,5
Chakk Bhaika,149,7
Dangian,134,9
Halwara,123,2
Rasulpur,64,4
Rupalon,189,4
Mahoun,81,8
Buzurag,174,4
Pakhowal,92,9
Burj Hari Singh,120,1
Sangowal,60,6
Issewal,195,6
Kaunke kalan 1,145,2
Kalakh,152,8
Wallipur Kalan,168,9
Chajjawal,72,4
Mattewara,170,1
Kohara,186,5
Gagra,111,9
SDH Khanna,120,1
Bagli Kalan,134,6
Jassowal,65,10
Bhaini arora,95,8
PHC Bhanohar,132,8
Sehjomajra,174,5
Dhallian,147,4
SAD Dholewal,126,4
Pandher Kheri,105,7
PHC Bhadla,110,2
Bhairomunna,160,4
CH Ludhiana,194,4
Bulepur,175,4
Khatra,146,8
Rajewal,188,2
Sohian,160,9
Dakha,180,1
Begowal,124,3
Chhorrian Bet,73,10
Dehlon,79,2
Galib Kalan,59,6
Phallewal,136,10
CHC Gurusar Sudhar,82,5
PHC Mansooran,185,10
Ayali kalan,115,1
Libra,128,6
Kanech,58,7
Chhapar,140,8
Khandoor,113,3
Gujjarwal,130,1
RC Sunet,173,6
Litter,139,9
Jaspal Banger,111,3
PHC Ghawaddi,82,8
Hambowal,131,6
Kuli Khurd,64,9
RC Sabzi Mandi,105,9
jodhan,82,2
PHC Jodhan,61,10
PHC Mehdudana,98,7
Rahoun,150,9
Bagga khurd,109,4
Rampur,135,6
PHC Sawadi Kalan,51,8
Kothe pona,189,3
PHC Purain,148,2
Bhaini dareran,189,5
Manuke,118,5
Talwandi Rai,148,8
Seerha,178,7
SDH Jagraon,150,6
Jattana,141,7
Chakar,134,2
Panjgariayan,54,9
Ghungrali sikha,82,2
Jamalpur Awana,167,5
Machhiwara,61,1
Mullanpur Dakha,117,8
Kaalsan,110,10
Rurka,126,5
Sidhwan bet,192,8
Lamma,181,1
Kaunke kalan 2,147,5
Jassar,94,8
Dholan,86,8
Nathowal,143,2
Ghugrana,119,8
Bija,176,6
sihala,86,1
PHC Rauni,173,8
Ghudani,56,3
Jassian,158,5
Narangwal,197,9
Pamal,69,5
PHC katanikalan,108,6
Bhamadi,58,6
SAD Kot Mangal Singh,74,1
RC New Shivpuri,107,3
Lubangarh,159,7
Issapur,125,6
Daba,167,1
CHC Sidwanbet,83,5
Barundi,97,3
RC Chawani Mohalla,136,4
CHC Dehlon,87,4
Sidhwan Kalan,131,2
Bassian Bet,185,4
Saloudi,94,6
Sherpur Khurd,171,6
Gureh,155,7
Kular,161,2
RC Dugri,194,9
Sidhwan Khurd,152,7
Aitiana,71,1
PHC Talwandi Kalan,192,9
PHC Hambran,130,3
Ghaloti,191,10
Bhaini Arayiaan,139,9
Sihora,152,9
Deherka,131,10
Kotala,170,1
Khera,106,2
Bharthla,197,5
Heran,120,5
Mundian Kalan,139,8
Noorpur Bet,179,5
Mundiani,99,10
Mangli Tanda,137,6
SAD Transport Nagar,105,10
Gill,167,4
Uttalon,143,2
Baber Pur,155,1
Talwandi Kalan,66,3
Sub Divisional Hospital Samrala,176,7
Chaunta,91,2
Arraichan,156,5
Bhammipura,64,10
CHC Sahnewal,169,5
Balion,178,3
Akalgarh,137,2
Malak,183,2
Kacha Machhiwara,65,7
Binjal,123,6
Thakkarwal,112,9
Sihan Daud,105,8
PHC Rampur,61,7
Lohatbadhi,165,5
Laluri Kalan,199,6
Pabbian,101,6
Phullanwal,174,7
Chachrari,108,9
Isru,162,1
Andloo,183,5
RC Kundanpuri,138,3
Bhattian Bet,53,2
Latala,70,7
Manupur,118,2
Butahari,175,10
Mansooran,129,3
Kila Raipur,142,10
Ishanpur,163,1
Talwara,89,7
Bhutta,100,9
RC Tajpur Road,118,8
Jandiali,129,10
PHC Chowkiman,158,3
Patti Multani,173,6
Bilaspur,136,4
RC Janta Nagar,146,5
Kadiana Kalan,75,8
Jodhwal,193,6
PHC Ghungrali Sikha,159,7
Laduwal,113,6
Gobindgarh,74,7
Bhanohar,99,6
Bhadla,130,4
Bhamma Kalan,114,7
RC Shimla Puri,185,10
Koomkalan,141,6
Gidderwindi,123,3
Noorwala,72,8
Rohono Khurd,148,5
Mohie,185,5
Madpur,141,6
Phc Isru,185,10
CHC Machhiwara,173,10
Pohir,127,9
Meerpur Hans,190,1
PHC Siarh,71,4
Ballowal,126,5
Ghuman,54,8
Aloona Miana,94,9
Bhaini Sahib,125,1
SAD Kidwai Nagar,142,10
Kothe sher jung,121,7
CHC Manupur,184,5
Sherpur Bet,170,5
PHC Bassian,100,6
Tibba,167,10
Shallu Bhaini,181,6
Rachhine,148,9
SDH Raikot,111,4
Akhara,89,1
Lohara,167,4
Rajgarh,76,10
Johlan,161,1
Alamgir,130,9
Dhadhahoor,183,2
Dhamot,80,4
Gehlewal,189,5
Sekha,158,2
Payal,183,8
Hissowal,127,8
Lodhiwal,88,9
Bhagpur,139,9
Rauni,52,5
Sudhar,99,1
Bhikhi,106,7
Bowani,51,8
UPHC Salem Tabri,130,7
Beermi,65,1
RC Dashmesh Nagar,154,10
Khawajke,169,7
PHC Mohie,125,4
Kulahar,103,7
Siarh,76,1
PHC Lohatbadhi,66,9
CHC Hathur,186,8
Timberwal,137,8
Canal Dispensary,67,6
Mallah,157,6
Dollon Kalan,86,1
PHC Uttalon,150,4
Noorpur,154,1
Kot Gangu Rai,137,7
PHC Boparai Kalan,183,1
SAD Haibowal Khurd,136,4
Jhar sahib,156,9
PHC Andlu,91,1
RC Madhopuri,178,2
Sherpur,156,4
Chowkiman,87,7
CHC Payal,96,6
CHC Koomkalan,123,8
Sherpur Kalan,130,10
Pandori,171,9
Malaud,92,5
Ghawaddi,172,7
Bhaini Baringa,64,9
Khassi Kalan,80,4
Amargarh Kaler,146,5
PHC Kalakh,109,1
RC Bhagwan Nagar,172,5
Jaipura,127,7
Kalsian,105,3
Sawadi Kalan,96,2
Jandi,88,8
Sarabha,144,2
Bhundri,79,3
Jargari,54,2
Ikolaha,105,10
CHC Pakhowal,96,4
Threeke,138,7
Birk,52,5
Raqba,138,2
Kalal Majra,55,10
Dandari Khurd,199,6
Gharkhana,154,9
Gobindpura,97,2
Khakat,196,5
SAD Sarabha Nagar,141,6
Bassian,142,5
Boothgarh,50,6
PHC Latala,103,7
Ayali Khurd,140,10
Sikanderpur,105,3
Burj Littan,145,1
Kamalpur,153,9
Dhandra,188,3
RC Haibowal Kalan,72,7
Jonewal,130,1
SAD Abdullapur Basti,88,2
Burj Naklian,167,1
Sahnewal,194,9
CHC Maloud,104,3
Jandiali,105,4
Maksudra,95,8
Burmi,91,3
Burma,122,2
Leelan,113,9
Katanikalan,95,6
Hambran,109,5
Mangli Uchi,58,4
Baddowal,160,1
Dalla,114,4
Toosa,142,7
Jarg,97,4
Sahouli,130,2
Kaddon,164,9
Hathur 2,150,8
PHC Laduwal,156,8
PHC Mandiala Kalan,143,3
Mehma Singh wala,130,8
Kannian Husaini,73,9
Takhran,138,10
Cheemna,89,6
Purain,92,8
Bhattian Dhahan,175,1
Ber Kalan,152,2
Khera Bet,118,1
PHC Manuke,72,1
RC Field Ganj,53,1
Jhordan,79,9
Bumb,169,1
Hathur 1,117,8
Dhanansu,147,2
PHC Mattewara,77,4
Jarkhar,180,3
UPFU Basti jodewal,65,8
UFPU Chet singh Nagar,93,4
Doraha Pind,172,5
Mullanpur,135,5
Nasrali,191,2
Lakha,75,9
Katahri,119,10
Tarf Gahlewal,71,6
Gahlewal,180,9
Shapur,87,6
Mangat,110,9
Mehdudana,103,8
PHC Kaunke kalan,149,8
Bijlipur,171,5
PHC Mullanpur,148,9
RC Model Gram,151,8
Jassowal,154,3
Manki,195,10
Jaspalon,60,8
UFPU Model Town,141,3
Jawaddi,78,3
Dehru,166,5
RC Dhandari Khurd,68,10
Daumajra,140,7
Chakk Bhaika,131,10
Dangian,54,4
Halwara,87,5
Rasulpur,188,7
Rupalon,146,1
Mahoun,125,10
Buzurag,154,4
Pakhowal,169,9
Burj Hari Singh,188,10
Sangowal,174,5
Issewal,63,8
Kaunke kalan 1,90,5
Kalakh,179,5
Wallipur Kalan,110,9
Chajjawal,87,10
Mattewara,129,9
Kohara,81,8
Gagra,191,2
SDH Khanna,61,8
Bagli Kalan,134,7
Jassowal,137,9
Bhaini arora,53,10
PHC Bhanohar,175,4
Sehjomajra,153,9
Dhallian,184,6
SAD Dholewal,60,1
Pandher Kheri,155,10
PHC Bhadla,134,10
Bhairomunna,76,2
CH Ludhiana,175,2
Bulepur,131,9
Khatra,159,8
Rajewal,195,9
Sohian,101,8
Dakha,70,6
Begowal,68,8
Chhorrian Bet,68,1
Dehlon,106,8
Galib Kalan,195,1
Phallewal,107,1
CHC Gurusar Sudhar,67,4
PHC Mansooran,158,5
Ayali kalan,180,7
Libra,163,7
Kanech,151,1
Chhapar,58,3
Khandoor,83,10
Gujjarwal,179,6
RC Sunet,179,3
Litter,159,7
Jaspal Banger,134,7
PHC Ghawaddi,58,9
Hambowal,198,1
Kuli Khurd,169,3
RC Sabzi Mandi,110,7
jodhan,57,6
PHC Jodhan,158,10
PHC Mehdudana,96,3
Rahoun,77,5
Bagga khurd,195,10
Rampur,68,9
PHC Sawadi Kalan,144,1
Kothe pona,105,2
PHC Purain,114,8
Bhaini dareran,62,5
Manuke,133,2
Talwandi Rai,58,8
Seerha,170,4
SDH Jagraon,59,9
Jattana,146,7
Chakar,81,4
Panjgariayan,182,8
Ghungrali sikha,168,4
Jamalpur Awana,166,10
Machhiwara,144,2
Mullanpur Dakha,129,3
Kaalsan,114,8
Rurka,149,1
Sidhwan bet,184,2
Lamma,110,6
Kaunke kalan 2,180,5
Jassar,51,6
Dholan,51,8
Nathowal,86,1
Ghugrana,78,6
Bija,181,2
sihala,53,7
PHC Rauni,178,8
Ghudani,99,9
Jassian,72,7
Narangwal,73,2
Pamal,157,10
PHC katanikalan,106,8
Bhamadi,106,2
SAD Kot Mangal Singh,198,10
RC New Shivpuri,192,3
Lubangarh,60,1
Issapur,170,7
Daba,114,8
CHC Sidwanbet,109,7
Barundi,131,4
RC Chawani Mohalla,142,9
CHC Dehlon,173,1
Sidhwan Kalan,55,9
Bassian Bet,133,7
Saloudi,53,3
Sherpur Khurd,59,5
Gureh,83,4
Kular,169,1
RC Dugri,191,9
Sidhwan Khurd,95,1
Aitiana,105,8
PHC Talwandi Kalan,173,2
PHC Hambran,96,5
Ghaloti,151,8
Bhaini Arayiaan,71,4
Sihora,172,3
Deherka,65,5
Kotala,179,3
Khera,180,5
Bharthla,193,1
Heran,198,2
Mundian Kalan,188,4
Noorpur Bet,137,10
Mundiani,83,5
Mangli Tanda,139,10
SAD Transport Nagar,189,7
Gill,108,7
Uttalon,107,6
Baber Pur,172,1
Talwandi Kalan,69,1
Sub Divisional Hospital Samrala,180,10
Chaunta,117,2
Arraichan,54,4
Bhammipura,160,9
CHC Sahnewal,160,5
Balion,135,5
Akalgarh,101,6
Malak,130,6
Kacha Machhiwara,86,5
Binjal,95,2
Thakkarwal,59,9
Sihan Daud,168,4
PHC Rampur,51,5
Lohatbadhi,126,6
Laluri Kalan,136,1
Pabbian,76,1
Phullanwal,192,3
Chachrari,135,7
Isru,60,9
Andloo,146,5
RC Kundanpuri,140,4
Bhattian Bet,138,6
Latala,173,2
Manupur,138,6
Butahari,110,9
Mansooran,99,2
Kila Raipur,63,9
Ishanpur,170,3
Talwara,170,7
Bhutta,81,2
RC Tajpur Road,187,7
Jandiali,193,9
PHC Chowkiman,148,8
Patti Multani,156,7
Bilaspur,180,8
RC Janta Nagar,99,10
Kadiana Kalan,176,1
Jodhwal,105,2
PHC Ghungrali Sikha,52,4
Laduwal,88,2
Gobindgarh,141,5
Bhanohar,147,8
Bhadla,127,8
Bhamma Kalan,167,8
RC Shimla Puri,173,3
Koomkalan,133,3
Gidderwindi,149,8
Noorwala,173,5
Rohono Khurd,102,9
Mohie,150,2
Madpur,161,5
Phc Isru,194,2
CHC Machhiwara,187,6
Pohir,82,6
Meerpur Hans,179,4
PHC Siarh,61,9
Ballowal,96,7
Ghuman,56,8
Aloona Miana,62,5
Bhaini Sahib,94,8
SAD Kidwai Nagar,98,2
Kothe sher jung,195,8
CHC Manupur,116,9
Sherpur Bet,130,5
PHC Bassian,73,1
Tibba,119,3
Shallu Bhaini,132,7
Rachhine,132,4
SDH Raikot,59,6
Akhara,127,2
Lohara,116,7
Rajgarh,64,8
Johlan,54,7
Alamgir,150,7
Dhadhahoor,197,4
Dhamot,139,3
Gehlewal,155,10
Sekha,191,4
Payal,172,1
Hissowal,197,8
Lodhiwal,114,6
Bhagpur,87,7
Rauni,54,7
Sudhar,76,6
Bhikhi,156,2
Bowani,110,9
UPHC Salem Tabri,162,10
Beermi,147,4
RC Dashmesh Nagar,197,5
Khawajke,142,2
PHC Mohie,86,1
Kulahar,155,3
Siarh,173,4
PHC Lohatbadhi,74,9
CHC Hathur,112,3
Timberwal,73,5
Canal Dispensary,132,4
Mallah,54,3
Dollon Kalan,130,2
PHC Uttalon,140,6
Noorpur,186,1
Kot Gangu Rai,198,7
PHC Boparai Kalan,107,4
SAD Haibowal Khurd,57,10
Jhar sahib,189,5
PHC Andlu,164,1
RC Madhopuri,190,4
Sherpur,53,3
Chowkiman,195,3
CHC Payal,123,6
CHC Koomkalan,170,10
Sherpur Kalan,161,10
Pandori,193,2
Malaud,153,8
Ghawaddi,65,1
Bhaini Baringa,147,1
Khassi Kalan,183,2
Amargarh Kaler,111,5
PHC Kalakh,193,7
RC Bhagwan Nagar,102,1
Jaipura,60,7
Kalsian,136,10
Sawadi Kalan,107,2
Jandi,116,9
Sarabha,78,9
Bhundri,99,6
Jargari,160,9
Ikolaha,117,8
CHC Pakhowal,55,3
Threeke,96,3
Birk,127,4
Raqba,129,8
Kalal Majra,58,5
Dandari Khurd,139,3
Gharkhana,62,4
Gobindpura,96,7
Khakat,150,8
SAD Sarabha Nagar,170,9
Bassian,145,1
Boothgarh,158,7
PHC Latala,175,7
Ayali Khurd,128,6
Sikanderpur,102,3
Burj Littan,85,8
Kamalpur,54,1
Dhandra,158,2
RC Haibowal Kalan,128,10
Jonewal,158,8
SAD Abdullapur Basti,182,10
Burj Naklian,111,4
Sahnewal,69,1
CHC Maloud,78,3
Jandiali,95,1
Maksudra,140,1
Burmi,50,4
Burma,99,1
Leelan,75,2
Katanikalan,79,1
Hambran,125,3
Mangli Uchi,193,7
Baddowal,170,1
Dalla,173,3
Toosa,89,2
Jarg,133,7
Sahouli,76,2
Kaddon,69,1
Hathur 2,195,4
PHC Laduwal,134,3
PHC Mandiala Kalan,131,4
Mehma Singh wala,64,3
Kannian Husaini,90,6
Takhran,166,6
Cheemna,118,2
Purain,190,8
Bhattian Dhahan,58,9
Ber Kalan,172,10
Khera Bet,51,2
PHC Manuke,158,1
RC Field Ganj,170,4
Jhordan,181,5
Bumb,105,3
Hathur 1,111,9
Dhanansu,73,6
PHC Mattewara,109,1
Jarkhar,53,5
UPFU Basti jodewal,167,8
UFPU Chet singh Nagar,62,4
Doraha Pind,166,7
Mullanpur,161,3
Nasrali,132,6
Lakha,56,3
Katahri,95,2
Tarf Gahlewal,112,9
Gahlewal,71,10
Shapur,54,1
Mangat,71,6
Mehdudana,127,4
PHC Kaunke kalan,140,10
