Health Facility Name,Number_Of_Beds,Rating
SHC Bharadi,179,10
SHC Jamkota,180,9
SHC Padlya,68,5
SHC Dongargaon,85,3
SHC Jamanya,143,9
SHC Chmati,174,6
SHC Ahamadpurkhaigaon,79,6
SHC Takali,87,3
SHC Kankariya,139,3
SHC Mohna,111,8
SHC Sarlya,180,3
PHC Piplodkhas,139,5
SHC Mordad,90,10
SHC Atutkhas,152,4
SHC Sonkhedi,164,10
SHC Didamda,134,8
SHC Jhinjhri,105,7
PHC Chichgohan,61,5
SHC Pamakhedi,76,4
SHC Borisaray,187,10
SHC Junapani,155,5
SHC Chhirva,158,8
SHC Khedi,153,5
SHC Sunderdev,71,5
PHC Punasa,123,1
SHC Bayfal,80,6
SHC Borkheda,103,3
SHC Devlikala,117,7
PHC Kalanka,142,7
SHC Sulgaon,139,7
SHC Bagmar,75,7
Beed,57,2
PHC Kohadarh,60,3
SHC Bhakrada,83,2
SHC Semrud,117,1
SHC Revapur,50,3
SHC Bhagvanpura,189,10
PHC Jamkota,104,5
SHC Rajpura,77,9
SHC Sirpur,81,10
SHC Rohani,69,5
SHC Bamanda,74,9
SHC Khirala,105,5
SHC Kohadarh,135,6
SHC Mandhata,71,7
CHC Khalwa,127,5
SHC Bilud,162,1
SHC Purni,169,10
SHC Malgaon,170,7
SHC Jaswadi,107,10
PHC Gandhawa,89,5
SHC Garberi,103,8
SHC Sirra,181,4
SHC Sahejala,186,9
SHC Dhanora (Piplani),192,2
SHC Bhagvanpura,146,4
SHC Bhamgarh,194,8
SHC Khirgaon,167,4
SHC Barud,164,7
SHC Hirapur,129,3
SHC Savlikheda,185,6
SHC Malud,95,1
SHC Nishaniya,185,1
NOT.SHC Jawar,141,4
SHC Kekdiya,79,4
SHC Chunakhal,50,1
SHC Savkheda,196,2
CHC Chhegaon Makhan,102,6
SHC Narmadanagar,73,8
SHC Sukvi,58,8
SHC Thapna,189,10
SHC Ghatakhedi,84,6
SHC Kelvakhurd,171,4
SHC Rustampur,163,7
CHC Mundi,174,5
SHC Karpur,106,4
PHC Roshani,186,7
SHC Palsud Raiyat,131,9
SHC Kalmukhi,113,3
SHC Guyda,61,2
CHC Baldi (Killod),126,1
NOT.SHC Khalwa,116,2
SHC Gulai,163,8
PHC Dhangaon,82,1
SHC Khutla,52,8
SHC Mokalgaon,118,2
SHC Dharampuri,171,9
SHC Dhama,158,7
NOT.SHC Chhalpikhurd,140,1
SHC Golkheda,188,7
PHC Arud,66,1
SHC Rangao,81,6
SHC Sikandarkhal,117,6
SHC Rajgarh,164,8
SHC Rampura,117,7
CHC Harsud,149,6
SHC Jamnyakala,90,9
SHC Ajanti,103,2
SHC Aavlya,92,6
SHC karvani,98,2
NOT.SHC Harsud 01,104,9
PHC Jawar,176,10
SHC Dhamangaon,53,4
SHC Mehalu,130,6
NOT.SHC Pandhana,103,4
PHC Barud,87,2
SHC Deewal,175,10
SHC Salai,76,10
NOT SHC Mundi,90,9
SHC Temikhurd,51,10
PHC Deewal,121,1
SHC Nahalda,184,2
DH KHANDWA,183,6
SHC Bulyakhedi,121,8
SHC Attar,184,1
SHC Dhangaon,77,2
PHC Richfal,128,1
SHC Bagda,79,4
SHC Malgaon,111,7
SHC Patajan,61,6
SHC Dhankochi,100,1
PHC Ghatakhedi,176,7
PHC Mohna,155,3
CHC Pandhana,109,2
SHC Rajur,173,4
PHC Sulgaon,148,10
SHC Ghogalgaon,67,5
SHC Chhegaon Makhan,119,1
SHC Pipalyahar,91,1
SHC Pokharkala,136,7
SHC Malhargarh,194,8
SHC Nimadkhedi,198,7
SHC Dabhiya,193,7
SHC Boradimal,117,4
SHC Bediyaw,59,10
SHC Kundiya,101,2
SHC Charkheda,84,4
SHC Kalapatha,126,1
SHC Borgaon,71,6
SHC Anjangaon,147,9
PHC Gol,143,4
PHC Sahejala,146,7
SHC Jeervan,96,9
SHC Deshgaon,56,8
SHC Navalgaon,101,7
SHC Chandida,187,6
SHC Saray,148,10
SHC Singaji,73,8
SHC Koladit,109,9
SHC Ashapur,50,8
SHC Chaigaodevi,155,7
SHC Kumthi,129,10
SHC Roshani,197,5
SHC Shahpur,65,9
SHC Dhakna,130,3
SHC Timarni,148,9
PHC Gudi,159,6
SHC Siloda,122,5
SHC Kalanka,65,2
SHC Gandhwa,155,5
SHC Sendhwal,190,8
SHC Fefari,73,8
SHC Anjaniyakala,189,3
PHC Purni,130,2
SHC Piplodkhas,51,9
SHC Kala Aam Khurd,99,10
SHC Kotha,131,7
SHC Jalkua,135,1
SHC Saiyadpur Khaigawada,55,8
SHC Pipalyafull,97,4
SHC Bamangaon Aakhai,115,7
SHC Palani mal,180,8
SHC Bakhar,151,10
SHC Idhavadi,89,7
PHC Boradimal,146,2
SHC Killod,65,2
SHC Karoli,146,3
SHC Jalvabujurg,65,1
SHC Kolgaon,57,10
SHC Sadiyapani,105,3
SHC Sivriya,67,1
SHC Langoti,138,5
PHC Mandhata,126,5
SHC Jhirpa,196,5
SHC Pipalkota,168,8
SHC Kumtha,77,9
SHC Sirsod,136,8
PHC Sendhwal,173,6
SHC Badgaonmali,189,9
SHC Somgaon,108,8
SHC Hasanpura,91,6
SHC Nihalwadi,101,3
SHC Chhirvel,94,4
PHC Singot,107,5
SHC Itva,194,3
SHC Dongaliya,70,2
PHC Khar,149,8
SHC Dabhi,117,7
SHC singhada,85,6
PHC Singhada,129,10
PHC Borgaon Bujurg,102,9
SHC Singot,176,7
SHC Gudi,115,4
SHC Arud,52,1
Punasa,132,8
SHC Dhawadia,59,7
SHC Gol,69,6
PHC Beed,155,9
SHC Khar,128,7
SHC Jamlimundi,124,1
SHC Davniya,88,2
SHC Netangaon,70,3
SHC Billod,124,10
SHC MOJWADI,160,8
SHC Bothiya Khurd,142,10
SC Richfal,86,9
SHC Jamni Gurjar,53,5
SHC Barud,90,6
SHC Mandla,94,9
SHC Lakhanpur,57,4
SHC Badgaongurjar,87,8
SHC Jinvaniya,128,2
SHC Undel,125,7
SHC Mortakka,150,5
SHC Nagotar,179,4
SHC Padlya,172,10
SHC Chichgohan,79,3
SHC Bharadi,193,10
SHC Jamkota,62,1
SHC Padlya,175,2
SHC Dongargaon,149,3
SHC Jamanya,62,3
SHC Chmati,176,9
SHC Ahamadpurkhaigaon,160,6
SHC Takali,110,7
SHC Kankariya,63,2
SHC Mohna,73,9
SHC Sarlya,66,3
PHC Piplodkhas,97,4
SHC Mordad,155,1
SHC Atutkhas,196,1
SHC Sonkhedi,56,10
SHC Didamda,172,2
SHC Jhinjhri,185,10
PHC Chichgohan,123,5
SHC Pamakhedi,147,5
SHC Borisaray,173,7
SHC Junapani,93,4
SHC Chhirva,179,2
SHC Khedi,199,10
SHC Sunderdev,75,2
PHC Punasa,80,5
SHC Bayfal,169,8
SHC Borkheda,56,3
SHC Devlikala,175,3
PHC Kalanka,185,2
SHC Sulgaon,87,1
SHC Bagmar,122,6
Beed,163,6
PHC Kohadarh,182,9
SHC Bhakrada,161,10
SHC Semrud,185,6
SHC Revapur,80,2
SHC Bhagvanpura,154,2
PHC Jamkota,99,4
SHC Rajpura,95,2
SHC Sirpur,157,5
SHC Rohani,94,7
SHC Bamanda,192,1
SHC Khirala,168,4
SHC Kohadarh,74,6
SHC Mandhata,131,1
CHC Khalwa,102,6
SHC Bilud,73,1
SHC Purni,108,6
SHC Malgaon,169,3
SHC Jaswadi,145,4
PHC Gandhawa,154,5
SHC Garberi,102,2
SHC Sirra,114,5
SHC Sahejala,193,9
SHC Dhanora (Piplani),97,7
SHC Bhagvanpura,143,3
SHC Bhamgarh,99,10
SHC Khirgaon,157,6
SHC Barud,178,7
SHC Hirapur,123,4
SHC Savlikheda,65,8
SHC Malud,73,6
SHC Nishaniya,140,10
NOT.SHC Jawar,120,8
SHC Kekdiya,87,2
SHC Chunakhal,188,9
SHC Savkheda,144,3
CHC Chhegaon Makhan,89,10
SHC Narmadanagar,162,6
SHC Sukvi,97,8
SHC Thapna,151,4
SHC Ghatakhedi,142,1
SHC Kelvakhurd,67,4
SHC Rustampur,89,4
CHC Mundi,134,4
SHC Karpur,152,6
PHC Roshani,192,7
SHC Palsud Raiyat,178,8
SHC Kalmukhi,140,8
SHC Guyda,175,7
CHC Baldi (Killod),185,9
NOT.SHC Khalwa,63,1
SHC Gulai,191,10
PHC Dhangaon,142,1
SHC Khutla,170,3
SHC Mokalgaon,110,5
SHC Dharampuri,171,1
SHC Dhama,110,8
NOT.SHC Chhalpikhurd,197,5
SHC Golkheda,117,3
PHC Arud,119,10
SHC Rangao,95,9
SHC Sikandarkhal,69,1
SHC Rajgarh,132,10
SHC Rampura,52,1
CHC Harsud,54,8
SHC Jamnyakala,95,9
SHC Ajanti,83,5
SHC Aavlya,159,4
SHC karvani,130,10
NOT.SHC Harsud 01,168,5
PHC Jawar,184,6
SHC Dhamangaon,87,3
SHC Mehalu,186,7
NOT.SHC Pandhana,153,10
PHC Barud,112,1
SHC Deewal,188,5
SHC Salai,152,3
NOT SHC Mundi,124,9
SHC Temikhurd,108,7
PHC Deewal,139,2
SHC Nahalda,108,10
DH KHANDWA,123,9
SHC Bulyakhedi,131,6
SHC Attar,132,8
SHC Dhangaon,67,7
PHC Richfal,71,3
SHC Bagda,130,9
SHC Malgaon,91,6
SHC Patajan,197,4
SHC Dhankochi,143,4
PHC Ghatakhedi,88,7
PHC Mohna,185,8
CHC Pandhana,144,5
SHC Rajur,93,9
PHC Sulgaon,174,1
SHC Ghogalgaon,62,9
SHC Chhegaon Makhan,138,10
SHC Pipalyahar,67,2
SHC Pokharkala,74,9
SHC Malhargarh,152,5
SHC Nimadkhedi,76,4
SHC Dabhiya,98,6
SHC Boradimal,192,9
SHC Bediyaw,191,10
SHC Kundiya,162,2
SHC Charkheda,182,1
SHC Kalapatha,138,5
SHC Borgaon,91,9
SHC Anjangaon,174,2
PHC Gol,79,1
PHC Sahejala,176,1
SHC Jeervan,143,2
SHC Deshgaon,109,7
SHC Navalgaon,55,2
SHC Chandida,129,8
SHC Saray,123,4
SHC Singaji,89,5
SHC Koladit,166,2
SHC Ashapur,63,4
SHC Chaigaodevi,57,3
SHC Kumthi,163,1
SHC Roshani,54,8
SHC Shahpur,68,3
SHC Dhakna,184,3
SHC Timarni,190,6
PHC Gudi,136,5
SHC Siloda,103,4
SHC Kalanka,140,10
SHC Gandhwa,64,8
SHC Sendhwal,95,2
SHC Fefari,144,3
SHC Anjaniyakala,101,6
PHC Purni,119,6
SHC Piplodkhas,121,5
SHC Kala Aam Khurd,127,2
SHC Kotha,64,2
SHC Jalkua,61,5
SHC Saiyadpur Khaigawada,197,3
SHC Pipalyafull,128,2
SHC Bamangaon Aakhai,70,9
SHC Palani mal,190,7
SHC Bakhar,109,7
SHC Idhavadi,114,3
PHC Boradimal,172,4
SHC Killod,107,9
SHC Karoli,51,5
SHC Jalvabujurg,151,3
SHC Kolgaon,141,1
SHC Sadiyapani,69,7
SHC Sivriya,164,7
SHC Langoti,132,9
PHC Mandhata,197,4
SHC Jhirpa,106,3
SHC Pipalkota,84,5
SHC Kumtha,139,4
SHC Sirsod,157,1
PHC Sendhwal,196,8
SHC Badgaonmali,137,2
SHC Somgaon,196,7
SHC Hasanpura,171,3
SHC Nihalwadi,152,4
SHC Chhirvel,143,3
PHC Singot,170,4
SHC Itva,179,4
SHC Dongaliya,180,6
PHC Khar,135,7
SHC Dabhi,79,8
SHC singhada,193,8
PHC Singhada,181,5
PHC Borgaon Bujurg,152,10
SHC Singot,71,4
SHC Gudi,81,8
SHC Arud,107,8
Punasa,163,3
SHC Dhawadia,131,9
SHC Gol,130,10
PHC Beed,83,7
SHC Khar,97,8
SHC Jamlimundi,96,6
SHC Davniya,130,10
SHC Netangaon,50,9
SHC Billod,142,4
SHC MOJWADI,165,6
SHC Bothiya Khurd,192,7
SC Richfal,114,3
SHC Jamni Gurjar,92,4
SHC Barud,144,1
SHC Mandla,154,1
SHC Lakhanpur,70,2
SHC Badgaongurjar,196,6
SHC Jinvaniya,178,5
SHC Undel,50,8
SHC Mortakka,133,4
SHC Nagotar,137,6
SHC Padlya,99,10
SHC Chichgohan,69,3
