Health Facility Name,Number_Of_Beds,Rating
Ailamukh SC,178,5
Bhuyanhat SC,78,9
Khelua BPHC,165,5
Manjushree TE,98,3
Tamulipukhuri SC,109,1
Hingrijan TE,178,8
Bamcharingia SC,137,2
Ramu Gaon SC,127,9
japihajia Parijat SC,70,5
Soraguri SC,161,5
Masoi SC,121,5
Mout Gaon SC,171,1
Goroimari SC,183,6
Bolomia SC,172,1
Athabari SC,162,1
Gohainpukhuri SC,66,2
Suffry TE,62,6
Kukurachowa SC,76,2
Deepling TE,182,1
Kakatibari SC,171,4
Bharalipukhuri SC,131,8
Lahon Gaon SC,126,9
Amguri CHC,175,7
Chataichiga SC,189,9
Mahkhuti TE,106,3
Charaijan SC,169,7
Sundar Pukhuri SC,109,1
Lakhimi Pukhuri SC,140,6
Chetia Katoni SC,89,6
Napam SC,158,6
Rohan Tiniali SC,141,4
Raidongia Nakachari SC,106,2
Teteliguri SC,179,2
Cholapother SC,157,2
Jojoli SC,72,1
Balipathar SC,72,3
Alikekuri SC,166,4
Atalpathar SC,105,9
Balijan Grant SC,132,7
Kachumari SC,68,1
Bhimpowa SC,59,1
Nagahat SC,64,1
Bokota MPHC,96,7
Dupdar Chariali SC,98,2
Moranchiga SC,145,2
Nimaijan SC,143,6
Galeky BPHC,104,1
Sumder SC,54,9
Botua SC,170,3
Khanamukh SC,97,7
Namtola TE,76,2
Pachim Nalbari SC,111,4
Deudubi SC,99,6
Bampathar MPHC,146,5
Bhakat Gaon SC,171,1
Chunpura Gohain Khonda MPHC,191,5
Helkatup SC,110,8
Dihingia gaon SC,130,5
Tipomia SC,63,10
Baksu SC,87,9
Borsayak Dibrual SC,143,8
Tiokia SC,90,2
Kaloogaon BPHC,143,8
Botamora  SC,151,6
Bamrajabari MPHC,96,5
Rohan Shyam SC,132,5
Hatibondha SC,111,8
Khumtai TE,104,2
Hudupara SC,198,10
Tawkak TE,124,8
Nangalomora SC,159,5
Hulungamora SC,140,5
Dilihi Dhai Ali SC,82,7
Gargaon SC,165,4
Gourisagar BPHC,157,9
Tepor SC,56,2
Amgoori TE,163,3
Santipur SC,57,10
Bekadolong SC,195,5
Kenduguri SC,191,3
Borbam TE,131,8
Hahchora SC,137,9
3 No. How Fow SC,120,2
Ouguri Lukhurakhan MPHC,199,1
Ougurijan SC,162,7
Boliaghat MPHC,65,2
Gohain Chariali SC,190,6
Uriabosti SC,128,10
Mechagarh SC,100,10
Michajan SC,57,10
Kokilamari SC,122,8
Napuk SC,105,3
Monaiting Naga Gaon SC,182,2
Nitaipukhuri MPHC,66,1
Koibatradoloni SC,156,7
Simaluguri SC,61,1
Sibsagar Civil Hospital,64,2
Dangorikumar MPHC,54,6
Baghjan TE,196,9
Kothalguri SC,55,9
Kurukani SC,131,4
Rongsowal Changmai SC,160,8
Khona TE,120,10
Nampam Baruwatia SC,64,3
Sripur SC,110,2
Chaulkora SC,112,1
Nitai Nawjan SC,163,5
Borbaruakhat MPHC,131,1
Suffry MPHC,165,5
Dikhowmukh MPHC,111,6
Borpathar SC,64,1
Gotanga SC,126,9
Bhatgaj SC,63,5
Parbotia SC,123,10
Deopani Chariali SC,96,8
Rupahimukh SC,85,7
Demow BPHC,59,9
Joboka TE,187,2
Dehingmukh SHC,164,4
Kotiori Sub Centre,146,1
Borahibari SC,123,8
Borbam SC,154,2
Boropialhabi SC,74,3
Namoni Changmai SC,98,6
Panibil SC,145,7
Namtola SC,66,2
Chatianaguri SC,92,10
Borsila TE,190,4
Akhoiphutia SC,189,4
Mathurapur SC,140,2
Japihojia SC,79,10
Bhitorual SC,86,5
Konwarpur SHC,136,7
Jooktoli MPHC,168,10
Patsaku BPHC,138,2
Komarfodia SC,166,7
KSHS Nazira SDCH Ligiripukhuri,139,10
Suffry SC,136,9
Khongia SC,148,3
Demowmukh SC,119,8
Than Pathar SC,70,1
Udoipur SC,127,10
Khariabheta MPHC,156,5
Baghmorial SC,60,9
1 No. Koliori SC,61,1
Desang Dhai Ali SC,123,8
Bogidole SC,76,6
Borbil SC,91,1
Namdang Gohain Gaon SC,133,10
Dimoruguri SC,100,8
Sensua SC,169,2
Titlagarh SC,176,5
Mirichutia SC,145,10
Gowalapathar SC,153,4
Ramnagar SC,74,2
Bill Bosti SC,93,10
Nizkhaloighugura SC,80,3
Chakalapothar SC,65,3
Teportal SC,153,1
Senorali SC,54,3
Bhoju SC,53,4
Lukhurakhan SC,67,5
Julagaon SC,134,4
Desangmukh MPHC,178,3
Garkush SC,169,5
Bamrajabari SC,187,8
Teok TE,125,2
Sonari Urban Health Centre,163,4
Borhat MPHC,109,10
Chiring Gaon SC,60,6
Morabazar BPHC,136,8
Banmukh MPHC,134,10
Ekorani SC,64,8
Doba  SC,169,7
Majumelia SC,73,1
Naphuk TE,57,3
Chandbessa SC,66,1
Boroho SC,71,7
BakharBengena SC,67,3
Sapekhati BPHC,83,7
Thawradol SC,111,1
Khemdoi Kakoty SC,167,1
Hatipukhuri SC,159,10
Palengi SC,171,9
Jengonikotia SC,121,1
Rongpur SC,143,3
Baruapukhuri SC,54,1
Goriapothar SC,177,4
Bhatibon Gaon SC,101,3
Rajmao SC,94,8
Changmai Gaon SC,151,9
Desangmukh SC,50,6
Dikshu SC,168,8
Pehipukhuri SC,74,8
Jamuguri SC,132,6
Namtichariali SC,71,2
Lankak Gohain Gaon SC,151,5
Molagaon SC,67,5
Aideobari SC,175,1
Achalapather SC,94,1
Dulakakharia SC,166,9
Sukafa Nagar SC,69,6
Palengi MPHC,189,7
Tengapukhuri MPHC,175,7
Jhanji SHC,92,1
Nazira SHC,151,1
Mithapukhuri SC,69,8
Sepon SC,180,4
Santak MPHC,137,4
Cherekapar SC,194,8
Banhgorah SC,174,4
Moudomoni SC,187,2
Lahingia SC,185,10
Domardolong TE,198,3
Charing MPHC,124,10
Hafaluting SC,81,10
Phulpani Baruah SC,135,8
Ofola SC,67,4
Singlopathar SC,73,2
Panbesa SC,159,4
Dhemaji Desangpani SD,73,3
Jotokia SC,71,7
Sukanpukhuri SC,105,3
Bagolhabi SC,96,10
Charaipung SC,118,1
Atalpukhuri SC,102,6
Dhitaipukhuri SC,98,4
Dolopa SC,74,3
Bishrampur SC,180,5
Saragua SC,90,10
Namtiali MPHC,99,4
Namtial SC,104,4
Rohan Timonmukh SC,137,8
Deopanihabi SC,172,5
Lalimchiga SC,188,7
Nahorhabi SC,76,3
Genda Bosti SC,149,8
Nolonibam SC,89,7
Bhogbari SC,125,4
Naharpukhuri SC,92,8
Lunpuria SC,165,7
Mathurapur MPHC,122,10
Gumutha SC,190,5
Puranmelia SC,168,9
Gudhabil SC,92,9
Peoli Phukan SC,89,8
Ligiri Pukhuri SC,101,9
Khamun SC,62,9
Chutia Bosti SC,149,8
Moranhabi SC,139,4
Rajapool SC,191,3
Raghubari SC,157,8
Mogorahat SC,58,10
Sonari SDCH,72,5
Ratanpur SC,69,8
Bamunbari SC,125,4
Borahi SC,132,5
Timon SC,157,7
Khanakhukura SC,104,2
Bogolipothar SC,100,2
Borahi TE,183,4
Longpotia MPHC,192,7
Lengibor SC,151,10
Narempathar SC,190,5
Rohdoi Pukhuri SC,79,5
Lefera SC,86,4
Teximothadang SC,149,5
Haluwating TE,57,2
Dakhin Moran SC,167,10
2 No. Koliori SC,127,2
Ailamukh SC,186,3
Bhuyanhat SC,101,8
Khelua BPHC,98,2
Manjushree TE,196,2
Tamulipukhuri SC,134,4
Hingrijan TE,62,10
Bamcharingia SC,67,5
Ramu Gaon SC,130,6
japihajia Parijat SC,60,3
Soraguri SC,121,3
Masoi SC,127,9
Mout Gaon SC,180,10
Goroimari SC,115,4
Bolomia SC,175,4
Athabari SC,110,7
Gohainpukhuri SC,129,5
Suffry TE,75,9
Kukurachowa SC,78,6
Deepling TE,120,1
Kakatibari SC,97,3
Bharalipukhuri SC,91,7
Lahon Gaon SC,67,4
Amguri CHC,169,6
Chataichiga SC,160,3
Mahkhuti TE,66,7
Charaijan SC,117,9
Sundar Pukhuri SC,51,1
Lakhimi Pukhuri SC,194,8
Chetia Katoni SC,56,7
Napam SC,89,9
Rohan Tiniali SC,190,1
Raidongia Nakachari SC,93,7
Teteliguri SC,178,3
Cholapother SC,126,7
Jojoli SC,170,7
Balipathar SC,199,2
Alikekuri SC,192,5
Atalpathar SC,93,9
Balijan Grant SC,172,1
Kachumari SC,152,4
Bhimpowa SC,62,5
Nagahat SC,61,5
Bokota MPHC,128,8
Dupdar Chariali SC,67,3
Moranchiga SC,119,3
Nimaijan SC,175,2
Galeky BPHC,161,5
Sumder SC,188,4
Botua SC,96,8
Khanamukh SC,153,3
Namtola TE,150,7
Pachim Nalbari SC,190,7
Deudubi SC,148,3
Bampathar MPHC,105,4
Bhakat Gaon SC,148,5
Chunpura Gohain Khonda MPHC,106,8
Helkatup SC,151,1
Dihingia gaon SC,94,8
Tipomia SC,59,5
Baksu SC,175,9
Borsayak Dibrual SC,51,7
Tiokia SC,73,7
Kaloogaon BPHC,88,7
Botamora  SC,91,4
Bamrajabari MPHC,77,5
Rohan Shyam SC,100,1
Hatibondha SC,187,9
Khumtai TE,92,5
Hudupara SC,80,5
Tawkak TE,184,7
Nangalomora SC,81,3
Hulungamora SC,143,10
Dilihi Dhai Ali SC,119,6
Gargaon SC,171,4
Gourisagar BPHC,130,5
Tepor SC,120,7
Amgoori TE,115,9
Santipur SC,126,7
Bekadolong SC,135,3
Kenduguri SC,116,10
Borbam TE,182,8
Hahchora SC,102,10
3 No. How Fow SC,59,9
Ouguri Lukhurakhan MPHC,132,3
Ougurijan SC,78,5
Boliaghat MPHC,105,6
Gohain Chariali SC,53,3
Uriabosti SC,182,4
Mechagarh SC,150,2
Michajan SC,177,9
Kokilamari SC,130,5
Napuk SC,113,9
Monaiting Naga Gaon SC,121,7
Nitaipukhuri MPHC,199,3
Koibatradoloni SC,124,9
Simaluguri SC,50,6
Sibsagar Civil Hospital,174,4
Dangorikumar MPHC,141,3
Baghjan TE,126,10
Kothalguri SC,64,10
Kurukani SC,148,9
Rongsowal Changmai SC,90,2
Khona TE,141,2
Nampam Baruwatia SC,185,10
Sripur SC,182,7
Chaulkora SC,154,9
Nitai Nawjan SC,173,1
Borbaruakhat MPHC,83,5
Suffry MPHC,103,8
Dikhowmukh MPHC,177,3
Borpathar SC,148,5
Gotanga SC,117,3
Bhatgaj SC,108,7
Parbotia SC,173,7
Deopani Chariali SC,116,3
Rupahimukh SC,60,8
Demow BPHC,73,7
Joboka TE,180,3
Dehingmukh SHC,174,6
Kotiori Sub Centre,50,8
Borahibari SC,69,4
Borbam SC,171,3
Boropialhabi SC,122,3
Namoni Changmai SC,101,9
Panibil SC,77,3
Namtola SC,114,1
Chatianaguri SC,173,10
Borsila TE,131,3
Akhoiphutia SC,179,1
Mathurapur SC,157,1
Japihojia SC,155,1
Bhitorual SC,150,10
Konwarpur SHC,107,3
Jooktoli MPHC,119,8
Patsaku BPHC,137,9
Komarfodia SC,185,7
KSHS Nazira SDCH Ligiripukhuri,197,2
Suffry SC,58,4
Khongia SC,181,3
Demowmukh SC,102,7
Than Pathar SC,144,6
Udoipur SC,97,9
Khariabheta MPHC,76,1
Baghmorial SC,159,7
1 No. Koliori SC,172,4
Desang Dhai Ali SC,119,5
Bogidole SC,63,8
Borbil SC,185,3
Namdang Gohain Gaon SC,188,7
Dimoruguri SC,75,3
Sensua SC,118,4
Titlagarh SC,121,6
Mirichutia SC,172,5
Gowalapathar SC,72,9
Ramnagar SC,58,7
Bill Bosti SC,52,3
Nizkhaloighugura SC,105,2
Chakalapothar SC,141,4
Teportal SC,87,3
Senorali SC,123,7
Bhoju SC,120,10
Lukhurakhan SC,112,6
Julagaon SC,104,3
Desangmukh MPHC,97,5
Garkush SC,88,1
Bamrajabari SC,186,3
Teok TE,81,2
Sonari Urban Health Centre,127,8
Borhat MPHC,166,9
Chiring Gaon SC,119,9
Morabazar BPHC,53,7
Banmukh MPHC,64,7
Ekorani SC,107,4
Doba  SC,61,9
Majumelia SC,54,1
Naphuk TE,182,7
Chandbessa SC,73,10
Boroho SC,125,2
BakharBengena SC,183,7
Sapekhati BPHC,189,5
Thawradol SC,198,5
Khemdoi Kakoty SC,147,10
Hatipukhuri SC,56,5
Palengi SC,196,1
Jengonikotia SC,173,7
Rongpur SC,109,1
Baruapukhuri SC,77,3
Goriapothar SC,81,8
Bhatibon Gaon SC,68,7
Rajmao SC,185,8
Changmai Gaon SC,115,8
Desangmukh SC,57,5
Dikshu SC,98,2
Pehipukhuri SC,117,8
Jamuguri SC,195,7
Namtichariali SC,151,9
Lankak Gohain Gaon SC,195,4
Molagaon SC,153,1
Aideobari SC,132,8
Achalapather SC,66,5
Dulakakharia SC,141,5
Sukafa Nagar SC,140,3
Palengi MPHC,74,2
Tengapukhuri MPHC,89,8
Jhanji SHC,90,10
Nazira SHC,155,2
Mithapukhuri SC,50,4
Sepon SC,129,5
Santak MPHC,56,10
Cherekapar SC,81,2
Banhgorah SC,151,1
Moudomoni SC,108,9
Lahingia SC,155,7
Domardolong TE,138,8
Charing MPHC,155,4
Hafaluting SC,188,4
Phulpani Baruah SC,152,8
Ofola SC,106,1
Singlopathar SC,84,5
Panbesa SC,77,2
Dhemaji Desangpani SD,134,4
Jotokia SC,192,8
Sukanpukhuri SC,181,2
Bagolhabi SC,90,1
Charaipung SC,72,3
Atalpukhuri SC,112,7
Dhitaipukhuri SC,58,10
Dolopa SC,73,8
Bishrampur SC,154,4
Saragua SC,183,7
Namtiali MPHC,130,10
Namtial SC,166,10
Rohan Timonmukh SC,172,4
Deopanihabi SC,192,3
Lalimchiga SC,191,7
Nahorhabi SC,198,1
Genda Bosti SC,174,4
Nolonibam SC,89,6
Bhogbari SC,131,8
Naharpukhuri SC,102,9
Lunpuria SC,188,2
Mathurapur MPHC,144,8
Gumutha SC,65,2
Puranmelia SC,69,3
Gudhabil SC,125,8
Peoli Phukan SC,180,9
Ligiri Pukhuri SC,63,4
Khamun SC,53,6
Chutia Bosti SC,196,7
Moranhabi SC,86,7
Rajapool SC,122,5
Raghubari SC,143,2
Mogorahat SC,123,9
Sonari SDCH,92,2
Ratanpur SC,188,1
Bamunbari SC,53,3
Borahi SC,55,1
Timon SC,178,5
Khanakhukura SC,177,4
Bogolipothar SC,139,2
Borahi TE,181,5
Longpotia MPHC,170,1
Lengibor SC,74,2
Narempathar SC,80,10
Rohdoi Pukhuri SC,96,8
Lefera SC,91,3
Teximothadang SC,72,4
Haluwating TE,64,9
Dakhin Moran SC,113,3
2 No. Koliori SC,104,4
