Health Facility Name,Number_Of_Beds,Rating
CHC RAJMARG (RONSARA),127,9
SHC Kalyan Pur,76,7
SHC Raipur,188,9
SHC Umariya,126,1
SHC Tekapaar,164,5
SHC Lilwani,88,10
SHC Sarra,169,7
SHC Tindani,145,7
PHC Barhabada,169,3
SHC Hirapur,122,10
SHC Chirah Kala,133,3
SHC Shri Nagar,57,5
PHC Dhamna,155,8
SHC Bhorjhir,142,6
SHC Khadai,136,5
SHC Dangidhana,113,4
SHC Bachai,83,6
PHC Bohani,191,8
SHC Amgaon,54,4
SHC Barman,161,3
PHC Karakbel,63,10
SHC Mehgunwa,82,7
SHC Garha,138,10
SHC Murga Kheda,150,5
SHC Amapani,176,10
SHC Khamariya,121,8
SHC Bairagadh,115,9
PHC Shahpur,172,5
SHC Bhoripar,199,3
SHC Chandankheda,177,9
SHC Kerpani,68,4
SHC Kashikhiri,148,4
SHC Aamgaon Bada,99,4
SHC Rampura,140,7
SHC Surwari,55,1
SHC Kacharkona,161,2
SHC Nayakheda,154,4
SHC Madanpur,183,1
SHC Pipariya Linga,76,5
SHC Basuriya,134,3
SHC Badaiya Kheda,109,10
SHC Dhameta,184,2
SHC Paloha Bada,53,3
SHC Simariya Kala,119,10
SHC Bagaspur,120,2
SHC Dongargaon,193,9
SHC Imjhira,186,2
SHC Banwari,104,10
PHC Khurpa,53,9
SHC Imaliya,152,9
SHC Piparpani,169,5
SHC bamoharikhurd,192,5
SHC Kapoori,74,10
SHC Bohani,143,9
SHC Pachama,165,3
SHC Bilthari,104,3
SHC Mungwani,150,3
SHC Magardha,51,7
SHC Laatgaon,95,8
SHC Silvani,83,6
SHC Nivavar,81,4
SHC Bandha (Jhikoli),95,4
SHC Gongawari,52,4
UPHC Gadarwara,59,1
SHC Karli Kala,163,7
SHC Sehora,59,8
SHC Bichhua,129,5
SHC Manegaon,58,3
SHC Jhamar,102,7
SHC Jamada,110,7
SHC Chitapar,124,3
SHC Sahpur,178,5
PHC Singhpur,173,8
SHC Peeparpani,55,2
CHC Tendukheda,62,3
SHC Gourakhpur,192,3
SHC Niwari,52,7
SHC Singhpur,66,8
SHC Ratikarar,51,5
SHC Barman Khurd,164,4
PHC Chawarpatha,153,6
SHC Dudwara,199,8
SHC Bandha,64,3
CH GADARWARA,184,5
SHC Sahavan,181,2
SHC Kamod,189,4
PHC Barheta,142,1
SHC Kodiya,124,2
SHC Pipariya Barodia,111,5
SHC Khurpa,153,10
DH Narsinghpur,185,6
SHC Manegaon,96,4
SHC Nayakheda,94,6
SHC Bouchhar,56,3
SHC Mohad,146,4
SHC Tendukheda,64,10
SHC Malahpipariya,196,8
SHC Tumrda,182,7
SHC Karapgaon,136,9
SHC Madesur,146,10
PHC Malahpipariya,127,6
PHC Chichli,77,1
SHC Karakbel,52,7
SHC Kumroda,75,8
SHC Heerapur,111,8
PHC Amgaon Bada,142,9
SHC Mabi Pipariya,70,5
SHC Piyariya  (Rankai),128,5
SHC Sukha Kheri,153,2
PHC Shrinagar,137,1
SHC Kanjai,56,2
SHC Khamtara,81,9
SHC Barha Bada,81,10
SHC Gujar Jhiriya,152,4
SHC Khamariya,52,10
SHC Simri Badi,110,10
SHC Gotitoriya,51,4
SHC Richhai,199,10
SHC Deori,177,2
CHC Gotegaon,186,9
SHC Sadumar,117,7
SHC Barheta,102,1
SHC Magardha,152,9
SHC Thuti,78,4
SHC Bamhni,76,3
SHC Imaliya,61,1
SHC Gwari,177,10
SHC Singhpur Bada,89,5
SHC Hirapur,170,5
SHC Chichli,146,8
SHC Bhaisa,144,7
SHC Kuklah,70,7
SHC Suatala,69,5
SHC Gangai,50,6
UPHC Narsinghpur,194,8
SHC Khulri,99,4
SHC Panagar,110,2
CHC Kareli,194,10
SHC Bamhori Kala,88,1
SHC Dobhi,185,10
SHC Kosamkheda,127,4
SHC Jhanshi Ghat,129,3
SHC Usari,188,2
SHC Kathotiya,189,6
PHC Khulri,138,5
SHC Barpani,147,9
SHC Bilhera,88,5
SHC Imaliya,194,7
SHC Tuia Pani,122,3
SHC Panari,115,3
SHC Bahoripar Khurd,143,3
PHC Dobhi,53,4
SHC Dungariya,72,3
SHC Themi,111,8
Gotegaon - URBAN,181,6
SHC Ghatpindrai,152,4
PHC Bhama,157,5
PHC Palaho Bada,169,2
SHC Seeregaon,165,6
SHC Khursi paar,150,2
PHC Barman,133,10
SHC Devakachar,58,9
CHC Saikheda,139,3
SHC Khakariya,130,5
SHC Umariya,153,8
SHC Imaliya,133,1
SHC Kodsa,153,7
SHC Rampura,93,3
PHC Kerpani,177,1
SHC Pipariya Kala,95,10
CHC Salichouka,82,3
SHC Hiranpur,115,5
SHC Kanhar Gaon,125,7
SHC Gwari,188,4
CHC RAJMARG (RONSARA),143,7
SHC Kalyan Pur,107,10
SHC Raipur,98,4
SHC Umariya,157,2
SHC Tekapaar,183,10
SHC Lilwani,198,6
SHC Sarra,170,2
SHC Tindani,63,7
PHC Barhabada,134,4
SHC Hirapur,193,3
SHC Chirah Kala,104,6
SHC Shri Nagar,111,7
PHC Dhamna,131,6
SHC Bhorjhir,73,1
SHC Khadai,72,5
SHC Dangidhana,157,3
SHC Bachai,95,7
PHC Bohani,185,5
SHC Amgaon,67,9
SHC Barman,101,9
PHC Karakbel,71,9
SHC Mehgunwa,162,8
SHC Garha,73,9
SHC Murga Kheda,141,5
SHC Amapani,156,1
SHC Khamariya,177,7
SHC Bairagadh,138,5
PHC Shahpur,73,4
SHC Bhoripar,81,2
SHC Chandankheda,149,10
SHC Kerpani,78,8
SHC Kashikhiri,89,3
SHC Aamgaon Bada,90,5
SHC Rampura,112,7
SHC Surwari,120,3
SHC Kacharkona,116,7
SHC Nayakheda,171,1
SHC Madanpur,122,2
SHC Pipariya Linga,134,3
SHC Basuriya,83,3
SHC Badaiya Kheda,178,10
SHC Dhameta,194,7
SHC Paloha Bada,108,3
SHC Simariya Kala,135,7
SHC Bagaspur,153,2
SHC Dongargaon,175,3
SHC Imjhira,163,3
SHC Banwari,137,2
PHC Khurpa,122,8
SHC Imaliya,65,10
SHC Piparpani,82,10
SHC bamoharikhurd,131,3
SHC Kapoori,163,8
SHC Bohani,176,10
SHC Pachama,178,3
SHC Bilthari,113,2
SHC Mungwani,112,5
SHC Magardha,159,8
SHC Laatgaon,195,7
SHC Silvani,194,10
SHC Nivavar,129,5
SHC Bandha (Jhikoli),184,3
SHC Gongawari,146,5
UPHC Gadarwara,110,10
SHC Karli Kala,176,10
SHC Sehora,197,4
SHC Bichhua,116,5
SHC Manegaon,100,10
SHC Jhamar,53,3
SHC Jamada,75,8
SHC Chitapar,196,10
SHC Sahpur,96,6
PHC Singhpur,170,4
SHC Peeparpani,56,3
CHC Tendukheda,191,10
SHC Gourakhpur,96,9
SHC Niwari,123,4
SHC Singhpur,147,3
SHC Ratikarar,64,5
SHC Barman Khurd,185,3
PHC Chawarpatha,102,6
SHC Dudwara,180,4
SHC Bandha,136,7
CH GADARWARA,116,6
SHC Sahavan,80,8
SHC Kamod,148,2
PHC Barheta,121,2
SHC Kodiya,111,4
SHC Pipariya Barodia,189,7
SHC Khurpa,183,8
DH Narsinghpur,173,10
SHC Manegaon,62,9
SHC Nayakheda,112,5
SHC Bouchhar,148,6
SHC Mohad,176,8
SHC Tendukheda,54,4
SHC Malahpipariya,94,6
SHC Tumrda,52,1
SHC Karapgaon,77,7
SHC Madesur,91,6
PHC Malahpipariya,116,4
PHC Chichli,158,2
SHC Karakbel,139,5
SHC Kumroda,166,2
SHC Heerapur,114,2
PHC Amgaon Bada,60,5
SHC Mabi Pipariya,90,7
SHC Piyariya  (Rankai),147,9
SHC Sukha Kheri,81,7
PHC Shrinagar,97,4
SHC Kanjai,164,10
SHC Khamtara,177,4
SHC Barha Bada,91,10
SHC Gujar Jhiriya,61,8
SHC Khamariya,174,4
SHC Simri Badi,155,7
SHC Gotitoriya,138,5
SHC Richhai,185,1
SHC Deori,102,10
CHC Gotegaon,128,1
SHC Sadumar,98,5
SHC Barheta,69,10
SHC Magardha,132,1
SHC Thuti,142,8
SHC Bamhni,107,9
SHC Imaliya,88,3
SHC Gwari,95,7
SHC Singhpur Bada,172,6
SHC Hirapur,100,4
SHC Chichli,70,9
SHC Bhaisa,96,10
SHC Kuklah,142,3
SHC Suatala,106,5
SHC Gangai,185,1
UPHC Narsinghpur,157,3
SHC Khulri,126,8
SHC Panagar,112,9
CHC Kareli,128,7
SHC Bamhori Kala,122,10
SHC Dobhi,134,8
SHC Kosamkheda,136,7
SHC Jhanshi Ghat,187,6
SHC Usari,77,8
SHC Kathotiya,101,2
PHC Khulri,138,1
SHC Barpani,109,2
SHC Bilhera,198,4
SHC Imaliya,171,3
SHC Tuia Pani,149,1
SHC Panari,164,1
SHC Bahoripar Khurd,91,10
PHC Dobhi,71,6
SHC Dungariya,185,9
SHC Themi,118,4
Gotegaon - URBAN,191,4
SHC Ghatpindrai,79,5
PHC Bhama,131,8
PHC Palaho Bada,145,1
SHC Seeregaon,167,8
SHC Khursi paar,142,9
PHC Barman,73,3
SHC Devakachar,72,4
CHC Saikheda,90,5
SHC Khakariya,90,10
SHC Umariya,76,9
SHC Imaliya,173,4
SHC Kodsa,90,8
SHC Rampura,179,5
PHC Kerpani,168,8
SHC Pipariya Kala,86,2
CHC Salichouka,159,1
SHC Hiranpur,147,7
SHC Kanhar Gaon,170,1
SHC Gwari,73,10
