Health Facility Name,Number_Of_Beds,Rating
SHC Sankhni,157,8
SHC Raipur,76,10
SHC Badagaon,187,1
SHC Eraya,85,5
SHC Banwar,139,2
SHC Gharsondi,180,8
SHC Patai,143,2
SHC Kariyawati,150,9
SHC Maharajpur,183,1
CD Gol Pahadia,99,5
SHC Tighra,188,8
MH Madhoganj,171,9
SHC Kachhaua,52,8
SHC Kulaith,193,8
SHC Guthina,184,3
CD Gorkhi,97,1
CD Deendayal,94,10
CD Phalka Bazar,155,7
SHC Pichhore,95,6
SHC Devri-kalan,91,9
PHC Salwai,130,7
SHC Bandholi,170,5
SHC Parsen,154,5
CH Gwalior,72,3
HBA Gandewali Sadak,59,2
SHC Badera Bujurg,130,6
SHC Naugaon,109,3
SHC Shuklahari,80,10
SHC Rehat,104,7
NOT.SHC Veerpur,181,1
SHC Beru,94,5
PHC Kulaith,190,7
SHC Urwa,104,7
SHC Behat,68,7
SHC Kalyani,54,10
SHC Simiriya Tanka,129,7
SHC Kithonda,198,7
SHC Chheemak,113,5
CD SP Ashram,154,4
SHC Mastura,131,2
SHC Sukhapatha,85,8
SHC Baretha,144,3
CH Hem Singh Ki Pared,176,9
SHC Leetapura,106,3
SHC Baraua,186,4
SHC Bagwai,141,7
SHC Berja,69,8
SHC Aroli,90,5
SHC Putti,96,5
SHC Kerua,165,3
SHC Ghatigaon,190,5
SHC Dhaneli,63,5
SHC Aron,93,3
SHC Daurar,83,2
PHC Barai,180,8
SHC Badagaon,145,1
SHC Karhiya,183,10
SHC Chitoli,125,4
SHC Par,57,4
PHC Kariyawati,144,1
HBA Ladheri,126,4
SHC Tiholi,150,7
Gajararaja Medical College Gwalior,80,8
PHC Billowa,120,6
PHC Veerpur,143,10
SHC Akbai,180,8
SHC Jakhara,140,7
PHC Mohangarh,60,4
SHC Panihar,195,7
SHC Bhageh,139,6
SHC Chinor,192,7
CHC Mohna,196,5
SHC Utila,197,3
PHC Patai,101,9
PHC Utila,79,9
SHC Itma,159,2
SHC Masoodpur,185,10
SHC Hathnora,136,10
SHC Lakhanpura,102,7
SHC Gadajar,84,6
SHC Harsi,71,1
SHC Bhouri,74,10
SHC Amrol,125,5
SHC Fusawali,151,5
SHC Chandpur,172,6
SHC Salwai,122,5
SHC Ramoua,119,7
SHC Barotha,99,4
SHC Ladera,74,1
SHC Gohinda,77,1
SHC Badori,90,8
SHC Bujurg,127,10
SHC Pawaya,84,1
SHC Mehgaon,125,2
SHC Devra,140,4
NGO Gole ka Mandir,140,7
SHC Dabka,107,4
UFHC Thatipur,169,3
PHC Pichhore,127,4
SHC Arusi,144,2
SHC Antri,85,5
PHC Parsen,94,8
SHC Mehgaon,85,4
SHC Rahi,51,3
SHC Mohangarh,80,6
SHC Odpura,72,10
SHC Bharthari,142,6
SHC Bhengna,108,7
SHC Sirsaud,152,6
SHC Gadhota,78,7
MH Birlanagar,153,2
SHC Dhahi,146,6
PHC Hastinapur,69,4
SHC Tekanpur,118,8
CHC Bhitarwar,99,1
SHC Bijouli,99,3
HBA Dullapur,81,7
CD AGMP,186,7
SHC Rangawan,64,10
PHC Antri,63,4
SHC Sahona,77,3
SHC Beejakpur,163,2
SHC Badkagaon,62,4
SHC Jakhoda,108,4
SHC Behta,75,7
CH Dabra,57,10
SHC Nirawali,183,3
To be deleted,160,7
SHC Dubah,91,8
DH Gwalior,71,8
SHC Bilheti,94,1
SHC Simariya Tal,125,9
PHC Shuklahari,68,5
SHC Billowa,174,5
SHC Antri,64,4
PHC Chinor,160,7
NGO FPAI Branch Kampoo,190,5
SHC Mohna,70,4
SHC Richhari-Khurd,128,10
SHC Sankhni,73,8
SHC Raipur,62,1
SHC Badagaon,185,4
SHC Eraya,186,4
SHC Banwar,176,4
SHC Gharsondi,110,1
SHC Patai,123,9
SHC Kariyawati,100,10
SHC Maharajpur,130,5
CD Gol Pahadia,157,10
SHC Tighra,59,8
MH Madhoganj,112,6
SHC Kachhaua,104,9
SHC Kulaith,114,5
SHC Guthina,65,9
CD Gorkhi,134,1
CD Deendayal,116,7
CD Phalka Bazar,79,7
SHC Pichhore,167,2
SHC Devri-kalan,191,10
PHC Salwai,64,9
SHC Bandholi,106,7
SHC Parsen,81,4
CH Gwalior,186,2
HBA Gandewali Sadak,117,7
SHC Badera Bujurg,65,9
SHC Naugaon,109,4
SHC Shuklahari,181,8
SHC Rehat,59,8
NOT.SHC Veerpur,188,9
SHC Beru,68,6
PHC Kulaith,148,7
SHC Urwa,153,9
SHC Behat,135,6
SHC Kalyani,187,2
SHC Simiriya Tanka,174,4
SHC Kithonda,87,1
SHC Chheemak,159,8
CD SP Ashram,165,6
SHC Mastura,158,3
SHC Sukhapatha,147,7
SHC Baretha,102,9
CH Hem Singh Ki Pared,165,10
SHC Leetapura,154,8
SHC Baraua,74,4
SHC Bagwai,178,8
SHC Berja,70,8
SHC Aroli,190,6
SHC Putti,184,5
SHC Kerua,118,7
SHC Ghatigaon,165,6
SHC Dhaneli,72,6
SHC Aron,165,10
SHC Daurar,143,8
PHC Barai,90,9
SHC Badagaon,63,7
SHC Karhiya,125,4
SHC Chitoli,116,5
SHC Par,76,10
PHC Kariyawati,196,3
HBA Ladheri,172,3
SHC Tiholi,70,8
Gajararaja Medical College Gwalior,71,6
PHC Billowa,73,3
PHC Veerpur,181,8
SHC Akbai,114,9
SHC Jakhara,50,8
PHC Mohangarh,134,7
SHC Panihar,182,2
SHC Bhageh,141,2
SHC Chinor,135,10
CHC Mohna,99,7
SHC Utila,80,6
PHC Patai,185,6
PHC Utila,83,5
SHC Itma,125,5
SHC Masoodpur,156,7
SHC Hathnora,72,10
SHC Lakhanpura,96,3
SHC Gadajar,150,3
SHC Harsi,81,1
SHC Bhouri,120,1
SHC Amrol,87,8
SHC Fusawali,160,1
SHC Chandpur,135,8
SHC Salwai,50,10
SHC Ramoua,119,9
SHC Barotha,173,2
SHC Ladera,106,9
SHC Gohinda,190,5
SHC Badori,129,3
SHC Bujurg,121,6
SHC Pawaya,163,10
SHC Mehgaon,185,8
SHC Devra,75,9
NGO Gole ka Mandir,56,9
SHC Dabka,77,6
UFHC Thatipur,56,1
PHC Pichhore,152,8
SHC Arusi,176,7
SHC Antri,124,10
PHC Parsen,165,8
SHC Mehgaon,168,9
SHC Rahi,187,6
SHC Mohangarh,194,6
SHC Odpura,113,2
SHC Bharthari,120,3
SHC Bhengna,138,7
SHC Sirsaud,61,2
SHC Gadhota,138,6
MH Birlanagar,163,4
SHC Dhahi,73,3
PHC Hastinapur,123,7
SHC Tekanpur,54,5
CHC Bhitarwar,79,9
SHC Bijouli,158,10
HBA Dullapur,196,3
CD AGMP,162,9
SHC Rangawan,102,8
PHC Antri,145,7
SHC Sahona,109,1
SHC Beejakpur,127,10
SHC Badkagaon,152,2
SHC Jakhoda,88,10
SHC Behta,125,10
CH Dabra,175,7
SHC Nirawali,85,5
To be deleted,192,3
SHC Dubah,197,2
DH Gwalior,68,10
SHC Bilheti,177,3
SHC Simariya Tal,117,4
PHC Shuklahari,71,3
SHC Billowa,196,4
SHC Antri,165,2
PHC Chinor,126,2
NGO FPAI Branch Kampoo,118,3
SHC Mohna,139,3
SHC Richhari-Khurd,126,4
