Health Facility Name,Number_Of_Beds,Rating
Paraiya Namaksar,82,3
GAURAIPUR,135,5
MAHARAJ PUR,150,8
SHAHGARGH,62,6
PANDARI,109,7
PARSADE PUR,134,4
FUNDANPUR,194,9
BAZAR SHUKUL,110,1
CHC TILOI,104,1
RAJAFATTEPUR,157,10
GUJAR TOLA,53,3
UTTARGAWN,69,8
BARAULIYA,133,7
SUJAN PUR,180,10
GHATKAUR,112,1
NPHC ARARU,122,7
JAGDISH PUR,104,8
PHARGARH,186,2
PRADHANPUR,87,10
DAKHINVARA,78,8
KHALISPUR,101,9
SHIVRATAN GANG,110,9
BADGANW,117,3
INHAUNA,135,3
LAULI,111,4
SHAHGARGH,186,2
NPHC BHETUA,98,4
RAMGANJ,92,6
RASULPUR,64,4
NEW PHC ALAIPUR,100,1
GOPALPUR,124,8
PANIYAR,191,9
JAYAS,109,3
Nasirabad-1,118,3
PENDARA,161,9
main center 1,91,2
CHC AMETHI,116,5
CHC BHADAR,62,7
CHETRA,144,6
MANGARA,103,7
BERARA,66,4
KHARA,123,2
DAULATPUR,140,10
DARPIPUR,124,5
MAIN CENTER JAGDISHPUR,169,1
AHAMADPUR,104,3
MAIN CENTER II,80,4
GAURIKPUR,142,8
SHEKHPUR,118,3
SADIYA,161,7
BIKAPUR,82,2
SHAHMAU,125,10
RAMPUR KASIHA,105,3
MAU (MAJHAVARA),79,2
SATWA,167,7
ASHISHPUR,185,7
NPHC AHORWA RAM PUR,154,7
KANHPUR,65,10
RASTAMAU,158,4
JAUDAHA,170,5
KACHNAWA,62,10
Bani,140,5
NPHC SANTHA,183,2
DELA,155,9
MANRAULI,195,8
MOHARAIYA,142,6
Jamal Pur Hurraiya,76,2
HARDO,116,1
DHODAN PUR,142,3
Center Nasirabad,198,3
BAHUVA,74,4
KARPIYA,78,6
main center 2,162,9
MUSHAFIR KHANA,55,3
GANGAULI,196,7
Bhetua,143,2
SARVAN,141,3
AFOIYA,130,3
CHC JAGDISHPUR,50,5
BHADDAUR,136,2
KATEHATI,90,1
Main Centre-FW,165,5
BIRNAWA,122,1
Sahajipur,96,9
MAHONA,182,6
MAU,138,5
Dharai,58,3
PARTOSH,84,6
AHURI,167,4
RATVALIYA,145,9
NIJAMMUDDEENPUR,192,2
TIKARI,180,1
KAUHAR,74,1
SMILEPUR,118,10
FURASATGANJ,187,8
SALAUN I,147,7
BHANIPUR,91,8
GORKHAPUR,166,1
ANAKHARA,61,1
ALAIPUR,66,6
AATRAUNA,51,7
KARANGAV,196,1
LODHWARIYA,100,9
DELA,115,9
PURABNAYAN,175,7
BHOYE,166,8
KHARAWA,163,10
AJADPUR,115,7
MAU,79,7
MOHANGANJ,81,8
BHAMUNI,141,1
KANSAPUR,158,8
GADWA,138,3
RAM NAGAR,199,2
MISHRAULI,156,8
Bedhauna,186,3
KORARI,161,3
KATHAURA,145,7
DADARA,157,7
SIRKHIRI,82,2
RAMPUR PAWARA,52,4
MAIN CENTER,160,10
BARSANDA,72,10
KANAK SINGHPUR,184,8
UMARI,98,8
ROHASI BUJURG,89,6
SARESAR,104,8
Niyawan,133,10
PHC SATHIN,114,7
Salaun II,102,6
HASWA,185,6
Gadhamafi,104,2
NEVADA,139,2
JAGDISHPUR-1,130,4
PHC SANGRAMPUR,143,10
THEGAHA,72,3
JALAMA,101,6
PURE PANDAY,187,7
TANDA,124,1
NANDA MAHER,54,9
BHATGAVA,75,4
MEERJAHAPUR,114,8
BHIMI,93,3
AIREEDEEH,107,2
GHARAEE,94,7
GOPALPUR,157,10
NPHC AHORWA RAM PUR,81,5
DASAYEEPUR,153,8
BALBHADRAPUR,74,4
CHILAULI,110,5
MAIN CENTER DEEH,86,9
SALON,136,6
SEVAEE,93,3
ROKHA,112,7
TENDUVA,164,10
TIKAR MAFI,124,10
FURASATGANJ,142,6
Lakha Pur,125,10
JAMON,61,7
Pure Raee,157,5
KHAIRAHANI,118,5
GUNGWACHHA,193,6
SAITHA,181,4
Bara,185,9
LOHARTHA,73,8
DEVKALI,112,8
NPHC Ameymafi,159,4
SARVAN,113,6
Main Centre-MCH,146,7
BAHADURPUR,99,3
RESI,197,7
Kuwarmau,95,7
THAURI,135,9
SALAUN I,128,10
PALI,91,2
Nasirabad-2,99,10
NPHC RAMGANJ,196,8
UADWA,168,9
NPHC BHTGAVA,184,4
TETARPUR,146,1
PARSAWA,124,8
ROKHA,121,10
PHC BHETUA,187,6
NPHC KASATHUNI,143,6
POTHEI,182,10
PHC RANIGANJ,175,1
P.P.C.JAYAS,50,6
JAGDISHPUR-2,160,8
Chhatoh,72,1
GADWA,111,4
SATANPURVA,194,5
PINDARA,151,3
GUVAVA,97,5
PHC MAHONA,171,5
PIPARPUR,57,8
SINGHPUR,116,9
KISHANI,143,10
NAYAN,154,5
AHORWA,168,1
PURE PANDAY,120,2
JAMURWA,54,9
MANGAULI,80,6
DEEH,179,6
TEKARI DANDU,122,3
GAYASPUR,54,3
AHORWA,187,5
HATHKILA,165,2
HARGANV,186,10
BIRNAWA,121,2
JIJAULI,175,7
CHANDAUKI,125,9
BISAIYA,67,7
NEVADA,182,2
TRISUNDI,130,7
SARAY MAHESHA,64,6
UTELAWA (Extra Sub Center),71,3
SEMROUTA,120,3
SARYA DUBAN,181,4
MAHESHPUR,109,3
KATARI,86,3
PARSADE PUR,158,6
PRADHANPUR,105,1
Padum Pur,76,7
MUNSHI GANJ,118,4
SHANKER GANJ,98,10
KHANAPUR CHAPRA,113,6
SINDURWA,191,5
UTTAR GAWAN,67,3
MAIN CENTER,176,9
N.P.H.C.JAYAS,105,1
BAHARPUR,151,9
KAPASI,120,5
SALAUN II,66,2
Kudha,160,7
RAJKEEY,55,10
GAURA,60,7
Ashraf Pur,79,6
NURUDDEENPUR,146,8
PEEDHHI,133,10
HIMMATGARH,164,10
DHORARA,153,4
NPHC SHIVGANJ,199,5
HARADOIYA,185,8
MAYAS,67,7
KORARI GIRDHAR SAH,99,7
ANNIVAIJAL,129,6
SEMUHI,96,3
GAURIGANJ,173,4
NEW PHC GOSAIGANJ,71,9
PHC NEVADA,105,10
Ninava,163,9
SARAY HRIDAYSHAH,106,7
DHUYE,134,5
BEERIPUR,169,10
Parasurampur Thekhai,115,4
Shivganj,145,7
KAPURIPUR,178,10
PUNNAPUR,52,4
DHEMA,113,5
ANTAWA,173,7
KESHAVAPUR,122,3
KOTWA,155,10
WARKOTE,127,5
PURABNAYAN,155,6
PAKASARVA,195,5
Kajipur Teliyani,107,6
JAGATPUR,128,4
NAWDAYEE,180,4
GAJANPUR,193,3
KANJAS,178,5
RAJAPURCHK BIBI,76,4
NARA,119,2
Nasirabad,185,9
DEEH,136,2
TAURI,96,3
TILOI,164,6
BETTOURA,146,3
FOOLA,145,4
JANGAL RAM NAGAR,113,3
PARSOIEYA,64,7
ALAIPUR,136,7
SAKRAVA,64,1
KACHNAWA,65,9
ASHA RASHID,137,10
ODARI,109,7
KUKHA RAMPUR,118,7
NARAINI,96,5
SONARI,192,4
JAMUVARI,166,10
KOTWA,193,9
BABUPUR,172,4
SARUWANWA,185,7
BARVALIYA,193,9
DEH PASAR,171,8
PURECHANDRIKA,184,2
DARANAGAR,196,5
ASHA RASHID,179,7
HARIMAU,85,6
AKBARPUR FARSHI,128,2
KATRA HULASI,83,1
KHETHOUDHAN,174,10
HUSAINGANJ KALA,80,10
PUREPAHALVAN,125,4
MOHANA,52,9
TIKARIYA,150,1
TARAUNA,129,8
ANTAWA,174,6
POORAB NAYAN,141,10
PALIYA PASHCHIM,124,8
KAKWA,59,5
SHAHGARGH,113,5
SUCHI,199,2
P.P.C.MU.KHANA,171,7
SUBCENTER RANIGANJ,130,6
GUNNAUR,187,7
RAMPURCHAUDHARI,165,7
Salaun I,148,9
BISARA,110,8
SARME,72,8
BETTOURA,58,7
SALAUN II,177,2
MOHANGANJ,194,7
HARIKARANPUR,80,3
AIDHI,122,1
MAQDUMPUR,79,1
NIGOHA,129,7
Bewal,96,9
PANHAUNA,138,2
SALON-KARHAIYA BAZAR,188,5
RANKAPUR,165,6
BIRAJ,88,3
KESHAVAPUR,69,2
NEWADIYA,98,6
P.P.CENTER,128,5
PAKARGAOUN,78,8
KHETHOUDHAN,95,3
RUDAULI,82,8
VAIDIKPUR,120,9
JAGDISH PUR,131,10
BHOMIPUR,56,6
SINGHPUR,92,6
TENDUA,56,8
Kamrauli,55,7
REVHARA,165,3
BAGHAULA,154,6
KALYADPUR,174,8
MAIN CENTER,114,5
TEKARI DANDU,118,4
Chhatoh   ( New PHC ),124,7
Kachnawa,56,7
BANDOEYA,136,9
RASULABAD,160,5
RAMDAIPUR,96,3
GOPALPUR,100,6
POTHEI,65,7
POORAB NAYAN,68,4
MAIN CENTER DEEH,113,4
Keshavapur,60,3
SONARI KALA,143,10
MATAKA,59,5
MAIN CENTER,119,9
UNCHGANV,106,1
Paraiya Namaksar,154,10
GAURAIPUR,114,8
MAHARAJ PUR,76,5
SHAHGARGH,91,8
PANDARI,129,1
PARSADE PUR,149,2
FUNDANPUR,190,2
BAZAR SHUKUL,110,4
CHC TILOI,168,1
RAJAFATTEPUR,185,8
GUJAR TOLA,157,4
UTTARGAWN,125,5
BARAULIYA,94,10
SUJAN PUR,122,10
GHATKAUR,79,9
NPHC ARARU,81,9
JAGDISH PUR,85,10
PHARGARH,68,5
PRADHANPUR,147,6
DAKHINVARA,161,1
KHALISPUR,187,1
SHIVRATAN GANG,73,6
BADGANW,119,2
INHAUNA,67,1
LAULI,80,4
SHAHGARGH,97,3
NPHC BHETUA,76,4
RAMGANJ,121,2
RASULPUR,148,7
NEW PHC ALAIPUR,148,5
GOPALPUR,110,1
PANIYAR,127,2
JAYAS,192,6
Nasirabad-1,169,10
PENDARA,168,4
main center 1,67,10
CHC AMETHI,117,6
CHC BHADAR,98,1
CHETRA,197,7
MANGARA,164,10
BERARA,188,5
KHARA,164,1
DAULATPUR,117,7
DARPIPUR,158,8
MAIN CENTER JAGDISHPUR,177,4
AHAMADPUR,149,9
MAIN CENTER II,107,10
GAURIKPUR,55,10
SHEKHPUR,96,3
SADIYA,127,3
BIKAPUR,198,7
SHAHMAU,112,10
RAMPUR KASIHA,91,4
MAU (MAJHAVARA),187,5
SATWA,68,10
ASHISHPUR,85,3
NPHC AHORWA RAM PUR,199,1
KANHPUR,142,9
RASTAMAU,120,10
JAUDAHA,109,6
KACHNAWA,109,3
Bani,194,10
NPHC SANTHA,87,9
DELA,117,2
MANRAULI,128,7
MOHARAIYA,183,5
Jamal Pur Hurraiya,79,2
HARDO,180,4
DHODAN PUR,51,7
Center Nasirabad,54,7
BAHUVA,109,7
KARPIYA,122,4
main center 2,134,5
MUSHAFIR KHANA,162,1
GANGAULI,89,10
Bhetua,56,2
SARVAN,103,9
AFOIYA,59,9
CHC JAGDISHPUR,55,3
BHADDAUR,90,5
KATEHATI,153,10
Main Centre-FW,118,9
BIRNAWA,66,6
Sahajipur,118,8
MAHONA,145,4
MAU,80,9
Dharai,59,8
PARTOSH,99,5
AHURI,112,10
RATVALIYA,168,7
NIJAMMUDDEENPUR,124,1
TIKARI,118,7
KAUHAR,66,5
SMILEPUR,130,1
FURASATGANJ,103,10
SALAUN I,180,7
BHANIPUR,147,3
GORKHAPUR,169,8
ANAKHARA,128,8
ALAIPUR,138,4
AATRAUNA,55,3
KARANGAV,154,9
LODHWARIYA,135,1
DELA,178,9
PURABNAYAN,196,3
BHOYE,155,9
KHARAWA,170,3
AJADPUR,113,1
MAU,199,6
MOHANGANJ,149,5
BHAMUNI,189,10
KANSAPUR,163,6
GADWA,177,2
RAM NAGAR,178,5
MISHRAULI,63,3
Bedhauna,115,2
KORARI,153,9
KATHAURA,170,10
DADARA,77,9
SIRKHIRI,60,6
RAMPUR PAWARA,177,1
MAIN CENTER,185,1
BARSANDA,151,8
KANAK SINGHPUR,130,10
UMARI,105,5
ROHASI BUJURG,167,10
SARESAR,146,10
Niyawan,162,8
PHC SATHIN,52,5
Salaun II,75,4
HASWA,80,5
Gadhamafi,194,9
NEVADA,157,6
JAGDISHPUR-1,193,2
PHC SANGRAMPUR,71,6
THEGAHA,79,7
JALAMA,166,6
PURE PANDAY,82,7
TANDA,57,1
NANDA MAHER,148,2
BHATGAVA,172,7
MEERJAHAPUR,177,3
BHIMI,123,7
AIREEDEEH,83,7
GHARAEE,197,6
GOPALPUR,70,8
NPHC AHORWA RAM PUR,179,9
DASAYEEPUR,70,9
BALBHADRAPUR,73,1
CHILAULI,190,5
MAIN CENTER DEEH,176,6
SALON,168,5
SEVAEE,138,2
ROKHA,166,5
TENDUVA,60,2
TIKAR MAFI,130,4
FURASATGANJ,121,9
Lakha Pur,142,5
JAMON,167,4
Pure Raee,76,1
KHAIRAHANI,187,8
GUNGWACHHA,85,2
SAITHA,170,3
Bara,112,8
LOHARTHA,194,1
DEVKALI,122,9
NPHC Ameymafi,157,9
SARVAN,81,5
Main Centre-MCH,108,7
BAHADURPUR,106,4
RESI,130,9
Kuwarmau,150,2
THAURI,95,8
SALAUN I,160,2
PALI,143,1
Nasirabad-2,150,2
NPHC RAMGANJ,199,8
UADWA,172,8
NPHC BHTGAVA,145,8
TETARPUR,186,1
PARSAWA,67,10
ROKHA,190,6
PHC BHETUA,197,9
NPHC KASATHUNI,75,6
POTHEI,131,3
PHC RANIGANJ,98,4
P.P.C.JAYAS,182,7
JAGDISHPUR-2,117,5
Chhatoh,79,6
GADWA,150,4
SATANPURVA,99,1
PINDARA,54,1
GUVAVA,141,6
PHC MAHONA,159,6
PIPARPUR,164,1
SINGHPUR,154,7
KISHANI,196,3
NAYAN,61,6
AHORWA,128,1
PURE PANDAY,152,1
JAMURWA,52,5
MANGAULI,142,2
DEEH,185,10
TEKARI DANDU,143,3
GAYASPUR,71,10
AHORWA,164,10
HATHKILA,174,7
HARGANV,87,10
BIRNAWA,193,4
JIJAULI,92,9
CHANDAUKI,96,4
BISAIYA,162,9
NEVADA,197,10
TRISUNDI,72,7
SARAY MAHESHA,191,5
UTELAWA (Extra Sub Center),142,2
SEMROUTA,92,6
SARYA DUBAN,187,7
MAHESHPUR,149,7
KATARI,64,8
PARSADE PUR,104,1
PRADHANPUR,74,2
Padum Pur,59,6
MUNSHI GANJ,102,4
SHANKER GANJ,69,10
KHANAPUR CHAPRA,176,4
SINDURWA,175,3
UTTAR GAWAN,195,10
MAIN CENTER,53,8
N.P.H.C.JAYAS,158,5
BAHARPUR,188,9
KAPASI,100,1
SALAUN II,178,6
Kudha,95,5
RAJKEEY,128,9
GAURA,114,9
Ashraf Pur,115,8
NURUDDEENPUR,151,2
PEEDHHI,139,4
HIMMATGARH,103,6
DHORARA,191,6
NPHC SHIVGANJ,79,1
HARADOIYA,161,3
MAYAS,182,8
KORARI GIRDHAR SAH,100,4
ANNIVAIJAL,189,3
SEMUHI,173,7
GAURIGANJ,104,10
NEW PHC GOSAIGANJ,92,1
PHC NEVADA,162,2
Ninava,171,3
SARAY HRIDAYSHAH,130,5
DHUYE,124,10
BEERIPUR,75,3
Parasurampur Thekhai,107,9
Shivganj,112,7
KAPURIPUR,175,4
PUNNAPUR,58,7
DHEMA,53,2
ANTAWA,152,10
KESHAVAPUR,109,4
KOTWA,90,8
WARKOTE,88,7
PURABNAYAN,76,8
PAKASARVA,59,5
Kajipur Teliyani,152,10
JAGATPUR,88,1
NAWDAYEE,146,2
GAJANPUR,103,9
KANJAS,194,6
RAJAPURCHK BIBI,71,4
NARA,98,2
Nasirabad,101,7
DEEH,89,2
TAURI,96,9
TILOI,126,6
BETTOURA,119,2
FOOLA,160,2
JANGAL RAM NAGAR,118,7
PARSOIEYA,178,10
ALAIPUR,194,6
SAKRAVA,193,4
KACHNAWA,166,5
ASHA RASHID,189,1
ODARI,143,4
KUKHA RAMPUR,83,9
NARAINI,108,4
SONARI,81,5
JAMUVARI,192,2
KOTWA,184,10
BABUPUR,94,2
SARUWANWA,103,9
BARVALIYA,152,10
DEH PASAR,160,7
PURECHANDRIKA,159,9
DARANAGAR,101,10
ASHA RASHID,136,8
HARIMAU,126,9
AKBARPUR FARSHI,130,8
KATRA HULASI,89,6
KHETHOUDHAN,61,2
HUSAINGANJ KALA,194,8
PUREPAHALVAN,147,1
MOHANA,107,2
TIKARIYA,56,6
TARAUNA,108,4
ANTAWA,158,5
POORAB NAYAN,195,10
PALIYA PASHCHIM,66,6
KAKWA,122,8
SHAHGARGH,184,8
SUCHI,134,8
P.P.C.MU.KHANA,81,10
SUBCENTER RANIGANJ,113,8
GUNNAUR,89,6
RAMPURCHAUDHARI,129,1
Salaun I,177,9
BISARA,172,2
SARME,161,5
BETTOURA,156,3
SALAUN II,103,10
MOHANGANJ,160,4
HARIKARANPUR,152,5
AIDHI,84,6
MAQDUMPUR,165,3
NIGOHA,60,2
Bewal,130,5
PANHAUNA,83,7
SALON-KARHAIYA BAZAR,148,2
RANKAPUR,102,2
BIRAJ,193,5
KESHAVAPUR,196,4
NEWADIYA,86,8
P.P.CENTER,161,4
PAKARGAOUN,112,7
KHETHOUDHAN,94,7
RUDAULI,183,6
VAIDIKPUR,147,10
JAGDISH PUR,132,4
BHOMIPUR,122,1
SINGHPUR,186,2
TENDUA,120,10
Kamrauli,189,5
REVHARA,94,4
BAGHAULA,169,3
KALYADPUR,137,1
MAIN CENTER,85,1
TEKARI DANDU,166,2
Chhatoh   ( New PHC ),187,4
Kachnawa,165,5
BANDOEYA,193,5
RASULABAD,72,1
RAMDAIPUR,188,6
GOPALPUR,65,5
POTHEI,133,4
POORAB NAYAN,151,1
MAIN CENTER DEEH,82,4
Keshavapur,130,9
SONARI KALA,77,9
MATAKA,90,7
MAIN CENTER,50,8
UNCHGANV,110,6
