Health Facility Name,Number_Of_Beds,Rating
Kumuli PHC(N),91,9
Motigam PHC,79,7
Mohanda,100,1
SC Andri,97,3
SC Pujariguda,158,3
SC Majiguda,61,3
SC Badagumuda,199,7
DEOBANDHA,132,6
GUMBAGUDA,160,3
SC Lamataguda,140,6
SC Semala,67,6
PILLIKA,140,4
Raighar PHC(N),62,3
SC Biriguda,84,10
Chingudibhata,66,5
Kodavatta,105,5
SC Pujariguda DNK,118,9
SINDHIGAM,83,8
SC Ponduguda,127,4
SC Merei,76,3
SC Charamula,88,8
ANCHALGUMMA,150,9
SC Chandili,87,7
SC Antipara,127,7
Kurabeda PHC(N),129,9
SC Chacha,169,5
TARAGAM,176,5
Jadapara,103,10
SC Anchalaguma,130,7
SC Jhadkusumi,99,2
SC Dhandara,95,1
TENTULIKHUNTI,170,4
SC Mandeigam,173,9
SC Ankabeda,95,4
SC Khandiaguda,68,4
SC Karchamal,75,8
RAVANAGUDA,188,9
SC Kantamal,194,7
Samlapur,51,6
SC Junapani,117,1
SC Kosagumuda(MC),198,6
SC Kodinga,102,9
SC Ukiapali,143,7
SC Malgam,116,1
SC Jharigam,77,7
Kanhandi,154,8
SC Beheda,151,4
SC Semala,169,9
JAMBAGUDA,112,7
SC Mohendri,61,6
SC Bhendia,194,1
SC Dongara,89,7
BAXAGUDA,165,6
SC Phupugam,118,4
SC Dukhuguda,96,7
SC Temra,154,3
SC Mokia,192,9
SC Borigam,90,9
BASINI,162,8
SC Dahimal,124,6
SC Karagam,166,1
SC Pujariguda,167,2
SC Umerhandi,179,6
SC Phulabhata,128,8
SC Khutubai,102,1
BHATRA SIUNI,145,4
BIRIGUDA,55,4
SC Bankuli,54,6
Ganjapara,178,6
Raighar,173,9
SC Dhamanaguda,190,6
BADAKUMULI,158,9
SC Khanda,128,7
SC Dhodra,80,2
KOSAGUMUDA,79,4
SC Patraput,111,10
MANGORDORA,190,7
SC Pataki,116,10
SC Kapoor,108,3
SC Saraguda,76,9
SC Mendra,149,9
SC Amalabhata,106,6
SC Mohara,71,1
SC Ekamba,193,2
Khiloli,103,9
SC Binjili,77,9
Debagam,124,7
KATAGAM,166,10
SC Ghatchura,99,2
SASAN,92,1
DASPUR,109,8
SC Gadbakatra,144,10
MANTRIGUDA,109,10
Turudhi PHC(N),166,1
SC Jadaguda,95,10
ANKABEDA,55,10
SC Chikalpadar,148,7
SC Chercheta,142,2
SC Dublahandi,97,8
Udayapur,122,7
PANASPADAR,155,4
SC Bariguda,118,9
SC Kandiwada,142,1
SC Ekori,83,1
SC Belgam,147,6
NABARANGPUR,101,10
SC Anchhal AV,144,9
SC Kerala,142,4
BADAMDA,90,4
BETAL,195,1
SC Chikalpadar,77,2
SC Pandikote,169,5
SC B.M.Semla,191,8
SC Khaliguda,113,4
HATABHARANDI,104,5
SC Medna,74,4
SC Sanabasini,157,3
SC Podalguda,84,10
Saraguli,197,3
SC Konakot,148,5
SC Saradhapur,136,10
KODINGA,168,9
SC Dahana,146,5
KURSI,61,8
SC Beheramunda,81,2
TUMBARLA,122,9
SC Ghdakhunta,130,3
SC M-Keragam,186,10
SC Deulkana,149,3
SC Tilandi,138,8
SC Sindhiguda,60,7
DABUGAM,99,3
JAGANNATHPUR,179,10
Dumurimunda,60,5
ICHHAPUR,132,9
Hatigam,133,6
SC Chacharaguda,166,7
SC Nandapura,74,5
Khuduk,127,9
SC Chotaguda,155,7
SC Padargam,96,3
SC Sunabeda,134,6
PUJARIGUDA,51,4
SC Jaliaguda,176,4
SC Pujariguda,165,7
DEULA,140,4
SC Demadhei,95,5
Kachapara- II,194,3
SC Badakuna,175,2
Odngai,122,10
SC Attigam,107,6
SC Belanga,108,3
JAMBAGUA,191,8
SC Bijapur,176,2
SC Manigan,137,9
SC Kamata,162,9
SC Sukigam,193,2
SC Kenduguda,87,8
SC Dangarbhuja,162,9
NANDAHANDI,157,8
SC Katagam,172,10
Bobei,68,5
KESARIGUDA,157,1
SC Betajharana,73,6
SC Koilari,68,8
SC Manchagaon,80,5
SC Sana-amada,167,2
SC Kantagaon,195,1
Kurabela,177,5
SINGSARI,158,1
SC Sankarada,127,10
Gona PHC(N),107,3
SC Benora,51,7
Turudi,87,10
SC Digi,150,2
SC Nuhura,138,10
SC Tailaguda,149,5
SC Aenli,136,7
SC Sarviguda,80,4
SC Bada-bharandi,82,3
SC Jamurunda,141,8
SC Gobgri,86,3
SC Dabugam,186,7
SC Ekamba-A,137,2
SC Bhandimal,198,1
SC Chirma,94,3
SC Rajoda,80,7
SC Chatiguda,181,10
SC Badakumari,165,2
SC Pujaribharandi,108,1
SC Jhadasemla,84,7
SC Bakadabeda,120,10
SC Khutuguda,50,4
SC Kesherabeda,194,2
SC Nuakote,117,3
SC Dalabeda,134,10
MAHULPADAR,123,6
Timanpur,187,10
SC Kusumi,92,9
CHATAHANDI,119,3
SC Kusumbandh,76,6
MAIDALPUR,72,4
SC Kalagam,164,3
BADABHARANDI,95,6
SC Rajpur,90,8
BORIGAAM,102,2
SANAMASIGAM,106,6
BADAMOSIGAM,133,6
SC Umergaon,153,9
SC Baidapara,128,2
SC Jamadarapara,131,8
SC Deopalli,131,4
SC Bhulukanadi,110,6
SC Ghatguda,119,5
AMBADOLLA,181,6
SC Pharsaguda,96,2
SC Bhikhya,63,9
SC Patakhalia,182,8
JHARIGAM,103,6
PAPADAHANDI,139,10
Umarkote Govt Hospital,167,9
SC Palia,136,4
Dhanara,124,6
Jodinga PHC(N),139,5
SC Majhidhanua,57,3
DALABEDA,98,4
SC Siriliuda,52,7
SC Nishnahandi,123,10
SC Nandahandi,130,3
SC Neigaon,171,8
Naktisimoda,59,5
SC Bhandariguda,88,10
SC Mirimunda,58,4
SC Rangamatiguda,95,3
BHATIGAM,79,10
SC Hirli,92,3
SANAGUMUDA,183,4
SC Dengaguda,52,9
SC Bada-Olma,149,9
Paurbela,148,10
SC Bajragada,61,9
SC Dhanpur,90,7
SC Chitabeda,50,3
CHANDAHANDI,164,4
SC Chkali,76,6
MAHENDRAI,119,9
SC Chandrapur,166,5
SC Cghhananbeda,152,4
SC B-Maliguda,126,1
Chhatabeda,69,2
SC Ponar,116,7
SC Motigam,113,3
Biripur,98,5
Baragaon,82,10
SC Jagannathpur,69,6
SC Mirganiguda,122,7
SC Bodni,120,5
UMARKOTE,75,10
Haldi,142,9
SC Banuaguda,179,1
SC Telnadigam,66,9
SC Jabaguda,117,4
SC Santoshpur,161,3
SC Bada-amada,80,2
SC Bania,179,7
SC K.Simla,148,1
Nuapara,80,1
Hatabharandi,188,3
SC Burja,81,4
SC Majhiguda,189,9
SC Hirapur,173,8
Baghbeda,136,1
SC Phalsapara,172,1
SC Churchunda,168,8
PUJARIGUDA,77,10
SC Tumbarla,78,8
SC Saruguda,151,10
SC Chillabeda,173,1
SC Murtuma,144,3
Kumuli,94,1
SC Phupugam,99,6
SC Dangriguda,66,3
SC Gambhariguda,156,5
SC Kursi,176,2
SC Kangra,116,4
Mundibeda,85,2
SC Jiraguda,116,8
SC Jhadabandhguda,97,1
SC Mundapadar,173,6
SC Mohuli,75,9
SC Ichhapur,102,1
SC Tentulikhunti,165,10
Dumrimunda PHC(N),132,9
SC Mentry,68,8
SC Santemra,109,8
SC Purla,169,4
Simoda,97,9
SC Halidhi,50,7
Kebikonga,136,9
PHUPUGHON,171,10
SC Maidalpur,118,9
Sonepur,55,4
BEHERAMUNDA,90,1
Jalangpara,97,6
SC Hatibadi,54,9
Jhatirpara,96,10
SC Bhamini,199,10
SC Chandahandi,133,1
SC Jharigumma,178,4
EKAMBA,161,8
SC Ekamba-B,166,5
PATRAPUT,110,5
SC Bamini,129,8
SC Koilimunda,168,5
SC Ghadadhanua,50,7
DHODRA,75,8
Bingsari. Taragam Dnk,174,3
URDI,177,4
SC Bakada,106,1
SC Singisari,182,10
SC Majhiguda,100,3
SUNABEDA,51,2
Mahubhata,66,8
SC Sirshi,196,7
ASANGA,155,3
SC Kukudabai,60,9
Deubharandi,147,2
Kp- I,137,8
SC Asngha,174,2
SC Jatabal,181,5
Chhelidangri,183,3
SANMOSIGAM,124,7
SC Jamuguda,97,3
SC Papadahandi,186,10
Koskanga,138,5
SC Patri,106,2
MALLIGUDA,54,2
Gona,194,10
Bharasundi,52,10
SC Naktiguda,137,8
SC Baragam,142,6
Kumuli PHC(N),144,3
Motigam PHC,165,6
Mohanda,91,2
SC Andri,181,4
SC Pujariguda,61,1
SC Majiguda,158,5
SC Badagumuda,192,4
DEOBANDHA,85,1
GUMBAGUDA,146,9
SC Lamataguda,114,2
SC Semala,70,10
PILLIKA,149,8
Raighar PHC(N),77,5
SC Biriguda,107,9
Chingudibhata,163,5
Kodavatta,143,5
SC Pujariguda DNK,145,7
SINDHIGAM,173,9
SC Ponduguda,97,6
SC Merei,101,5
SC Charamula,120,9
ANCHALGUMMA,185,10
SC Chandili,89,6
SC Antipara,56,4
Kurabeda PHC(N),52,6
SC Chacha,161,6
TARAGAM,52,5
Jadapara,199,7
SC Anchalaguma,150,8
SC Jhadkusumi,164,4
SC Dhandara,117,2
TENTULIKHUNTI,64,1
SC Mandeigam,171,5
SC Ankabeda,175,6
SC Khandiaguda,61,2
SC Karchamal,130,8
RAVANAGUDA,78,9
SC Kantamal,85,2
Samlapur,97,9
SC Junapani,70,10
SC Kosagumuda(MC),141,9
SC Kodinga,176,8
SC Ukiapali,113,9
SC Malgam,94,1
SC Jharigam,191,2
Kanhandi,111,2
SC Beheda,196,1
SC Semala,167,3
JAMBAGUDA,144,9
SC Mohendri,170,2
SC Bhendia,146,2
SC Dongara,192,10
BAXAGUDA,144,5
SC Phupugam,158,9
SC Dukhuguda,149,3
SC Temra,100,10
SC Mokia,124,9
SC Borigam,197,10
BASINI,103,9
SC Dahimal,145,1
SC Karagam,125,2
SC Pujariguda,68,1
SC Umerhandi,100,2
SC Phulabhata,148,1
SC Khutubai,156,2
BHATRA SIUNI,103,8
BIRIGUDA,50,5
SC Bankuli,151,10
Ganjapara,58,4
Raighar,84,3
SC Dhamanaguda,163,5
BADAKUMULI,57,5
SC Khanda,199,9
SC Dhodra,134,5
KOSAGUMUDA,54,2
SC Patraput,186,4
MANGORDORA,193,6
SC Pataki,130,1
SC Kapoor,108,9
SC Saraguda,120,6
SC Mendra,137,6
SC Amalabhata,162,2
SC Mohara,122,5
SC Ekamba,134,7
Khiloli,144,10
SC Binjili,65,7
Debagam,152,7
KATAGAM,171,3
SC Ghatchura,51,2
SASAN,112,10
DASPUR,174,4
SC Gadbakatra,72,10
MANTRIGUDA,59,1
Turudhi PHC(N),175,7
SC Jadaguda,127,9
ANKABEDA,133,10
SC Chikalpadar,167,3
SC Chercheta,179,9
SC Dublahandi,161,5
Udayapur,53,9
PANASPADAR,100,9
SC Bariguda,83,6
SC Kandiwada,55,8
SC Ekori,198,8
SC Belgam,75,4
NABARANGPUR,82,6
SC Anchhal AV,129,1
SC Kerala,120,1
BADAMDA,62,8
BETAL,133,3
SC Chikalpadar,87,6
SC Pandikote,174,6
SC B.M.Semla,128,8
SC Khaliguda,111,5
HATABHARANDI,139,7
SC Medna,94,3
SC Sanabasini,70,7
SC Podalguda,120,7
Saraguli,131,3
SC Konakot,105,1
SC Saradhapur,196,5
KODINGA,196,1
SC Dahana,91,6
KURSI,132,10
SC Beheramunda,146,9
TUMBARLA,115,4
SC Ghdakhunta,129,9
SC M-Keragam,77,2
SC Deulkana,161,8
SC Tilandi,79,6
SC Sindhiguda,174,8
DABUGAM,138,2
JAGANNATHPUR,60,2
Dumurimunda,139,3
ICHHAPUR,176,8
Hatigam,164,2
SC Chacharaguda,95,3
SC Nandapura,96,3
Khuduk,105,3
SC Chotaguda,132,1
SC Padargam,155,2
SC Sunabeda,179,6
PUJARIGUDA,104,10
SC Jaliaguda,56,4
SC Pujariguda,145,7
DEULA,148,7
SC Demadhei,170,6
Kachapara- II,97,7
SC Badakuna,56,8
Odngai,102,6
SC Attigam,177,10
SC Belanga,63,4
JAMBAGUA,65,9
SC Bijapur,108,4
SC Manigan,132,3
SC Kamata,154,3
SC Sukigam,192,2
SC Kenduguda,161,10
SC Dangarbhuja,118,5
NANDAHANDI,168,6
SC Katagam,105,1
Bobei,155,7
KESARIGUDA,56,9
SC Betajharana,171,8
SC Koilari,179,7
SC Manchagaon,111,6
SC Sana-amada,173,6
SC Kantagaon,51,6
Kurabela,119,6
SINGSARI,139,5
SC Sankarada,180,8
Gona PHC(N),110,1
SC Benora,176,10
Turudi,199,6
SC Digi,120,7
SC Nuhura,92,5
SC Tailaguda,126,3
SC Aenli,140,4
SC Sarviguda,173,6
SC Bada-bharandi,105,5
SC Jamurunda,133,6
SC Gobgri,190,4
SC Dabugam,136,2
SC Ekamba-A,126,7
SC Bhandimal,86,6
SC Chirma,165,10
SC Rajoda,187,3
SC Chatiguda,179,3
SC Badakumari,60,8
SC Pujaribharandi,138,5
SC Jhadasemla,71,9
SC Bakadabeda,194,7
SC Khutuguda,199,3
SC Kesherabeda,81,1
SC Nuakote,98,10
SC Dalabeda,139,7
MAHULPADAR,142,8
Timanpur,188,8
SC Kusumi,121,2
CHATAHANDI,176,3
SC Kusumbandh,63,3
MAIDALPUR,70,8
SC Kalagam,84,6
BADABHARANDI,125,4
SC Rajpur,170,6
BORIGAAM,67,1
SANAMASIGAM,94,7
BADAMOSIGAM,86,3
SC Umergaon,177,4
SC Baidapara,182,4
SC Jamadarapara,132,5
SC Deopalli,107,8
SC Bhulukanadi,52,9
SC Ghatguda,182,4
AMBADOLLA,199,9
SC Pharsaguda,182,3
SC Bhikhya,98,6
SC Patakhalia,69,7
JHARIGAM,119,5
PAPADAHANDI,191,6
Umarkote Govt Hospital,60,2
SC Palia,104,2
Dhanara,99,1
Jodinga PHC(N),69,6
SC Majhidhanua,152,8
DALABEDA,179,1
SC Siriliuda,156,4
SC Nishnahandi,67,9
SC Nandahandi,142,2
SC Neigaon,167,8
Naktisimoda,112,8
SC Bhandariguda,73,7
SC Mirimunda,193,6
SC Rangamatiguda,111,10
BHATIGAM,86,4
SC Hirli,146,10
SANAGUMUDA,119,5
SC Dengaguda,137,9
SC Bada-Olma,143,5
Paurbela,128,10
SC Bajragada,72,1
SC Dhanpur,76,9
SC Chitabeda,165,5
CHANDAHANDI,119,9
SC Chkali,127,8
MAHENDRAI,118,1
SC Chandrapur,134,6
SC Cghhananbeda,109,9
SC B-Maliguda,180,5
Chhatabeda,130,2
SC Ponar,193,2
SC Motigam,83,2
Biripur,86,7
Baragaon,90,7
SC Jagannathpur,147,9
SC Mirganiguda,144,7
SC Bodni,150,6
UMARKOTE,93,2
Haldi,195,9
SC Banuaguda,84,6
SC Telnadigam,97,1
SC Jabaguda,80,2
SC Santoshpur,124,8
SC Bada-amada,154,8
SC Bania,179,6
SC K.Simla,107,2
Nuapara,159,6
Hatabharandi,112,1
SC Burja,98,4
SC Majhiguda,131,8
SC Hirapur,150,9
Baghbeda,148,5
SC Phalsapara,149,2
SC Churchunda,140,2
PUJARIGUDA,181,8
SC Tumbarla,168,10
SC Saruguda,136,9
SC Chillabeda,98,7
SC Murtuma,166,6
Kumuli,119,4
SC Phupugam,192,8
SC Dangriguda,91,2
SC Gambhariguda,111,10
SC Kursi,132,4
SC Kangra,178,3
Mundibeda,170,2
SC Jiraguda,126,1
SC Jhadabandhguda,58,9
SC Mundapadar,100,3
SC Mohuli,183,6
SC Ichhapur,148,2
SC Tentulikhunti,197,4
Dumrimunda PHC(N),61,2
SC Mentry,126,5
SC Santemra,116,6
SC Purla,105,3
Simoda,117,6
SC Halidhi,155,1
Kebikonga,81,3
PHUPUGHON,171,3
SC Maidalpur,63,9
Sonepur,133,9
BEHERAMUNDA,148,2
Jalangpara,188,2
SC Hatibadi,94,5
Jhatirpara,157,3
SC Bhamini,181,6
SC Chandahandi,181,6
SC Jharigumma,88,1
EKAMBA,117,5
SC Ekamba-B,129,4
PATRAPUT,118,4
SC Bamini,112,2
SC Koilimunda,167,8
SC Ghadadhanua,162,4
DHODRA,176,9
Bingsari. Taragam Dnk,152,7
URDI,109,4
SC Bakada,184,10
SC Singisari,178,9
SC Majhiguda,112,7
SUNABEDA,172,4
Mahubhata,86,6
SC Sirshi,138,2
ASANGA,120,6
SC Kukudabai,100,5
Deubharandi,77,1
Kp- I,110,3
SC Asngha,121,7
SC Jatabal,54,9
Chhelidangri,197,3
SANMOSIGAM,96,9
SC Jamuguda,190,10
SC Papadahandi,106,4
Koskanga,177,2
SC Patri,51,7
MALLIGUDA,134,2
Gona,186,4
Bharasundi,113,10
SC Naktiguda,131,2
SC Baragam,184,1
